%!PS-Adobe-3.0 EPSF-3.0
%%Creator: cairo 1.14.2 (http://cairographics.org)
%%CreationDate: Thu Jul 26 08:14:03 2018
%%Pages: 1
%%DocumentData: Clean7Bit
%%LanguageLevel: 2
%%BoundingBox: 0 -1 410 410
%%EndComments
%%BeginProlog
save
50 dict begin
/q { gsave } bind def
/Q { grestore } bind def
/cm { 6 array astore concat } bind def
/w { setlinewidth } bind def
/J { setlinecap } bind def
/j { setlinejoin } bind def
/M { setmiterlimit } bind def
/d { setdash } bind def
/m { moveto } bind def
/l { lineto } bind def
/c { curveto } bind def
/h { closepath } bind def
/re { exch dup neg 3 1 roll 5 3 roll moveto 0 rlineto
      0 exch rlineto 0 rlineto closepath } bind def
/S { stroke } bind def
/f { fill } bind def
/f* { eofill } bind def
/n { newpath } bind def
/W { clip } bind def
/W* { eoclip } bind def
/BT { } bind def
/ET { } bind def
/pdfmark where { pop globaldict /?pdfmark /exec load put }
    { globaldict begin /?pdfmark /pop load def /pdfmark
    /cleartomark load def end } ifelse
/BDC { mark 3 1 roll /BDC pdfmark } bind def
/EMC { mark /EMC pdfmark } bind def
/cairo_store_point { /cairo_point_y exch def /cairo_point_x exch def } def
/Tj { show currentpoint cairo_store_point } bind def
/TJ {
  {
    dup
    type /stringtype eq
    { show } { -0.001 mul 0 cairo_font_matrix dtransform rmoveto } ifelse
  } forall
  currentpoint cairo_store_point
} bind def
/cairo_selectfont { cairo_font_matrix aload pop pop pop 0 0 6 array astore
    cairo_font exch selectfont cairo_point_x cairo_point_y moveto } bind def
/Tf { pop /cairo_font exch def /cairo_font_matrix where
      { pop cairo_selectfont } if } bind def
/Td { matrix translate cairo_font_matrix matrix concatmatrix dup
      /cairo_font_matrix exch def dup 4 get exch 5 get cairo_store_point
      /cairo_font where { pop cairo_selectfont } if } bind def
/Tm { 2 copy 8 2 roll 6 array astore /cairo_font_matrix exch def
      cairo_store_point /cairo_font where { pop cairo_selectfont } if } bind def
/g { setgray } bind def
/rg { setrgbcolor } bind def
/d1 { setcachedevice } bind def
%%EndProlog
%%BeginSetup
%%EndSetup
%%Page: 1 1
%%BeginPageSetup
%%PageBoundingBox: 0 -1 410 410
%%EndPageSetup
q 0 -1 410 411 rectclip q
0 g
44.059 291.287 m 42.57 292.771 40.504 293.63 38.402 293.63 c 36.297 293.63
 34.234 292.775 32.746 291.287 c 31.25 289.798 30.402 287.732 30.402 285.63
 c 30.402 283.517 31.25 281.462 32.746 279.974 c 34.234 278.486 36.297 277.63
 38.402 277.63 c 40.504 277.63 42.562 278.486 44.059 279.974 c 45.543 281.462
 46.402 283.517 46.402 285.63 c 46.402 287.732 45.547 289.798 44.059 291.287
 c h
44.059 291.287 m f
408.574 162.443 m 363.395 242.869 l 366.348 250.009 367.992 257.83 367.992
 266.029 c 367.992 296.841 344.945 322.353 315.191 326.287 c 315.191 358.396
 l 315.191 386.627 292.227 409.595 263.992 409.595 c 51.199 409.595 l 22.969
 409.595 0 386.627 0 358.396 c 0 353.978 3.582 350.396 8 350.396 c 30.398
 350.396 l 30.398 322.396 l 30.398 317.978 33.98 314.396 38.398 314.396 
c 42.816 314.396 46.398 317.978 46.398 322.396 c 46.398 350.396 l 220.797
 350.396 l 225.211 350.396 228.797 353.978 228.797 358.396 c 228.797 377.806
 244.586 393.595 263.996 393.595 c 283.402 393.595 299.195 377.806 299.195
 358.396 c 299.195 326.287 l 269.438 322.353 246.395 296.841 246.395 266.029
 c 246.395 257.314 248.254 249.025 251.57 241.525 c 205.961 162.525 l 204.336
 159.709 204.578 156.185 206.574 153.615 c 208.574 151.045 211.926 149.939
 215.059 150.826 c 245.098 159.295 l 252.785 129.045 l 253.586 125.9 256.203
 123.548 259.418 123.095 c 259.793 123.041 260.168 123.017 260.539 123.017
 c 263.352 123.017 265.992 124.502 267.441 126.974 c 299.195 181.216 l 299.195
 51.205 l 299.195 37.576 304.555 25.189 313.266 16.005 c 81.598 16.005 l
 62.191 16.005 46.398 31.795 46.398 51.205 c 46.398 251.998 l 46.398 256.416
 42.816 259.998 38.398 259.998 c 33.98 259.998 30.398 256.416 30.398 251.998
 c 30.398 51.205 l 30.398 22.97 53.367 0.005 81.598 0.005 c 350.391 0.005
 l 378.625 0.005 401.59 22.97 401.59 51.205 c 401.59 55.623 398.008 59.205
 393.59 59.205 c 315.191 59.205 l 315.191 182.15 l 347.023 127.017 l 348.469
 124.517 351.121 123.013 353.949 123.017 c 354.312 123.017 354.68 123.041
 355.047 123.091 c 358.273 123.537 360.906 125.892 361.707 129.045 c 369.391
 159.295 l 399.43 150.826 l 402.547 149.947 405.887 151.033 407.887 153.576
 c 409.887 156.123 410.16 159.623 408.574 162.443 c h
213.426 366.396 m 16.918 366.396 l 20.547 381.966 34.539 393.595 51.199
 393.595 c 226.867 393.595 l 219.895 386.248 215.07 376.845 213.426 366.396
 c h
384.676 43.205 m 381.043 27.634 367.051 16.005 350.391 16.005 c 333.734
 16.005 319.742 27.634 316.109 43.205 c h
263.488 151.892 m 258.582 171.189 l 258.051 173.283 256.695 175.068 254.828
 176.146 c 252.961 177.228 250.734 177.505 248.656 176.92 c 229.652 171.564
 l 261.246 226.283 l 269.945 216.24 281.863 209.064 295.391 206.392 c h
307.191 221.232 m 282.492 221.232 262.395 241.326 262.395 266.029 c 262.395
 290.732 282.488 310.83 307.191 310.83 c 331.895 310.83 351.992 290.732 
351.992 266.029 c 351.992 241.326 331.895 221.232 307.191 221.232 c h
365.832 176.92 m 363.754 177.505 361.527 177.228 359.66 176.146 c 357.793
 175.068 356.438 173.283 355.906 171.189 c 351.043 152.052 l 319.605 206.509
 l 333.262 209.353 345.25 216.795 353.879 227.134 c 385.152 171.474 l h
365.832 176.92 m f
157.398 191.201 m 87.996 191.201 l 83.578 191.201 79.996 187.619 79.996
 183.201 c 79.996 178.783 83.578 175.201 87.996 175.201 c 157.398 175.201
 l 161.816 175.201 165.398 178.783 165.398 183.201 c 165.398 187.619 161.816
 191.201 157.398 191.201 c h
157.398 191.201 m f
157.398 151.998 m 87.996 151.998 l 83.578 151.998 79.996 148.412 79.996
 143.998 c 79.996 139.58 83.578 135.998 87.996 135.998 c 157.398 135.998
 l 161.816 135.998 165.398 139.58 165.398 143.998 c 165.398 148.412 161.816
 151.998 157.398 151.998 c h
157.398 151.998 m f
129.082 316.31 m 87.996 316.31 l 83.578 316.31 79.996 312.728 79.996 308.31
 c 79.996 303.892 83.578 300.31 87.996 300.31 c 129.082 300.31 l 133.5 300.31
 137.082 303.892 137.082 308.31 c 137.082 312.728 133.5 316.31 129.082 316.31
 c h
129.082 316.31 m f
204.898 234.4 m 87.996 234.4 l 83.578 234.4 79.996 230.818 79.996 226.4
 c 79.996 221.982 83.578 218.4 87.996 218.4 c 204.898 218.4 l 209.316 218.4
 212.898 221.982 212.898 226.4 c 212.898 230.818 209.316 234.4 204.898 234.4
 c h
204.898 234.4 m f
250.93 82.935 m 212.891 82.935 l 208.473 82.935 204.891 79.353 204.891 
74.935 c 204.891 70.517 208.473 66.935 212.891 66.935 c 250.93 66.935 l 
255.348 66.935 258.93 70.517 258.93 74.935 c 258.93 79.353 255.348 82.935
 250.93 82.935 c h
250.93 82.935 m f
174.148 82.935 m 174.023 82.935 l 169.605 82.935 166.023 79.353 166.023
 74.935 c 166.023 70.517 169.605 66.935 174.023 66.935 c 174.148 66.935 
l 178.566 66.935 182.148 70.517 182.148 74.935 c 182.148 79.353 178.566 
82.935 174.148 82.935 c h
174.148 82.935 m f
Q Q
showpage
%%Trailer
end restore
%%EOF
