%!PS-Adobe-3.0 EPSF-3.0
%%Creator: cairo 1.14.2 (http://cairographics.org)
%%CreationDate: Thu Jul 26 08:14:03 2018
%%Pages: 1
%%DocumentData: Clean7Bit
%%LanguageLevel: 2
%%BoundingBox: 37 -1 373 410
%%EndComments
%%BeginProlog
save
50 dict begin
/q { gsave } bind def
/Q { grestore } bind def
/cm { 6 array astore concat } bind def
/w { setlinewidth } bind def
/J { setlinecap } bind def
/j { setlinejoin } bind def
/M { setmiterlimit } bind def
/d { setdash } bind def
/m { moveto } bind def
/l { lineto } bind def
/c { curveto } bind def
/h { closepath } bind def
/re { exch dup neg 3 1 roll 5 3 roll moveto 0 rlineto
      0 exch rlineto 0 rlineto closepath } bind def
/S { stroke } bind def
/f { fill } bind def
/f* { eofill } bind def
/n { newpath } bind def
/W { clip } bind def
/W* { eoclip } bind def
/BT { } bind def
/ET { } bind def
/pdfmark where { pop globaldict /?pdfmark /exec load put }
    { globaldict begin /?pdfmark /pop load def /pdfmark
    /cleartomark load def end } ifelse
/BDC { mark 3 1 roll /BDC pdfmark } bind def
/EMC { mark /EMC pdfmark } bind def
/cairo_store_point { /cairo_point_y exch def /cairo_point_x exch def } def
/Tj { show currentpoint cairo_store_point } bind def
/TJ {
  {
    dup
    type /stringtype eq
    { show } { -0.001 mul 0 cairo_font_matrix dtransform rmoveto } ifelse
  } forall
  currentpoint cairo_store_point
} bind def
/cairo_selectfont { cairo_font_matrix aload pop pop pop 0 0 6 array astore
    cairo_font exch selectfont cairo_point_x cairo_point_y moveto } bind def
/Tf { pop /cairo_font exch def /cairo_font_matrix where
      { pop cairo_selectfont } if } bind def
/Td { matrix translate cairo_font_matrix matrix concatmatrix dup
      /cairo_font_matrix exch def dup 4 get exch 5 get cairo_store_point
      /cairo_font where { pop cairo_selectfont } if } bind def
/Tm { 2 copy 8 2 roll 6 array astore /cairo_font_matrix exch def
      cairo_store_point /cairo_font where { pop cairo_selectfont } if } bind def
/g { setgray } bind def
/rg { setrgbcolor } bind def
/d1 { setcachedevice } bind def
%%EndProlog
%%BeginSetup
%%EndSetup
%%Page: 1 1
%%BeginPageSetup
%%PageBoundingBox: 37 -1 373 410
%%EndPageSetup
q 37 -1 336 411 rectclip q
0 g
51.25 62.552 m 49.758 64.045 47.691 64.9 45.582 64.9 c 43.473 64.9 41.406
 64.045 39.906 62.552 c 38.414 61.06 37.566 58.994 37.566 56.884 c 37.566
 54.775 38.414 52.709 39.906 51.216 c 41.406 49.724 43.473 48.869 45.582
 48.869 c 47.691 48.869 49.758 49.724 51.25 51.216 c 52.738 52.709 53.598
 54.775 53.598 56.884 c 53.598 58.994 52.742 61.06 51.25 62.552 c h
51.25 62.552 m f
256.828 216.091 m 253.023 216.091 l 272.121 230.357 284.723 252.861 285.512
 278.291 c 287.301 278.47 289.07 278.748 290.793 279.134 c 302.145 281.689
 311.82 288.509 318.043 298.341 c 324.266 308.173 326.281 319.837 323.73
 331.189 c 321.754 339.982 317.145 347.853 310.555 353.841 c 311.512 359.162
 311.297 364.201 309.906 368.873 c 306.859 379.115 300.512 386.873 291.547
 391.306 c 279.16 397.435 264.656 395.783 255.215 392.193 c 255.129 392.158
 255.047 392.119 254.961 392.08 c 241.172 403.041 223.738 409.599 204.797
 409.599 c 185.863 409.599 168.434 403.048 154.648 392.099 c 154.574 392.127
 154.504 392.166 154.43 392.193 c 144.988 395.783 130.484 397.435 118.094
 391.306 c 109.129 386.873 102.781 379.115 99.738 368.873 c 98.348 364.201
 98.133 359.162 99.086 353.841 c 92.496 347.857 87.891 339.982 85.914 331.189
 c 83.359 319.837 85.379 308.173 91.602 298.341 c 97.82 288.509 107.5 281.689
 118.848 279.138 c 120.555 278.752 122.309 278.474 124.078 278.298 c 124.867
 252.869 137.469 230.361 156.57 216.095 c 152.773 216.095 l 89.246 216.095
 37.562 164.412 37.562 100.884 c 37.562 88.951 l 37.562 84.525 41.152 80.935
 45.578 80.935 c 50.004 80.935 53.598 84.525 53.598 88.951 c 53.598 100.884
 l 53.598 132.291 68.273 160.33 91.125 178.513 c 125.902 143.736 l 116.816
 132.509 l 114.785 130.002 114.457 126.521 115.98 123.673 c 173.719 16.033
 l 102.203 16.033 l 102.203 79.9 l 102.203 84.326 98.613 87.916 94.188 87.916
 c 89.762 87.916 86.172 84.326 86.172 79.9 c 86.172 16.033 l 53.594 16.033
 l 53.594 23.216 l 53.594 27.642 50.004 31.232 45.578 31.232 c 41.152 31.232
 37.562 27.642 37.562 23.216 c 37.562 8.017 l 37.562 3.591 41.152 0.002 
45.578 0.002 c 364.02 0.002 l 368.449 0.002 372.039 3.591 372.039 8.017 
c 372.039 100.884 l 372.039 164.408 320.355 216.091 256.828 216.091 c h
284.441 376.935 m 289.375 374.494 292.773 370.244 294.539 364.302 c 295.465
 361.185 295.254 357.455 293.906 353.212 c 292.848 349.865 294.086 346.216
 296.969 344.209 c 302.625 340.271 306.574 334.4 308.09 327.67 c 309.703
 320.498 308.426 313.127 304.496 306.912 c 300.566 300.701 294.449 296.392
 287.277 294.779 c 286.715 294.65 286.137 294.548 285.559 294.459 c 285.559
 328.834 l 285.559 347.779 279 365.22 268.035 379.005 c 273.262 379.767 
279.285 379.486 284.441 376.935 c h
204.797 393.564 m 240.488 393.564 269.527 364.529 269.527 328.837 c 269.527
 316.291 l 266.723 329.959 254.602 340.271 240.117 340.271 c 226.824 340.271
 l 218.137 340.271 210.309 336.56 204.824 330.646 c 199.336 336.564 191.504
 340.271 182.824 340.271 c 169.527 340.271 l 154.938 340.271 142.754 329.81
 140.066 315.994 c 140.066 328.837 l 140.066 364.529 169.102 393.564 204.797
 393.564 c h
254.102 310.255 m 254.102 307.357 l 254.102 299.646 247.828 293.377 240.117
 293.377 c 226.824 293.377 l 219.113 293.377 212.84 299.646 212.84 307.357
 c 212.84 310.255 l 212.84 317.966 219.113 324.24 226.824 324.24 c 240.117
 324.24 l 247.828 324.24 254.102 317.966 254.102 310.255 c h
196.805 310.255 m 196.805 307.357 l 196.805 299.646 190.531 293.377 182.82
 293.377 c 169.527 293.377 l 161.816 293.377 155.543 299.646 155.543 307.357
 c 155.543 310.255 l 155.543 317.966 161.816 324.24 169.527 324.24 c 182.82
 324.24 l 190.531 324.24 196.805 317.966 196.805 310.255 c h
124.031 328.837 m 124.031 294.466 l 123.473 294.556 122.914 294.654 122.367
 294.779 c 115.195 296.392 109.082 300.701 105.148 306.916 c 101.219 313.127
 99.941 320.498 101.555 327.67 c 103.07 334.396 107.02 340.271 112.676 344.209
 c 115.559 346.216 116.801 349.865 115.738 353.212 c 114.391 357.455 114.18
 361.189 115.105 364.306 c 116.871 370.244 120.27 374.494 125.203 376.935
 c 130.344 379.478 136.344 379.763 141.559 379.013 c 130.594 365.224 124.031
 347.783 124.031 328.837 c h
140.066 280.837 m 140.066 301.623 l 142.754 287.806 154.938 277.341 169.527
 277.341 c 182.82 277.341 l 191.504 277.341 199.336 281.052 204.82 286.966
 c 210.305 281.052 218.137 277.341 226.82 277.341 c 240.117 277.341 l 254.602
 277.341 266.723 287.654 269.523 301.322 c 269.523 280.837 l 269.523 245.146
 240.488 216.107 204.793 216.107 c 169.102 216.107 140.066 245.146 140.066
 280.837 c h
196.781 16.033 m 191.914 16.033 l 132.629 126.56 l 142.906 139.255 l 145.488
 142.443 145.242 147.068 142.344 149.97 c 104.703 187.607 l 114.926 193.298
 126.254 197.232 138.277 199.002 c 196.781 77.587 l h
155.566 200.06 m 254.086 200.06 l 204.824 97.834 l h
212.816 16.033 m 212.816 77.478 l 271.367 198.99 l 283.387 197.216 294.711
 193.279 304.93 187.587 c 267.309 149.966 l 264.406 147.068 264.164 142.443
 266.746 139.255 c 277.023 126.56 l 217.738 16.033 l h
356.004 16.033 m 323.48 16.033 l 323.48 64.9 l 323.48 69.33 319.891 72.92
 315.465 72.92 c 311.039 72.92 307.449 69.33 307.449 64.9 c 307.449 16.033
 l 235.934 16.033 l 293.672 123.673 l 295.195 126.517 294.867 129.998 292.836
 132.509 c 283.75 143.732 l 318.504 178.49 l 341.34 160.302 356.004 132.275
 356.004 100.884 c h
356.004 16.033 m f
183.598 250.712 m 183.539 250.748 183.293 250.888 182.742 251.197 c 182.102
 251.56 181.77 251.748 181.637 251.826 c 181.977 251.63 183.434 250.81 183.598
 250.712 c h
183.598 250.712 m f
229.883 262.123 m 227.703 265.978 222.812 267.334 218.961 265.158 c 217.734
 264.462 216.312 264.287 214.953 264.67 c 213.598 265.045 212.469 265.927
 211.773 267.154 c 208.766 272.466 200.812 272.486 197.816 267.154 c 197.125
 265.927 195.996 265.045 194.637 264.67 c 193.277 264.291 191.855 264.466
 190.633 265.158 c 186.777 267.337 181.887 265.978 179.707 262.123 c 177.531
 258.267 178.891 253.377 182.742 251.201 c 185.988 249.365 189.57 248.431
 193.195 248.431 c 195.109 248.431 197.035 248.693 198.93 249.22 c 201.039
 249.806 203.008 250.697 204.797 251.849 c 206.586 250.697 208.555 249.806
 210.664 249.22 c 212.559 248.693 214.484 248.431 216.398 248.431 c 220.023
 248.431 223.605 249.365 226.848 251.201 c 230.703 253.377 232.062 258.267
 229.883 262.123 c h
229.883 262.123 m f
183.598 250.712 m 183.617 250.705 183.617 250.705 183.598 250.712 c h
183.598 250.712 m f
181.637 251.826 m 181.547 251.873 181.535 251.88 181.637 251.826 c h
181.637 251.826 m f
219.93 363.712 m 189.66 363.712 l 185.234 363.712 181.645 360.123 181.645
 355.693 c 181.645 351.267 185.234 347.677 189.66 347.677 c 219.93 347.677
 l 224.355 347.677 227.945 351.267 227.945 355.693 c 227.949 360.123 224.359
 363.712 219.93 363.712 c h
219.93 363.712 m f
321.129 103.47 m 319.637 104.959 317.578 105.818 315.461 105.818 c 313.355
 105.818 311.285 104.962 309.793 103.47 c 308.301 101.978 307.445 99.92 
307.445 97.802 c 307.445 95.693 308.301 93.627 309.793 92.134 c 311.285 
90.642 313.352 89.787 315.461 89.787 c 317.578 89.787 319.637 90.642 321.129
 92.134 c 322.629 93.627 323.477 95.693 323.477 97.802 c 323.477 99.912 
322.629 101.978 321.129 103.47 c h
321.129 103.47 m f
Q Q
showpage
%%Trailer
end restore
%%EOF
