%!PS-Adobe-3.0 EPSF-3.0
%%Creator: cairo 1.14.2 (http://cairographics.org)
%%CreationDate: Thu Jul 26 08:14:03 2018
%%Pages: 1
%%DocumentData: Clean7Bit
%%LanguageLevel: 2
%%BoundingBox: 0 20 410 389
%%EndComments
%%BeginProlog
save
50 dict begin
/q { gsave } bind def
/Q { grestore } bind def
/cm { 6 array astore concat } bind def
/w { setlinewidth } bind def
/J { setlinecap } bind def
/j { setlinejoin } bind def
/M { setmiterlimit } bind def
/d { setdash } bind def
/m { moveto } bind def
/l { lineto } bind def
/c { curveto } bind def
/h { closepath } bind def
/re { exch dup neg 3 1 roll 5 3 roll moveto 0 rlineto
      0 exch rlineto 0 rlineto closepath } bind def
/S { stroke } bind def
/f { fill } bind def
/f* { eofill } bind def
/n { newpath } bind def
/W { clip } bind def
/W* { eoclip } bind def
/BT { } bind def
/ET { } bind def
/pdfmark where { pop globaldict /?pdfmark /exec load put }
    { globaldict begin /?pdfmark /pop load def /pdfmark
    /cleartomark load def end } ifelse
/BDC { mark 3 1 roll /BDC pdfmark } bind def
/EMC { mark /EMC pdfmark } bind def
/cairo_store_point { /cairo_point_y exch def /cairo_point_x exch def } def
/Tj { show currentpoint cairo_store_point } bind def
/TJ {
  {
    dup
    type /stringtype eq
    { show } { -0.001 mul 0 cairo_font_matrix dtransform rmoveto } ifelse
  } forall
  currentpoint cairo_store_point
} bind def
/cairo_selectfont { cairo_font_matrix aload pop pop pop 0 0 6 array astore
    cairo_font exch selectfont cairo_point_x cairo_point_y moveto } bind def
/Tf { pop /cairo_font exch def /cairo_font_matrix where
      { pop cairo_selectfont } if } bind def
/Td { matrix translate cairo_font_matrix matrix concatmatrix dup
      /cairo_font_matrix exch def dup 4 get exch 5 get cairo_store_point
      /cairo_font where { pop cairo_selectfont } if } bind def
/Tm { 2 copy 8 2 roll 6 array astore /cairo_font_matrix exch def
      cairo_store_point /cairo_font where { pop cairo_selectfont } if } bind def
/g { setgray } bind def
/rg { setrgbcolor } bind def
/d1 { setcachedevice } bind def
%%EndProlog
%%BeginSetup
%%EndSetup
%%Page: 1 1
%%BeginPageSetup
%%PageBoundingBox: 0 20 410 389
%%EndPageSetup
q 0 20 410 369 rectclip q
0 g
186.922 298.245 m 208.297 304.873 222.656 324.362 222.656 346.741 c 222.656
 369.788 203.902 388.538 180.855 388.538 c 157.805 388.538 139.055 369.788
 139.055 346.741 c 139.055 300.198 l 121.523 294.76 l 98.512 287.623 78.793
 273.596 64.504 254.198 c 50.211 234.803 42.656 211.815 42.656 187.721 c
 42.656 143.12 78.941 106.83 123.547 106.83 c 128.848 106.83 134.031 107.346
 139.051 108.323 c 139.051 56.03 l 139.051 45.596 130.562 37.108 120.129
 37.108 c 109.695 37.108 101.207 45.596 101.207 56.03 c 101.207 70.073 l
 101.207 74.502 97.613 78.096 93.184 78.096 c 88.754 78.096 85.16 74.502
 85.16 70.073 c 85.16 56.03 l 85.16 36.748 100.848 21.061 120.133 21.061
 c 139.414 21.061 155.102 36.748 155.102 56.03 c 155.102 113.241 l 184.07
 125.561 204.438 154.307 204.438 187.721 c 204.438 214.748 182.453 236.733
 155.43 236.733 c 155.102 236.733 l 155.102 288.373 l h
180.855 372.491 m 195.055 372.491 206.605 360.94 206.605 346.737 c 206.605
 331.436 196.785 318.104 182.168 313.569 c 155.102 305.174 l 155.102 346.737
 l 155.102 360.94 166.652 372.491 180.855 372.491 c h
139.055 235.139 m 115.969 229.338 98.824 208.409 98.824 183.549 c 98.824
 170.752 109.234 160.342 122.027 160.342 c 126.461 160.342 130.051 163.936
 130.051 168.366 c 130.051 172.799 126.461 176.389 122.027 176.389 c 118.082
 176.389 114.871 179.6 114.871 183.545 c 114.871 199.471 124.945 213.084
 139.055 218.354 c 139.055 124.752 l 134.086 123.53 128.891 122.877 123.547
 122.877 c 87.793 122.877 58.707 151.967 58.707 187.721 c 58.707 230.038
 85.863 266.893 126.277 279.432 c 139.055 283.397 l h
155.426 220.686 m 173.602 220.686 188.391 205.897 188.391 187.721 c 188.391
 163.413 174.945 142.186 155.102 131.088 c 155.102 220.686 l h
155.426 220.686 m f
58.305 80.436 m 8.023 80.436 l 3.594 80.436 0 76.842 0 72.413 c 0 67.983
 3.594 64.389 8.023 64.389 c 58.305 64.389 l 62.734 64.389 66.328 67.983
 66.328 72.413 c 66.328 76.842 62.734 80.436 58.305 80.436 c h
58.305 80.436 m f
36.371 131.788 m 8.023 131.788 l 3.594 131.788 0 128.194 0 123.764 c 0 
119.334 3.594 115.741 8.023 115.741 c 36.371 115.741 l 40.805 115.741 44.395
 119.334 44.395 123.764 c 44.395 128.194 40.805 131.788 36.371 131.788 c
 h
36.371 131.788 m f
22.199 183.135 m 8.023 183.135 l 3.594 183.135 0 179.545 0 175.112 c 0 
170.682 3.594 167.092 8.023 167.092 c 22.199 167.092 l 26.629 167.092 30.223
 170.682 30.223 175.112 c 30.223 179.545 26.629 183.135 22.199 183.135 c
 h
22.199 183.135 m f
22.199 234.487 m 8.023 234.487 l 3.594 234.487 0 230.893 0 226.463 c 0 
222.034 3.594 218.44 8.023 218.44 c 22.199 218.44 l 26.629 218.44 30.223
 222.034 30.223 226.463 c 30.223 230.893 26.629 234.487 22.199 234.487 c
 h
22.199 234.487 m f
50.547 285.838 m 8.023 285.838 l 3.594 285.838 0 282.245 0 277.815 c 0 
273.385 3.594 269.791 8.023 269.791 c 50.547 269.791 l 54.977 269.791 58.57
 273.385 58.57 277.815 c 58.57 282.245 54.977 285.838 50.547 285.838 c h
50.547 285.838 m f
64.723 337.19 m 8.023 337.19 l 3.594 337.19 0 333.596 0 329.166 c 0 324.733
 3.594 321.143 8.023 321.143 c 64.723 321.143 l 69.152 321.143 72.746 324.733
 72.746 329.166 c 72.746 333.596 69.152 337.19 64.723 337.19 c h
64.723 337.19 m f
64.723 388.538 m 8.023 388.538 l 3.594 388.538 0 384.944 0 380.514 c 0 
376.084 3.594 372.491 8.023 372.491 c 64.723 372.491 l 69.152 372.491 72.746
 376.084 72.746 380.514 c 72.746 384.944 69.152 388.538 64.723 388.538 c
 h
64.723 388.538 m f
401.578 80.436 m 214.629 80.436 l 210.199 80.436 206.605 76.842 206.605
 72.413 c 206.605 67.983 210.199 64.389 214.629 64.389 c 401.578 64.389 
l 406.008 64.389 409.602 67.983 409.602 72.413 c 409.602 76.842 406.008 
80.436 401.578 80.436 c h
401.578 80.436 m f
187.805 78.084 m 186.312 79.577 184.242 80.436 182.133 80.436 c 180.023
 80.436 177.953 79.577 176.461 78.084 c 174.969 76.592 174.109 74.522 174.109
 72.413 c 174.109 70.303 174.969 68.233 176.461 66.741 c 177.953 65.248 
180.023 64.389 182.133 64.389 c 184.242 64.389 186.312 65.245 187.805 66.741
 c 189.297 68.233 190.156 70.303 190.156 72.413 c 190.156 74.522 189.297
 76.592 187.805 78.084 c h
187.805 78.084 m f
401.578 131.788 m 238.359 131.788 l 233.93 131.788 230.336 128.194 230.336
 123.764 c 230.336 119.334 233.93 115.741 238.359 115.741 c 401.578 115.741
 l 406.008 115.741 409.602 119.334 409.602 123.764 c 409.602 128.194 406.008
 131.788 401.578 131.788 c h
401.578 131.788 m f
401.578 183.135 m 238.359 183.135 l 233.93 183.135 230.336 179.545 230.336
 175.112 c 230.336 170.682 233.93 167.092 238.359 167.092 c 401.578 167.092
 l 406.008 167.092 409.602 170.682 409.602 175.112 c 409.602 179.545 406.008
 183.135 401.578 183.135 c h
401.578 183.135 m f
401.578 234.487 m 238.359 234.487 l 233.93 234.487 230.336 230.893 230.336
 226.463 c 230.336 222.034 233.93 218.44 238.359 218.44 c 401.578 218.44
 l 406.008 218.44 409.602 222.034 409.602 226.463 c 409.602 230.893 406.008
 234.487 401.578 234.487 c h
401.578 234.487 m f
401.578 285.838 m 204.664 285.838 l 200.23 285.838 196.641 282.245 196.641
 277.815 c 196.641 273.385 200.23 269.791 204.664 269.791 c 401.578 269.791
 l 406.008 269.791 409.602 273.385 409.602 277.815 c 409.602 282.245 406.008
 285.838 401.578 285.838 c h
401.578 285.838 m f
401.578 337.19 m 280.824 337.19 l 276.391 337.19 272.801 333.596 272.801
 329.166 c 272.801 324.733 276.391 321.143 280.824 321.143 c 401.574 321.143
 l 406.008 321.143 409.598 324.733 409.598 329.166 c 409.598 333.596 406.008
 337.19 401.578 337.19 c h
401.578 337.19 m f
252.797 334.838 m 251.305 336.33 249.234 337.19 247.125 337.19 c 245.012
 337.19 242.945 336.33 241.453 334.838 c 239.957 333.342 239.102 331.276
 239.102 329.166 c 239.102 327.053 239.957 324.987 241.453 323.495 c 242.941
 321.998 245.012 321.139 247.125 321.139 c 249.234 321.139 251.305 321.998
 252.797 323.495 c 254.289 324.983 255.148 327.053 255.148 329.166 c 255.148
 331.276 254.289 333.346 252.797 334.838 c h
252.797 334.838 m f
401.578 388.538 m 256.41 388.538 l 251.98 388.538 248.387 384.944 248.387
 380.514 c 248.387 376.084 251.98 372.491 256.41 372.491 c 401.578 372.491
 l 406.008 372.491 409.602 376.084 409.602 380.514 c 409.602 384.944 406.008
 388.538 401.578 388.538 c h
401.578 388.538 m f
Q Q
showpage
%%Trailer
end restore
%%EOF
