%!PS-Adobe-3.0 EPSF-3.0
%%Creator: cairo 1.14.2 (http://cairographics.org)
%%CreationDate: Thu Jul 26 08:14:03 2018
%%Pages: 1
%%DocumentData: Clean7Bit
%%LanguageLevel: 2
%%BoundingBox: 37 -1 372 410
%%EndComments
%%BeginProlog
save
50 dict begin
/q { gsave } bind def
/Q { grestore } bind def
/cm { 6 array astore concat } bind def
/w { setlinewidth } bind def
/J { setlinecap } bind def
/j { setlinejoin } bind def
/M { setmiterlimit } bind def
/d { setdash } bind def
/m { moveto } bind def
/l { lineto } bind def
/c { curveto } bind def
/h { closepath } bind def
/re { exch dup neg 3 1 roll 5 3 roll moveto 0 rlineto
      0 exch rlineto 0 rlineto closepath } bind def
/S { stroke } bind def
/f { fill } bind def
/f* { eofill } bind def
/n { newpath } bind def
/W { clip } bind def
/W* { eoclip } bind def
/BT { } bind def
/ET { } bind def
/pdfmark where { pop globaldict /?pdfmark /exec load put }
    { globaldict begin /?pdfmark /pop load def /pdfmark
    /cleartomark load def end } ifelse
/BDC { mark 3 1 roll /BDC pdfmark } bind def
/EMC { mark /EMC pdfmark } bind def
/cairo_store_point { /cairo_point_y exch def /cairo_point_x exch def } def
/Tj { show currentpoint cairo_store_point } bind def
/TJ {
  {
    dup
    type /stringtype eq
    { show } { -0.001 mul 0 cairo_font_matrix dtransform rmoveto } ifelse
  } forall
  currentpoint cairo_store_point
} bind def
/cairo_selectfont { cairo_font_matrix aload pop pop pop 0 0 6 array astore
    cairo_font exch selectfont cairo_point_x cairo_point_y moveto } bind def
/Tf { pop /cairo_font exch def /cairo_font_matrix where
      { pop cairo_selectfont } if } bind def
/Td { matrix translate cairo_font_matrix matrix concatmatrix dup
      /cairo_font_matrix exch def dup 4 get exch 5 get cairo_store_point
      /cairo_font where { pop cairo_selectfont } if } bind def
/Tm { 2 copy 8 2 roll 6 array astore /cairo_font_matrix exch def
      cairo_store_point /cairo_font where { pop cairo_selectfont } if } bind def
/g { setgray } bind def
/rg { setrgbcolor } bind def
/d1 { setcachedevice } bind def
%%EndProlog
%%BeginSetup
%%EndSetup
%%Page: 1 1
%%BeginPageSetup
%%PageBoundingBox: 37 -1 372 410
%%EndPageSetup
q 37 -1 335 411 rectclip q
0 g
183.59 156.28 m 182.102 157.776 180.039 158.623 177.934 158.623 c 175.824
 158.623 173.766 157.776 172.277 156.28 c 170.793 154.799 169.934 152.737
 169.934 150.623 c 169.934 148.522 170.793 146.455 172.277 144.967 c 173.766
 143.479 175.832 142.623 177.934 142.623 c 180.039 142.623 182.094 143.479
 183.59 144.967 c 185.078 146.455 185.934 148.522 185.934 150.623 c 185.934
 152.737 185.078 154.791 183.59 156.28 c h
183.59 156.28 m f
183.59 279.256 m 182.094 280.745 180.039 281.6 177.934 281.6 c 175.832 
281.6 173.766 280.745 172.277 279.256 c 170.781 277.768 169.934 275.705 
169.934 273.6 c 169.934 271.495 170.781 269.432 172.277 267.944 c 173.766
 266.455 175.832 265.6 177.934 265.6 c 180.039 265.6 182.102 266.455 183.59
 267.944 c 185.078 269.432 185.934 271.495 185.934 273.6 c 185.934 275.713
 185.078 277.768 183.59 279.256 c h
183.59 279.256 m f
237.32 279.256 m 235.832 280.745 233.766 281.6 231.664 281.6 c 229.559 
281.6 227.496 280.745 226.008 279.256 c 224.52 277.768 223.664 275.705 223.664
 273.6 c 223.664 271.495 224.52 269.432 226.008 267.944 c 227.496 266.455
 229.559 265.6 231.664 265.6 c 233.766 265.6 235.832 266.455 237.32 267.944
 c 238.805 269.432 239.664 271.495 239.664 273.6 c 239.664 275.705 238.809
 277.768 237.32 279.256 c h
237.32 279.256 m f
256.719 215.647 m 252.043 215.647 l 270.465 229.733 282.441 251.834 282.715
 276.698 c 282.715 276.846 282.727 276.991 282.727 277.135 c 282.727 323.131
 l 289.727 331.94 293.926 343.073 293.926 355.174 c 293.926 401.6 l 293.926
 406.018 290.344 409.6 285.926 409.6 c 192.371 409.6 l 156.258 409.6 126.875
 380.217 126.875 344.104 c 126.875 277.573 l 126.875 252.354 138.918 229.897
 157.555 215.647 c 152.879 215.647 l 89.484 215.647 37.91 164.069 37.91 
100.674 c 37.91 7.998 l 37.91 3.58 41.492 -0.002 45.91 -0.002 c 363.691 
-0.002 l 368.109 -0.002 371.691 3.58 371.691 7.998 c 371.691 100.674 l 371.691
 164.069 320.113 215.647 256.719 215.647 c h
266.727 277.573 m 266.727 277.28 266.707 276.991 266.703 276.698 c 266.469
 268.041 259.367 261.065 250.656 261.065 c 228.891 261.065 l 220.031 261.065
 212.82 268.276 212.82 277.135 c 212.82 287.502 l 212.82 296.362 220.031
 303.573 228.891 303.573 c 250.656 303.573 l 259.516 303.573 266.727 296.362
 266.727 287.502 c h
142.875 324.416 m 142.875 344.104 l 142.875 371.397 165.078 393.6 192.371
 393.6 c 277.926 393.6 l 277.926 355.174 l 277.926 335.541 261.953 319.573
 242.324 319.573 c 142.875 319.573 l h
142.918 277.135 m 142.918 287.502 l 142.918 296.362 150.129 303.573 158.988
 303.573 c 180.754 303.573 l 189.613 303.573 196.82 296.362 196.82 287.502
 c 196.82 277.135 l 196.82 268.276 189.613 261.065 180.754 261.065 c 158.988
 261.065 l 150.125 261.065 142.918 268.276 142.918 277.135 c h
151.59 245.936 m 153.969 245.373 156.441 245.065 158.988 245.065 c 180.754
 245.065 l 190.332 245.065 198.941 249.295 204.82 255.979 c 210.703 249.295
 219.309 245.065 228.891 245.065 c 250.656 245.065 l 253.184 245.065 255.641
 245.37 258 245.924 c 247.184 227.807 227.391 215.643 204.801 215.643 c 
182.207 215.647 162.406 227.815 151.59 245.936 c h
196.801 15.998 m 97.598 15.998 l 97.598 110.83 l 173.977 110.83 l 183.379
 110.83 191.965 105.963 196.801 98.01 c h
173.973 126.827 m 89.598 126.827 l 85.18 126.827 81.598 123.245 81.598 
118.827 c 81.598 15.998 l 53.91 15.998 l 53.91 100.674 l 53.91 150.955 91.594
 192.592 140.203 198.834 c 154.828 174.045 l 156.32 171.518 158.988 170.108
 161.727 170.108 c 163.109 170.108 164.508 170.467 165.785 171.221 c 169.59
 173.467 170.855 178.373 168.609 182.178 c 158.301 199.643 l 254.516 199.643
 l 204.184 114.338 l 196.305 122.233 185.527 126.827 173.973 126.827 c h
312 15.998 m 212.801 15.998 l 212.801 98.01 l 217.633 105.963 226.219 110.83
 235.625 110.83 c 280.801 110.83 l 280.801 77.866 l 280.801 73.448 284.383
 69.866 288.801 69.866 c 293.219 69.866 296.801 73.448 296.801 77.866 c 
296.801 110.83 l 312 110.83 l h
355.691 15.998 m 328 15.998 l 328 118.83 l 328 123.245 324.418 126.83 320
 126.83 c 235.625 126.83 l 233.691 126.83 231.781 126.698 229.906 126.448
 c 272.363 198.405 l 319.527 190.885 355.691 149.924 355.691 100.674 c h
355.691 15.998 m f
294.457 55.866 m 292.969 57.354 290.902 58.209 288.801 58.209 c 286.695
 58.209 284.633 57.354 283.145 55.866 c 281.656 54.373 280.801 52.311 280.801
 50.202 c 280.801 48.096 281.656 46.041 283.145 44.553 c 284.633 43.057 
286.695 42.205 288.801 42.205 c 290.902 42.205 292.969 43.057 294.457 44.553
 c 295.941 46.038 296.801 48.096 296.801 50.202 c 296.801 52.311 295.945
 54.377 294.457 55.866 c h
294.457 55.866 m f
Q Q
showpage
%%Trailer
end restore
%%EOF
