%!PS-Adobe-3.0 EPSF-3.0
%%Creator: cairo 1.14.2 (http://cairographics.org)
%%CreationDate: Thu Jul 26 08:14:03 2018
%%Pages: 1
%%DocumentData: Clean7Bit
%%LanguageLevel: 2
%%BoundingBox: 0 -1 410 410
%%EndComments
%%BeginProlog
save
50 dict begin
/q { gsave } bind def
/Q { grestore } bind def
/cm { 6 array astore concat } bind def
/w { setlinewidth } bind def
/J { setlinecap } bind def
/j { setlinejoin } bind def
/M { setmiterlimit } bind def
/d { setdash } bind def
/m { moveto } bind def
/l { lineto } bind def
/c { curveto } bind def
/h { closepath } bind def
/re { exch dup neg 3 1 roll 5 3 roll moveto 0 rlineto
      0 exch rlineto 0 rlineto closepath } bind def
/S { stroke } bind def
/f { fill } bind def
/f* { eofill } bind def
/n { newpath } bind def
/W { clip } bind def
/W* { eoclip } bind def
/BT { } bind def
/ET { } bind def
/pdfmark where { pop globaldict /?pdfmark /exec load put }
    { globaldict begin /?pdfmark /pop load def /pdfmark
    /cleartomark load def end } ifelse
/BDC { mark 3 1 roll /BDC pdfmark } bind def
/EMC { mark /EMC pdfmark } bind def
/cairo_store_point { /cairo_point_y exch def /cairo_point_x exch def } def
/Tj { show currentpoint cairo_store_point } bind def
/TJ {
  {
    dup
    type /stringtype eq
    { show } { -0.001 mul 0 cairo_font_matrix dtransform rmoveto } ifelse
  } forall
  currentpoint cairo_store_point
} bind def
/cairo_selectfont { cairo_font_matrix aload pop pop pop 0 0 6 array astore
    cairo_font exch selectfont cairo_point_x cairo_point_y moveto } bind def
/Tf { pop /cairo_font exch def /cairo_font_matrix where
      { pop cairo_selectfont } if } bind def
/Td { matrix translate cairo_font_matrix matrix concatmatrix dup
      /cairo_font_matrix exch def dup 4 get exch 5 get cairo_store_point
      /cairo_font where { pop cairo_selectfont } if } bind def
/Tm { 2 copy 8 2 roll 6 array astore /cairo_font_matrix exch def
      cairo_store_point /cairo_font where { pop cairo_selectfont } if } bind def
/g { setgray } bind def
/rg { setrgbcolor } bind def
/d1 { setcachedevice } bind def
%%EndProlog
%%BeginSetup
%%EndSetup
%%Page: 1 1
%%BeginPageSetup
%%PageBoundingBox: 0 -1 410 410
%%EndPageSetup
q 0 -1 410 411 rectclip q
0 g
171.602 371.202 m 116.398 371.202 l 111.98 371.202 108.398 367.62 108.398
 363.202 c 108.398 358.784 111.98 355.202 116.398 355.202 c 171.602 355.202
 l 176.02 355.202 179.602 358.784 179.602 363.202 c 179.602 367.62 176.02
 371.202 171.602 371.202 c h
171.602 371.202 m f
206.055 368.858 m 204.566 370.346 202.504 371.202 200.398 371.202 c 198.297
 371.202 196.23 370.346 194.742 368.858 c 193.258 367.366 192.398 365.303
 192.398 363.202 c 192.398 361.096 193.254 359.034 194.742 357.545 c 196.23
 356.057 198.297 355.202 200.398 355.202 c 202.504 355.202 204.566 356.057
 206.055 357.545 c 207.543 359.041 208.398 361.096 208.398 363.202 c 208.398
 365.303 207.543 367.37 206.055 368.858 c h
206.055 368.858 m f
184.855 13.655 m 183.367 15.143 181.305 15.998 179.199 15.998 c 177.098
 15.998 175.031 15.143 173.543 13.655 c 172.055 12.166 171.199 10.104 171.199
 7.998 c 171.199 5.897 172.055 3.83 173.543 2.346 c 175.031 0.858 177.098
 -0.002 179.199 -0.002 c 181.305 -0.002 183.367 0.858 184.855 2.346 c 186.344
 3.83 187.199 5.897 187.199 7.998 c 187.199 10.104 186.344 12.166 184.855
 13.655 c h
184.855 13.655 m f
369.602 394.905 m 333.391 394.905 l 333.391 401.6 l 333.391 406.018 329.809
 409.6 325.391 409.6 c 84.207 409.6 l 79.789 409.6 76.207 406.018 76.207
 401.6 c 76.207 394.905 l 40 394.905 l 17.945 394.905 0 376.959 0 354.905
 c 0 276.413 l 0 216.12 48.055 166.795 107.875 164.756 c 109.676 162.709
 111.543 160.705 113.488 158.764 c 114.797 157.455 l 130.699 141.553 150.07
 130.381 171.199 124.635 c 171.199 59.127 l 127.164 59.127 l 110.863 59.127
 97.602 45.866 97.602 29.565 c 97.602 7.998 l 97.602 3.58 101.184 -0.002
 105.602 -0.002 c 147 -0.002 l 151.414 -0.002 155 3.58 155 7.998 c 155 12.416
 151.414 15.998 147 15.998 c 113.602 15.998 l 113.602 29.565 l 113.602 37.041
 119.684 43.127 127.164 43.127 c 282.438 43.127 l 289.914 43.127 296 37.041
 296 29.565 c 296 15.998 l 211.199 15.998 l 206.781 15.998 203.199 12.416
 203.199 7.998 c 203.199 3.58 206.781 -0.002 211.199 -0.002 c 304 -0.002
 l 308.418 -0.002 312 3.58 312 7.998 c 312 29.565 l 312 45.866 298.738 59.127
 282.438 59.127 c 238.398 59.127 l 238.398 124.635 l 259.531 130.381 278.902
 141.553 294.805 157.455 c 296.113 158.76 l 298.059 160.705 299.922 162.709
 301.727 164.752 c 361.543 166.795 409.602 216.12 409.602 276.413 c 409.602
 354.905 l 409.602 376.959 391.656 394.905 369.602 394.905 c h
333.391 248.768 m 333.391 346.905 l 361.602 346.905 l 361.602 276.413 l
 361.602 253.784 349.371 233.073 330.523 221.729 c 332.414 230.514 333.391
 239.565 333.391 248.768 c h
262.801 393.6 m 285.391 393.6 l 285.391 319.76 l 279.746 325.397 l 276.625
 328.51 271.566 328.51 268.445 325.397 c 262.801 319.76 l h
79.078 221.729 m 60.227 233.073 48 253.784 48 276.413 c 48 346.905 l 76.207
 346.905 l 76.207 248.764 l 76.207 239.565 77.188 230.514 79.078 221.729
 c h
16 276.413 m 16 354.905 l 16 368.139 26.766 378.905 40 378.905 c 76.207
 378.905 l 76.207 362.905 l 40 362.905 l 35.582 362.905 32 359.323 32 354.905
 c 32 276.413 l 32 258.854 37.621 242.19 48.25 228.221 c 57.691 215.811 
70.762 206.315 85.379 201.166 c 88.031 194.58 91.242 188.221 94.988 182.151
 c 50.16 190.092 16 229.354 16 276.413 c h
222.398 59.202 m 187.199 59.202 l 187.199 121.381 l 192.984 120.588 198.859
 120.174 204.801 120.174 c 210.738 120.174 216.617 120.588 222.398 121.381
 c h
310.59 210.303 m 305.098 195.362 296.387 181.666 284.797 170.077 c 283.488
 168.768 l 262.469 147.748 234.523 136.174 204.801 136.174 c 175.074 136.174
 147.129 147.748 126.109 168.768 c 124.801 170.077 l 113.211 181.666 104.5
 195.362 99.012 210.303 c 99.062 210.334 l 98.949 210.643 98.816 210.944
 98.668 211.233 c 94.422 223.116 92.207 235.772 92.207 248.764 c 92.207 
393.6 l 246.801 393.6 l 246.801 300.471 l 246.801 297.237 248.746 294.323
 251.734 293.08 c 254.723 291.842 258.16 292.526 260.453 294.811 c 274.098
 308.428 l 287.742 294.811 l 289.27 293.284 291.316 292.471 293.395 292.471
 c 294.426 292.471 295.469 292.67 296.457 293.08 c 299.445 294.323 301.395
 297.237 301.395 300.471 c 301.395 393.6 l 317.395 393.6 l 317.395 248.764
 l 317.395 235.772 315.18 223.116 310.934 211.233 c 310.785 210.944 310.652
 210.643 310.539 210.334 c h
393.602 276.413 m 393.602 229.354 359.438 190.096 314.613 182.147 c 318.359
 188.221 321.566 194.58 324.223 201.166 c 338.836 206.315 351.906 215.811
 361.348 228.217 c 371.98 242.19 377.602 258.854 377.602 276.413 c 377.602
 354.905 l 377.602 359.323 374.02 362.905 369.602 362.905 c 333.391 362.905
 l 333.391 378.905 l 369.602 378.905 l 382.832 378.905 393.602 368.139 393.602
 354.905 c h
393.602 276.413 m f
166.398 281.6 m 161.98 281.6 158.398 278.018 158.398 273.6 c 158.398 265.073
 l 158.398 260.655 161.98 257.073 166.398 257.073 c 170.816 257.073 174.398
 260.655 174.398 265.073 c 174.398 273.6 l 174.398 278.018 170.816 281.6
 166.398 281.6 c h
166.398 281.6 m f
166.398 242.795 m 161.98 242.795 158.398 239.213 158.398 234.795 c 158.398
 226.268 l 158.398 221.85 161.98 218.268 166.398 218.268 c 170.816 218.268
 174.398 221.85 174.398 226.268 c 174.398 234.795 l 174.398 239.213 170.816
 242.795 166.398 242.795 c h
166.398 242.795 m f
190.066 257.932 m 181.539 257.932 l 177.121 257.932 173.539 254.35 173.539
 249.932 c 173.539 245.514 177.121 241.932 181.539 241.932 c 190.066 241.932
 l 194.484 241.932 198.066 245.514 198.066 249.932 c 198.066 254.35 194.484
 257.932 190.066 257.932 c h
190.066 257.932 m f
151.262 257.932 m 142.734 257.932 l 138.316 257.932 134.734 254.35 134.734
 249.932 c 134.734 245.514 138.316 241.932 142.734 241.932 c 151.262 241.932
 l 155.68 241.932 159.262 245.514 159.262 249.932 c 159.262 254.35 155.68
 257.932 151.262 257.932 c h
151.262 257.932 m f
Q Q
showpage
%%Trailer
end restore
%%EOF
