%!PS-Adobe-3.0 EPSF-3.0
%%Creator: cairo 1.14.2 (http://cairographics.org)
%%CreationDate: Thu Jul 26 08:14:03 2018
%%Pages: 1
%%DocumentData: Clean7Bit
%%LanguageLevel: 2
%%BoundingBox: 0 -1 410 410
%%EndComments
%%BeginProlog
save
50 dict begin
/q { gsave } bind def
/Q { grestore } bind def
/cm { 6 array astore concat } bind def
/w { setlinewidth } bind def
/J { setlinecap } bind def
/j { setlinejoin } bind def
/M { setmiterlimit } bind def
/d { setdash } bind def
/m { moveto } bind def
/l { lineto } bind def
/c { curveto } bind def
/h { closepath } bind def
/re { exch dup neg 3 1 roll 5 3 roll moveto 0 rlineto
      0 exch rlineto 0 rlineto closepath } bind def
/S { stroke } bind def
/f { fill } bind def
/f* { eofill } bind def
/n { newpath } bind def
/W { clip } bind def
/W* { eoclip } bind def
/BT { } bind def
/ET { } bind def
/pdfmark where { pop globaldict /?pdfmark /exec load put }
    { globaldict begin /?pdfmark /pop load def /pdfmark
    /cleartomark load def end } ifelse
/BDC { mark 3 1 roll /BDC pdfmark } bind def
/EMC { mark /EMC pdfmark } bind def
/cairo_store_point { /cairo_point_y exch def /cairo_point_x exch def } def
/Tj { show currentpoint cairo_store_point } bind def
/TJ {
  {
    dup
    type /stringtype eq
    { show } { -0.001 mul 0 cairo_font_matrix dtransform rmoveto } ifelse
  } forall
  currentpoint cairo_store_point
} bind def
/cairo_selectfont { cairo_font_matrix aload pop pop pop 0 0 6 array astore
    cairo_font exch selectfont cairo_point_x cairo_point_y moveto } bind def
/Tf { pop /cairo_font exch def /cairo_font_matrix where
      { pop cairo_selectfont } if } bind def
/Td { matrix translate cairo_font_matrix matrix concatmatrix dup
      /cairo_font_matrix exch def dup 4 get exch 5 get cairo_store_point
      /cairo_font where { pop cairo_selectfont } if } bind def
/Tm { 2 copy 8 2 roll 6 array astore /cairo_font_matrix exch def
      cairo_store_point /cairo_font where { pop cairo_selectfont } if } bind def
/g { setgray } bind def
/rg { setrgbcolor } bind def
/d1 { setcachedevice } bind def
%%EndProlog
%%BeginSetup
%%EndSetup
%%Page: 1 1
%%BeginPageSetup
%%PageBoundingBox: 0 -1 410 410
%%EndPageSetup
q 0 -1 410 411 rectclip q
0 g
393.496 294.02 m 391.168 296.102 387.836 296.641 384.969 295.395 c 226.359
 226.359 l 295.395 384.965 l 296.641 387.832 296.105 391.164 294.02 393.496
 c 291.934 395.824 288.68 396.727 285.695 395.801 c 256.059 386.633 231.289
 365.371 217.727 337.469 c 140.695 178.957 l 136.398 187.918 l 128.211 205
 113.887 217.949 96.066 224.375 c 78.246 230.801 58.957 229.977 41.746 222.051
 c 24.242 213.992 10.973 199.578 4.375 181.473 c -2.223 163.367 -1.332 143.793
 6.883 126.363 c 13.953 111.355 26.465 100.051 42.109 94.535 c 48.816 92.168
 55.742 90.992 62.645 90.992 c 71.836 90.992 80.988 93.078 89.508 97.223
 c 104.52 104.516 l 97.223 89.508 l 89.973 74.586 89.02 57.75 94.535 42.105
 c 100.055 26.461 111.355 13.949 126.363 6.879 c 136.078 2.301 146.457 0
 156.879 0 c 165.156 0 173.461 1.449 181.473 4.371 c 199.582 10.969 213.992
 24.242 222.055 41.746 c 229.977 58.953 230.801 78.242 224.375 96.063 c 
217.949 113.883 205.004 128.207 187.922 136.398 c 178.961 140.691 l 337.473
 217.727 l 365.371 231.285 386.633 256.059 395.805 285.691 c 396.727 288.68
 395.824 291.934 393.496 294.02 c h
82.516 111.613 m 71.473 106.246 59.012 105.539 47.43 109.625 c 35.848 113.707
 26.59 122.074 21.355 133.184 c 14.973 146.727 14.281 161.93 19.406 175.996
 c 24.531 190.063 34.844 201.258 48.441 207.52 c 75.91 220.172 108.898 208.277
 121.969 181.004 c 131.762 160.578 l 115.836 127.809 l h
181.004 121.973 m 208.277 108.898 220.172 75.914 207.52 48.441 c 201.258
 34.844 190.062 24.531 175.996 19.406 c 161.93 14.281 146.727 14.973 133.184
 21.355 c 122.074 26.59 113.707 35.848 109.625 47.43 c 105.539 59.012 106.246
 71.473 111.613 82.516 c 127.805 115.836 l 160.578 131.762 l h
139.125 139.125 m 232.117 330.477 l 240.93 348.609 255.266 363.477 272.754
 373.039 c 179.477 158.734 l h
330.477 232.117 m 201.605 169.492 l 217.008 204.875 l 217.195 204.941 217.383
 205.004 217.566 205.086 c 373.035 272.754 l 363.477 255.266 348.609 240.93
 330.477 232.117 c h
330.477 232.117 m f
175.453 176.094 m 173.965 177.582 171.902 178.438 169.797 178.438 c 167.695
 178.438 165.629 177.582 164.141 176.094 c 162.656 174.605 161.797 172.543
 161.797 170.438 c 161.797 168.336 162.656 166.27 164.141 164.781 c 165.629
 163.297 167.695 162.438 169.797 162.438 c 171.902 162.438 173.965 163.297
 175.453 164.781 c 176.941 166.27 177.797 168.336 177.797 170.438 c 177.797
 172.543 176.941 174.605 175.453 176.094 c h
175.453 176.094 m f
181.938 96.156 m 168.43 109.664 146.445 109.664 132.934 96.156 c 126.391
 89.609 122.785 80.906 122.785 71.652 c 122.785 62.398 126.391 53.695 132.934
 47.148 c 139.48 40.605 148.184 37 157.438 37 c 166.691 37 175.395 40.605
 181.938 47.148 c 188.484 53.695 192.09 62.398 192.09 71.652 c 192.09 80.91
 188.484 89.609 181.938 96.156 c h
170.629 58.465 m 167.105 54.941 162.422 53 157.438 53 c 152.453 53 147.77
 54.941 144.246 58.465 c 140.727 61.988 138.785 66.672 138.785 71.652 c 
138.785 76.637 140.727 81.32 144.246 84.844 c 147.887 88.48 152.66 90.297
 157.438 90.297 c 162.215 90.297 166.992 88.477 170.625 84.844 c 174.148
 81.32 176.09 76.637 176.09 71.652 c 176.09 66.672 174.148 61.988 170.629
 58.465 c h
170.629 58.465 m f
96.156 181.941 m 89.609 188.484 80.906 192.09 71.652 192.09 c 62.398 192.09
 53.695 188.484 47.152 181.941 c 40.605 175.395 37 166.695 37 157.438 c 
37 148.184 40.605 139.48 47.152 132.938 c 53.695 126.391 62.398 122.785 
71.652 122.785 c 80.91 122.785 89.609 126.391 96.156 132.938 c 102.699 139.48
 106.305 148.184 106.305 157.438 c 106.305 166.695 102.699 175.395 96.156
 181.941 c h
84.84 144.25 m 81.32 140.727 76.637 138.785 71.652 138.785 c 66.668 138.785
 61.988 140.727 58.461 144.25 c 54.938 147.773 53 152.457 53 157.438 c 53
 162.422 54.938 167.105 58.461 170.629 c 61.984 174.148 66.668 176.09 71.652
 176.09 c 76.633 176.09 81.316 174.148 84.84 170.629 c 88.363 167.105 90.305
 162.422 90.305 157.438 c 90.305 152.457 88.367 147.77 84.84 144.25 c h
84.84 144.25 m f
401.602 144.816 m 272.809 144.816 l 268.391 144.816 264.809 141.234 264.809
 136.816 c 264.809 8.027 l 264.809 3.609 268.391 0.027 272.809 0.027 c 401.602
 0.027 l 406.02 0.027 409.602 3.609 409.602 8.027 c 409.602 136.816 l 409.602
 141.234 406.02 144.816 401.602 144.816 c h
393.602 16.023 m 292.121 16.023 l 346.617 70.52 l 349.742 73.645 349.742
 78.707 346.617 81.832 c 343.492 84.957 338.43 84.957 335.305 81.832 c 280.809
 27.336 l 280.809 128.816 l 393.602 128.816 l h
393.602 16.023 m f
67.488 409.602 m 30.289 409.602 0.023 379.336 0.023 342.141 c 0.023 304.941
 30.289 274.676 67.488 274.676 c 104.688 274.676 134.949 304.941 134.949
 342.141 c 134.949 379.336 104.688 409.602 67.488 409.602 c h
67.488 290.676 m 39.109 290.676 16.023 313.762 16.023 342.141 c 16.023 
370.516 39.109 393.602 67.488 393.602 c 95.863 393.602 118.953 370.516 118.953
 342.141 c 118.953 313.762 95.863 290.676 67.488 290.676 c h
67.488 290.676 m f
407.258 407.258 m 404.133 410.383 399.07 410.383 395.945 407.258 c 380.023
 391.34 l 376.902 388.215 376.898 383.148 380.023 380.023 c 381.586 378.465
 383.633 377.684 385.68 377.684 c 387.73 377.684 389.777 378.465 391.34 
380.027 c 407.258 395.945 l 410.383 399.07 410.383 404.133 407.258 407.258
 c h
407.258 407.258 m f
367.062 367.063 m 363.938 370.184 358.871 370.184 355.746 367.063 c 339.828
 351.141 l 336.703 348.016 336.703 342.953 339.828 339.828 c 341.391 338.266
 343.438 337.484 345.484 337.484 c 347.531 337.484 349.578 338.266 351.141
 339.828 c 367.062 355.746 l 370.184 358.871 370.184 363.938 367.062 367.063
 c h
367.062 367.063 m f
326.863 326.863 m 323.738 329.988 318.676 329.988 315.551 326.863 c 294.988
 306.301 l 291.863 303.176 291.863 298.109 294.988 294.988 c 296.551 293.426
 298.598 292.645 300.645 292.645 c 302.691 292.645 304.738 293.426 306.301
 294.988 c 326.863 315.551 l 329.988 318.676 329.988 323.738 326.863 326.863
 c h
326.863 326.863 m f
286.664 286.664 m 285.176 288.152 283.113 289.008 281.008 289.008 c 278.902
 289.008 276.84 288.152 275.352 286.664 c 273.863 285.176 273.008 283.113
 273.008 281.008 c 273.008 278.906 273.863 276.84 275.352 275.355 c 276.84
 273.867 278.902 273.008 281.008 273.008 c 283.113 273.008 285.176 273.863
 286.664 275.355 c 288.152 276.84 289.008 278.906 289.008 281.008 c 289.008
 283.113 288.152 285.176 286.664 286.664 c h
286.664 286.664 m f
368.156 103.477 m 365.004 106.574 359.941 106.527 356.844 103.375 c 356.824
 103.352 l 353.727 100.199 353.785 95.148 356.938 92.051 c 358.492 90.523
 360.512 89.766 362.535 89.766 c 364.613 89.766 366.691 90.566 368.262 92.164
 c 371.355 95.316 371.309 100.379 368.156 103.477 c h
368.156 103.477 m f
Q Q
showpage
%%Trailer
end restore
%%EOF
