%!PS-Adobe-3.0 EPSF-3.0
%%Creator: cairo 1.14.2 (http://cairographics.org)
%%CreationDate: Thu Jul 26 08:14:03 2018
%%Pages: 1
%%DocumentData: Clean7Bit
%%LanguageLevel: 2
%%BoundingBox: 0 -1 410 410
%%EndComments
%%BeginProlog
save
50 dict begin
/q { gsave } bind def
/Q { grestore } bind def
/cm { 6 array astore concat } bind def
/w { setlinewidth } bind def
/J { setlinecap } bind def
/j { setlinejoin } bind def
/M { setmiterlimit } bind def
/d { setdash } bind def
/m { moveto } bind def
/l { lineto } bind def
/c { curveto } bind def
/h { closepath } bind def
/re { exch dup neg 3 1 roll 5 3 roll moveto 0 rlineto
      0 exch rlineto 0 rlineto closepath } bind def
/S { stroke } bind def
/f { fill } bind def
/f* { eofill } bind def
/n { newpath } bind def
/W { clip } bind def
/W* { eoclip } bind def
/BT { } bind def
/ET { } bind def
/pdfmark where { pop globaldict /?pdfmark /exec load put }
    { globaldict begin /?pdfmark /pop load def /pdfmark
    /cleartomark load def end } ifelse
/BDC { mark 3 1 roll /BDC pdfmark } bind def
/EMC { mark /EMC pdfmark } bind def
/cairo_store_point { /cairo_point_y exch def /cairo_point_x exch def } def
/Tj { show currentpoint cairo_store_point } bind def
/TJ {
  {
    dup
    type /stringtype eq
    { show } { -0.001 mul 0 cairo_font_matrix dtransform rmoveto } ifelse
  } forall
  currentpoint cairo_store_point
} bind def
/cairo_selectfont { cairo_font_matrix aload pop pop pop 0 0 6 array astore
    cairo_font exch selectfont cairo_point_x cairo_point_y moveto } bind def
/Tf { pop /cairo_font exch def /cairo_font_matrix where
      { pop cairo_selectfont } if } bind def
/Td { matrix translate cairo_font_matrix matrix concatmatrix dup
      /cairo_font_matrix exch def dup 4 get exch 5 get cairo_store_point
      /cairo_font where { pop cairo_selectfont } if } bind def
/Tm { 2 copy 8 2 roll 6 array astore /cairo_font_matrix exch def
      cairo_store_point /cairo_font where { pop cairo_selectfont } if } bind def
/g { setgray } bind def
/rg { setrgbcolor } bind def
/d1 { setcachedevice } bind def
%%EndProlog
%%BeginSetup
%%EndSetup
%%Page: 1 1
%%BeginPageSetup
%%PageBoundingBox: 0 -1 410 410
%%EndPageSetup
q 0 -1 410 411 rectclip q
0 g
409.582 318.401 m 409.578 320.483 408.785 322.526 407.258 324.057 c 324.059
 407.256 l 322.527 408.788 320.48 409.58 318.402 409.58 c 318.402 409.588
 318.398 409.592 318.398 409.6 c 169.199 409.6 l 155.965 409.6 145.199 398.834
 145.199 385.6 c 145.199 212.799 l 24 212.799 l 10.766 212.799 0 202.034
 0 188.799 c 0 23.998 l 0 10.768 10.766 -0.002 24 -0.002 c 173.602 -0.002
 l 178.02 -0.002 181.602 3.58 181.602 7.998 c 181.602 12.416 178.02 15.998
 173.602 15.998 c 29.875 15.998 l 111.238 97.362 l 201.734 97.362 l 283.098
 15.998 l 242.199 15.998 l 237.781 15.998 234.199 12.416 234.199 7.998 c
 234.199 3.58 237.781 -0.002 242.199 -0.002 c 288.973 -0.002 l 302.207 -0.002
 312.973 10.768 312.973 23.998 c 312.973 70.401 l 385.602 70.401 l 398.832
 70.401 409.602 81.166 409.602 94.401 c 409.602 318.401 l 409.594 318.401
 409.586 318.401 409.582 318.401 c h
326.398 382.288 m 382.285 326.401 l 334.398 326.401 l 329.988 326.401 326.398
 329.991 326.398 334.401 c h
16 24.752 m 16 185.487 l 96.367 105.12 l h
110.754 113.362 m 27.312 196.799 l 285.66 196.799 l 202.223 113.362 l h
296.973 24.752 m 216.605 105.12 l 296.973 185.487 l h
393.602 94.401 m 393.602 89.991 390.012 86.401 385.602 86.401 c 312.973
 86.401 l 312.973 188.799 l 312.973 202.034 302.207 212.799 288.973 212.799
 c 161.199 212.799 l 161.199 385.6 l 161.199 390.01 164.789 393.6 169.199
 393.6 c 310.398 393.6 l 310.398 334.401 l 310.398 321.166 321.168 310.401
 334.398 310.401 c 393.602 310.401 l h
393.602 94.401 m f
210.457 13.655 m 208.969 15.143 206.902 15.998 204.801 15.998 c 202.695
 15.998 200.633 15.143 199.145 13.655 c 197.656 12.166 196.801 10.104 196.801
 7.998 c 196.801 5.897 197.656 3.83 199.145 2.346 c 200.633 0.858 202.695
 -0.002 204.801 -0.002 c 206.902 -0.002 208.969 0.858 210.457 2.346 c 211.945
 3.83 212.801 5.897 212.801 7.998 c 212.801 10.104 211.945 12.166 210.457
 13.655 c h
210.457 13.655 m f
242.199 366.401 m 195.199 366.401 l 190.781 366.401 187.199 362.819 187.199
 358.401 c 187.199 353.983 190.781 350.401 195.199 350.401 c 242.199 350.401
 l 246.617 350.401 250.199 353.983 250.199 358.401 c 250.199 362.819 246.617
 366.401 242.199 366.401 c h
242.199 366.401 m f
276.801 326.401 m 195.199 326.401 l 190.781 326.401 187.199 322.819 187.199
 318.401 c 187.199 313.983 190.781 310.401 195.199 310.401 c 276.801 310.401
 l 281.219 310.401 284.801 313.983 284.801 318.401 c 284.801 322.819 281.219
 326.401 276.801 326.401 c h
276.801 326.401 m f
358.398 286.401 m 195.199 286.401 l 190.781 286.401 187.199 282.819 187.199
 278.401 c 187.199 273.983 190.781 270.401 195.199 270.401 c 358.398 270.401
 l 362.82 270.401 366.398 273.983 366.398 278.401 c 366.398 282.819 362.82
 286.401 358.398 286.401 c h
358.398 286.401 m f
358.398 246.401 m 227.465 246.401 l 223.047 246.401 219.465 242.819 219.465
 238.401 c 219.465 233.983 223.047 230.401 227.465 230.401 c 358.398 230.401
 l 362.82 230.401 366.398 233.983 366.398 238.401 c 366.398 242.819 362.82
 246.401 358.398 246.401 c h
358.398 246.401 m f
201.16 244.057 m 199.664 245.545 197.609 246.401 195.504 246.401 c 193.391
 246.401 191.328 245.545 189.84 244.057 c 188.352 242.569 187.496 240.502
 187.496 238.401 c 187.496 236.295 188.352 234.233 189.84 232.745 c 191.328
 231.256 193.391 230.401 195.504 230.401 c 197.609 230.401 199.672 231.256
 201.16 232.745 c 202.648 234.233 203.496 236.295 203.496 238.401 c 203.496
 240.502 202.648 242.569 201.16 244.057 c h
201.16 244.057 m f
358.398 146.401 m 343.199 146.401 l 338.781 146.401 335.199 142.819 335.199
 138.401 c 335.199 133.983 338.781 130.401 343.199 130.401 c 358.398 130.401
 l 362.82 130.401 366.398 133.983 366.398 138.401 c 366.398 142.819 362.82
 146.401 358.398 146.401 c h
358.398 146.401 m f
Q Q
showpage
%%Trailer
end restore
%%EOF
