%!PS-Adobe-3.0 EPSF-3.0
%%Creator: cairo 1.14.2 (http://cairographics.org)
%%CreationDate: Thu Jul 26 08:14:03 2018
%%Pages: 1
%%DocumentData: Clean7Bit
%%LanguageLevel: 2
%%BoundingBox: 35 -1 375 410
%%EndComments
%%BeginProlog
save
50 dict begin
/q { gsave } bind def
/Q { grestore } bind def
/cm { 6 array astore concat } bind def
/w { setlinewidth } bind def
/J { setlinecap } bind def
/j { setlinejoin } bind def
/M { setmiterlimit } bind def
/d { setdash } bind def
/m { moveto } bind def
/l { lineto } bind def
/c { curveto } bind def
/h { closepath } bind def
/re { exch dup neg 3 1 roll 5 3 roll moveto 0 rlineto
      0 exch rlineto 0 rlineto closepath } bind def
/S { stroke } bind def
/f { fill } bind def
/f* { eofill } bind def
/n { newpath } bind def
/W { clip } bind def
/W* { eoclip } bind def
/BT { } bind def
/ET { } bind def
/pdfmark where { pop globaldict /?pdfmark /exec load put }
    { globaldict begin /?pdfmark /pop load def /pdfmark
    /cleartomark load def end } ifelse
/BDC { mark 3 1 roll /BDC pdfmark } bind def
/EMC { mark /EMC pdfmark } bind def
/cairo_store_point { /cairo_point_y exch def /cairo_point_x exch def } def
/Tj { show currentpoint cairo_store_point } bind def
/TJ {
  {
    dup
    type /stringtype eq
    { show } { -0.001 mul 0 cairo_font_matrix dtransform rmoveto } ifelse
  } forall
  currentpoint cairo_store_point
} bind def
/cairo_selectfont { cairo_font_matrix aload pop pop pop 0 0 6 array astore
    cairo_font exch selectfont cairo_point_x cairo_point_y moveto } bind def
/Tf { pop /cairo_font exch def /cairo_font_matrix where
      { pop cairo_selectfont } if } bind def
/Td { matrix translate cairo_font_matrix matrix concatmatrix dup
      /cairo_font_matrix exch def dup 4 get exch 5 get cairo_store_point
      /cairo_font where { pop cairo_selectfont } if } bind def
/Tm { 2 copy 8 2 roll 6 array astore /cairo_font_matrix exch def
      cairo_store_point /cairo_font where { pop cairo_selectfont } if } bind def
/g { setgray } bind def
/rg { setrgbcolor } bind def
/d1 { setcachedevice } bind def
%%EndProlog
%%BeginSetup
%%EndSetup
%%Page: 1 1
%%BeginPageSetup
%%PageBoundingBox: 35 -1 375 410
%%EndPageSetup
q 35 -1 340 411 rectclip q
0 g
372.062 214.448 m 370.574 215.936 368.512 216.784 366.406 216.784 c 364.305
 216.784 362.238 215.936 360.754 214.448 c 359.266 212.952 358.406 210.897
 358.406 208.791 c 358.406 206.678 359.266 204.623 360.754 203.127 c 362.238
 201.639 364.305 200.784 366.406 200.784 c 368.512 200.784 370.574 201.639
 372.062 203.127 c 373.551 204.623 374.406 206.678 374.406 208.791 c 374.406
 210.897 373.551 212.952 372.062 214.448 c h
372.062 214.448 m f
366.406 231.998 m 370.828 231.998 374.406 235.58 374.406 239.998 c 374.406
 385.6 l 374.406 398.834 363.641 409.6 350.406 409.6 c 121.582 409.6 l 119.461
 409.6 117.426 408.756 115.926 407.256 c 37.535 328.866 l 36.035 327.366
 35.191 325.33 35.191 323.209 c 35.191 23.998 l 35.191 10.768 45.957 -0.002
 59.191 -0.002 c 350.406 -0.002 l 363.641 -0.002 374.406 10.768 374.406 
23.998 c 374.406 172.799 l 374.406 177.217 370.828 180.799 366.406 180.799
 c 361.988 180.799 358.406 177.217 358.406 172.799 c 358.406 23.998 l 358.406
 19.588 354.82 15.998 350.406 15.998 c 59.191 15.998 l 54.781 15.998 51.191
 19.588 51.191 23.998 c 51.191 315.209 l 105.582 315.209 l 118.816 315.209
 129.582 325.975 129.582 339.209 c 129.582 393.6 l 350.406 393.6 l 354.82
 393.6 358.406 390.01 358.406 385.6 c 358.406 239.998 l 358.406 235.58 361.988
 231.998 366.406 231.998 c h
113.582 339.209 m 113.582 334.795 109.992 331.209 105.582 331.209 c 62.504
 331.209 l 113.582 382.288 l h
113.582 339.209 m f
134.625 286.233 m 131.5 289.358 126.414 289.334 123.289 286.213 c 123.102
 286.026 l 119.996 282.881 120.023 277.819 123.168 274.713 c 124.727 273.17
 126.758 272.401 128.789 272.401 c 130.852 272.401 132.914 273.194 134.48
 274.78 c 134.594 274.893 l 134.594 274.893 134.645 274.944 134.648 274.944
 c 137.77 278.069 137.746 283.108 134.625 286.233 c h
134.625 286.233 m f
286.25 286.26 m 249.129 323.381 191.633 330.741 146.434 304.155 c 142.625
 301.916 141.355 297.01 143.594 293.205 c 145.836 289.397 150.738 288.123
 154.547 290.366 c 193.461 313.252 242.969 306.916 274.938 274.944 c 313.613
 236.268 313.613 173.334 274.938 134.655 c 256.199 115.92 231.289 105.6 
204.793 105.6 c 178.297 105.6 153.383 115.92 134.648 134.655 c 103.453 165.85
 96.637 214.522 118.07 253.018 c 120.219 256.881 118.832 261.752 114.969
 263.901 c 111.105 266.053 106.238 264.663 104.09 260.803 c 92.145 239.354
 87.355 214.065 90.594 189.6 c 93.938 164.327 105.262 141.413 123.332 123.342
 c 145.09 101.584 174.02 89.6 204.793 89.6 c 235.562 89.6 264.492 101.584
 286.25 123.342 c 308.008 145.1 319.992 174.03 319.992 204.799 c 319.992
 235.573 308.008 264.498 286.25 286.26 c h
286.25 286.26 m f
220.453 158.799 m 213.668 180.311 l 217.688 180.733 220.824 184.135 220.824
 188.268 c 220.824 192.686 217.242 196.268 212.824 196.268 c 208.633 196.268
 l 187.391 263.592 l 186.34 266.92 183.254 269.186 179.762 269.186 c 176.27
 269.186 173.184 266.92 172.133 263.592 c 150.891 196.268 l 146.699 196.268
 l 142.277 196.268 138.699 192.686 138.699 188.268 c 138.699 184.135 141.832
 180.733 145.855 180.311 c 139.066 158.799 l 137.742 154.584 140.078 150.092
 144.293 148.764 c 148.508 147.428 153 149.772 154.328 153.983 c 162.621
 180.268 l 196.902 180.268 l 205.195 153.983 l 206.273 150.573 209.426 148.389
 212.824 148.389 c 213.621 148.389 214.43 148.51 215.23 148.764 c 219.445
 150.092 221.781 154.584 220.453 158.799 c h
167.668 196.268 m 179.762 234.596 l 191.855 196.268 l h
167.668 196.268 m f
261.32 252.381 m 252.52 252.381 l 252.52 261.186 l 252.52 265.604 248.938
 269.186 244.52 269.186 c 240.102 269.186 236.52 265.6 236.52 261.186 c 
236.52 252.381 l 227.719 252.381 l 223.301 252.381 219.719 248.799 219.719
 244.381 c 219.719 239.963 223.301 236.381 227.719 236.381 c 236.52 236.381
 l 236.52 227.58 l 236.52 223.163 240.102 219.58 244.52 219.58 c 248.938
 219.58 252.52 223.163 252.52 227.58 c 252.52 236.381 l 261.32 236.381 l
 265.738 236.381 269.32 239.963 269.32 244.381 c 269.32 248.799 265.738 
252.381 261.32 252.381 c h
261.32 252.381 m f
Q Q
showpage
%%Trailer
end restore
%%EOF
