%!PS-Adobe-3.0 EPSF-3.0
%%Creator: cairo 1.14.2 (http://cairographics.org)
%%CreationDate: Thu Jul 26 08:14:03 2018
%%Pages: 1
%%DocumentData: Clean7Bit
%%LanguageLevel: 2
%%BoundingBox: 25 -1 385 410
%%EndComments
%%BeginProlog
save
50 dict begin
/q { gsave } bind def
/Q { grestore } bind def
/cm { 6 array astore concat } bind def
/w { setlinewidth } bind def
/J { setlinecap } bind def
/j { setlinejoin } bind def
/M { setmiterlimit } bind def
/d { setdash } bind def
/m { moveto } bind def
/l { lineto } bind def
/c { curveto } bind def
/h { closepath } bind def
/re { exch dup neg 3 1 roll 5 3 roll moveto 0 rlineto
      0 exch rlineto 0 rlineto closepath } bind def
/S { stroke } bind def
/f { fill } bind def
/f* { eofill } bind def
/n { newpath } bind def
/W { clip } bind def
/W* { eoclip } bind def
/BT { } bind def
/ET { } bind def
/pdfmark where { pop globaldict /?pdfmark /exec load put }
    { globaldict begin /?pdfmark /pop load def /pdfmark
    /cleartomark load def end } ifelse
/BDC { mark 3 1 roll /BDC pdfmark } bind def
/EMC { mark /EMC pdfmark } bind def
/cairo_store_point { /cairo_point_y exch def /cairo_point_x exch def } def
/Tj { show currentpoint cairo_store_point } bind def
/TJ {
  {
    dup
    type /stringtype eq
    { show } { -0.001 mul 0 cairo_font_matrix dtransform rmoveto } ifelse
  } forall
  currentpoint cairo_store_point
} bind def
/cairo_selectfont { cairo_font_matrix aload pop pop pop 0 0 6 array astore
    cairo_font exch selectfont cairo_point_x cairo_point_y moveto } bind def
/Tf { pop /cairo_font exch def /cairo_font_matrix where
      { pop cairo_selectfont } if } bind def
/Td { matrix translate cairo_font_matrix matrix concatmatrix dup
      /cairo_font_matrix exch def dup 4 get exch 5 get cairo_store_point
      /cairo_font where { pop cairo_selectfont } if } bind def
/Tm { 2 copy 8 2 roll 6 array astore /cairo_font_matrix exch def
      cairo_store_point /cairo_font where { pop cairo_selectfont } if } bind def
/g { setgray } bind def
/rg { setrgbcolor } bind def
/d1 { setcachedevice } bind def
%%EndProlog
%%BeginSetup
%%EndSetup
%%Page: 1 1
%%BeginPageSetup
%%PageBoundingBox: 25 -1 385 410
%%EndPageSetup
q 25 -1 360 411 rectclip q
0 g
361.777 120.155 m 361.777 120.159 l 342.18 139.756 l 368.164 168.428 384.02
 206.448 384.02 248.1 c 384.02 337.151 311.57 409.6 222.52 409.6 c 180.867
 409.6 142.848 393.748 114.176 367.76 c 74.68 407.256 l 71.555 410.381 66.488
 410.381 63.363 407.256 c 60.238 404.131 60.238 399.069 63.363 395.944 c
 77.727 381.58 l 44.047 345.112 25.582 298.03 25.582 248.1 c 25.582 195.498
 46.066 146.041 83.266 108.846 c 118.566 73.541 164.918 53.303 214.52 51.334
 c 214.52 15.998 l 165.602 15.998 l 161.18 15.998 157.602 12.416 157.602
 7.998 c 157.602 3.58 161.18 -0.002 165.602 -0.002 c 306.52 -0.002 l 310.938
 -0.002 314.52 3.58 314.52 7.998 c 314.52 12.416 310.938 15.998 306.52 15.998
 c 230.52 15.998 l 230.52 51.334 l 277.465 53.198 321.488 71.432 355.996
 103.311 c 367.047 92.26 l 368.609 90.698 370.656 89.916 372.703 89.916 
c 374.75 89.916 376.797 90.698 378.359 92.26 c 381.484 95.385 381.484 100.448
 378.359 103.573 c h
364.844 278.37 m 320.305 278.37 l 311.789 278.37 304.809 271.522 304.602
 263.045 c 297.898 263.061 l 297.898 281.772 l 297.898 286.19 294.316 289.772
 289.898 289.772 c 249.84 289.772 l 243.219 289.772 237.832 295.159 237.832
 301.78 c 237.832 306.428 241.613 310.213 246.266 310.213 c 255.801 310.213
 263.555 317.967 263.555 327.502 c 263.555 336.881 271.188 344.51 280.566
 344.51 c 331.391 344.51 l 347.77 326.038 359.531 303.381 364.844 278.37
 c h
231.156 215.514 m 224.82 215.514 219.664 220.666 219.664 227.006 c 219.664
 235.588 l 219.664 241.928 224.82 247.08 231.156 247.08 c 280.801 247.08
 l 282.586 247.08 284.039 245.631 284.039 243.842 c 284.039 234.288 291.812
 226.514 301.367 226.514 c 302.102 226.514 302.695 225.916 302.695 225.186
 c 302.695 214.62 l 302.695 213.889 302.102 213.291 301.367 213.291 c 297.062
 213.291 l 287.508 213.291 279.73 205.518 279.73 195.963 c 279.73 176.58
 l 279.73 173.6 277.309 171.178 274.328 171.178 c 268.289 171.178 262.5 
168.608 258.453 164.127 c 254.109 159.323 l 254.109 192.561 l 254.109 205.217
 243.812 215.514 231.156 215.514 c h
222.52 393.6 m 257.52 393.6 289.668 381.178 314.797 360.51 c 280.566 360.51
 l 262.363 360.51 247.555 345.705 247.555 327.502 c 247.555 326.791 246.977
 326.213 246.266 326.213 c 232.793 326.213 221.832 315.252 221.832 301.776
 c 221.832 286.334 234.395 273.772 249.84 273.772 c 281.898 273.772 l 281.898
 263.049 l 281.535 263.069 281.168 263.08 280.801 263.08 c 231.156 263.08
 l 215.996 263.08 203.664 250.748 203.664 235.588 c 203.664 227.006 l 203.664
 211.846 215.996 199.514 231.156 199.514 c 234.988 199.514 238.109 196.393
 238.109 192.561 c 238.109 138.538 l 238.109 135.229 240.145 132.26 243.234
 131.073 c 244.172 130.713 245.145 130.538 246.105 130.538 c 248.324 130.538
 250.496 131.463 252.043 133.174 c 270.32 153.397 l 271.344 154.53 272.805
 155.178 274.328 155.178 c 286.129 155.178 295.73 164.776 295.73 176.58 
c 295.73 195.963 l 295.73 196.694 296.328 197.291 297.062 197.291 c 301.367
 197.291 l 310.922 197.291 318.695 205.065 318.695 214.62 c 318.695 225.186
 l 318.695 234.741 310.922 242.514 301.367 242.514 c 300.633 242.514 300.039
 243.108 300.039 243.842 c 300.039 244.936 299.941 246.01 299.766 247.057
 c 304.852 247.041 l 304.895 247.041 l 313.41 247.041 320.391 253.881 320.594
 262.37 c 367.32 262.37 l 367.777 257.674 368.02 252.913 368.02 248.1 c 
368.02 167.873 302.746 102.604 222.52 102.604 c 197.148 102.604 173.277 
109.135 152.488 120.6 c 157.727 124.76 161.098 131.178 161.098 138.37 c 
161.098 154.416 l 161.098 156.963 163.172 159.038 165.719 159.038 c 172.734
 159.038 l 187.129 159.038 198.84 170.748 198.84 185.143 c 198.84 199.534
 187.129 211.245 172.734 211.245 c 170.312 211.245 l 170.312 219.463 l 170.312
 232.815 159.445 243.678 146.094 243.678 c 108.184 243.678 l 94.723 243.678
 83.773 232.729 83.773 219.268 c 83.773 210.51 l 83.773 197.053 94.723 186.1
 108.184 186.1 c 112.344 186.1 115.73 182.717 115.73 178.553 c 115.73 149.389
 l 91.719 175.346 77.023 210.038 77.023 248.1 c 77.023 264.866 79.879 280.971
 85.121 295.971 c 85.309 295.955 85.492 295.94 85.684 295.94 c 90.777 295.94
 94.953 291.795 94.992 286.702 c 95 285.299 l 95.105 270.67 107.094 258.768
 121.723 258.768 c 143.707 258.768 l 157.738 258.768 169.156 270.186 169.156
 284.221 c 169.156 284.94 l 169.156 290.151 173.398 294.389 178.609 294.389
 c 192.645 294.389 204.062 305.807 204.062 319.842 c 204.062 323.659 l 204.062
 337.694 192.645 349.112 178.609 349.112 c 117.906 349.112 l 144.383 376.526
 181.492 393.6 222.52 393.6 c h
108.184 202.104 m 103.547 202.104 99.773 205.877 99.773 210.514 c 99.773
 219.272 l 99.773 223.909 103.547 227.682 108.184 227.682 c 146.094 227.682
 l 150.625 227.682 154.312 223.995 154.312 219.463 c 154.312 211.065 l 154.312
 202.342 161.406 195.245 170.129 195.245 c 172.734 195.245 l 178.309 195.245
 182.84 190.713 182.84 185.143 c 182.84 179.569 178.309 175.038 172.734 
175.038 c 165.719 175.038 l 154.348 175.038 145.098 165.788 145.098 154.416
 c 145.098 138.373 l 145.098 134.686 142.102 131.69 138.414 131.69 c 134.73
 131.69 131.73 134.686 131.73 138.373 c 131.73 178.557 l 131.73 191.538 
121.168 202.104 108.184 202.104 c h
178.609 333.116 m 183.824 333.116 188.062 328.873 188.062 323.663 c 188.062
 319.846 l 188.062 314.631 183.824 310.393 178.609 310.393 c 164.574 310.393
 153.156 298.975 153.156 284.94 c 153.156 284.225 l 153.156 279.01 148.918
 274.772 143.707 274.772 c 121.719 274.772 l 115.852 274.772 111.043 279.545
 111 285.413 c 110.988 286.819 l 110.902 298.686 102.559 308.651 91.461 
311.268 c 95.18 318.948 99.559 326.252 104.516 333.116 c h
94.578 120.159 m 25.926 188.811 24.09 299.354 89.051 370.256 c 102.859 
356.448 l 76.875 327.772 61.023 289.756 61.023 248.1 c 61.023 159.053 133.469
 86.604 222.52 86.604 c 264.172 86.604 302.191 102.455 330.867 128.444 c
 344.676 114.635 l 273.77 49.67 163.23 51.506 94.578 120.159 c h
94.578 120.159 m f
144.176 13.655 m 142.688 15.143 140.625 15.998 138.52 15.998 c 136.414 
15.998 134.352 15.143 132.863 13.655 c 131.375 12.166 130.52 10.104 130.52
 7.998 c 130.52 5.897 131.375 3.83 132.863 2.346 c 134.352 0.858 136.414
 -0.002 138.52 -0.002 c 140.625 -0.002 142.688 0.858 144.176 2.346 c 145.664
 3.83 146.52 5.897 146.52 7.998 c 146.52 10.104 145.664 12.166 144.176 13.655
 c h
144.176 13.655 m f
Q Q
showpage
%%Trailer
end restore
%%EOF
