%!PS-Adobe-3.0 EPSF-3.0
%%Creator: cairo 1.14.2 (http://cairographics.org)
%%CreationDate: Thu Jul 26 08:14:03 2018
%%Pages: 1
%%DocumentData: Clean7Bit
%%LanguageLevel: 2
%%BoundingBox: 0 -1 410 410
%%EndComments
%%BeginProlog
save
50 dict begin
/q { gsave } bind def
/Q { grestore } bind def
/cm { 6 array astore concat } bind def
/w { setlinewidth } bind def
/J { setlinecap } bind def
/j { setlinejoin } bind def
/M { setmiterlimit } bind def
/d { setdash } bind def
/m { moveto } bind def
/l { lineto } bind def
/c { curveto } bind def
/h { closepath } bind def
/re { exch dup neg 3 1 roll 5 3 roll moveto 0 rlineto
      0 exch rlineto 0 rlineto closepath } bind def
/S { stroke } bind def
/f { fill } bind def
/f* { eofill } bind def
/n { newpath } bind def
/W { clip } bind def
/W* { eoclip } bind def
/BT { } bind def
/ET { } bind def
/pdfmark where { pop globaldict /?pdfmark /exec load put }
    { globaldict begin /?pdfmark /pop load def /pdfmark
    /cleartomark load def end } ifelse
/BDC { mark 3 1 roll /BDC pdfmark } bind def
/EMC { mark /EMC pdfmark } bind def
/cairo_store_point { /cairo_point_y exch def /cairo_point_x exch def } def
/Tj { show currentpoint cairo_store_point } bind def
/TJ {
  {
    dup
    type /stringtype eq
    { show } { -0.001 mul 0 cairo_font_matrix dtransform rmoveto } ifelse
  } forall
  currentpoint cairo_store_point
} bind def
/cairo_selectfont { cairo_font_matrix aload pop pop pop 0 0 6 array astore
    cairo_font exch selectfont cairo_point_x cairo_point_y moveto } bind def
/Tf { pop /cairo_font exch def /cairo_font_matrix where
      { pop cairo_selectfont } if } bind def
/Td { matrix translate cairo_font_matrix matrix concatmatrix dup
      /cairo_font_matrix exch def dup 4 get exch 5 get cairo_store_point
      /cairo_font where { pop cairo_selectfont } if } bind def
/Tm { 2 copy 8 2 roll 6 array astore /cairo_font_matrix exch def
      cairo_store_point /cairo_font where { pop cairo_selectfont } if } bind def
/g { setgray } bind def
/rg { setrgbcolor } bind def
/d1 { setcachedevice } bind def
%%EndProlog
%%BeginSetup
%%EndSetup
%%Page: 1 1
%%BeginPageSetup
%%PageBoundingBox: 0 -1 410 410
%%EndPageSetup
q 0 -1 410 411 rectclip q
0 g
99.637 74.077 m 99.629 74.077 l 95.211 74.077 91.637 70.498 91.637 66.08
 c 91.637 61.666 95.223 58.084 99.637 58.084 c 104.051 58.084 107.633 61.666
 107.633 66.08 c 107.633 70.498 104.055 74.077 99.637 74.077 c h
99.637 74.077 m f
161.281 170.143 m 156.867 170.143 153.285 166.565 153.285 162.147 c 153.285
 156.827 l 153.285 152.409 156.867 148.83 161.281 148.83 c 165.699 148.83
 169.277 152.409 169.277 156.827 c 169.277 162.147 l 169.277 166.565 165.699
 170.143 161.281 170.143 c h
161.281 170.143 m f
220.23 170.143 m 215.812 170.143 212.234 166.565 212.234 162.147 c 212.234
 156.827 l 212.234 152.409 215.812 148.83 220.23 148.83 c 224.645 148.83
 228.227 152.409 228.227 156.827 c 228.227 162.147 l 228.227 166.565 224.645
 170.143 220.23 170.143 c h
220.23 170.143 m f
193.418 204.799 m 189 204.799 185.422 201.221 185.422 196.803 c 185.422
 191.479 l 185.422 187.065 189 183.487 193.418 183.487 c 197.832 183.487
 201.414 187.065 201.414 191.479 c 201.414 196.803 l 201.414 201.221 197.832
 204.799 193.418 204.799 c h
193.418 204.799 m f
134.668 203.401 m 130.25 203.401 126.672 199.819 126.672 195.405 c 126.672
 190.08 l 126.672 185.666 130.25 182.084 134.668 182.084 c 139.082 182.084
 142.664 185.666 142.664 190.08 c 142.664 195.405 l 142.664 199.819 139.082
 203.401 134.668 203.401 c h
134.668 203.401 m f
106.594 170.143 m 102.18 170.143 98.598 166.565 98.598 162.147 c 98.598
 156.827 l 98.598 152.409 102.18 148.83 106.594 148.83 c 111.012 148.83 
114.59 152.409 114.59 156.827 c 114.59 162.147 l 114.59 166.565 111.012 
170.143 106.594 170.143 c h
106.594 170.143 m f
79.98 203.401 m 75.562 203.401 71.984 199.819 71.984 195.405 c 71.984 190.08
 l 71.984 185.666 75.562 182.084 79.98 182.084 c 84.395 182.084 87.977 185.666
 87.977 190.08 c 87.977 195.405 l 87.977 199.819 84.395 203.401 79.98 203.401
 c h
79.98 203.401 m f
51.906 170.143 m 47.492 170.143 43.91 166.565 43.91 162.147 c 43.91 156.827
 l 43.91 152.409 47.492 148.83 51.906 148.83 c 56.324 148.83 59.902 152.409
 59.902 156.827 c 59.902 162.147 l 59.902 166.565 56.324 170.143 51.906 
170.143 c h
51.906 170.143 m f
407.258 100.311 m 405.77 101.807 403.707 102.655 401.605 102.655 c 399.5
 102.655 397.438 101.807 395.953 100.311 c 394.465 98.823 393.609 96.768
 393.609 94.659 c 393.609 92.557 394.465 90.502 395.953 89.006 c 397.438
 87.518 399.504 86.67 401.605 86.67 c 403.707 86.67 405.77 87.518 407.258
 89.006 c 408.746 90.495 409.602 92.557 409.602 94.659 c 409.602 96.768 
408.746 98.823 407.258 100.311 c h
407.258 100.311 m f
401.605 115.737 m 406.02 115.737 409.602 119.315 409.602 123.733 c 409.602
 331.932 l 409.602 350.893 394.176 366.315 375.219 366.315 c 355.266 366.315
 l 355.266 384.686 l 355.266 398.366 344.137 409.491 330.461 409.491 c 293.641
 409.491 l 279.965 409.491 268.836 398.366 268.836 384.686 c 268.836 366.315
 l 248.883 366.315 l 229.926 366.315 214.504 350.889 214.504 331.932 c 214.504
 234.745 l 208.562 236.241 202.348 237.041 195.949 237.041 c 75.906 237.041
 l 34.051 237.041 0 202.991 0 161.135 c 0 141.944 l 0 132.53 4.395 124.131
 11.234 118.67 c 4.414 112.276 0.141 103.194 0.141 93.123 c 0.141 84.323
 3.41 76.276 8.785 70.116 c 3.473 66.288 0 60.053 0 53.018 c 0 23.842 23.734
 0.108 52.91 0.108 c 375.219 0.108 l 394.176 0.108 409.602 15.534 409.602
 34.491 c 409.602 66.08 l 409.602 70.498 406.02 74.077 401.605 74.077 c 
397.188 74.077 393.609 70.498 393.609 66.08 c 393.609 34.491 l 393.609 24.35
 385.359 16.1 375.219 16.1 c 256.797 16.1 l 266.105 25.639 271.855 38.666
 271.855 53.018 c 271.855 59.975 268.461 66.155 263.242 69.995 c 268.684
 76.17 271.996 84.264 271.996 93.123 c 271.996 103.256 267.672 112.389 260.773
 118.791 c 267.527 124.256 271.855 132.6 271.855 141.944 c 271.855 161.135
 l 271.855 190.557 255.031 216.123 230.496 228.717 c 230.496 331.932 l 230.496
 342.073 238.746 350.323 248.887 350.323 c 375.219 350.323 l 385.359 350.323
 393.609 342.073 393.609 331.932 c 393.609 123.729 l 393.609 119.315 397.188
 115.737 401.605 115.737 c h
127.348 58.088 m 250.797 58.088 l 253.594 58.088 255.867 55.815 255.867
 53.018 c 255.867 32.663 239.305 16.1 218.949 16.1 c 52.91 16.1 l 32.555
 16.1 15.992 32.663 15.992 53.018 c 15.992 55.811 18.266 58.088 21.059 58.088
 c 70.312 58.088 l 74.727 58.088 78.309 61.666 78.309 66.08 c 78.309 70.498
 74.727 74.077 70.312 74.077 c 35.18 74.077 l 24.676 74.077 16.133 82.623
 16.133 93.123 c 16.133 103.627 24.676 112.17 35.18 112.17 c 236.961 112.17
 l 247.461 112.17 256.004 103.627 256.004 93.123 c 256.004 82.623 247.461
 74.077 236.961 74.077 c 127.348 74.077 l 122.934 74.077 119.352 70.498 
119.352 66.08 c 119.352 61.666 122.934 58.088 127.348 58.088 c h
255.863 161.135 m 255.863 141.944 l 255.863 134.346 249.684 128.163 242.086
 128.163 c 29.77 128.163 l 22.172 128.163 15.992 134.346 15.992 141.944 
c 15.992 161.135 l 15.992 194.174 42.867 221.053 75.906 221.053 c 195.949
 221.053 l 228.988 221.049 255.863 194.174 255.863 161.135 c h
339.273 366.315 m 284.828 366.315 l 284.828 384.686 l 284.828 389.545 288.781
 393.498 293.641 393.498 c 330.461 393.498 l 335.32 393.498 339.273 389.545
 339.273 384.686 c h
339.273 366.315 m f
342.055 268.791 m 317.703 293.143 l 314.582 296.264 309.52 296.264 306.395
 293.143 c 282.043 268.791 l 265.5 252.245 265.5 225.327 282.043 208.78 
c 290.059 200.764 300.715 196.35 312.047 196.35 c 323.383 196.35 334.039
 200.764 342.055 208.78 c 358.602 225.323 358.602 252.245 342.055 268.791
 c h
330.75 220.088 m 325.754 215.092 319.113 212.342 312.051 212.342 c 304.988
 212.342 298.348 215.092 293.352 220.088 c 283.043 230.397 283.043 247.17
 293.352 257.483 c 312.051 276.182 l 330.75 257.483 l 341.059 247.17 341.059
 230.397 330.75 220.088 c h
330.75 220.088 m f
329.641 167.483 m 294.461 167.483 l 290.043 167.483 286.465 163.901 286.465
 159.487 c 286.465 155.073 290.043 151.491 294.461 151.491 c 329.641 151.491
 l 334.059 151.491 337.637 155.073 337.637 159.487 c 337.637 163.901 334.059
 167.483 329.641 167.483 c h
329.641 167.483 m f
329.641 131.729 m 294.461 131.729 l 290.043 131.729 286.465 128.147 286.465
 123.733 c 286.465 119.315 290.043 115.737 294.461 115.737 c 329.641 115.737
 l 334.059 115.737 337.637 119.315 337.637 123.733 c 337.637 128.147 334.059
 131.729 329.641 131.729 c h
329.641 131.729 m f
Q Q
showpage
%%Trailer
end restore
%%EOF
