%!PS-Adobe-3.0 EPSF-3.0
%%Creator: cairo 1.14.2 (http://cairographics.org)
%%CreationDate: Thu Jul 26 08:14:03 2018
%%Pages: 1
%%DocumentData: Clean7Bit
%%LanguageLevel: 2
%%BoundingBox: 0 15 410 394
%%EndComments
%%BeginProlog
save
50 dict begin
/q { gsave } bind def
/Q { grestore } bind def
/cm { 6 array astore concat } bind def
/w { setlinewidth } bind def
/J { setlinecap } bind def
/j { setlinejoin } bind def
/M { setmiterlimit } bind def
/d { setdash } bind def
/m { moveto } bind def
/l { lineto } bind def
/c { curveto } bind def
/h { closepath } bind def
/re { exch dup neg 3 1 roll 5 3 roll moveto 0 rlineto
      0 exch rlineto 0 rlineto closepath } bind def
/S { stroke } bind def
/f { fill } bind def
/f* { eofill } bind def
/n { newpath } bind def
/W { clip } bind def
/W* { eoclip } bind def
/BT { } bind def
/ET { } bind def
/pdfmark where { pop globaldict /?pdfmark /exec load put }
    { globaldict begin /?pdfmark /pop load def /pdfmark
    /cleartomark load def end } ifelse
/BDC { mark 3 1 roll /BDC pdfmark } bind def
/EMC { mark /EMC pdfmark } bind def
/cairo_store_point { /cairo_point_y exch def /cairo_point_x exch def } def
/Tj { show currentpoint cairo_store_point } bind def
/TJ {
  {
    dup
    type /stringtype eq
    { show } { -0.001 mul 0 cairo_font_matrix dtransform rmoveto } ifelse
  } forall
  currentpoint cairo_store_point
} bind def
/cairo_selectfont { cairo_font_matrix aload pop pop pop 0 0 6 array astore
    cairo_font exch selectfont cairo_point_x cairo_point_y moveto } bind def
/Tf { pop /cairo_font exch def /cairo_font_matrix where
      { pop cairo_selectfont } if } bind def
/Td { matrix translate cairo_font_matrix matrix concatmatrix dup
      /cairo_font_matrix exch def dup 4 get exch 5 get cairo_store_point
      /cairo_font where { pop cairo_selectfont } if } bind def
/Tm { 2 copy 8 2 roll 6 array astore /cairo_font_matrix exch def
      cairo_store_point /cairo_font where { pop cairo_selectfont } if } bind def
/g { setgray } bind def
/rg { setrgbcolor } bind def
/d1 { setcachedevice } bind def
%%EndProlog
%%BeginSetup
%%EndSetup
%%Page: 1 1
%%BeginPageSetup
%%PageBoundingBox: 0 15 410 394
%%EndPageSetup
q 0 15 410 379 rectclip q
0 g
407.254 149.655 m 405.77 151.147 403.703 151.998 401.602 151.998 c 399.496
 151.998 397.434 151.143 395.945 149.655 c 394.457 148.166 393.602 146.104
 393.602 143.998 c 393.602 141.897 394.457 139.83 395.945 138.346 c 397.434
 136.858 399.496 135.998 401.602 135.998 c 403.703 135.998 405.77 136.858
 407.254 138.346 c 408.742 139.834 409.602 141.897 409.602 143.998 c 409.602
 146.104 408.742 148.17 407.254 149.655 c h
407.254 149.655 m f
401.602 119.202 m 397.184 119.202 393.602 115.62 393.602 111.202 c 393.602
 56.026 l 393.602 42.791 382.832 32.026 369.602 32.026 c 40 32.026 l 27.305
 32.026 16.887 41.936 16.059 54.424 c 121.867 54.424 l 126.285 54.424 129.867
 58.006 129.867 62.424 c 129.867 66.842 126.285 70.424 121.867 70.424 c 
16 70.424 l 16 200.284 l 23.207 194.557 32.312 191.123 42.211 191.123 c 
69.16 191.123 l 69.16 178.01 l 69.16 159.928 83.875 145.213 101.961 145.213
 c 104.281 145.213 l 122.367 145.213 137.082 159.928 137.082 178.01 c 137.082
 191.123 l 272.516 191.123 l 272.516 178.01 l 272.516 159.928 287.23 145.213
 305.316 145.213 c 307.637 145.213 l 325.723 145.213 340.438 159.928 340.438
 178.01 c 340.438 191.123 l 367.391 191.123 l 377.289 191.123 386.395 194.557
 393.598 200.284 c 393.598 175.135 l 393.598 170.717 397.18 167.135 401.598
 167.135 c 406.016 167.135 409.598 170.717 409.598 175.135 c 409.598 281.627
 l 409.602 303.682 391.656 321.627 369.602 321.627 c 296.125 321.627 l 296.125
 351.987 l 296.125 374.92 277.465 393.577 254.535 393.577 c 155.066 393.577
 l 132.133 393.577 113.477 374.92 113.477 351.987 c 113.477 321.627 l 40
 321.627 l 17.945 321.627 0 303.682 0 281.627 c 0 56.026 l 0 33.971 17.945
 16.026 40 16.026 c 369.602 16.026 l 391.656 16.026 409.602 33.971 409.602
 56.026 c 409.602 111.202 l 409.602 115.62 406.02 119.202 401.602 119.202
 c h
121.082 178.014 m 121.082 168.748 113.547 161.213 104.281 161.213 c 101.961
 161.213 l 92.699 161.213 85.16 168.748 85.16 178.014 c 85.16 207.225 l 
121.082 207.225 l h
324.438 178.014 m 324.438 168.748 316.902 161.213 307.641 161.213 c 305.316
 161.213 l 296.055 161.213 288.52 168.748 288.52 178.014 c 288.52 207.225
 l 324.438 207.225 l h
129.477 351.987 m 129.477 366.096 140.957 377.577 155.066 377.577 c 254.535
 377.577 l 268.645 377.577 280.125 366.096 280.125 351.987 c 280.125 321.627
 l 264.125 321.627 l 264.125 353.577 l 264.125 357.995 260.539 361.577 256.125
 361.577 c 153.477 361.577 l 149.059 361.577 145.477 357.995 145.477 353.577
 c 145.477 321.623 l 129.477 321.623 l h
248.125 345.577 m 248.125 321.623 l 161.477 321.623 l 161.477 345.577 l
 h
16 281.627 m 16 294.858 26.766 305.627 40 305.627 c 369.602 305.627 l 382.832
 305.627 393.602 294.858 393.602 281.627 c 393.602 233.334 l 393.602 218.881
 381.844 207.123 367.391 207.123 c 340.438 207.123 l 340.438 212.827 l 340.438
 218.561 335.773 223.225 330.039 223.225 c 282.918 223.225 l 277.184 223.225
 272.52 218.561 272.52 212.827 c 272.52 207.123 l 137.082 207.123 l 137.082
 212.827 l 137.082 218.561 132.418 223.225 126.684 223.225 c 79.562 223.225
 l 73.828 223.225 69.16 218.561 69.16 212.827 c 69.16 207.123 l 42.211 207.123
 l 27.758 207.123 16 218.881 16 233.334 c h
16 281.627 m f
153.461 70.424 m 153.332 70.424 l 148.914 70.424 145.332 66.842 145.332
 62.424 c 145.332 58.006 148.914 54.424 153.332 54.424 c 153.461 54.424 
l 157.879 54.424 161.461 58.006 161.461 62.424 c 161.461 66.842 157.879 
70.424 153.461 70.424 c h
153.461 70.424 m f
Q Q
showpage
%%Trailer
end restore
%%EOF
