%!PS-Adobe-3.0 EPSF-3.0
%%Creator: cairo 1.14.2 (http://cairographics.org)
%%CreationDate: Thu Jul 26 08:14:03 2018
%%Pages: 1
%%DocumentData: Clean7Bit
%%LanguageLevel: 2
%%BoundingBox: 0 -1 410 410
%%EndComments
%%BeginProlog
save
50 dict begin
/q { gsave } bind def
/Q { grestore } bind def
/cm { 6 array astore concat } bind def
/w { setlinewidth } bind def
/J { setlinecap } bind def
/j { setlinejoin } bind def
/M { setmiterlimit } bind def
/d { setdash } bind def
/m { moveto } bind def
/l { lineto } bind def
/c { curveto } bind def
/h { closepath } bind def
/re { exch dup neg 3 1 roll 5 3 roll moveto 0 rlineto
      0 exch rlineto 0 rlineto closepath } bind def
/S { stroke } bind def
/f { fill } bind def
/f* { eofill } bind def
/n { newpath } bind def
/W { clip } bind def
/W* { eoclip } bind def
/BT { } bind def
/ET { } bind def
/pdfmark where { pop globaldict /?pdfmark /exec load put }
    { globaldict begin /?pdfmark /pop load def /pdfmark
    /cleartomark load def end } ifelse
/BDC { mark 3 1 roll /BDC pdfmark } bind def
/EMC { mark /EMC pdfmark } bind def
/cairo_store_point { /cairo_point_y exch def /cairo_point_x exch def } def
/Tj { show currentpoint cairo_store_point } bind def
/TJ {
  {
    dup
    type /stringtype eq
    { show } { -0.001 mul 0 cairo_font_matrix dtransform rmoveto } ifelse
  } forall
  currentpoint cairo_store_point
} bind def
/cairo_selectfont { cairo_font_matrix aload pop pop pop 0 0 6 array astore
    cairo_font exch selectfont cairo_point_x cairo_point_y moveto } bind def
/Tf { pop /cairo_font exch def /cairo_font_matrix where
      { pop cairo_selectfont } if } bind def
/Td { matrix translate cairo_font_matrix matrix concatmatrix dup
      /cairo_font_matrix exch def dup 4 get exch 5 get cairo_store_point
      /cairo_font where { pop cairo_selectfont } if } bind def
/Tm { 2 copy 8 2 roll 6 array astore /cairo_font_matrix exch def
      cairo_store_point /cairo_font where { pop cairo_selectfont } if } bind def
/g { setgray } bind def
/rg { setrgbcolor } bind def
/d1 { setcachedevice } bind def
%%EndProlog
%%BeginSetup
%%EndSetup
%%Page: 1 1
%%BeginPageSetup
%%PageBoundingBox: 0 -1 410 410
%%EndPageSetup
q 0 -1 410 411 rectclip q
0 g
292.055 407.256 m 290.566 408.745 288.504 409.6 286.398 409.6 c 284.297
 409.6 282.23 408.745 280.742 407.256 c 279.258 405.768 278.398 403.705 
278.398 401.6 c 278.398 399.495 279.254 397.432 280.742 395.944 c 282.23
 394.455 284.297 393.6 286.398 393.6 c 288.504 393.6 290.566 394.455 292.055
 395.944 c 293.543 397.432 294.398 399.495 294.398 401.6 c 294.398 403.705
 293.543 405.768 292.055 407.256 c h
292.055 407.256 m f
363.199 409.6 m 318.398 409.6 l 313.98 409.6 310.398 406.018 310.398 401.6
 c 310.398 397.182 313.98 393.6 318.398 393.6 c 363.199 393.6 l 379.961 
393.6 393.602 379.963 393.602 363.202 c 393.602 46.401 l 393.602 29.639 
379.961 15.998 363.199 15.998 c 46.398 15.998 l 29.637 15.998 16 29.639 
16 46.401 c 16 363.202 l 16 379.963 29.637 393.6 46.398 393.6 c 248.801 
393.6 l 253.219 393.6 256.801 397.182 256.801 401.6 c 256.801 406.018 253.219
 409.6 248.801 409.6 c 46.398 409.6 l 20.816 409.6 0 388.784 0 363.202 c
 0 46.401 l 0 20.815 20.816 -0.002 46.398 -0.002 c 363.199 -0.002 l 388.785
 -0.002 409.602 20.815 409.602 46.401 c 409.602 363.202 l 409.602 388.784
 388.785 409.6 363.199 409.6 c h
363.199 409.6 m f
358.699 211.362 m 357.238 243.666 345.504 274.998 325.285 300.256 c 304.406
 326.338 275.273 345.073 243.074 353.19 c 239.32 360.998 231.328 366.401
 222.102 366.401 c 188.926 366.401 l 176.102 366.401 165.664 355.963 165.664
 343.139 c 165.664 325.053 l 115.113 308.303 78.539 260.592 78.539 204.491
 c 78.539 134.475 135.5 77.514 205.516 77.514 c 263.359 77.518 312.285 116.397
 327.551 169.393 c 332.535 161.799 341.117 156.768 350.859 156.768 c 366.223
 156.768 378.719 169.268 378.719 184.631 c 378.719 197.272 370.254 207.963
 358.699 211.362 c h
181.664 343.139 m 181.664 347.143 184.922 350.401 188.926 350.401 c 222.102
 350.401 l 226.105 350.401 229.363 347.143 229.363 343.139 c 229.363 329.209
 l 221.637 330.686 213.664 331.467 205.516 331.467 c 197.363 331.467 189.395
 330.686 181.664 329.209 c h
205.516 93.514 m 144.324 93.514 94.539 143.299 94.539 204.491 c 94.539 
265.682 144.324 315.467 205.516 315.467 c 266.707 315.467 316.492 265.682
 316.492 204.491 c 316.492 143.299 266.707 93.514 205.516 93.514 c h
245.363 325.053 m 245.363 335.971 l 301.023 319.221 339.879 269.526 342.691
 211.268 c 338.871 210.092 335.406 208.12 332.477 205.541 c 332.023 261.186
 295.602 308.409 245.363 325.053 c h
350.859 172.772 m 344.32 172.772 338.996 178.092 338.996 184.631 c 338.996
 191.17 344.32 196.491 350.859 196.491 c 357.398 196.491 362.719 191.17 
362.719 184.631 c 362.719 178.092 357.398 172.772 350.859 172.772 c h
350.859 172.772 m f
205.516 233.366 m 189.594 233.366 176.637 220.413 176.637 204.491 c 176.637
 188.569 189.594 175.616 205.516 175.616 c 221.438 175.616 234.391 188.569
 234.391 204.491 c 234.391 220.413 221.438 233.366 205.516 233.366 c h
205.516 191.616 m 198.414 191.616 192.641 197.393 192.641 204.491 c 192.641
 211.592 198.414 217.366 205.516 217.366 c 212.613 217.366 218.391 211.592
 218.391 204.491 c 218.391 197.393 212.613 191.616 205.516 191.616 c h
205.516 191.616 m f
125.199 58.799 m 51.199 58.799 l 46.781 58.799 43.199 55.217 43.199 50.799
 c 43.199 46.381 46.781 42.799 51.199 42.799 c 125.199 42.799 l 129.617 
42.799 133.199 46.381 133.199 50.799 c 133.199 55.217 129.617 58.799 125.199
 58.799 c h
125.199 58.799 m f
160.656 56.455 m 159.168 57.944 157.105 58.799 155 58.799 c 152.895 58.799
 150.832 57.944 149.344 56.455 c 147.855 54.967 147 52.905 147 50.799 c 
147 48.698 147.855 46.631 149.344 45.143 c 150.832 43.659 152.895 42.799
 155 42.799 c 157.105 42.799 159.168 43.655 160.656 45.143 c 162.145 46.631
 163 48.698 163 50.799 c 163 52.905 162.145 54.967 160.656 56.455 c h
160.656 56.455 m f
Q Q
showpage
%%Trailer
end restore
%%EOF
