%!PS-Adobe-3.0 EPSF-3.0
%%Creator: cairo 1.14.2 (http://cairographics.org)
%%CreationDate: Thu Jul 26 08:14:03 2018
%%Pages: 1
%%DocumentData: Clean7Bit
%%LanguageLevel: 2
%%BoundingBox: 0 -1 410 410
%%EndComments
%%BeginProlog
save
50 dict begin
/q { gsave } bind def
/Q { grestore } bind def
/cm { 6 array astore concat } bind def
/w { setlinewidth } bind def
/J { setlinecap } bind def
/j { setlinejoin } bind def
/M { setmiterlimit } bind def
/d { setdash } bind def
/m { moveto } bind def
/l { lineto } bind def
/c { curveto } bind def
/h { closepath } bind def
/re { exch dup neg 3 1 roll 5 3 roll moveto 0 rlineto
      0 exch rlineto 0 rlineto closepath } bind def
/S { stroke } bind def
/f { fill } bind def
/f* { eofill } bind def
/n { newpath } bind def
/W { clip } bind def
/W* { eoclip } bind def
/BT { } bind def
/ET { } bind def
/pdfmark where { pop globaldict /?pdfmark /exec load put }
    { globaldict begin /?pdfmark /pop load def /pdfmark
    /cleartomark load def end } ifelse
/BDC { mark 3 1 roll /BDC pdfmark } bind def
/EMC { mark /EMC pdfmark } bind def
/cairo_store_point { /cairo_point_y exch def /cairo_point_x exch def } def
/Tj { show currentpoint cairo_store_point } bind def
/TJ {
  {
    dup
    type /stringtype eq
    { show } { -0.001 mul 0 cairo_font_matrix dtransform rmoveto } ifelse
  } forall
  currentpoint cairo_store_point
} bind def
/cairo_selectfont { cairo_font_matrix aload pop pop pop 0 0 6 array astore
    cairo_font exch selectfont cairo_point_x cairo_point_y moveto } bind def
/Tf { pop /cairo_font exch def /cairo_font_matrix where
      { pop cairo_selectfont } if } bind def
/Td { matrix translate cairo_font_matrix matrix concatmatrix dup
      /cairo_font_matrix exch def dup 4 get exch 5 get cairo_store_point
      /cairo_font where { pop cairo_selectfont } if } bind def
/Tm { 2 copy 8 2 roll 6 array astore /cairo_font_matrix exch def
      cairo_store_point /cairo_font where { pop cairo_selectfont } if } bind def
/g { setgray } bind def
/rg { setrgbcolor } bind def
/d1 { setcachedevice } bind def
%%EndProlog
%%BeginSetup
%%EndSetup
%%Page: 1 1
%%BeginPageSetup
%%PageBoundingBox: 0 -1 410 410
%%EndPageSetup
q 0 -1 410 411 rectclip q
0 g
238.398 286.401 m 171.199 286.401 l 166.781 286.401 163.199 282.819 163.199
 278.401 c 163.199 246.401 l 163.199 241.983 166.781 238.401 171.199 238.401
 c 238.398 238.401 l 242.816 238.401 246.398 241.983 246.398 246.401 c 246.398
 278.401 l 246.398 282.819 242.816 286.401 238.398 286.401 c h
230.398 254.401 m 179.199 254.401 l 179.199 270.401 l 230.398 270.401 l
 h
230.398 254.401 m f
238.398 215.998 m 171.199 215.998 l 166.781 215.998 163.199 212.416 163.199
 207.998 c 163.199 203.58 166.781 199.998 171.199 199.998 c 238.398 199.998
 l 242.816 199.998 246.398 203.58 246.398 207.998 c 246.398 212.416 242.816
 215.998 238.398 215.998 c h
238.398 215.998 m f
238.398 177.6 m 171.199 177.6 l 166.781 177.6 163.199 174.018 163.199 169.6
 c 163.199 165.182 166.781 161.6 171.199 161.6 c 238.398 161.6 l 242.816
 161.6 246.398 165.182 246.398 169.6 c 246.398 174.018 242.816 177.6 238.398
 177.6 c h
238.398 177.6 m f
238.398 139.202 m 171.199 139.202 l 166.781 139.202 163.199 135.62 163.199
 131.202 c 163.199 126.784 166.781 123.202 171.199 123.202 c 238.398 123.202
 l 242.816 123.202 246.398 126.784 246.398 131.202 c 246.398 135.62 242.816
 139.202 238.398 139.202 c h
238.398 139.202 m f
107.199 286.401 m 40 286.401 l 35.582 286.401 32 282.819 32 278.401 c 32
 246.401 l 32 241.983 35.582 238.401 40 238.401 c 107.199 238.401 l 111.617
 238.401 115.199 241.983 115.199 246.401 c 115.199 278.401 l 115.199 282.819
 111.617 286.401 107.199 286.401 c h
99.199 254.401 m 48 254.401 l 48 270.401 l 99.199 270.401 l h
99.199 254.401 m f
107.199 215.998 m 40 215.998 l 35.582 215.998 32 212.416 32 207.998 c 32
 203.58 35.582 199.998 40 199.998 c 107.199 199.998 l 111.617 199.998 115.199
 203.58 115.199 207.998 c 115.199 212.416 111.617 215.998 107.199 215.998
 c h
107.199 215.998 m f
107.199 177.6 m 40 177.6 l 35.582 177.6 32 174.018 32 169.6 c 32 165.182
 35.582 161.6 40 161.6 c 107.199 161.6 l 111.617 161.6 115.199 165.182 115.199
 169.6 c 115.199 174.018 111.617 177.6 107.199 177.6 c h
107.199 177.6 m f
107.199 139.202 m 68.535 139.202 l 64.117 139.202 60.535 135.62 60.535 
131.202 c 60.535 126.784 64.117 123.202 68.535 123.202 c 107.199 123.202
 l 111.617 123.202 115.199 126.784 115.199 131.202 c 115.199 135.62 111.617
 139.202 107.199 139.202 c h
107.199 139.202 m f
45.656 136.858 m 44.168 138.346 42.105 139.202 40 139.202 c 37.895 139.202
 35.832 138.346 34.344 136.858 c 32.855 135.366 32 133.303 32 131.202 c 
32 129.096 32.855 127.034 34.344 125.545 c 35.832 124.057 37.895 123.202
 40 123.202 c 42.105 123.202 44.168 124.057 45.656 125.545 c 47.145 127.034
 48 129.096 48 131.202 c 48 133.303 47.145 135.37 45.656 136.858 c h
45.656 136.858 m f
369.602 286.401 m 302.398 286.401 l 297.98 286.401 294.398 282.819 294.398
 278.401 c 294.398 246.401 l 294.398 241.983 297.98 238.401 302.398 238.401
 c 369.602 238.401 l 374.02 238.401 377.602 241.983 377.602 246.401 c 377.602
 278.401 l 377.602 282.819 374.02 286.401 369.602 286.401 c h
361.602 254.401 m 310.398 254.401 l 310.398 270.401 l 361.602 270.401 l
 h
361.602 254.401 m f
369.602 215.998 m 302.398 215.998 l 297.98 215.998 294.398 212.416 294.398
 207.998 c 294.398 203.58 297.98 199.998 302.398 199.998 c 369.602 199.998
 l 374.02 199.998 377.602 203.58 377.602 207.998 c 377.602 212.416 374.02
 215.998 369.602 215.998 c h
369.602 215.998 m f
369.602 177.6 m 302.398 177.6 l 297.98 177.6 294.398 174.018 294.398 169.6
 c 294.398 165.182 297.98 161.6 302.398 161.6 c 369.602 161.6 l 374.02 161.6
 377.602 165.182 377.602 169.6 c 377.602 174.018 374.02 177.6 369.602 177.6
 c h
369.602 177.6 m f
369.602 139.202 m 302.398 139.202 l 297.98 139.202 294.398 135.62 294.398
 131.202 c 294.398 126.784 297.98 123.202 302.398 123.202 c 369.602 123.202
 l 374.02 123.202 377.602 126.784 377.602 131.202 c 377.602 135.62 374.02
 139.202 369.602 139.202 c h
369.602 139.202 m f
401.602 326.666 m 406.02 326.666 409.602 330.248 409.602 334.666 c 409.602
 385.6 l 409.602 398.834 398.832 409.6 385.602 409.6 c 286.398 409.6 l 280.258
 409.6 274.648 407.28 270.398 403.471 c 266.152 407.28 260.543 409.6 254.398
 409.6 c 155.199 409.6 l 149.059 409.6 143.449 407.28 139.199 403.471 c 
134.949 407.28 129.344 409.6 123.199 409.6 c 24 409.6 l 10.766 409.6 0 398.834
 0 385.6 c 0 23.998 l 0 10.768 10.766 -0.002 24 -0.002 c 123.199 -0.002 
l 129.344 -0.002 134.949 2.323 139.199 6.131 c 143.449 2.323 149.059 -0.002
 155.199 -0.002 c 254.398 -0.002 l 260.543 -0.002 266.152 2.323 270.398 
6.131 c 274.648 2.323 280.258 -0.002 286.398 -0.002 c 385.602 -0.002 l 398.832
 -0.002 409.602 10.768 409.602 23.998 c 409.602 272.799 l 409.602 277.217
 406.02 280.799 401.602 280.799 c 397.184 280.799 393.602 277.217 393.602
 272.799 c 393.602 23.998 l 393.602 19.588 390.012 15.998 385.602 15.998
 c 286.398 15.998 l 281.988 15.998 278.398 19.588 278.398 23.998 c 278.398
 385.6 l 278.398 390.01 281.988 393.6 286.398 393.6 c 385.602 393.6 l 390.012
 393.6 393.602 390.01 393.602 385.6 c 393.602 334.666 l 393.602 330.248 
397.184 326.666 401.602 326.666 c h
131.199 23.998 m 131.199 19.588 127.609 15.998 123.199 15.998 c 24 15.998
 l 19.59 15.998 16 19.588 16 23.998 c 16 385.6 l 16 390.01 19.59 393.6 24
 393.6 c 123.199 393.6 l 127.609 393.6 131.199 390.01 131.199 385.6 c h
262.398 23.998 m 262.398 19.588 258.812 15.998 254.398 15.998 c 155.199
 15.998 l 150.789 15.998 147.199 19.588 147.199 23.998 c 147.199 385.6 l
 147.199 390.01 150.789 393.6 155.199 393.6 c 254.398 393.6 l 258.812 393.6
 262.398 390.01 262.398 385.6 c h
262.398 23.998 m f
407.254 307.256 m 405.77 308.745 403.703 309.6 401.602 309.6 c 399.496 
309.6 397.434 308.745 395.945 307.256 c 394.457 305.768 393.602 303.713 
393.602 301.6 c 393.602 299.495 394.457 297.432 395.945 295.944 c 397.434
 294.455 399.496 293.6 401.602 293.6 c 403.703 293.6 405.77 294.455 407.254
 295.944 c 408.742 297.432 409.602 299.495 409.602 301.6 c 409.602 303.705
 408.742 305.768 407.254 307.256 c h
407.254 307.256 m f
Q Q
showpage
%%Trailer
end restore
%%EOF
