%!PS-Adobe-3.0 EPSF-3.0
%%Creator: cairo 1.14.2 (http://cairographics.org)
%%CreationDate: Thu Jul 26 08:14:03 2018
%%Pages: 1
%%DocumentData: Clean7Bit
%%LanguageLevel: 2
%%BoundingBox: 0 -1 410 410
%%EndComments
%%BeginProlog
save
50 dict begin
/q { gsave } bind def
/Q { grestore } bind def
/cm { 6 array astore concat } bind def
/w { setlinewidth } bind def
/J { setlinecap } bind def
/j { setlinejoin } bind def
/M { setmiterlimit } bind def
/d { setdash } bind def
/m { moveto } bind def
/l { lineto } bind def
/c { curveto } bind def
/h { closepath } bind def
/re { exch dup neg 3 1 roll 5 3 roll moveto 0 rlineto
      0 exch rlineto 0 rlineto closepath } bind def
/S { stroke } bind def
/f { fill } bind def
/f* { eofill } bind def
/n { newpath } bind def
/W { clip } bind def
/W* { eoclip } bind def
/BT { } bind def
/ET { } bind def
/pdfmark where { pop globaldict /?pdfmark /exec load put }
    { globaldict begin /?pdfmark /pop load def /pdfmark
    /cleartomark load def end } ifelse
/BDC { mark 3 1 roll /BDC pdfmark } bind def
/EMC { mark /EMC pdfmark } bind def
/cairo_store_point { /cairo_point_y exch def /cairo_point_x exch def } def
/Tj { show currentpoint cairo_store_point } bind def
/TJ {
  {
    dup
    type /stringtype eq
    { show } { -0.001 mul 0 cairo_font_matrix dtransform rmoveto } ifelse
  } forall
  currentpoint cairo_store_point
} bind def
/cairo_selectfont { cairo_font_matrix aload pop pop pop 0 0 6 array astore
    cairo_font exch selectfont cairo_point_x cairo_point_y moveto } bind def
/Tf { pop /cairo_font exch def /cairo_font_matrix where
      { pop cairo_selectfont } if } bind def
/Td { matrix translate cairo_font_matrix matrix concatmatrix dup
      /cairo_font_matrix exch def dup 4 get exch 5 get cairo_store_point
      /cairo_font where { pop cairo_selectfont } if } bind def
/Tm { 2 copy 8 2 roll 6 array astore /cairo_font_matrix exch def
      cairo_store_point /cairo_font where { pop cairo_selectfont } if } bind def
/g { setgray } bind def
/rg { setrgbcolor } bind def
/d1 { setcachedevice } bind def
%%EndProlog
%%BeginSetup
%%EndSetup
%%Page: 1 1
%%BeginPageSetup
%%PageBoundingBox: 0 -1 410 410
%%EndPageSetup
q 0 -1 410 411 rectclip q
0 g
377.602 377.549 m 358.398 377.549 l 358.398 382.194 l 358.398 397.303 346.105
 409.6 330.992 409.6 c 78.609 409.6 l 63.496 409.6 51.199 397.303 51.199
 382.194 c 51.199 377.549 l 32 377.549 l 14.355 377.549 0 363.194 0 345.549
 c 0 108.799 l 0 91.155 14.355 76.799 32 76.799 c 158.398 76.799 l 158.398
 15.998 l 124.535 15.998 l 120.117 15.998 116.535 12.416 116.535 7.998 c
 116.535 3.58 120.117 -0.002 124.535 -0.002 c 286.668 -0.002 l 291.086 -0.002
 294.668 3.58 294.668 7.998 c 294.668 12.416 291.086 15.998 286.668 15.998
 c 251.199 15.998 l 251.199 76.799 l 377.602 76.799 l 395.246 76.799 409.602
 91.155 409.602 108.799 c 409.602 345.549 l 409.602 363.194 395.246 377.549
 377.602 377.549 c h
16 345.549 m 16 354.373 23.176 361.549 32 361.549 c 51.199 361.549 l 51.199
 143.998 l 16 143.998 l h
235.199 15.998 m 174.398 15.998 l 174.398 76.799 l 235.199 76.799 l h
393.602 108.799 m 393.602 99.979 386.422 92.799 377.602 92.799 c 32 92.799
 l 23.176 92.799 16 99.979 16 108.799 c 16 127.998 l 393.602 127.998 l h
393.602 143.998 m 358.398 143.998 l 358.398 219.998 l 358.398 224.416 354.816
 227.998 350.398 227.998 c 345.98 227.998 342.398 224.416 342.398 219.998
 c 342.398 143.998 l 67.199 143.998 l 67.199 382.194 l 67.199 388.483 72.316
 393.6 78.609 393.6 c 330.992 393.6 l 337.281 393.6 342.398 388.483 342.398
 382.194 c 342.398 377.549 l 185.602 377.549 l 181.184 377.549 177.602 373.967
 177.602 369.549 c 177.602 365.131 181.184 361.549 185.602 361.549 c 342.398
 361.549 l 342.398 287.998 l 342.398 283.58 345.98 279.998 350.398 279.998
 c 354.816 279.998 358.398 283.58 358.398 287.998 c 358.398 361.549 l 377.602
 361.549 l 386.422 361.549 393.602 354.373 393.602 345.549 c h
393.602 143.998 m f
209.656 116.057 m 208.168 117.545 206.105 118.401 204 118.401 c 201.895
 118.401 199.832 117.545 198.344 116.057 c 196.855 114.569 196 112.502 196
 110.401 c 196 108.295 196.855 106.233 198.344 104.745 c 199.832 103.256
 201.895 102.401 204 102.401 c 206.105 102.401 208.168 103.256 209.656 104.745
 c 211.145 106.233 212 108.295 212 110.401 c 212 112.502 211.145 114.569
 209.656 116.057 c h
209.656 116.057 m f
356.055 254.858 m 354.566 256.354 352.504 257.202 350.398 257.202 c 348.297
 257.202 346.23 256.354 344.742 254.858 c 343.258 253.37 342.398 251.303
 342.398 249.202 c 342.398 247.096 343.254 245.041 344.742 243.545 c 346.23
 242.057 348.297 241.202 350.398 241.202 c 352.504 241.202 354.566 242.057
 356.055 243.545 c 357.543 245.041 358.398 247.096 358.398 249.202 c 358.398
 251.303 357.543 253.37 356.055 254.858 c h
356.055 254.858 m f
102.457 375.256 m 100.969 376.745 98.902 377.6 96.801 377.6 c 94.695 377.6
 92.633 376.745 91.145 375.256 c 89.656 373.768 88.801 371.705 88.801 369.6
 c 88.801 367.495 89.656 365.432 91.145 363.944 c 92.633 362.455 94.695 
361.6 96.801 361.6 c 98.902 361.6 100.969 362.455 102.457 363.944 c 103.945
 365.432 104.801 367.495 104.801 369.6 c 104.801 371.705 103.945 373.768
 102.457 375.256 c h
102.457 375.256 m f
132.457 375.256 m 130.969 376.745 128.902 377.6 126.801 377.6 c 124.695
 377.6 122.633 376.745 121.145 375.256 c 119.656 373.768 118.801 371.705
 118.801 369.6 c 118.801 367.495 119.656 365.432 121.145 363.944 c 122.633
 362.455 124.695 361.6 126.801 361.6 c 128.902 361.6 130.969 362.455 132.457
 363.944 c 133.945 365.432 134.801 367.495 134.801 369.6 c 134.801 371.705
 133.945 373.768 132.457 375.256 c h
132.457 375.256 m f
162.457 375.256 m 160.969 376.745 158.902 377.6 156.801 377.6 c 154.695
 377.6 152.633 376.745 151.145 375.256 c 149.656 373.768 148.801 371.705
 148.801 369.6 c 148.801 367.495 149.656 365.432 151.145 363.944 c 152.633
 362.455 154.695 361.6 156.801 361.6 c 158.902 361.6 160.969 362.455 162.457
 363.944 c 163.945 365.432 164.801 367.495 164.801 369.6 c 164.801 371.705
 163.945 373.768 162.457 375.256 c h
162.457 375.256 m f
303.645 334.35 m 231.246 334.35 l 221.164 334.35 211.746 330.389 204.801
 323.569 c 197.855 330.389 188.438 334.35 178.352 334.35 c 105.953 334.35
 l 101.535 334.35 97.953 330.768 97.953 326.35 c 97.953 188.127 l 97.953
 183.709 101.535 180.127 105.953 180.127 c 178.352 180.127 l 186.523 180.127
 193.934 175.62 197.699 168.37 c 197.711 168.35 197.719 168.338 197.73 168.319
 c 198.773 166.346 200.621 164.838 202.902 164.284 c 203.535 164.127 204.172
 164.053 204.801 164.053 c 207.734 164.053 210.504 165.674 211.902 168.37
 c 215.664 175.623 223.078 180.127 231.246 180.127 c 303.645 180.127 l 308.062
 180.127 311.645 183.709 311.645 188.127 c 311.645 326.35 l 311.645 330.768
 308.062 334.35 303.645 334.35 c h
196.801 191.342 m 191.273 194.428 184.957 196.127 178.352 196.127 c 113.953
 196.127 l 113.953 318.35 l 178.352 318.35 l 185.914 318.35 192.828 314.491
 196.801 308.166 c h
231.246 196.127 m 224.645 196.127 218.328 194.428 212.801 191.342 c 212.801
 308.166 l 216.77 314.491 223.684 318.35 231.246 318.35 c 295.645 318.35
 l 295.645 196.127 l h
231.246 196.127 m f
Q Q
showpage
%%Trailer
end restore
%%EOF
