%!PS-Adobe-3.0 EPSF-3.0
%%Creator: cairo 1.14.2 (http://cairographics.org)
%%CreationDate: Thu Jul 26 08:14:03 2018
%%Pages: 1
%%DocumentData: Clean7Bit
%%LanguageLevel: 2
%%BoundingBox: 0 -1 410 410
%%EndComments
%%BeginProlog
save
50 dict begin
/q { gsave } bind def
/Q { grestore } bind def
/cm { 6 array astore concat } bind def
/w { setlinewidth } bind def
/J { setlinecap } bind def
/j { setlinejoin } bind def
/M { setmiterlimit } bind def
/d { setdash } bind def
/m { moveto } bind def
/l { lineto } bind def
/c { curveto } bind def
/h { closepath } bind def
/re { exch dup neg 3 1 roll 5 3 roll moveto 0 rlineto
      0 exch rlineto 0 rlineto closepath } bind def
/S { stroke } bind def
/f { fill } bind def
/f* { eofill } bind def
/n { newpath } bind def
/W { clip } bind def
/W* { eoclip } bind def
/BT { } bind def
/ET { } bind def
/pdfmark where { pop globaldict /?pdfmark /exec load put }
    { globaldict begin /?pdfmark /pop load def /pdfmark
    /cleartomark load def end } ifelse
/BDC { mark 3 1 roll /BDC pdfmark } bind def
/EMC { mark /EMC pdfmark } bind def
/cairo_store_point { /cairo_point_y exch def /cairo_point_x exch def } def
/Tj { show currentpoint cairo_store_point } bind def
/TJ {
  {
    dup
    type /stringtype eq
    { show } { -0.001 mul 0 cairo_font_matrix dtransform rmoveto } ifelse
  } forall
  currentpoint cairo_store_point
} bind def
/cairo_selectfont { cairo_font_matrix aload pop pop pop 0 0 6 array astore
    cairo_font exch selectfont cairo_point_x cairo_point_y moveto } bind def
/Tf { pop /cairo_font exch def /cairo_font_matrix where
      { pop cairo_selectfont } if } bind def
/Td { matrix translate cairo_font_matrix matrix concatmatrix dup
      /cairo_font_matrix exch def dup 4 get exch 5 get cairo_store_point
      /cairo_font where { pop cairo_selectfont } if } bind def
/Tm { 2 copy 8 2 roll 6 array astore /cairo_font_matrix exch def
      cairo_store_point /cairo_font where { pop cairo_selectfont } if } bind def
/g { setgray } bind def
/rg { setrgbcolor } bind def
/d1 { setcachedevice } bind def
%%EndProlog
%%BeginSetup
%%EndSetup
%%Page: 1 1
%%BeginPageSetup
%%PageBoundingBox: 0 -1 410 410
%%EndPageSetup
q 0 -1 410 411 rectclip q
0 g
108.113 104.455 m 106.617 105.944 104.559 106.799 102.449 106.799 c 100.344
 106.799 98.281 105.944 96.793 104.455 c 95.305 102.967 94.449 100.905 94.449
 98.799 c 94.449 96.698 95.305 94.631 96.793 93.143 c 98.281 91.659 100.344
 90.799 102.449 90.799 c 104.559 90.799 106.617 91.655 108.113 93.143 c 
109.602 94.631 110.449 96.698 110.449 98.799 c 110.449 100.905 109.602 102.967
 108.113 104.455 c h
108.113 104.455 m f
385.602 409.6 m 174.398 409.6 l 161.168 409.6 150.398 398.834 150.398 385.6
 c 150.398 244.928 l 136.68 236.858 l 127.82 250.819 113.969 260.272 98.188
 263.534 c 101.855 268.916 104 275.413 104 282.401 c 104 288.799 l 104 307.327
 88.926 322.401 70.398 322.401 c 51.871 322.401 36.801 307.327 36.801 288.799
 c 36.801 282.401 l 36.801 274.909 39.266 267.983 43.426 262.389 c 18.367
 255.088 0 231.928 0 204.545 c 0 144.799 l 0 131.565 10.766 120.799 24 120.799
 c 30.449 120.799 l 30.449 7.998 l 30.449 3.58 34.031 -0.002 38.449 -0.002
 c 102.449 -0.002 l 106.867 -0.002 110.449 3.58 110.449 7.998 c 110.449 
65.998 l 110.449 70.416 106.867 73.998 102.449 73.998 c 98.031 73.998 94.449
 70.416 94.449 65.998 c 94.449 15.998 l 78.496 15.998 l 78.496 109.202 l
 78.496 109.588 78.461 109.967 78.406 110.342 c 78.406 117.498 l 78.406 
121.916 74.824 125.498 70.406 125.498 c 65.988 125.498 62.406 121.916 62.406
 117.498 c 62.406 15.998 l 46.449 15.998 l 46.449 146.799 l 94.449 146.799
 l 94.449 128.799 l 94.449 124.381 98.031 120.799 102.449 120.799 c 106.867
 120.799 110.449 124.381 110.449 128.799 c 110.449 183.19 l 112.738 180.92
 l 122.785 170.948 139.094 170.983 149.102 180.987 c 189.605 221.487 l 192.547
 224.428 192.742 229.135 190.059 232.311 c 186.926 236.01 l 223.457 272.541
 l 226.582 275.666 226.582 280.733 223.457 283.858 c 220.332 286.979 215.27
 286.979 212.145 283.858 c 176.559 248.272 l 174.109 251.166 l 172.176 253.452
 169.199 254.405 166.402 253.834 c 166.402 385.6 l 166.402 390.01 169.988
 393.6 174.402 393.6 c 385.602 393.6 l 390.012 393.6 393.602 390.01 393.602
 385.6 c 393.602 219.202 l 393.602 214.788 390.012 211.202 385.602 211.202
 c 237.199 211.202 l 232.781 211.202 229.199 207.62 229.199 203.202 c 229.199
 198.784 232.781 195.202 237.199 195.202 c 385.602 195.202 l 398.832 195.202
 409.602 205.967 409.602 219.202 c 409.602 385.6 l 409.602 398.834 398.832
 409.6 385.602 409.6 c h
52.801 288.799 m 52.801 298.506 60.695 306.401 70.398 306.401 c 80.105 
306.401 88 298.506 88 288.799 c 88 282.401 l 88 272.694 80.105 264.799 70.398
 264.799 c 60.695 264.799 52.801 272.694 52.801 282.401 c h
173.086 227.596 m 137.789 192.299 l 133.996 188.51 127.816 188.498 124.012
 192.276 c 110.449 205.733 l 110.449 213.202 l 110.449 217.62 106.867 221.202
 102.449 221.202 c 98.031 221.202 94.449 217.62 94.449 213.202 c 94.449 
162.799 l 46.449 162.799 l 46.449 213.202 l 46.449 217.62 42.867 221.202
 38.449 221.202 c 34.031 221.202 30.449 217.62 30.449 213.202 c 30.449 136.799
 l 24 136.799 l 19.59 136.799 16 140.389 16 144.799 c 16 204.545 l 16 228.948
 35.852 248.799 60.254 248.799 c 85.824 248.799 l 101.262 248.799 115.328
 240.963 123.453 227.838 c 127.199 221.788 l 129.488 218.092 134.309 216.901
 138.055 219.104 c 166.246 235.686 l h
173.086 227.596 m f
209.617 208.858 m 208.129 210.346 206.062 211.202 203.969 211.202 c 201.863
 211.202 199.801 210.346 198.305 208.858 c 196.816 207.37 195.961 205.303
 195.961 203.202 c 195.961 201.096 196.816 199.034 198.305 197.545 c 199.801
 196.057 201.855 195.202 203.969 195.202 c 206.07 195.202 208.129 196.057
 209.617 197.545 c 211.113 199.034 211.961 201.096 211.961 203.202 c 211.961
 205.303 211.113 207.37 209.617 208.858 c h
209.617 208.858 m f
230.41 356.877 m 227.395 358.1 223.938 357.377 221.668 355.045 c 204.668
 337.58 l 201.586 334.413 201.652 329.35 204.82 326.268 c 207.988 323.186
 213.051 323.252 216.133 326.42 c 219.398 329.776 l 219.398 298.264 l 219.398
 293.846 222.98 290.264 227.398 290.264 c 231.82 290.264 235.398 293.846
 235.398 298.264 c 235.398 349.467 l 235.398 352.721 233.426 355.651 230.41
 356.877 c h
230.41 356.877 m f
352.609 356.877 m 349.594 358.1 346.137 357.377 343.867 355.045 c 326.867
 337.58 l 323.785 334.413 323.855 329.35 327.02 326.268 c 330.188 323.186
 335.25 323.252 338.332 326.42 c 341.602 329.776 l 341.602 298.264 l 341.602
 293.846 345.18 290.264 349.602 290.264 c 354.02 290.264 357.602 293.846
 357.602 298.264 c 357.602 349.467 l 357.602 352.721 355.629 355.651 352.609
 356.877 c h
352.609 356.877 m f
298.801 331.866 m 288 331.866 l 288 342.666 l 288 347.084 284.418 350.666
 280 350.666 c 275.582 350.666 272 347.084 272 342.666 c 272 331.866 l 261.199
 331.866 l 256.781 331.866 253.199 328.284 253.199 323.866 c 253.199 319.448
 256.781 315.866 261.199 315.866 c 272 315.866 l 272 305.065 l 272 300.647
 275.582 297.065 280 297.065 c 284.418 297.065 288 300.647 288 305.065 c
 288 315.866 l 298.801 315.866 l 303.219 315.866 306.801 319.448 306.801
 323.866 c 306.801 328.284 303.219 331.866 298.801 331.866 c h
298.801 331.866 m f
Q Q
showpage
%%Trailer
end restore
%%EOF
