%!PS-Adobe-3.0 EPSF-3.0
%%Creator: cairo 1.14.2 (http://cairographics.org)
%%CreationDate: Thu Jul 26 08:14:03 2018
%%Pages: 1
%%DocumentData: Clean7Bit
%%LanguageLevel: 2
%%BoundingBox: 43 -1 367 410
%%EndComments
%%BeginProlog
save
50 dict begin
/q { gsave } bind def
/Q { grestore } bind def
/cm { 6 array astore concat } bind def
/w { setlinewidth } bind def
/J { setlinecap } bind def
/j { setlinejoin } bind def
/M { setmiterlimit } bind def
/d { setdash } bind def
/m { moveto } bind def
/l { lineto } bind def
/c { curveto } bind def
/h { closepath } bind def
/re { exch dup neg 3 1 roll 5 3 roll moveto 0 rlineto
      0 exch rlineto 0 rlineto closepath } bind def
/S { stroke } bind def
/f { fill } bind def
/f* { eofill } bind def
/n { newpath } bind def
/W { clip } bind def
/W* { eoclip } bind def
/BT { } bind def
/ET { } bind def
/pdfmark where { pop globaldict /?pdfmark /exec load put }
    { globaldict begin /?pdfmark /pop load def /pdfmark
    /cleartomark load def end } ifelse
/BDC { mark 3 1 roll /BDC pdfmark } bind def
/EMC { mark /EMC pdfmark } bind def
/cairo_store_point { /cairo_point_y exch def /cairo_point_x exch def } def
/Tj { show currentpoint cairo_store_point } bind def
/TJ {
  {
    dup
    type /stringtype eq
    { show } { -0.001 mul 0 cairo_font_matrix dtransform rmoveto } ifelse
  } forall
  currentpoint cairo_store_point
} bind def
/cairo_selectfont { cairo_font_matrix aload pop pop pop 0 0 6 array astore
    cairo_font exch selectfont cairo_point_x cairo_point_y moveto } bind def
/Tf { pop /cairo_font exch def /cairo_font_matrix where
      { pop cairo_selectfont } if } bind def
/Td { matrix translate cairo_font_matrix matrix concatmatrix dup
      /cairo_font_matrix exch def dup 4 get exch 5 get cairo_store_point
      /cairo_font where { pop cairo_selectfont } if } bind def
/Tm { 2 copy 8 2 roll 6 array astore /cairo_font_matrix exch def
      cairo_store_point /cairo_font where { pop cairo_selectfont } if } bind def
/g { setgray } bind def
/rg { setrgbcolor } bind def
/d1 { setcachedevice } bind def
%%EndProlog
%%BeginSetup
%%EndSetup
%%Page: 1 1
%%BeginPageSetup
%%PageBoundingBox: 43 -1 367 410
%%EndPageSetup
q 43 -1 324 411 rectclip q
0 g
358.418 59.205 m 273.789 59.205 l 289.281 66.725 303.801 76.897 316.645
 89.745 c 378.598 151.694 378.598 252.498 316.645 314.448 c 306.961 324.131
 l 315.75 332.92 l 322.988 340.159 322.988 351.94 315.75 359.178 c 310.156
 364.772 l 316.07 370.686 l 319.305 373.92 321.086 378.221 321.086 382.799
 c 321.086 387.373 319.305 391.674 316.07 394.909 c 306.496 404.483 l 299.82
 411.159 288.953 411.159 282.273 404.483 c 276.359 398.569 l 270.77 404.163
 l 267.262 407.67 262.598 409.6 257.637 409.6 c 252.676 409.6 248.016 407.67
 244.508 404.163 c 112.691 272.342 l 105.449 265.104 105.449 253.323 112.691
 246.084 c 118.281 240.491 l 90.754 212.963 l 87.633 209.838 87.633 204.772
 90.754 201.647 c 113.238 179.166 l 114.801 177.604 116.848 176.823 118.895
 176.823 c 120.941 176.823 122.992 177.604 124.551 179.166 c 152.078 206.694
 l 157.672 201.1 l 161.293 197.483 166.047 195.67 170.801 195.67 c 175.559
 195.67 180.312 197.483 183.934 201.1 c 240.625 257.791 l 246.781 253.752
 254.133 251.389 262.031 251.389 c 271.492 251.389 280.176 254.768 286.949
 260.373 c 307.445 231.299 311.281 192.901 296.348 160.131 c 294.516 156.108
 296.289 151.366 300.312 149.53 c 301.387 149.041 302.516 148.807 303.625
 148.807 c 306.664 148.807 309.566 150.549 310.91 153.495 c 328.867 192.897
 323.391 239.33 297.215 273.413 c 299.738 278.584 301.156 284.385 301.156
 290.514 c 301.156 298.413 298.797 305.768 294.754 311.924 c 295.645 312.815
 l 305.328 303.131 l 361.039 247.42 361.039 156.768 305.328 101.057 c 249.617
 45.342 158.965 45.342 103.254 101.057 c 101.262 103.045 99.324 105.1 97.453
 107.209 c 135.574 107.209 l 171.809 80.913 220.281 77.6 259.859 98.936 
c 263.746 101.034 265.199 105.889 263.105 109.776 c 261.008 113.666 256.156
 115.12 252.266 113.026 c 226.293 99.022 195.887 97.323 169.055 107.28 c
 173.004 107.768 176.066 111.131 176.066 115.213 c 176.066 147.483 l 176.066
 151.901 172.48 155.487 168.062 155.487 c 56.977 155.487 l 52.559 155.487
 48.977 151.901 48.977 147.483 c 48.977 115.213 l 48.977 110.795 52.559 
107.213 56.977 107.213 c 76.836 107.213 l 81.441 101.041 86.504 95.178 91.938
 89.741 c 104.781 76.897 119.301 66.725 134.793 59.205 c 51.18 59.205 l 
46.762 59.205 43.18 55.623 43.18 51.205 c 43.18 7.998 l 43.18 3.58 46.762
 -0.002 51.18 -0.002 c 358.418 -0.002 l 362.84 -0.002 366.422 3.58 366.422
 7.998 c 366.422 51.205 l 366.422 55.627 362.84 59.205 358.418 59.205 c 
h
293.59 393.166 m 294.027 393.604 294.742 393.604 295.184 393.166 c 304.754
 383.596 l 305.027 383.323 305.086 383.01 305.086 382.795 c 305.086 382.584
 305.027 382.272 304.754 381.998 c 298.84 376.088 l 287.676 387.252 l h
118.895 196.139 m 107.727 207.303 l 129.598 229.174 l 135.18 223.592 l 
140.762 218.006 l h
262.031 267.393 m 249.281 267.393 238.906 277.768 238.906 290.518 c 238.906
 303.268 249.281 313.639 262.031 313.639 c 274.781 313.639 285.156 303.268
 285.156 290.518 c 285.156 277.764 274.781 267.393 262.031 267.393 c h
304.434 344.237 m 283.441 323.241 l 277.285 327.284 269.93 329.643 262.031
 329.643 c 240.457 329.643 222.906 312.092 222.906 290.518 c 222.906 282.62
 225.266 275.264 229.309 269.108 c 172.617 212.416 l 171.617 211.416 169.988
 211.416 168.988 212.416 c 157.738 223.666 l 157.738 223.666 157.734 223.666
 157.734 223.666 c 143.805 237.596 l 168.422 262.213 l 171.547 265.338 171.547
 270.401 168.422 273.53 c 165.297 276.651 160.23 276.651 157.105 273.53 
c 132.492 248.913 l 124.004 257.397 l 123.004 258.401 123.004 260.03 124.004
 261.03 c 255.824 392.846 l 256.477 393.502 257.242 393.596 257.637 393.596
 c 258.035 393.596 258.797 393.502 259.453 392.846 c 304.434 347.866 l 305.434
 346.862 305.434 345.237 304.434 344.237 c h
80.91 123.213 m 64.977 123.213 l 64.977 139.483 l 160.066 139.483 l 160.066
 123.213 l h
350.418 16.002 m 59.18 16.002 l 59.18 43.205 l 350.418 43.205 l h
350.418 16.002 m f
287.141 130.561 m 284.027 133.698 278.961 133.713 275.828 130.596 c 275.645
 130.416 l 272.512 127.303 272.496 122.237 275.609 119.1 c 277.172 117.526
 279.23 116.741 281.285 116.741 c 283.324 116.741 285.363 117.514 286.926
 119.065 c 287.105 119.245 l 290.238 122.362 290.258 127.424 287.141 130.561
 c h
287.141 130.561 m f
188.527 293.627 m 187.039 295.127 184.973 295.971 182.867 295.971 c 180.766
 295.971 178.699 295.123 177.211 293.627 c 175.723 292.139 174.867 290.077
 174.867 287.971 c 174.867 285.87 175.723 283.811 177.211 282.315 c 178.699
 280.827 180.766 279.971 182.867 279.971 c 184.973 279.971 187.039 280.827
 188.527 282.315 c 190.012 283.811 190.871 285.87 190.871 287.971 c 190.871
 290.077 190.016 292.139 188.527 293.627 c h
188.527 293.627 m f
Q Q
showpage
%%Trailer
end restore
%%EOF
