%!PS-Adobe-3.0 EPSF-3.0
%%Creator: cairo 1.14.2 (http://cairographics.org)
%%CreationDate: Thu Jul 26 08:14:03 2018
%%Pages: 1
%%DocumentData: Clean7Bit
%%LanguageLevel: 2
%%BoundingBox: 0 -1 410 410
%%EndComments
%%BeginProlog
save
50 dict begin
/q { gsave } bind def
/Q { grestore } bind def
/cm { 6 array astore concat } bind def
/w { setlinewidth } bind def
/J { setlinecap } bind def
/j { setlinejoin } bind def
/M { setmiterlimit } bind def
/d { setdash } bind def
/m { moveto } bind def
/l { lineto } bind def
/c { curveto } bind def
/h { closepath } bind def
/re { exch dup neg 3 1 roll 5 3 roll moveto 0 rlineto
      0 exch rlineto 0 rlineto closepath } bind def
/S { stroke } bind def
/f { fill } bind def
/f* { eofill } bind def
/n { newpath } bind def
/W { clip } bind def
/W* { eoclip } bind def
/BT { } bind def
/ET { } bind def
/pdfmark where { pop globaldict /?pdfmark /exec load put }
    { globaldict begin /?pdfmark /pop load def /pdfmark
    /cleartomark load def end } ifelse
/BDC { mark 3 1 roll /BDC pdfmark } bind def
/EMC { mark /EMC pdfmark } bind def
/cairo_store_point { /cairo_point_y exch def /cairo_point_x exch def } def
/Tj { show currentpoint cairo_store_point } bind def
/TJ {
  {
    dup
    type /stringtype eq
    { show } { -0.001 mul 0 cairo_font_matrix dtransform rmoveto } ifelse
  } forall
  currentpoint cairo_store_point
} bind def
/cairo_selectfont { cairo_font_matrix aload pop pop pop 0 0 6 array astore
    cairo_font exch selectfont cairo_point_x cairo_point_y moveto } bind def
/Tf { pop /cairo_font exch def /cairo_font_matrix where
      { pop cairo_selectfont } if } bind def
/Td { matrix translate cairo_font_matrix matrix concatmatrix dup
      /cairo_font_matrix exch def dup 4 get exch 5 get cairo_store_point
      /cairo_font where { pop cairo_selectfont } if } bind def
/Tm { 2 copy 8 2 roll 6 array astore /cairo_font_matrix exch def
      cairo_store_point /cairo_font where { pop cairo_selectfont } if } bind def
/g { setgray } bind def
/rg { setrgbcolor } bind def
/d1 { setcachedevice } bind def
%%EndProlog
%%BeginSetup
%%EndSetup
%%Page: 1 1
%%BeginPageSetup
%%PageBoundingBox: 0 -1 410 410
%%EndPageSetup
q 0 -1 410 411 rectclip q
0 g
238.148 136.816 m 197.195 185.996 l 197.195 220.855 l 197.195 231.473 188.559
 240.105 177.945 240.105 c 62.055 240.105 l 51.441 240.105 42.805 231.473
 42.805 220.855 c 42.805 185.996 l 1.852 136.816 l 0.656 135.379 0 133.566
 0 131.695 c 0 24.824 l 0 11.195 11.09 0.105 24.719 0.105 c 215.285 0.105
 l 228.914 0.105 240 11.195 240 24.824 c 240 131.695 l 240 133.566 239.344
 135.379 238.148 136.816 c h
58.805 220.855 m 58.805 222.648 60.262 224.109 62.055 224.109 c 177.945
 224.109 l 179.738 224.109 181.195 222.648 181.195 220.855 c 181.195 191.102
 l 58.805 191.102 l h
224 24.824 m 224 20.02 220.09 16.109 215.285 16.109 c 24.719 16.109 l 19.91
 16.109 16 20.02 16 24.824 c 16 121.043 l 108.539 121.043 l 112.957 121.043
 116.539 124.625 116.539 129.043 c 116.539 133.461 112.957 137.043 108.539
 137.043 c 22.863 137.043 l 54.555 175.102 l 185.445 175.102 l 224 128.801
 l h
224 24.824 m f
295.406 13.656 m 293.922 15.145 291.855 16 289.754 16 c 287.648 16 285.586
 15.145 284.098 13.656 c 282.609 12.168 281.754 10.105 281.754 8 c 281.754
 5.895 282.609 3.832 284.098 2.344 c 285.586 0.855 287.648 0 289.754 0 c
 291.855 0 293.922 0.855 295.406 2.344 c 296.895 3.832 297.754 5.895 297.754
 8 c 297.754 10.105 296.895 12.168 295.406 13.656 c h
295.406 13.656 m f
408.742 261.863 m 395.547 402.348 l 395.23 405.73 392.809 408.543 389.512
 409.363 c 386.211 410.184 382.758 408.832 380.895 405.992 c 303.461 288.031
 l 282.941 256.77 271.891 220.48 271.508 183.09 c 271.141 147.09 280.684
 111.914 299.133 81.078 c 289.84 43.941 l 288.766 39.656 291.371 35.313 
295.656 34.238 c 296.309 34.078 296.961 34 297.605 34 c 301.188 34 304.449
 36.426 305.359 40.059 c 314.41 76.211 l 345.73 94.852 371.09 121.754 387.844
 154.176 c 405.012 187.395 412.238 224.633 408.742 261.863 c h
383.996 354.211 m 391.09 278.715 l 360.488 260.297 l h
368.406 357.809 m 345.062 264.559 l 326.949 294.656 l h
316.836 279.254 m 317.207 279.816 l 339.578 242.645 l 325.066 184.676 l
 295.492 233.816 l 300.359 249.676 307.473 264.988 316.836 279.254 c h
304.91 104.148 m 288.871 137.859 283.988 175.504 290.191 211.594 c 319.582
 162.762 l h
320.156 99.168 m 334.926 158.16 l 384.68 188.105 l 373.113 152.844 350.73
 121.504 320.156 99.168 c h
390.402 210.227 m 340.43 180.148 l 354.988 238.309 l 392.75 261.039 l 392.812
 260.367 l 394.41 243.383 393.523 226.52 390.402 210.227 c h
390.402 210.227 m f
151.93 134.695 m 150.441 136.191 148.375 137.039 146.273 137.039 c 144.168
 137.039 142.105 136.191 140.617 134.695 c 139.129 133.207 138.273 131.152
 138.273 129.039 c 138.273 126.938 139.129 124.879 140.617 123.383 c 142.105
 121.898 144.168 121.039 146.273 121.039 c 148.375 121.039 150.441 121.895
 151.93 123.383 c 153.414 124.871 154.273 126.938 154.273 129.039 c 154.273
 131.152 153.414 133.215 151.93 134.695 c h
151.93 134.695 m f
Q Q
showpage
%%Trailer
end restore
%%EOF
