%!PS-Adobe-3.0 EPSF-3.0
%%Creator: cairo 1.14.2 (http://cairographics.org)
%%CreationDate: Thu Jul 26 08:14:03 2018
%%Pages: 1
%%DocumentData: Clean7Bit
%%LanguageLevel: 2
%%BoundingBox: 0 -1 410 410
%%EndComments
%%BeginProlog
save
50 dict begin
/q { gsave } bind def
/Q { grestore } bind def
/cm { 6 array astore concat } bind def
/w { setlinewidth } bind def
/J { setlinecap } bind def
/j { setlinejoin } bind def
/M { setmiterlimit } bind def
/d { setdash } bind def
/m { moveto } bind def
/l { lineto } bind def
/c { curveto } bind def
/h { closepath } bind def
/re { exch dup neg 3 1 roll 5 3 roll moveto 0 rlineto
      0 exch rlineto 0 rlineto closepath } bind def
/S { stroke } bind def
/f { fill } bind def
/f* { eofill } bind def
/n { newpath } bind def
/W { clip } bind def
/W* { eoclip } bind def
/BT { } bind def
/ET { } bind def
/pdfmark where { pop globaldict /?pdfmark /exec load put }
    { globaldict begin /?pdfmark /pop load def /pdfmark
    /cleartomark load def end } ifelse
/BDC { mark 3 1 roll /BDC pdfmark } bind def
/EMC { mark /EMC pdfmark } bind def
/cairo_store_point { /cairo_point_y exch def /cairo_point_x exch def } def
/Tj { show currentpoint cairo_store_point } bind def
/TJ {
  {
    dup
    type /stringtype eq
    { show } { -0.001 mul 0 cairo_font_matrix dtransform rmoveto } ifelse
  } forall
  currentpoint cairo_store_point
} bind def
/cairo_selectfont { cairo_font_matrix aload pop pop pop 0 0 6 array astore
    cairo_font exch selectfont cairo_point_x cairo_point_y moveto } bind def
/Tf { pop /cairo_font exch def /cairo_font_matrix where
      { pop cairo_selectfont } if } bind def
/Td { matrix translate cairo_font_matrix matrix concatmatrix dup
      /cairo_font_matrix exch def dup 4 get exch 5 get cairo_store_point
      /cairo_font where { pop cairo_selectfont } if } bind def
/Tm { 2 copy 8 2 roll 6 array astore /cairo_font_matrix exch def
      cairo_store_point /cairo_font where { pop cairo_selectfont } if } bind def
/g { setgray } bind def
/rg { setrgbcolor } bind def
/d1 { setcachedevice } bind def
%%EndProlog
%%BeginSetup
%%EndSetup
%%Page: 1 1
%%BeginPageSetup
%%PageBoundingBox: 0 -1 410 410
%%EndPageSetup
q 0 -1 410 411 rectclip q
0 g
409.234 401.592 m 409.055 405.737 405.734 409.053 401.59 409.237 c 348.938
 411.526 297.336 403.002 248.219 383.897 c 220.699 373.19 194.848 359.51
 170.879 342.995 c 110.703 352.967 49.34 333.358 6.109 290.123 c 2.344 286.358
 l 0.844 284.858 0 282.823 0 280.702 c 0 278.58 0.844 276.545 2.344 275.045
 c 85.477 191.909 l 69.598 176.03 l 50.266 156.698 35.43 132.78 26.703 106.87
 c 17.973 80.959 15.312 52.944 19.008 25.854 c 19.492 22.291 22.293 19.491
 25.852 19.006 c 33.777 17.924 41.781 17.389 49.793 17.389 c 69.156 17.389
 88.539 20.53 106.871 26.702 c 132.781 35.432 156.695 50.264 176.031 69.6
 c 191.91 85.479 l 275.043 2.342 l 276.605 0.784 278.656 0.002 280.703 0.002
 c 282.75 0.002 284.797 0.784 286.359 2.342 c 290.125 6.112 l 333.359 49.342
 352.969 110.705 342.996 170.881 c 359.512 194.85 373.191 220.698 383.898
 248.217 c 403 297.334 411.527 348.936 409.234 401.592 c h
19.328 280.686 m 54.859 315.143 103.199 332.553 152.047 329.127 c 140.18
 319.803 128.828 309.741 118.031 298.94 c 59.555 240.463 l h
164.719 80.913 m 130.527 46.721 82.113 29.487 34.145 34.143 c 29.488 82.116
 46.723 130.526 80.914 164.717 c 96.793 180.596 l 113.141 164.245 l 103.156
 154.26 l 82.93 134.034 82.887 111.616 85.512 92.358 c 86 88.795 88.797 
85.995 92.359 85.51 c 95.875 85.03 99.402 84.795 102.918 84.795 c 123.785
 84.795 144.211 93.1 159.105 107.995 c 164.246 113.139 l 180.598 96.791 
l h
120.574 120.573 m 122.137 119.01 124.184 118.229 126.23 118.229 c 128.277
 118.229 130.328 119.01 131.891 120.573 c 144.352 133.038 l 152.934 124.455
 l 147.789 119.311 l 135.359 106.877 118.105 100.19 100.664 100.834 c 99.117
 119.534 103.207 131.686 114.469 142.944 c 124.457 152.932 l 133.039 144.35
 l 120.574 131.889 l 117.453 128.764 117.453 123.698 120.574 120.573 c h
280.688 19.327 m 240.465 59.553 l 298.941 118.03 l 309.742 128.83 319.805
 140.182 329.125 152.045 c 332.555 103.198 315.145 54.858 280.688 19.327
 c h
308.988 328.487 m 372.836 264.639 l 355.012 214.233 326.098 167.815 287.629
 129.346 c 229.148 70.866 l 70.867 229.147 l 129.344 287.627 l 199.121 357.405
 295.023 395.76 393.496 393.498 c 394.367 355.393 389.156 317.674 378.402
 281.702 c 320.301 339.803 l 317.176 342.924 312.113 342.924 308.988 339.803
 c 305.863 336.678 305.863 331.612 308.988 328.487 c h
308.988 328.487 m f
227.711 274.276 m 202.129 274.276 181.312 253.463 181.312 227.877 c 181.312
 202.295 202.129 181.479 227.711 181.479 c 253.297 181.479 274.113 202.295
 274.113 227.877 c 274.113 253.463 253.297 274.276 227.711 274.276 c h
197.312 227.877 m 197.312 244.639 210.949 258.276 227.711 258.276 c 233.406
 258.276 238.738 256.702 243.301 253.963 c 201.625 212.291 l 198.891 216.854
 197.312 222.186 197.312 227.877 c h
227.711 197.479 m 222.441 197.479 217.484 198.827 213.16 201.198 c 254.395
 242.432 l 256.762 238.108 258.113 233.147 258.113 227.877 c 258.113 211.116
 244.473 197.479 227.711 197.479 c h
227.711 197.479 m f
227.711 306.276 m 184.484 306.276 149.312 271.108 149.312 227.877 c 149.312
 184.651 184.484 149.479 227.711 149.479 c 270.941 149.479 306.109 184.651
 306.109 227.877 c 306.109 271.108 270.941 306.276 227.711 306.276 c h
227.711 165.479 m 193.305 165.479 165.312 193.471 165.312 227.877 c 165.312
 262.288 193.305 290.276 227.711 290.276 c 262.121 290.276 290.113 262.288
 290.113 227.877 c 290.109 193.471 262.121 165.479 227.711 165.479 c h
227.711 165.479 m f
297.523 362.588 m 296.035 364.073 293.973 364.924 291.867 364.924 c 289.754
 364.924 287.691 364.073 286.203 362.588 c 284.715 361.1 283.867 359.034
 283.867 356.924 c 283.867 354.819 284.715 352.764 286.203 351.276 c 287.699
 349.776 289.754 348.928 291.867 348.928 c 293.973 348.928 296.035 349.78
 297.523 351.276 c 299.012 352.76 299.867 354.819 299.867 356.924 c 299.867
 359.034 299.012 361.092 297.523 362.588 c h
297.523 362.588 m f
Q Q
showpage
%%Trailer
end restore
%%EOF
