%!PS-Adobe-3.0 EPSF-3.0
%%Creator: cairo 1.14.2 (http://cairographics.org)
%%CreationDate: Thu Jul 26 08:14:03 2018
%%Pages: 1
%%DocumentData: Clean7Bit
%%LanguageLevel: 2
%%BoundingBox: 0 -1 410 410
%%EndComments
%%BeginProlog
save
50 dict begin
/q { gsave } bind def
/Q { grestore } bind def
/cm { 6 array astore concat } bind def
/w { setlinewidth } bind def
/J { setlinecap } bind def
/j { setlinejoin } bind def
/M { setmiterlimit } bind def
/d { setdash } bind def
/m { moveto } bind def
/l { lineto } bind def
/c { curveto } bind def
/h { closepath } bind def
/re { exch dup neg 3 1 roll 5 3 roll moveto 0 rlineto
      0 exch rlineto 0 rlineto closepath } bind def
/S { stroke } bind def
/f { fill } bind def
/f* { eofill } bind def
/n { newpath } bind def
/W { clip } bind def
/W* { eoclip } bind def
/BT { } bind def
/ET { } bind def
/pdfmark where { pop globaldict /?pdfmark /exec load put }
    { globaldict begin /?pdfmark /pop load def /pdfmark
    /cleartomark load def end } ifelse
/BDC { mark 3 1 roll /BDC pdfmark } bind def
/EMC { mark /EMC pdfmark } bind def
/cairo_store_point { /cairo_point_y exch def /cairo_point_x exch def } def
/Tj { show currentpoint cairo_store_point } bind def
/TJ {
  {
    dup
    type /stringtype eq
    { show } { -0.001 mul 0 cairo_font_matrix dtransform rmoveto } ifelse
  } forall
  currentpoint cairo_store_point
} bind def
/cairo_selectfont { cairo_font_matrix aload pop pop pop 0 0 6 array astore
    cairo_font exch selectfont cairo_point_x cairo_point_y moveto } bind def
/Tf { pop /cairo_font exch def /cairo_font_matrix where
      { pop cairo_selectfont } if } bind def
/Td { matrix translate cairo_font_matrix matrix concatmatrix dup
      /cairo_font_matrix exch def dup 4 get exch 5 get cairo_store_point
      /cairo_font where { pop cairo_selectfont } if } bind def
/Tm { 2 copy 8 2 roll 6 array astore /cairo_font_matrix exch def
      cairo_store_point /cairo_font where { pop cairo_selectfont } if } bind def
/g { setgray } bind def
/rg { setrgbcolor } bind def
/d1 { setcachedevice } bind def
%%EndProlog
%%BeginSetup
%%EndSetup
%%Page: 1 1
%%BeginPageSetup
%%PageBoundingBox: 0 -1 410 410
%%EndPageSetup
q 0 -1 410 411 rectclip q
0 g
313.086 107.627 m 306.516 114.427 297.688 118.263 288.234 118.423 c 268.734
 118.752 252.559 103.154 252.223 83.634 c 252.059 74.177 255.59 65.224 262.16
 58.423 c 268.734 51.623 277.559 47.787 287.016 47.627 c 287.223 47.623 
287.434 47.619 287.641 47.619 c 296.863 47.619 305.574 51.134 312.227 57.56
 c 319.027 64.134 322.863 72.959 323.027 82.416 c 323.188 91.873 319.66 
100.826 313.086 107.627 c h
301.109 69.072 m 297.379 65.466 292.461 63.537 287.289 63.623 c 282.105
 63.712 277.27 65.814 273.668 69.541 c 270.066 73.267 268.129 78.177 268.219
 83.357 c 268.402 93.943 277.074 102.431 287.621 102.431 c 287.734 102.431
 287.844 102.427 287.957 102.427 c 293.141 102.337 297.977 100.236 301.578
 96.509 c 305.184 92.779 307.117 87.873 307.027 82.693 c 306.938 77.509 
304.836 72.673 301.109 69.072 c h
301.109 69.072 m f
373.801 165.005 m 372.727 174.4 368.059 182.818 360.656 188.701 c 353.254
 194.587 344 197.24 334.605 196.166 c 315.207 193.951 301.227 176.369 303.441
 156.97 c 305.5 138.931 320.852 125.58 338.594 125.58 c 339.926 125.58 341.277
 125.654 342.637 125.81 c 352.031 126.88 360.445 131.548 366.332 138.951
 c 372.219 146.357 374.871 155.607 373.801 165.005 c h
353.809 148.912 m 350.586 144.853 345.973 142.295 340.82 141.709 c 330.184
 140.49 320.555 148.158 319.34 158.787 c 318.125 169.42 325.789 179.056 
336.422 180.267 c 337.168 180.353 337.914 180.396 338.66 180.396 c 343.023
 180.396 347.23 178.935 350.699 176.177 c 354.758 172.951 357.312 168.337
 357.902 163.189 c 358.492 158.041 357.039 152.97 353.809 148.912 c h
353.809 148.912 m f
318.98 228.478 m 317.906 237.873 313.238 246.291 305.836 252.177 c 298.434
 258.064 289.18 260.716 279.785 259.638 c 260.387 257.423 246.406 239.845
 248.621 220.447 c 250.68 202.408 266.031 189.056 283.773 189.056 c 285.109
 189.056 286.457 189.13 287.816 189.287 c 297.211 190.357 305.629 195.025
 311.516 202.427 c 317.402 209.834 320.051 219.084 318.98 228.478 c h
298.992 212.388 m 295.766 208.33 291.152 205.771 286 205.185 c 275.375 
203.966 265.734 211.63 264.52 222.263 c 263.305 232.892 270.969 242.529 
281.602 243.744 c 282.348 243.83 283.098 243.873 283.84 243.873 c 288.203
 243.873 292.41 242.408 295.879 239.654 c 299.938 236.427 302.496 231.814
 303.082 226.666 c 303.672 221.513 302.215 216.443 298.992 212.388 c h
298.992 212.388 m f
158.066 133.427 m 136.645 133.427 119.219 116.002 119.219 94.584 c 119.219
 84.209 123.262 74.455 130.598 67.115 c 137.934 59.779 147.691 55.74 158.062
 55.74 c 158.066 55.74 l 168.438 55.74 178.195 59.779 185.531 67.115 c 192.867
 74.455 196.91 84.209 196.91 94.584 c 196.91 116.002 179.484 133.427 158.066
 133.427 c h
174.219 78.431 m 169.902 74.115 164.168 71.74 158.066 71.74 c 151.965 71.74
 146.227 74.115 141.914 78.431 c 137.598 82.744 135.223 88.482 135.223 94.584
 c 135.223 107.177 145.469 117.423 158.066 117.427 c 170.664 117.427 180.91
 107.177 180.91 94.584 c 180.91 88.482 178.535 82.744 174.219 78.431 c h
174.219 78.431 m f
368.207 71.74 m 365.078 74.857 360.012 74.849 356.895 71.72 c 356.605 71.431
 l 353.477 68.314 353.469 63.252 356.586 60.119 c 358.148 58.548 360.199
 57.763 362.254 57.763 c 364.297 57.763 366.336 58.541 367.898 60.095 c 
368.23 60.427 l 371.348 63.556 371.34 68.623 368.207 71.74 c h
368.207 71.74 m f
408.918 174.298 m 405.719 206.677 391.266 237.197 368.219 260.244 c 348.969
 279.494 324.785 292.697 298.289 298.427 c 275.195 303.416 252.559 298.744
 234.547 285.267 c 216.352 271.65 205.363 250.97 203.613 227.045 c 203.59
 226.732 203.562 226.423 203.539 226.111 c 200.516 191.365 170.844 164.771
 135.992 165.58 c 135.695 165.587 135.406 165.595 135.109 165.607 c 114.895
 166.345 95.719 156.986 83.801 140.607 c 72.086 124.505 69.125 103.787 75.883
 85.189 c 80.77 71.736 88.418 59.744 98.613 49.548 c 126.668 21.494 167.707
 3.623 211.203 0.513 c 215.836 0.181 220.465 0.017 225.09 0.017 c 266.969
 0.017 308.285 13.482 342.746 38.591 c 346.32 41.193 347.105 46.197 344.5
 49.771 c 341.898 53.341 336.895 54.127 333.324 51.525 c 255.812 -4.955 
158.867 11.92 109.926 60.861 c 101.398 69.392 95.004 79.412 90.918 90.654
 c 85.906 104.447 88.027 119.224 96.738 131.193 c 105.52 143.263 119.66 
150.138 134.535 149.619 c 134.891 149.603 135.25 149.595 135.613 149.587
 c 136.254 149.572 136.891 149.564 137.527 149.564 c 179.969 149.564 215.781
 182.232 219.477 224.728 c 219.512 225.111 219.543 225.494 219.57 225.877
 c 220.977 245.115 229.703 261.658 244.137 272.459 c 258.379 283.119 276.41
 286.787 294.91 282.787 c 318.395 277.712 339.832 266.005 356.906 248.931
 c 398.543 207.295 405.48 141.322 373.402 92.056 c 370.992 88.353 372.039
 83.4 375.742 80.99 c 379.441 78.576 384.398 79.623 386.809 83.326 c 404.223
 110.06 412.07 142.369 408.918 174.298 c h
408.918 174.298 m f
97.52 279.408 m 96.039 280.896 93.977 281.744 91.863 281.744 c 89.762 281.744
 87.695 280.896 86.207 279.408 c 84.719 277.912 83.863 275.857 83.863 273.744
 c 83.863 271.638 84.719 269.584 86.207 268.095 c 87.695 266.599 89.762 
265.744 91.863 265.744 c 93.977 265.744 96.031 266.599 97.52 268.095 c 99.016
 269.576 99.863 271.638 99.863 273.744 c 99.863 275.857 99.016 277.92 97.52
 279.408 c h
97.52 279.408 m f
258.273 407.271 m 256.082 409.439 252.84 410.15 249.938 409.107 c 248.895
 408.732 l 214.785 396.447 183.207 376.4 157.566 350.763 c 106.609 299.806
 l 103.488 296.681 103.484 291.615 106.609 288.49 c 109.734 285.369 114.801
 285.369 117.926 288.49 c 168.883 339.447 l 188.832 359.4 212.629 375.732
 238.438 387.275 c 226.859 360.927 210.328 336.666 190.004 316.345 c 99.758
 226.095 l 97.418 230.826 94.309 235.197 90.469 239.037 c 81.234 248.271
 68.953 253.357 55.895 253.357 c 42.836 253.357 30.555 248.271 21.32 239.037
 c 5.746 223.462 7.504 206.42 8.918 192.724 c 10.309 179.279 10.734 170.615
 2.344 162.224 c 0.168 160.048 -0.566 156.818 0.453 153.916 c 1.473 151.013
 4.066 148.951 7.125 148.615 c 14.879 147.763 22.078 147.33 28.781 147.33
 c 55.961 147.33 75.051 154.474 90.469 169.888 c 99.703 179.127 104.789 
191.404 104.789 204.462 c 104.789 206.048 104.711 207.623 104.562 209.181
 c 105.535 209.572 106.449 210.162 107.238 210.951 c 201.32 305.029 l 227.625
 331.337 247.988 363.814 260.207 398.955 c 261.219 401.865 260.469 405.103
 258.273 407.271 c h
79.152 181.205 m 69.512 171.564 55.176 162.22 22.398 163.494 c 26.941 173.947
 25.84 184.623 24.836 194.369 c 23.5 207.31 22.441 217.533 32.633 227.724
 c 38.848 233.939 47.105 237.361 55.895 237.361 c 64.68 237.361 72.941 233.939
 79.152 227.724 c 85.367 221.509 88.789 213.252 88.789 204.466 c 88.789 
195.677 85.367 187.42 79.152 181.205 c h
79.152 181.205 m f
Q Q
showpage
%%Trailer
end restore
%%EOF
