%!PS-Adobe-3.0 EPSF-3.0
%%Creator: cairo 1.14.2 (http://cairographics.org)
%%CreationDate: Thu Jul 26 08:14:03 2018
%%Pages: 1
%%DocumentData: Clean7Bit
%%LanguageLevel: 2
%%BoundingBox: 0 -1 410 410
%%EndComments
%%BeginProlog
save
50 dict begin
/q { gsave } bind def
/Q { grestore } bind def
/cm { 6 array astore concat } bind def
/w { setlinewidth } bind def
/J { setlinecap } bind def
/j { setlinejoin } bind def
/M { setmiterlimit } bind def
/d { setdash } bind def
/m { moveto } bind def
/l { lineto } bind def
/c { curveto } bind def
/h { closepath } bind def
/re { exch dup neg 3 1 roll 5 3 roll moveto 0 rlineto
      0 exch rlineto 0 rlineto closepath } bind def
/S { stroke } bind def
/f { fill } bind def
/f* { eofill } bind def
/n { newpath } bind def
/W { clip } bind def
/W* { eoclip } bind def
/BT { } bind def
/ET { } bind def
/pdfmark where { pop globaldict /?pdfmark /exec load put }
    { globaldict begin /?pdfmark /pop load def /pdfmark
    /cleartomark load def end } ifelse
/BDC { mark 3 1 roll /BDC pdfmark } bind def
/EMC { mark /EMC pdfmark } bind def
/cairo_store_point { /cairo_point_y exch def /cairo_point_x exch def } def
/Tj { show currentpoint cairo_store_point } bind def
/TJ {
  {
    dup
    type /stringtype eq
    { show } { -0.001 mul 0 cairo_font_matrix dtransform rmoveto } ifelse
  } forall
  currentpoint cairo_store_point
} bind def
/cairo_selectfont { cairo_font_matrix aload pop pop pop 0 0 6 array astore
    cairo_font exch selectfont cairo_point_x cairo_point_y moveto } bind def
/Tf { pop /cairo_font exch def /cairo_font_matrix where
      { pop cairo_selectfont } if } bind def
/Td { matrix translate cairo_font_matrix matrix concatmatrix dup
      /cairo_font_matrix exch def dup 4 get exch 5 get cairo_store_point
      /cairo_font where { pop cairo_selectfont } if } bind def
/Tm { 2 copy 8 2 roll 6 array astore /cairo_font_matrix exch def
      cairo_store_point /cairo_font where { pop cairo_selectfont } if } bind def
/g { setgray } bind def
/rg { setrgbcolor } bind def
/d1 { setcachedevice } bind def
%%EndProlog
%%BeginSetup
%%EndSetup
%%Page: 1 1
%%BeginPageSetup
%%PageBoundingBox: 0 -1 410 410
%%EndPageSetup
q 0 -1 410 411 rectclip q
0 g
404.832 27.718 m 238.184 194.366 l 235.059 197.491 229.992 197.491 226.867
 194.366 c 223.742 191.241 223.742 186.175 226.867 183.054 c 393.52 16.402
 l 393.574 16.347 393.602 16.308 393.602 16.308 c 393.613 16.23 393.543 
16.054 393.492 16.011 c 393.48 16.007 393.434 15.999 393.352 15.999 c 267.895
 15.999 l 267.895 31.999 l 267.895 36.417 264.312 39.999 259.895 39.999 
c 255.477 39.999 251.895 36.417 251.895 31.999 c 251.895 15.999 l 223.043
 15.999 l 223.043 22.398 l 223.043 26.816 219.461 30.398 215.043 30.398 
c 210.625 30.398 207.043 26.816 207.043 22.398 c 207.043 15.999 l 178.191
 15.999 l 178.191 31.999 l 178.191 36.417 174.605 39.999 170.191 39.999 
c 165.773 39.999 162.191 36.417 162.191 31.999 c 162.191 15.999 l 133.336
 15.999 l 133.336 22.398 l 133.336 26.816 129.754 30.398 125.336 30.398 
c 120.922 30.398 117.336 26.816 117.336 22.398 c 117.336 15.999 l 88.484
 15.999 l 88.484 31.999 l 88.484 36.417 84.902 39.999 80.484 39.999 c 76.066
 39.999 72.484 36.417 72.484 31.999 c 72.484 15.999 l 16.238 15.999 l 16.109
 15.999 16.004 16.105 16.004 16.238 c 16.004 72.48 l 30.535 72.48 l 34.953
 72.48 38.535 76.062 38.535 80.48 c 38.535 84.898 34.953 88.48 30.535 88.48
 c 16.004 88.48 l 16.004 117.335 l 20.938 117.335 l 25.355 117.335 28.938
 120.917 28.938 125.335 c 28.938 129.753 25.355 133.335 20.938 133.335 c
 16.004 133.335 l 16.004 162.187 l 30.535 162.187 l 34.953 162.187 38.535
 165.769 38.535 170.187 c 38.535 174.605 34.953 178.187 30.535 178.187 c
 16.004 178.187 l 16.004 207.038 l 20.938 207.038 l 25.355 207.038 28.938
 210.62 28.938 215.038 c 28.938 219.456 25.355 223.038 20.938 223.038 c 
16.004 223.038 l 16.004 251.89 l 30.535 251.89 l 34.953 251.89 38.535 255.472
 38.535 259.89 c 38.535 264.308 34.953 267.89 30.535 267.89 c 16.004 267.89
 l 16.004 393.347 l 16.004 393.429 16.012 393.476 16.012 393.476 c 16.008
 393.476 l 16.059 393.538 16.23 393.616 16.297 393.605 c 16.309 393.601 
16.348 393.573 16.406 393.515 c 183.477 226.445 l 186.602 223.32 191.668
 223.32 194.793 226.445 c 197.914 229.57 197.914 234.636 194.793 237.757
 c 27.719 404.827 l 23.059 409.488 16.113 410.87 10.027 408.347 c 3.938 
405.827 0.004 399.937 0.004 393.347 c 0.004 16.238 l 0.004 7.284 7.285 -0.001
 16.238 -0.001 c 393.352 -0.001 l 399.941 -0.001 405.828 3.933 408.352 10.023
 c 410.871 16.113 409.492 23.058 404.832 27.718 c h
404.832 27.718 m f
216.539 215.999 m 215.051 217.495 212.996 218.343 210.891 218.343 c 208.777
 218.343 206.723 217.495 205.234 215.999 c 203.738 214.511 202.883 212.456
 202.883 210.343 c 202.883 208.241 203.738 206.175 205.234 204.687 c 206.723
 203.198 208.777 202.351 210.891 202.351 c 212.996 202.351 215.051 203.198
 216.539 204.687 c 218.035 206.175 218.891 208.241 218.891 210.343 c 218.891
 212.456 218.035 214.511 216.539 215.999 c h
216.539 215.999 m f
243.906 86.136 m 86.141 243.905 l 83.852 246.195 80.41 246.878 77.422 245.64
 c 74.434 244.402 72.484 241.484 72.484 238.249 c 72.484 80.48 l 72.484 
76.062 76.066 72.48 80.484 72.48 c 238.25 72.48 l 241.488 72.48 244.402 
74.429 245.641 77.421 c 246.879 80.409 246.195 83.851 243.906 86.136 c h
88.484 88.48 m 88.484 218.937 l 218.938 88.48 l h
88.484 88.48 m f
404.918 193.089 m 322.605 275.402 l 319.48 278.527 314.414 278.527 311.289
 275.402 c 308.164 272.277 308.164 267.21 311.289 264.089 c 361.48 213.898
 l 328.609 181.027 l 189.668 319.964 l 222.539 352.835 l 272.488 302.886
 l 275.613 299.761 280.68 299.761 283.805 302.886 c 286.93 306.011 286.93
 311.077 283.805 314.202 c 228.195 369.808 l 227.523 370.48 226.738 371.027
 225.875 371.421 c 144.242 408.87 l 141.199 410.269 137.613 409.62 135.25
 407.257 c 132.883 404.89 132.238 401.304 133.633 398.265 c 171.086 316.628
 l 171.48 315.765 172.027 314.98 172.699 314.308 c 349.418 137.589 l 352.539
 134.468 356.637 132.909 360.734 132.909 c 364.832 132.909 368.926 134.468
 372.047 137.589 c 404.918 170.46 l 411.156 176.698 411.156 186.847 404.918
 193.089 c h
157.168 385.339 m 208.75 361.675 l 180.832 333.757 l h
360.73 148.902 m 339.922 169.71 l 372.793 202.581 l 393.602 181.773 l h
360.73 148.902 m f
303.93 294.073 m 302.441 295.562 300.387 296.417 298.273 296.417 c 296.172
 296.417 294.105 295.562 292.621 294.073 c 291.133 292.585 290.273 290.519
 290.273 288.417 c 290.273 286.304 291.133 284.249 292.621 282.761 c 294.105
 281.265 296.172 280.417 298.273 280.417 c 300.387 280.417 302.441 281.265
 303.93 282.761 c 305.426 284.249 306.273 286.304 306.273 288.417 c 306.273
 290.519 305.426 292.585 303.93 294.073 c h
303.93 294.073 m f
Q Q
showpage
%%Trailer
end restore
%%EOF
