%!PS-Adobe-3.0 EPSF-3.0
%%Creator: cairo 1.14.2 (http://cairographics.org)
%%CreationDate: Thu Jul 26 08:14:03 2018
%%Pages: 1
%%DocumentData: Clean7Bit
%%LanguageLevel: 2
%%BoundingBox: 0 -1 410 410
%%EndComments
%%BeginProlog
save
50 dict begin
/q { gsave } bind def
/Q { grestore } bind def
/cm { 6 array astore concat } bind def
/w { setlinewidth } bind def
/J { setlinecap } bind def
/j { setlinejoin } bind def
/M { setmiterlimit } bind def
/d { setdash } bind def
/m { moveto } bind def
/l { lineto } bind def
/c { curveto } bind def
/h { closepath } bind def
/re { exch dup neg 3 1 roll 5 3 roll moveto 0 rlineto
      0 exch rlineto 0 rlineto closepath } bind def
/S { stroke } bind def
/f { fill } bind def
/f* { eofill } bind def
/n { newpath } bind def
/W { clip } bind def
/W* { eoclip } bind def
/BT { } bind def
/ET { } bind def
/pdfmark where { pop globaldict /?pdfmark /exec load put }
    { globaldict begin /?pdfmark /pop load def /pdfmark
    /cleartomark load def end } ifelse
/BDC { mark 3 1 roll /BDC pdfmark } bind def
/EMC { mark /EMC pdfmark } bind def
/cairo_store_point { /cairo_point_y exch def /cairo_point_x exch def } def
/Tj { show currentpoint cairo_store_point } bind def
/TJ {
  {
    dup
    type /stringtype eq
    { show } { -0.001 mul 0 cairo_font_matrix dtransform rmoveto } ifelse
  } forall
  currentpoint cairo_store_point
} bind def
/cairo_selectfont { cairo_font_matrix aload pop pop pop 0 0 6 array astore
    cairo_font exch selectfont cairo_point_x cairo_point_y moveto } bind def
/Tf { pop /cairo_font exch def /cairo_font_matrix where
      { pop cairo_selectfont } if } bind def
/Td { matrix translate cairo_font_matrix matrix concatmatrix dup
      /cairo_font_matrix exch def dup 4 get exch 5 get cairo_store_point
      /cairo_font where { pop cairo_selectfont } if } bind def
/Tm { 2 copy 8 2 roll 6 array astore /cairo_font_matrix exch def
      cairo_store_point /cairo_font where { pop cairo_selectfont } if } bind def
/g { setgray } bind def
/rg { setrgbcolor } bind def
/d1 { setcachedevice } bind def
%%EndProlog
%%BeginSetup
%%EndSetup
%%Page: 1 1
%%BeginPageSetup
%%PageBoundingBox: 0 -1 410 410
%%EndPageSetup
q 0 -1 410 411 rectclip q
0 g
204.801 339.202 m 121.871 339.202 54.398 271.733 54.398 188.799 c 54.398
 105.87 121.871 38.401 204.801 38.401 c 287.73 38.401 355.199 105.87 355.199
 188.799 c 355.199 271.733 287.73 339.202 204.801 339.202 c h
204.801 54.401 m 130.691 54.401 70.398 114.69 70.398 188.799 c 70.398 262.909
 130.691 323.202 204.801 323.202 c 278.91 323.202 339.199 262.909 339.199
 188.799 c 339.199 114.69 278.91 54.401 204.801 54.401 c h
204.801 54.401 m f
408.809 11.467 m 368.676 94.901 l 384.934 123.166 393.602 155.315 393.602
 188.799 c 393.602 218.092 386.961 246.362 374.418 271.909 c 375.043 272.26
 375.637 272.694 376.172 273.229 c 376.766 273.823 l 388.379 285.432 394.773
 300.873 394.773 317.295 c 394.773 333.713 388.379 349.155 376.766 360.764
 c 352.793 384.737 313.789 384.733 289.824 360.768 c 289.23 360.174 l 288.695
 359.639 288.262 359.045 287.906 358.416 c 274.234 365.131 259.777 370.151
 244.801 373.366 c 244.801 381.799 l 244.801 397.127 232.328 409.6 217 409.6
 c 192.602 409.6 l 177.27 409.6 164.801 397.127 164.801 381.799 c 164.801
 373.366 l 149.824 370.151 135.367 365.131 121.691 358.416 c 121.34 359.045
 120.902 359.639 120.371 360.174 c 119.777 360.764 l 95.809 384.733 56.809
 384.737 32.836 360.764 c 8.863 336.795 8.863 297.791 32.836 273.823 c 33.43
 273.229 l 33.961 272.694 34.555 272.26 35.184 271.909 c 22.637 246.362 
16 218.092 16 188.799 c 16 155.315 24.668 123.166 40.926 94.901 c 0.789 
11.467 l -0.402 8.991 -0.238 6.073 1.227 3.741 c 2.691 1.413 5.25 -0.002
 8 -0.002 c 38.938 -0.002 l 41.059 -0.002 43.094 0.842 44.594 2.342 c 85.059
 42.807 l 118.734 15.08 160.609 -0.002 204.801 -0.002 c 248.992 -0.002 290.863
 15.08 324.543 42.807 c 365.008 2.342 l 366.508 0.842 368.543 -0.002 370.664
 -0.002 c 401.602 -0.002 l 404.352 -0.002 406.91 1.413 408.371 3.741 c 409.836
 6.073 410 8.991 408.809 11.467 c h
365.453 349.452 m 382.805 332.1 383.164 304.108 366.555 286.299 c 358.723
 299.241 349.273 311.33 338.301 322.303 c 327.328 333.276 315.242 342.725
 302.297 350.557 c 320.105 367.163 348.102 366.803 365.453 349.452 c h
180.801 381.799 m 180.801 388.307 186.094 393.6 192.602 393.6 c 217 393.6
 l 223.508 393.6 228.801 388.307 228.801 381.799 c 228.801 376.092 l 220.902
 377.088 212.891 377.6 204.801 377.6 c 196.711 377.6 188.699 377.088 180.801
 376.092 c h
30.828 317.295 m 30.828 329.44 35.559 340.862 44.148 349.452 c 61.5 366.803
 89.492 367.163 107.301 350.557 c 94.359 342.721 82.27 333.272 71.297 322.303
 c 60.324 311.33 50.875 299.241 43.043 286.295 c 35.16 294.741 30.828 305.682
 30.828 317.295 c h
35.621 15.998 m 20.727 15.998 l 51.086 79.116 l 57.105 70.721 63.848 62.748
 71.297 55.299 c 71.902 54.694 72.52 54.104 73.133 53.51 c h
204.801 15.998 m 109.52 15.998 32 93.518 32 188.799 c 32 284.08 109.52 
361.6 204.801 361.6 c 300.082 361.6 377.602 284.08 377.602 188.799 c 377.602
 93.518 300.082 15.998 204.801 15.998 c h
373.977 15.998 m 336.469 53.51 l 337.078 54.104 337.695 54.694 338.301 
55.299 c 345.754 62.748 352.492 70.721 358.512 79.116 c 388.875 15.998 l
 h
373.977 15.998 m f
210.543 303.256 m 209.055 304.745 207 305.6 204.887 305.6 c 202.781 305.6
 200.719 304.745 199.23 303.256 c 197.742 301.768 196.887 299.705 196.887
 297.6 c 196.887 295.495 197.742 293.432 199.23 291.944 c 200.719 290.455
 202.781 289.6 204.887 289.6 c 207 289.6 209.055 290.455 210.543 291.944
 c 212.039 293.432 212.887 295.495 212.887 297.6 c 212.887 299.705 212.039
 301.768 210.543 303.256 c h
210.543 303.256 m f
210.367 85.655 m 208.879 87.143 206.816 87.998 204.711 87.998 c 202.602
 87.998 200.543 87.143 199.047 85.655 c 197.562 84.166 196.711 82.104 196.711
 79.998 c 196.711 77.897 197.562 75.83 199.047 74.346 c 200.543 72.858 202.609
 71.998 204.711 71.998 c 206.816 71.998 208.871 72.858 210.367 74.346 c 
211.855 75.83 212.711 77.897 212.711 79.998 c 212.711 82.104 211.855 84.166
 210.367 85.655 c h
210.367 85.655 m f
319.254 194.37 m 317.77 195.858 315.703 196.713 313.602 196.713 c 311.496
 196.713 309.434 195.858 307.945 194.37 c 306.457 192.881 305.602 190.819
 305.602 188.713 c 305.602 186.608 306.457 184.545 307.945 183.057 c 309.434
 181.561 311.496 180.713 313.602 180.713 c 315.703 180.713 317.77 181.561
 319.254 183.057 c 320.742 184.545 321.602 186.608 321.602 188.713 c 321.602
 190.819 320.742 192.881 319.254 194.37 c h
319.254 194.37 m f
101.656 194.553 m 100.168 196.041 98.105 196.889 96 196.889 c 93.895 196.889
 91.832 196.038 90.344 194.553 c 88.855 193.057 88 190.991 88 188.889 c 
88 186.784 88.855 184.729 90.344 183.233 c 91.832 181.745 93.895 180.889
 96 180.889 c 98.105 180.889 100.168 181.745 101.656 183.233 c 103.145 184.721
 104 186.784 104 188.889 c 104 190.998 103.145 193.057 101.656 194.553 c
 h
101.656 194.553 m f
281.973 265.873 m 278.848 268.998 273.785 268.998 270.66 265.873 c 219.312
 214.526 l 215.023 216.955 210.07 218.346 204.801 218.346 c 199.555 218.346
 194.629 216.967 190.355 214.561 c 165.809 239.108 l 162.684 242.233 157.617
 242.233 154.492 239.108 c 151.367 235.983 151.367 230.92 154.492 227.795
 c 179.039 203.248 l 176.633 198.971 175.254 194.045 175.254 188.799 c 175.254
 172.506 188.508 159.252 204.801 159.252 c 221.094 159.252 234.348 172.506
 234.348 188.799 c 234.348 194.022 232.984 198.924 230.598 203.182 c 281.973
 254.561 l 285.098 257.682 285.098 262.748 281.973 265.873 c h
204.801 175.252 m 197.328 175.252 191.254 181.33 191.254 188.799 c 191.254
 196.272 197.328 202.346 204.801 202.346 c 212.27 202.346 218.348 196.272
 218.348 188.799 c 218.348 181.33 212.27 175.252 204.801 175.252 c h
204.801 175.252 m f
309.812 160.944 m 305.641 162.385 301.082 160.174 299.637 155.998 c 290.516
 129.62 270.598 108.065 244.996 96.854 c 240.945 95.08 239.102 90.366 240.875
 86.319 c 242.191 83.315 245.125 81.526 248.207 81.526 c 249.277 81.526 
250.367 81.741 251.41 82.198 c 281.094 95.194 304.18 120.186 314.758 150.768
 c 316.203 154.944 313.988 159.498 309.812 160.944 c h
309.812 160.944 m f
Q Q
showpage
%%Trailer
end restore
%%EOF
