%!PS-Adobe-3.0 EPSF-3.0
%%Creator: cairo 1.14.2 (http://cairographics.org)
%%CreationDate: Thu Jul 26 08:14:03 2018
%%Pages: 1
%%DocumentData: Clean7Bit
%%LanguageLevel: 2
%%BoundingBox: 0 43 410 367
%%EndComments
%%BeginProlog
save
50 dict begin
/q { gsave } bind def
/Q { grestore } bind def
/cm { 6 array astore concat } bind def
/w { setlinewidth } bind def
/J { setlinecap } bind def
/j { setlinejoin } bind def
/M { setmiterlimit } bind def
/d { setdash } bind def
/m { moveto } bind def
/l { lineto } bind def
/c { curveto } bind def
/h { closepath } bind def
/re { exch dup neg 3 1 roll 5 3 roll moveto 0 rlineto
      0 exch rlineto 0 rlineto closepath } bind def
/S { stroke } bind def
/f { fill } bind def
/f* { eofill } bind def
/n { newpath } bind def
/W { clip } bind def
/W* { eoclip } bind def
/BT { } bind def
/ET { } bind def
/pdfmark where { pop globaldict /?pdfmark /exec load put }
    { globaldict begin /?pdfmark /pop load def /pdfmark
    /cleartomark load def end } ifelse
/BDC { mark 3 1 roll /BDC pdfmark } bind def
/EMC { mark /EMC pdfmark } bind def
/cairo_store_point { /cairo_point_y exch def /cairo_point_x exch def } def
/Tj { show currentpoint cairo_store_point } bind def
/TJ {
  {
    dup
    type /stringtype eq
    { show } { -0.001 mul 0 cairo_font_matrix dtransform rmoveto } ifelse
  } forall
  currentpoint cairo_store_point
} bind def
/cairo_selectfont { cairo_font_matrix aload pop pop pop 0 0 6 array astore
    cairo_font exch selectfont cairo_point_x cairo_point_y moveto } bind def
/Tf { pop /cairo_font exch def /cairo_font_matrix where
      { pop cairo_selectfont } if } bind def
/Td { matrix translate cairo_font_matrix matrix concatmatrix dup
      /cairo_font_matrix exch def dup 4 get exch 5 get cairo_store_point
      /cairo_font where { pop cairo_selectfont } if } bind def
/Tm { 2 copy 8 2 roll 6 array astore /cairo_font_matrix exch def
      cairo_store_point /cairo_font where { pop cairo_selectfont } if } bind def
/g { setgray } bind def
/rg { setrgbcolor } bind def
/d1 { setcachedevice } bind def
%%EndProlog
%%BeginSetup
%%EndSetup
%%Page: 1 1
%%BeginPageSetup
%%PageBoundingBox: 0 43 410 367
%%EndPageSetup
q 0 43 410 324 rectclip q
0 g
321.602 305.452 m 321.188 305.452 320.773 305.448 320.355 305.444 c 307.43
 328.737 282.645 343.518 255.77 343.518 c 249.379 343.518 243.043 342.69
 236.879 341.057 c 225.582 350.323 212.379 357.315 198.434 361.377 c 194.191
 362.616 189.75 360.178 188.512 355.94 c 187.277 351.698 189.711 347.256
 193.953 346.018 c 207.062 342.198 219.41 335.338 229.66 326.182 c 231.797
 324.272 234.793 323.651 237.512 324.557 c 243.418 326.522 249.562 327.518
 255.77 327.518 c 278.25 327.518 298.867 314.311 308.297 293.873 c 309.695
 290.842 312.832 289.002 316.156 289.248 c 317.965 289.385 319.797 289.452
 321.602 289.452 c 361.301 289.452 393.602 257.155 393.602 217.452 c 393.602
 189.889 377.523 164.381 352.645 152.471 c 350.051 151.229 348.324 148.69
 348.121 145.823 c 344.699 97.639 304.133 59.893 255.77 59.893 c 236.066
 59.893 217.25 66.006 201.359 77.569 c 198.465 79.674 194.527 79.6 191.711
 77.393 c 177.129 65.944 159.598 59.893 141.012 59.893 c 95.691 59.893 58.82
 96.764 58.82 142.084 c 58.82 143.413 58.855 144.784 58.922 146.159 c 59.074
 149.272 57.406 152.186 54.645 153.631 c 30.809 166.12 16 190.573 16 217.452
 c 16 253.092 41.508 282.998 76.648 288.561 c 79.371 288.991 81.68 290.791
 82.762 293.33 c 93.059 317.53 113.219 336.28 138.07 344.764 c 142.254 346.19
 144.484 350.737 143.059 354.92 c 141.629 359.1 137.082 361.33 132.902 359.905
 c 105.129 350.424 82.355 330.018 69.824 303.565 c 51.043 299.612 33.953
 289.534 21.316 274.873 c 7.57 258.924 0 238.534 0 217.452 c 0 186.288 16.281
 157.791 42.82 141.924 c 42.906 87.854 86.922 43.893 141.012 43.893 c 161.223
 43.893 180.395 49.889 196.82 61.28 c 214.383 49.889 234.645 43.893 255.77
 43.893 c 283.414 43.893 309.754 54.291 329.93 73.166 c 348.891 90.901 360.762
 114.541 363.66 140.139 c 376.633 147.205 387.637 157.428 395.672 169.924
 c 404.781 184.096 409.602 200.53 409.602 217.452 c 409.602 265.975 370.125
 305.452 321.602 305.452 c h
321.602 305.452 m f
168.152 365.705 m 168 365.705 l 163.582 365.705 160 362.123 160 357.705
 c 160 353.288 163.582 349.705 168 349.705 c 168.152 349.705 l 172.566 349.705
 176.152 353.288 176.152 357.705 c 176.152 362.123 172.566 365.705 168.152
 365.705 c h
168.152 365.705 m f
141.012 95.034 m 123.531 95.034 107.586 104.639 99.398 120.104 c 97.328
 124.01 92.488 125.498 88.582 123.432 c 84.68 121.366 83.188 116.526 85.258
 112.62 c 96.223 91.905 117.59 79.034 141.012 79.034 c 145.43 79.034 149.012
 82.616 149.012 87.034 c 149.012 91.452 145.43 95.034 141.012 95.034 c h
141.012 95.034 m f
85.961 150.084 m 81.543 150.084 77.961 146.502 77.961 142.084 c 77.961 
141.932 l 77.961 137.514 81.543 133.932 85.961 133.932 c 90.379 133.932 
93.961 137.514 93.961 141.932 c 93.961 142.084 l 93.961 146.502 90.379 150.084
 85.961 150.084 c h
85.961 150.084 m f
321.602 268.651 m 317.184 268.651 313.602 265.069 313.602 260.651 c 313.602
 256.233 317.184 252.651 321.602 252.651 c 341.008 252.651 356.801 236.862
 356.801 217.452 c 356.801 213.034 360.383 209.452 364.801 209.452 c 369.219
 209.452 372.801 213.034 372.801 217.452 c 372.801 245.686 349.832 268.651
 321.602 268.651 c h
321.602 268.651 m f
159.273 253.916 m 154.855 253.916 151.273 250.334 151.273 245.916 c 151.273
 221.916 l 125.309 221.916 l 125.309 245.916 l 125.309 250.334 121.727 253.916
 117.309 253.916 c 112.891 253.916 109.309 250.334 109.309 245.916 c 109.309
 181.916 l 109.309 177.498 112.891 173.916 117.309 173.916 c 121.727 173.916
 125.309 177.498 125.309 181.916 c 125.309 205.916 l 151.273 205.916 l 151.273
 181.916 l 151.273 177.498 154.855 173.916 159.273 173.916 c 163.691 173.916
 167.273 177.498 167.273 181.916 c 167.273 245.916 l 167.273 250.334 163.691
 253.916 159.273 253.916 c h
159.273 253.916 m f
262.535 253.916 m 244.008 253.916 228.938 238.842 228.938 220.319 c 228.938
 207.518 l 228.938 188.991 244.008 173.916 262.535 173.916 c 281.062 173.916
 296.137 188.991 296.137 207.518 c 296.137 220.319 l 296.137 238.842 281.062
 253.916 262.535 253.916 c h
280.137 207.518 m 280.137 197.811 272.242 189.916 262.535 189.916 c 252.832
 189.916 244.938 197.811 244.938 207.518 c 244.938 220.319 l 244.938 230.022
 252.832 237.916 262.535 237.916 c 272.242 237.916 280.137 230.022 280.137
 220.319 c h
280.137 207.518 m f
218.801 161.381 m 212.027 161.381 l 219.32 169.245 222.883 176.241 222.883
 182.674 c 222.883 194.663 214.828 202.717 202.84 202.717 c 191.789 202.717
 182.797 193.725 182.797 182.674 c 182.797 178.256 186.379 174.674 190.797
 174.674 c 195.215 174.674 198.797 178.256 198.797 182.674 c 198.797 184.905
 200.609 186.717 202.84 186.717 c 206.258 186.717 206.883 185.358 206.883
 182.674 c 206.883 178.077 195.945 166.862 186.168 159.909 c 183.328 157.893
 182.117 154.272 183.176 150.955 c 184.234 147.635 187.316 145.381 190.797
 145.381 c 218.801 145.381 l 223.219 145.381 226.801 148.967 226.801 153.381
 c 226.801 157.799 223.219 161.381 218.801 161.381 c h
218.801 161.381 m f
Q Q
showpage
%%Trailer
end restore
%%EOF
