%!PS-Adobe-3.0 EPSF-3.0
%%Creator: cairo 1.14.2 (http://cairographics.org)
%%CreationDate: Thu Jul 26 08:14:03 2018
%%Pages: 1
%%DocumentData: Clean7Bit
%%LanguageLevel: 2
%%BoundingBox: 0 -1 410 410
%%EndComments
%%BeginProlog
save
50 dict begin
/q { gsave } bind def
/Q { grestore } bind def
/cm { 6 array astore concat } bind def
/w { setlinewidth } bind def
/J { setlinecap } bind def
/j { setlinejoin } bind def
/M { setmiterlimit } bind def
/d { setdash } bind def
/m { moveto } bind def
/l { lineto } bind def
/c { curveto } bind def
/h { closepath } bind def
/re { exch dup neg 3 1 roll 5 3 roll moveto 0 rlineto
      0 exch rlineto 0 rlineto closepath } bind def
/S { stroke } bind def
/f { fill } bind def
/f* { eofill } bind def
/n { newpath } bind def
/W { clip } bind def
/W* { eoclip } bind def
/BT { } bind def
/ET { } bind def
/pdfmark where { pop globaldict /?pdfmark /exec load put }
    { globaldict begin /?pdfmark /pop load def /pdfmark
    /cleartomark load def end } ifelse
/BDC { mark 3 1 roll /BDC pdfmark } bind def
/EMC { mark /EMC pdfmark } bind def
/cairo_store_point { /cairo_point_y exch def /cairo_point_x exch def } def
/Tj { show currentpoint cairo_store_point } bind def
/TJ {
  {
    dup
    type /stringtype eq
    { show } { -0.001 mul 0 cairo_font_matrix dtransform rmoveto } ifelse
  } forall
  currentpoint cairo_store_point
} bind def
/cairo_selectfont { cairo_font_matrix aload pop pop pop 0 0 6 array astore
    cairo_font exch selectfont cairo_point_x cairo_point_y moveto } bind def
/Tf { pop /cairo_font exch def /cairo_font_matrix where
      { pop cairo_selectfont } if } bind def
/Td { matrix translate cairo_font_matrix matrix concatmatrix dup
      /cairo_font_matrix exch def dup 4 get exch 5 get cairo_store_point
      /cairo_font where { pop cairo_selectfont } if } bind def
/Tm { 2 copy 8 2 roll 6 array astore /cairo_font_matrix exch def
      cairo_store_point /cairo_font where { pop cairo_selectfont } if } bind def
/g { setgray } bind def
/rg { setrgbcolor } bind def
/d1 { setcachedevice } bind def
%%EndProlog
%%BeginSetup
%%EndSetup
%%Page: 1 1
%%BeginPageSetup
%%PageBoundingBox: 0 -1 410 410
%%EndPageSetup
q 0 -1 410 411 rectclip q
0 g
273.656 13.655 m 272.168 15.143 270.105 15.998 268 15.998 c 265.895 15.998
 263.832 15.143 262.344 13.655 c 260.855 12.166 260 10.104 260 7.998 c 260
 5.897 260.855 3.83 262.344 2.346 c 263.832 0.858 265.895 -0.002 268 -0.002
 c 270.105 -0.002 272.168 0.858 273.656 2.346 c 275.145 3.83 276 5.897 276
 7.998 c 276 10.104 275.145 12.166 273.656 13.655 c h
273.656 13.655 m f
409.602 337.6 m 409.602 359.655 391.656 377.6 369.602 377.6 c 358.195 377.6
 l 358.195 382.401 l 358.195 397.397 345.996 409.6 330.996 409.6 c 316 409.6
 303.797 397.397 303.797 382.401 c 303.797 377.6 l 231.898 377.6 l 231.898
 382.401 l 231.898 397.397 219.695 409.6 204.699 409.6 c 189.699 409.6 177.5
 397.397 177.5 382.401 c 177.5 377.6 l 105.602 377.6 l 105.602 382.401 l
 105.602 397.397 93.398 409.6 78.398 409.6 c 63.402 409.6 51.199 397.397
 51.199 382.401 c 51.199 377.6 l 40 377.6 l 17.945 377.6 0 359.655 0 337.6
 c 0 39.998 l 0 17.944 17.945 -0.002 40 -0.002 c 234.398 -0.002 l 238.816
 -0.002 242.398 3.58 242.398 7.998 c 242.398 12.416 238.816 15.998 234.398
 15.998 c 40 15.998 l 26.766 15.998 16 26.768 16 39.998 c 16 337.6 l 16 
350.834 26.766 361.6 40 361.6 c 51.199 361.6 l 51.199 347.065 l 51.199 332.069
 63.402 319.866 78.398 319.866 c 82.816 319.866 86.398 323.448 86.398 327.866
 c 86.398 332.284 82.816 335.866 78.398 335.866 c 72.223 335.866 67.199 
340.889 67.199 347.065 c 67.199 361.6 l 177.5 361.6 l 177.5 347.065 l 177.5
 332.069 189.699 319.866 204.699 319.866 c 209.117 319.866 212.699 323.448
 212.699 327.866 c 212.699 332.284 209.117 335.866 204.699 335.866 c 198.523
 335.866 193.5 340.889 193.5 347.065 c 193.5 361.6 l 303.797 361.6 l 303.797
 347.065 l 303.797 332.069 316 319.866 330.996 319.866 c 335.414 319.866
 338.996 323.448 338.996 327.866 c 338.996 332.284 335.414 335.866 330.996
 335.866 c 324.82 335.866 319.797 340.889 319.797 347.065 c 319.797 361.6
 l 369.602 361.6 l 382.832 361.6 393.602 350.834 393.602 337.6 c 393.602
 118.401 l 331.199 118.401 l 309.145 118.401 291.199 100.455 291.199 78.401
 c 291.199 7.998 l 291.199 4.764 293.148 1.846 296.137 0.608 c 297.129 0.198
 298.168 -0.002 299.199 -0.002 c 301.281 -0.002 303.328 0.811 304.855 2.342
 c 407.258 104.745 l 408.98 106.467 409.793 108.846 409.559 111.19 c 409.586
 111.459 409.602 111.729 409.602 111.998 c h
89.602 377.6 m 67.199 377.6 l 67.199 382.401 l 67.199 388.577 72.223 393.6
 78.398 393.6 c 84.574 393.6 89.602 388.577 89.602 382.401 c h
215.898 377.6 m 193.5 377.6 l 193.5 382.401 l 193.5 388.577 198.523 393.6
 204.699 393.6 c 210.875 393.6 215.898 388.577 215.898 382.401 c h
342.195 377.6 m 319.797 377.6 l 319.797 382.401 l 319.797 388.577 324.82
 393.6 330.996 393.6 c 337.172 393.6 342.195 388.577 342.195 382.401 c h
307.199 27.315 m 307.199 78.401 l 307.199 91.635 317.965 102.401 331.199
 102.401 c 382.285 102.401 l h
307.199 27.315 m f
102.398 156.799 m 59.199 156.799 l 59.199 199.998 l 59.199 204.42 55.617
 207.998 51.199 207.998 c 46.781 207.998 43.199 204.42 43.199 199.998 c 
43.199 148.799 l 43.199 144.381 46.781 140.799 51.199 140.799 c 102.398 
140.799 l 106.816 140.799 110.398 144.381 110.398 148.799 c 110.398 153.217
 106.816 156.799 102.398 156.799 c h
102.398 156.799 m f
358.398 207.998 m 307.199 207.998 l 302.781 207.998 299.199 204.42 299.199
 199.998 c 299.199 148.799 l 299.199 144.381 302.781 140.799 307.199 140.799
 c 358.398 140.799 l 362.816 140.799 366.398 144.381 366.398 148.799 c 366.398
 199.998 l 366.398 204.42 362.816 207.998 358.398 207.998 c h
350.398 156.799 m 315.199 156.799 l 315.199 191.998 l 350.398 191.998 l
 h
350.398 156.799 m f
273.066 156.799 m 229.867 156.799 l 229.867 199.998 l 229.867 204.42 226.285
 207.998 221.867 207.998 c 217.449 207.998 213.867 204.42 213.867 199.998
 c 213.867 148.799 l 213.867 144.381 217.449 140.799 221.867 140.799 c 273.066
 140.799 l 277.484 140.799 281.066 144.381 281.066 148.799 c 281.066 153.217
 277.484 156.799 273.066 156.799 c h
273.066 156.799 m f
187.734 156.799 m 144.535 156.799 l 144.535 199.998 l 144.535 204.42 140.953
 207.998 136.535 207.998 c 132.117 207.998 128.535 204.42 128.535 199.998
 c 128.535 148.799 l 128.535 144.381 132.117 140.799 136.535 140.799 c 187.734
 140.799 l 192.152 140.799 195.734 144.381 195.734 148.799 c 195.734 153.217
 192.152 156.799 187.734 156.799 c h
187.734 156.799 m f
102.398 59.202 m 59.199 59.202 l 59.199 102.401 l 59.199 106.819 55.617
 110.401 51.199 110.401 c 46.781 110.401 43.199 106.819 43.199 102.401 c
 43.199 51.202 l 43.199 46.784 46.781 43.202 51.199 43.202 c 102.398 43.202
 l 106.816 43.202 110.398 46.784 110.398 51.202 c 110.398 55.62 106.816 
59.202 102.398 59.202 c h
102.398 59.202 m f
273.066 59.202 m 229.867 59.202 l 229.867 102.401 l 229.867 106.819 226.285
 110.401 221.867 110.401 c 217.449 110.401 213.867 106.819 213.867 102.401
 c 213.867 51.202 l 213.867 46.784 217.449 43.202 221.867 43.202 c 273.066
 43.202 l 277.484 43.202 281.066 46.784 281.066 51.202 c 281.066 55.62 277.484
 59.202 273.066 59.202 c h
273.066 59.202 m f
187.734 59.202 m 144.535 59.202 l 144.535 102.401 l 144.535 106.819 140.953
 110.401 136.535 110.401 c 132.117 110.401 128.535 106.819 128.535 102.401
 c 128.535 51.202 l 128.535 46.784 132.117 43.202 136.535 43.202 c 187.734
 43.202 l 192.152 43.202 195.734 46.784 195.734 51.202 c 195.734 55.62 192.152
 59.202 187.734 59.202 c h
187.734 59.202 m f
102.398 254.401 m 59.199 254.401 l 59.199 297.6 l 59.199 302.018 55.617
 305.6 51.199 305.6 c 46.781 305.6 43.199 302.018 43.199 297.6 c 43.199 
246.401 l 43.199 241.983 46.781 238.401 51.199 238.401 c 102.398 238.401
 l 106.816 238.401 110.398 241.983 110.398 246.401 c 110.398 250.819 106.816
 254.401 102.398 254.401 c h
102.398 254.401 m f
358.398 305.6 m 307.199 305.6 l 302.781 305.6 299.199 302.018 299.199 297.6
 c 299.199 246.401 l 299.199 241.983 302.781 238.401 307.199 238.401 c 358.398
 238.401 l 362.816 238.401 366.398 241.983 366.398 246.401 c 366.398 297.6
 l 366.398 302.018 362.816 305.6 358.398 305.6 c h
350.398 254.401 m 315.199 254.401 l 315.199 289.6 l 350.398 289.6 l h
350.398 254.401 m f
273.066 254.401 m 229.867 254.401 l 229.867 297.6 l 229.867 302.018 226.285
 305.6 221.867 305.6 c 217.449 305.6 213.867 302.018 213.867 297.6 c 213.867
 246.401 l 213.867 241.983 217.449 238.401 221.867 238.401 c 273.066 238.401
 l 277.484 238.401 281.066 241.983 281.066 246.401 c 281.066 250.819 277.484
 254.401 273.066 254.401 c h
273.066 254.401 m f
187.734 254.401 m 144.535 254.401 l 144.535 297.6 l 144.535 302.018 140.953
 305.6 136.535 305.6 c 132.117 305.6 128.535 302.018 128.535 297.6 c 128.535
 246.401 l 128.535 241.983 132.117 238.401 136.535 238.401 c 187.734 238.401
 l 192.152 238.401 195.734 241.983 195.734 246.401 c 195.734 250.819 192.152
 254.401 187.734 254.401 c h
187.734 254.401 m f
Q Q
showpage
%%Trailer
end restore
%%EOF
