%!PS-Adobe-3.0 EPSF-3.0
%%Creator: cairo 1.14.2 (http://cairographics.org)
%%CreationDate: Thu Jul 26 08:14:03 2018
%%Pages: 1
%%DocumentData: Clean7Bit
%%LanguageLevel: 2
%%BoundingBox: 0 -1 410 410
%%EndComments
%%BeginProlog
save
50 dict begin
/q { gsave } bind def
/Q { grestore } bind def
/cm { 6 array astore concat } bind def
/w { setlinewidth } bind def
/J { setlinecap } bind def
/j { setlinejoin } bind def
/M { setmiterlimit } bind def
/d { setdash } bind def
/m { moveto } bind def
/l { lineto } bind def
/c { curveto } bind def
/h { closepath } bind def
/re { exch dup neg 3 1 roll 5 3 roll moveto 0 rlineto
      0 exch rlineto 0 rlineto closepath } bind def
/S { stroke } bind def
/f { fill } bind def
/f* { eofill } bind def
/n { newpath } bind def
/W { clip } bind def
/W* { eoclip } bind def
/BT { } bind def
/ET { } bind def
/pdfmark where { pop globaldict /?pdfmark /exec load put }
    { globaldict begin /?pdfmark /pop load def /pdfmark
    /cleartomark load def end } ifelse
/BDC { mark 3 1 roll /BDC pdfmark } bind def
/EMC { mark /EMC pdfmark } bind def
/cairo_store_point { /cairo_point_y exch def /cairo_point_x exch def } def
/Tj { show currentpoint cairo_store_point } bind def
/TJ {
  {
    dup
    type /stringtype eq
    { show } { -0.001 mul 0 cairo_font_matrix dtransform rmoveto } ifelse
  } forall
  currentpoint cairo_store_point
} bind def
/cairo_selectfont { cairo_font_matrix aload pop pop pop 0 0 6 array astore
    cairo_font exch selectfont cairo_point_x cairo_point_y moveto } bind def
/Tf { pop /cairo_font exch def /cairo_font_matrix where
      { pop cairo_selectfont } if } bind def
/Td { matrix translate cairo_font_matrix matrix concatmatrix dup
      /cairo_font_matrix exch def dup 4 get exch 5 get cairo_store_point
      /cairo_font where { pop cairo_selectfont } if } bind def
/Tm { 2 copy 8 2 roll 6 array astore /cairo_font_matrix exch def
      cairo_store_point /cairo_font where { pop cairo_selectfont } if } bind def
/g { setgray } bind def
/rg { setrgbcolor } bind def
/d1 { setcachedevice } bind def
%%EndProlog
%%BeginSetup
%%EndSetup
%%Page: 1 1
%%BeginPageSetup
%%PageBoundingBox: 0 -1 410 410
%%EndPageSetup
q 0 -1 410 411 rectclip q
0 g
204.801 289.498 m 179.215 289.498 158.398 268.682 158.398 243.1 c 158.398
 217.514 179.215 196.698 204.801 196.698 c 230.387 196.698 251.199 217.514
 251.199 243.1 c 251.199 268.682 230.387 289.498 204.801 289.498 c h
204.801 212.698 m 188.039 212.698 174.398 226.334 174.398 243.1 c 174.398
 259.862 188.039 273.498 204.801 273.498 c 221.562 273.498 235.199 259.862
 235.199 243.1 c 235.199 226.334 221.562 212.698 204.801 212.698 c h
204.801 212.698 m f
385.602 156.799 m 377.602 156.799 l 377.602 195.202 l 377.602 241.358 359.625
 284.752 326.988 317.389 c 304 340.377 275.668 356.08 244.801 363.362 c 
244.801 378.045 l 244.801 395.444 230.645 409.6 213.246 409.6 c 196.355 
409.6 l 178.957 409.6 164.801 395.444 164.801 378.045 c 164.801 363.362 
l 133.93 356.08 105.602 340.377 82.613 317.389 c 49.973 284.752 32 241.358
 32 195.202 c 32 156.799 l 24 156.799 l 10.766 156.799 0 146.034 0 132.799
 c 0 23.998 l 0 10.768 10.766 -0.002 24 -0.002 c 385.602 -0.002 l 398.832
 -0.002 409.602 10.768 409.602 23.998 c 409.602 132.799 l 409.602 146.034
 398.832 156.799 385.602 156.799 c h
180.801 378.045 m 180.801 386.623 187.777 393.6 196.355 393.6 c 213.242
 393.6 l 221.82 393.6 228.801 386.623 228.801 378.045 c 228.801 366.346 
l 220.914 367.436 212.898 367.998 204.801 367.998 c 196.699 367.998 188.688
 367.436 180.801 366.346 c h
24 15.998 m 19.59 15.998 16 19.588 16 23.998 c 16 132.799 l 16 137.209 
19.59 140.799 24 140.799 c 32 140.799 l 32 57.354 l 32 41.116 38.793 26.444
 49.676 15.998 c h
303.699 16.909 m 303.699 16.405 303.289 15.998 302.789 15.998 c 106.812
 15.998 l 106.309 15.998 105.902 16.409 105.902 16.909 c 105.902 94.221 
l 105.902 119.905 126.797 140.799 152.484 140.799 c 257.117 140.799 l 280.074
 140.799 299.191 124.104 302.996 102.221 c 166.398 102.221 l 161.98 102.221
 158.398 98.639 158.398 94.221 c 158.398 89.803 161.98 86.221 166.398 86.221
 c 243.199 86.221 l 243.199 71.6 l 243.199 67.182 246.781 63.6 251.199 63.6
 c 255.617 63.6 259.199 67.182 259.199 71.6 c 259.199 86.221 l 303.699 86.221
 l h
320.246 15.998 m 319.652 15.998 l 319.668 16.303 319.699 16.6 319.699 16.909
 c 319.699 94.221 l 319.699 128.729 291.625 156.799 257.117 156.799 c 152.484
 156.799 l 117.977 156.799 89.902 128.729 89.902 94.221 c 89.902 16.909 
l 89.902 16.6 89.93 16.303 89.949 15.998 c 89.355 15.998 l 66.551 15.998
 48 34.553 48 57.354 c 48 195.202 l 48 281.659 118.34 351.998 204.801 351.998
 c 291.262 351.998 361.602 281.659 361.602 195.202 c 361.602 57.354 l 361.602
 34.553 343.047 15.998 320.246 15.998 c h
393.602 23.998 m 393.602 19.588 390.012 15.998 385.602 15.998 c 359.926
 15.998 l 370.805 26.444 377.602 41.116 377.602 57.354 c 377.602 140.799
 l 385.602 140.799 l 390.012 140.799 393.602 137.209 393.602 132.799 c h
393.602 23.998 m f
142.457 99.881 m 140.969 101.37 138.902 102.217 136.801 102.217 c 134.695
 102.217 132.633 101.37 131.145 99.881 c 129.656 98.385 128.801 96.33 128.801
 94.217 c 128.801 92.112 129.656 90.057 131.145 88.561 c 132.633 87.073 
134.695 86.217 136.801 86.217 c 138.902 86.217 140.969 87.073 142.457 88.561
 c 143.941 90.049 144.801 92.112 144.801 94.217 c 144.801 96.33 143.945 
98.393 142.457 99.881 c h
142.457 99.881 m f
289.809 299.307 m 265.91 318.842 235.719 329.6 204.801 329.6 c 200.383 
329.6 196.801 326.018 196.801 321.6 c 196.801 317.182 200.383 313.6 204.801
 313.6 c 232.039 313.6 258.633 304.123 279.68 286.92 c 281.168 285.705 282.961
 285.112 284.738 285.112 c 287.059 285.112 289.355 286.116 290.938 288.049
 c 293.734 291.471 293.227 296.51 289.809 299.307 c h
289.809 299.307 m f
313.758 273.905 m 311.414 277.252 306.859 278.323 303.238 276.252 c 299.402
 274.061 298.07 269.174 300.262 265.338 c 300.512 264.901 300.809 264.479
 301.141 264.092 c 302.723 262.248 304.961 261.299 307.219 261.299 c 309.059
 261.299 310.91 261.932 312.422 263.225 c 315.578 265.932 316.105 270.573
 313.758 273.905 c h
313.758 273.905 m f
Q Q
showpage
%%Trailer
end restore
%%EOF
