%!PS-Adobe-3.0 EPSF-3.0
%%Creator: cairo 1.14.2 (http://cairographics.org)
%%CreationDate: Thu Jul 26 08:14:03 2018
%%Pages: 1
%%DocumentData: Clean7Bit
%%LanguageLevel: 2
%%BoundingBox: 0 -1 410 410
%%EndComments
%%BeginProlog
save
50 dict begin
/q { gsave } bind def
/Q { grestore } bind def
/cm { 6 array astore concat } bind def
/w { setlinewidth } bind def
/J { setlinecap } bind def
/j { setlinejoin } bind def
/M { setmiterlimit } bind def
/d { setdash } bind def
/m { moveto } bind def
/l { lineto } bind def
/c { curveto } bind def
/h { closepath } bind def
/re { exch dup neg 3 1 roll 5 3 roll moveto 0 rlineto
      0 exch rlineto 0 rlineto closepath } bind def
/S { stroke } bind def
/f { fill } bind def
/f* { eofill } bind def
/n { newpath } bind def
/W { clip } bind def
/W* { eoclip } bind def
/BT { } bind def
/ET { } bind def
/pdfmark where { pop globaldict /?pdfmark /exec load put }
    { globaldict begin /?pdfmark /pop load def /pdfmark
    /cleartomark load def end } ifelse
/BDC { mark 3 1 roll /BDC pdfmark } bind def
/EMC { mark /EMC pdfmark } bind def
/cairo_store_point { /cairo_point_y exch def /cairo_point_x exch def } def
/Tj { show currentpoint cairo_store_point } bind def
/TJ {
  {
    dup
    type /stringtype eq
    { show } { -0.001 mul 0 cairo_font_matrix dtransform rmoveto } ifelse
  } forall
  currentpoint cairo_store_point
} bind def
/cairo_selectfont { cairo_font_matrix aload pop pop pop 0 0 6 array astore
    cairo_font exch selectfont cairo_point_x cairo_point_y moveto } bind def
/Tf { pop /cairo_font exch def /cairo_font_matrix where
      { pop cairo_selectfont } if } bind def
/Td { matrix translate cairo_font_matrix matrix concatmatrix dup
      /cairo_font_matrix exch def dup 4 get exch 5 get cairo_store_point
      /cairo_font where { pop cairo_selectfont } if } bind def
/Tm { 2 copy 8 2 roll 6 array astore /cairo_font_matrix exch def
      cairo_store_point /cairo_font where { pop cairo_selectfont } if } bind def
/g { setgray } bind def
/rg { setrgbcolor } bind def
/d1 { setcachedevice } bind def
%%EndProlog
%%BeginSetup
%%EndSetup
%%Page: 1 1
%%BeginPageSetup
%%PageBoundingBox: 0 -1 410 410
%%EndPageSetup
q 0 -1 410 411 rectclip q
0 g
339.793 317.916 m 338.305 319.412 336.242 320.259 334.137 320.259 c 332.027
 320.259 329.969 319.412 328.48 317.916 c 326.988 316.427 326.137 314.373
 326.137 312.259 c 326.137 310.158 326.988 308.091 328.48 306.603 c 329.969
 305.115 332.027 304.259 334.137 304.259 c 336.242 304.259 338.305 305.115
 339.793 306.603 c 341.281 308.091 342.137 310.158 342.137 312.259 c 342.137
 314.373 341.281 316.427 339.793 317.916 c h
339.793 317.916 m f
342.137 223.13 m 342.137 280.263 l 342.137 284.681 338.555 288.263 334.137
 288.263 c 329.715 288.263 326.137 284.681 326.137 280.263 c 326.137 217.912
 l 326.137 214.673 328.09 211.752 331.082 210.517 c 358.137 199.345 378.359
 177.513 387.762 151.029 c 286.465 151.029 l 282.043 151.029 278.465 147.447
 278.465 143.029 c 278.465 138.611 282.043 135.029 286.465 135.029 c 392
 135.029 l 393.047 129.173 393.602 123.173 393.602 117.068 c 393.602 61.341
 348.266 16.005 292.539 16.005 c 287.379 16.005 282.242 16.404 277.176 17.173
 c 281.316 25.978 280.93 36.056 275.988 44.611 c 205 167.564 l 211.074 178.068
 218.891 187.326 228.285 195.072 c 236.066 201.49 244.715 206.685 253.992
 210.517 c 256.988 211.752 258.938 214.673 258.938 217.912 c 258.938 361.595
 l 326.137 361.595 l 326.137 345.33 l 326.137 340.912 329.719 337.33 334.137
 337.33 c 338.555 337.33 342.137 340.912 342.137 345.33 c 342.137 361.607
 l 355.156 361.857 365.672 372.517 365.672 385.591 c 365.672 398.826 354.906
 409.591 341.672 409.591 c 246.457 409.591 l 233.223 409.591 222.457 398.826
 222.457 385.591 c 222.457 373.556 231.367 363.56 242.938 361.853 c 242.938
 223.127 l 234.051 218.966 225.719 213.693 218.105 207.42 c 209.57 200.38
 202.152 192.275 195.957 183.232 c 192.641 188.974 l 192.641 315.83 l 203.469
 318.146 211.617 327.787 211.617 339.298 c 211.617 352.529 200.848 363.295
 187.617 363.295 c 92.402 363.295 l 79.172 363.295 68.402 352.529 68.402
 339.298 c 68.402 327.787 76.551 318.146 87.379 315.83 c 87.379 188.974 
l 4.031 44.611 l -1.344 35.298 -1.344 24.185 4.031 14.873 c 9.406 5.564 
19.031 0.005 29.781 0.005 c 250.238 0.005 l 255.254 0.005 260.02 1.232 264.227
 3.466 c 273.445 1.177 282.961 0.005 292.539 0.005 c 357.086 0.005 409.602
 52.521 409.602 117.068 c 409.602 162.845 383.293 203.904 342.137 223.13
 c h
238.457 385.595 m 238.457 390.005 242.047 393.595 246.457 393.595 c 341.672
 393.595 l 346.082 393.595 349.672 390.005 349.672 385.595 c 349.672 381.181
 346.082 377.595 341.672 377.595 c 246.457 377.595 l 242.047 377.595 238.457
 381.181 238.457 385.595 c h
84.402 339.298 m 84.402 343.709 87.992 347.298 92.402 347.298 c 187.617
 347.298 l 192.027 347.298 195.617 343.709 195.617 339.298 c 195.617 334.884
 192.027 331.298 187.617 331.298 c 92.402 331.298 l 87.992 331.298 84.402
 334.884 84.402 339.298 c h
102.309 182.83 m 103.012 184.048 103.379 185.427 103.379 186.83 c 103.379
 315.298 l 176.641 315.298 l 176.641 186.83 l 176.641 185.427 177.008 184.048
 177.711 182.83 c 207.98 130.404 l 72.039 130.404 l h
262.133 22.877 m 259.648 18.576 255.203 16.005 250.238 16.005 c 29.781 
16.005 l 24.816 16.005 20.371 18.576 17.887 22.877 c 15.402 27.177 15.402
 32.31 17.887 36.611 c 62.801 114.404 l 217.219 114.404 l 262.133 36.611
 l 264.617 32.31 264.617 27.177 262.133 22.877 c h
262.133 22.877 m f
256.863 148.681 m 255.375 150.177 253.309 151.025 251.207 151.025 c 249.102
 151.025 247.039 150.177 245.551 148.681 c 244.062 147.193 243.207 145.138
 243.207 143.025 c 243.207 140.923 244.062 138.865 245.551 137.369 c 247.039
 135.884 249.102 135.025 251.207 135.025 c 253.309 135.025 255.375 135.884
 256.863 137.369 c 258.348 138.865 259.207 140.923 259.207 143.025 c 259.207
 145.138 258.348 147.193 256.863 148.681 c h
256.863 148.681 m f
162.465 264.853 m 160.977 266.341 158.914 267.197 156.809 267.197 c 154.707
 267.197 152.641 266.341 151.152 264.853 c 149.664 263.365 148.809 261.302
 148.809 259.197 c 148.809 257.095 149.664 255.029 151.152 253.541 c 152.641
 252.056 154.703 251.197 156.809 251.197 c 158.914 251.197 160.977 252.056
 162.465 253.541 c 163.953 255.029 164.809 257.095 164.809 259.197 c 164.809
 261.302 163.953 263.365 162.465 264.853 c h
162.465 264.853 m f
135.266 220.857 m 133.777 222.345 131.715 223.201 129.609 223.201 c 127.508
 223.201 125.441 222.345 123.953 220.857 c 122.465 219.369 121.609 217.302
 121.609 215.201 c 121.609 213.095 122.465 211.033 123.953 209.545 c 125.441
 208.056 127.504 207.201 129.609 207.201 c 131.715 207.201 133.777 208.056
 135.266 209.545 c 136.754 211.033 137.609 213.095 137.609 215.201 c 137.609
 217.302 136.754 219.369 135.266 220.857 c h
135.266 220.857 m f
158.465 171.314 m 156.977 172.802 154.914 173.65 152.809 173.65 c 150.707
 173.65 148.641 172.802 147.152 171.314 c 145.664 169.818 144.809 167.755
 144.809 165.65 c 144.809 163.545 145.664 161.482 147.152 159.994 c 148.641
 158.505 150.703 157.65 152.809 157.65 c 154.914 157.65 156.977 158.505 
158.465 159.994 c 159.953 161.49 160.809 163.545 160.809 165.65 c 160.809
 167.755 159.953 169.818 158.465 171.314 c h
158.465 171.314 m f
96.066 93.158 m 94.578 94.642 92.516 95.502 90.41 95.502 c 88.309 95.502
 86.242 94.646 84.758 93.158 c 83.27 91.67 82.41 89.603 82.41 87.502 c 82.41
 85.396 83.27 83.334 84.758 81.845 c 86.242 80.357 88.309 79.502 90.41 79.502
 c 92.516 79.502 94.578 80.357 96.066 81.845 c 97.555 83.334 98.41 85.396
 98.41 87.502 c 98.41 89.603 97.555 91.67 96.066 93.158 c h
96.066 93.158 m f
189.129 57.662 m 187.641 59.15 185.586 60.005 183.473 60.005 c 181.367 
60.005 179.305 59.15 177.816 57.662 c 176.328 56.173 175.473 54.111 175.473
 52.005 c 175.473 49.9 176.328 47.837 177.816 46.349 c 179.312 44.861 181.367
 44.005 183.473 44.005 c 185.582 44.005 187.641 44.861 189.129 46.349 c 
190.625 47.837 191.473 49.9 191.473 52.005 c 191.473 54.111 190.625 56.173
 189.129 57.662 c h
189.129 57.662 m f
352.859 109.658 m 351.371 111.146 349.305 112.002 347.203 112.002 c 345.098
 112.002 343.035 111.146 341.547 109.658 c 340.059 108.17 339.203 106.107
 339.203 104.002 c 339.203 101.9 340.059 99.834 341.547 98.349 c 343.035
 96.861 345.098 96.002 347.203 96.002 c 349.305 96.005 351.371 96.861 352.859
 98.349 c 354.348 99.834 355.203 101.9 355.203 104.002 c 355.203 106.107
 354.348 108.17 352.859 109.658 c h
352.859 109.658 m f
305.141 84.06 m 303.652 85.548 301.594 86.404 299.484 86.404 c 297.379 
86.404 295.316 85.548 293.828 84.06 c 292.34 82.572 291.484 80.509 291.484
 78.404 c 291.484 76.302 292.34 74.236 293.828 72.752 c 295.324 71.259 297.379
 70.404 299.484 70.404 c 301.594 70.404 303.652 71.259 305.141 72.752 c 
306.637 74.236 307.484 76.302 307.484 78.404 c 307.484 80.509 306.637 82.572
 305.141 84.06 c h
305.141 84.06 m f
321.66 189.658 m 320.172 191.146 318.105 192.002 316.004 192.002 c 313.898
 192.002 311.836 191.146 310.348 189.658 c 308.859 188.17 308.004 186.103
 308.004 184.002 c 308.004 181.896 308.859 179.834 310.348 178.345 c 311.836
 176.857 313.898 176.002 316.004 176.002 c 318.105 176.002 320.172 176.857
 321.66 178.345 c 323.145 179.834 324.004 181.896 324.004 184.002 c 324.004
 186.103 323.145 188.17 321.66 189.658 c h
321.66 189.658 m f
292.117 249.127 m 290.629 250.615 288.574 251.462 286.461 251.462 c 284.355
 251.462 282.293 250.615 280.805 249.127 c 279.316 247.63 278.461 245.568
 278.461 243.462 c 278.461 241.357 279.316 239.302 280.805 237.806 c 282.293
 236.318 284.355 235.462 286.461 235.462 c 288.574 235.462 290.629 236.318
 292.117 237.806 c 293.613 239.302 294.461 241.357 294.461 243.462 c 294.461
 245.568 293.613 247.63 292.117 249.127 c h
292.117 249.127 m f
Q Q
showpage
%%Trailer
end restore
%%EOF
