%!PS-Adobe-3.0 EPSF-3.0
%%Creator: cairo 1.14.2 (http://cairographics.org)
%%CreationDate: Thu Jul 26 08:14:03 2018
%%Pages: 1
%%DocumentData: Clean7Bit
%%LanguageLevel: 2
%%BoundingBox: 22 -1 388 410
%%EndComments
%%BeginProlog
save
50 dict begin
/q { gsave } bind def
/Q { grestore } bind def
/cm { 6 array astore concat } bind def
/w { setlinewidth } bind def
/J { setlinecap } bind def
/j { setlinejoin } bind def
/M { setmiterlimit } bind def
/d { setdash } bind def
/m { moveto } bind def
/l { lineto } bind def
/c { curveto } bind def
/h { closepath } bind def
/re { exch dup neg 3 1 roll 5 3 roll moveto 0 rlineto
      0 exch rlineto 0 rlineto closepath } bind def
/S { stroke } bind def
/f { fill } bind def
/f* { eofill } bind def
/n { newpath } bind def
/W { clip } bind def
/W* { eoclip } bind def
/BT { } bind def
/ET { } bind def
/pdfmark where { pop globaldict /?pdfmark /exec load put }
    { globaldict begin /?pdfmark /pop load def /pdfmark
    /cleartomark load def end } ifelse
/BDC { mark 3 1 roll /BDC pdfmark } bind def
/EMC { mark /EMC pdfmark } bind def
/cairo_store_point { /cairo_point_y exch def /cairo_point_x exch def } def
/Tj { show currentpoint cairo_store_point } bind def
/TJ {
  {
    dup
    type /stringtype eq
    { show } { -0.001 mul 0 cairo_font_matrix dtransform rmoveto } ifelse
  } forall
  currentpoint cairo_store_point
} bind def
/cairo_selectfont { cairo_font_matrix aload pop pop pop 0 0 6 array astore
    cairo_font exch selectfont cairo_point_x cairo_point_y moveto } bind def
/Tf { pop /cairo_font exch def /cairo_font_matrix where
      { pop cairo_selectfont } if } bind def
/Td { matrix translate cairo_font_matrix matrix concatmatrix dup
      /cairo_font_matrix exch def dup 4 get exch 5 get cairo_store_point
      /cairo_font where { pop cairo_selectfont } if } bind def
/Tm { 2 copy 8 2 roll 6 array astore /cairo_font_matrix exch def
      cairo_store_point /cairo_font where { pop cairo_selectfont } if } bind def
/g { setgray } bind def
/rg { setrgbcolor } bind def
/d1 { setcachedevice } bind def
%%EndProlog
%%BeginSetup
%%EndSetup
%%Page: 1 1
%%BeginPageSetup
%%PageBoundingBox: 22 -1 388 410
%%EndPageSetup
q 22 -1 366 411 rectclip q
0 g
249.832 48.616 m 245.965 50.752 241.098 49.342 238.961 45.475 c 238.809
 45.202 l 236.652 41.346 238.027 36.471 241.883 34.315 c 243.121 33.623 
244.461 33.295 245.781 33.295 c 248.586 33.295 251.305 34.768 252.77 37.389
 c 252.969 37.745 l 255.105 41.612 253.699 46.479 249.832 48.616 c h
249.832 48.616 m f
357.527 185.381 m 352.199 191.842 346.27 198.334 339.824 204.799 c 346.27
 211.268 352.199 217.756 357.523 224.221 c 385.039 257.608 393.797 287.077
 382.176 307.202 c 377.559 315.198 370.066 321.202 359.898 325.053 c 355.766
 326.62 351.148 324.538 349.582 320.409 c 348.016 316.276 350.098 311.659
 354.23 310.092 c 360.855 307.58 365.598 303.916 368.32 299.202 c 376.242
 285.475 367.809 261.854 345.176 234.397 c 340.098 228.233 334.434 222.038
 328.266 215.858 c 315.207 227.791 300.461 239.534 284.43 250.764 c 282.719
 270.26 279.922 288.897 276.121 306.166 c 281.641 307.643 287.055 308.936
 292.336 310.014 c 296.664 310.901 299.453 315.127 298.57 319.455 c 297.684
 323.784 293.457 326.573 289.129 325.69 c 283.652 324.569 278.039 323.237
 272.324 321.709 c 269.945 330.53 267.285 338.913 264.352 346.76 c 249.195
 387.284 228.055 409.6 204.816 409.6 c 181.578 409.6 160.434 387.284 145.281
 346.76 c 142.348 338.916 139.688 330.538 137.312 321.721 c 128.488 324.069
 119.902 325.959 111.641 327.338 c 68.969 334.479 39.07 327.327 27.453 307.202
 c 22.836 299.205 21.383 289.709 23.133 278.979 c 23.84 274.62 27.953 271.666
 32.312 272.37 c 36.676 273.08 39.633 277.19 38.922 281.553 c 37.781 288.545
 38.586 294.483 41.309 299.202 c 49.234 312.924 73.906 317.428 109.004 311.561
 c 116.879 310.241 125.078 308.436 133.516 306.182 c 129.707 288.909 126.91
 270.264 125.199 250.768 c 109.176 239.541 94.43 227.799 81.379 215.87 c
 77.336 219.913 73.512 223.955 69.938 227.987 c 67.008 231.295 61.949 231.6
 58.645 228.666 c 55.336 225.737 55.031 220.678 57.965 217.373 c 61.672 
213.19 65.637 208.998 69.816 204.811 c 63.367 198.338 57.438 191.846 52.105
 185.381 c 24.59 151.995 15.836 122.526 27.453 102.401 c 36.137 87.358 55.027
 79.565 81.832 79.565 c 90.895 79.565 100.863 80.455 111.641 82.26 c 119.902
 83.639 128.488 85.53 137.309 87.877 c 139.688 79.061 142.344 70.686 145.277
 62.838 c 160.434 22.319 181.578 -0.002 204.816 -0.002 c 214.047 -0.002 
223 3.487 231.418 10.366 c 234.84 13.163 235.348 18.202 232.551 21.623 c
 229.758 25.045 224.715 25.553 221.293 22.756 c 215.809 18.272 210.262 15.998
 204.816 15.998 c 188.969 15.998 172.73 35.116 160.266 68.444 c 157.469 
75.924 154.934 83.928 152.668 92.362 c 169.527 97.702 187.074 104.6 204.816
 112.87 c 222.551 104.604 240.094 97.705 256.949 92.366 c 255.469 86.846
 253.879 81.51 252.176 76.397 c 250.777 72.205 253.039 67.674 257.234 66.276
 c 261.426 64.881 265.957 67.143 267.352 71.334 c 269.121 76.639 270.773
 82.166 272.309 87.881 c 281.137 85.53 289.727 83.643 297.988 82.26 c 308.773
 80.455 318.738 79.565 327.801 79.565 c 354.602 79.565 373.496 87.362 382.18
 102.401 c 393.797 122.526 385.043 151.995 357.527 185.381 c h
123.805 230.045 m 123.414 221.733 123.215 213.307 123.215 204.799 c 123.215
 196.307 123.414 187.893 123.805 179.592 c 112.738 187.819 102.402 196.276
 92.988 204.819 c 102.395 213.362 112.719 221.815 123.805 230.045 c h
109 98.041 m 73.906 92.17 49.234 96.674 41.309 110.401 c 33.387 124.123
 41.82 147.745 64.453 175.202 c 69.535 181.373 75.207 187.573 81.379 193.76
 c 94.449 181.83 109.215 170.069 125.195 158.858 c 126.906 139.35 129.707
 120.698 133.512 103.416 c 125.078 101.166 116.879 99.358 109 98.041 c h
267.184 262.334 m 260.18 266.827 252.98 271.213 245.613 275.467 c 238.258
 279.713 230.871 283.748 223.488 287.561 c 236.145 293.03 248.637 297.756
 260.742 301.635 c 263.438 289.221 265.598 276.049 267.184 262.334 c h
160.266 341.155 m 172.73 374.487 188.969 393.6 204.816 393.6 c 220.664 
393.6 236.902 374.487 249.367 341.155 c 252.168 333.67 254.703 325.659 256.973
 317.217 c 240.105 311.866 222.539 304.959 204.84 296.721 c 187.09 304.995
 169.535 311.897 152.668 317.241 c 154.934 325.674 157.469 333.674 160.266
 341.155 c h
148.891 301.663 m 161.004 297.784 173.504 293.065 186.188 287.573 c 178.77
 283.748 171.367 279.713 164.016 275.467 c 156.648 271.213 149.449 266.827
 142.445 262.334 c 144.035 276.061 146.195 289.237 148.891 301.663 c h
148.891 107.94 m 146.191 120.366 144.031 133.549 142.445 147.284 c 149.465
 142.772 156.664 138.377 164.016 134.131 c 171.383 129.877 178.781 125.838
 186.176 122.022 c 173.492 116.534 161 111.815 148.891 107.94 c h
260.715 107.948 m 248.613 111.819 236.129 116.534 223.457 122.022 c 230.848
 125.838 238.246 129.877 245.613 134.131 c 252.969 138.377 260.16 142.76
 267.152 147.245 c 265.562 133.553 263.406 120.37 260.715 107.948 c h
269.074 167.674 m 259.043 160.877 248.527 154.288 237.617 147.991 c 226.699
 141.686 215.727 135.87 204.816 130.577 c 193.906 135.87 182.934 141.686
 172.016 147.991 c 161.137 154.272 150.605 160.877 140.535 167.713 c 139.664
 179.799 139.215 192.202 139.215 204.799 c 139.215 217.405 139.664 229.819
 140.535 241.913 c 150.574 248.713 161.098 255.307 172.016 261.612 c 182.895
 267.893 193.887 273.709 204.836 279.014 c 215.738 273.725 226.707 267.909
 237.617 261.612 c 248.531 255.307 259.059 248.713 269.098 241.913 c 269.969
 229.819 270.414 217.405 270.414 204.799 c 270.414 192.237 269.957 179.811
 269.074 167.674 c h
285.824 230.045 m 296.918 221.807 307.25 213.35 316.66 204.799 c 307.246
 196.248 296.91 187.784 285.812 179.545 c 286.207 187.881 286.414 196.311
 286.414 204.799 c 286.414 213.307 286.215 221.733 285.824 230.045 c h
368.32 110.401 m 360.398 96.674 335.723 92.17 300.629 98.041 c 292.746 
99.358 284.539 101.166 276.094 103.424 c 279.891 120.705 282.695 139.373
 284.41 158.819 c 300.449 170.057 315.203 181.807 328.266 193.741 c 334.434
 187.561 340.098 181.366 345.18 175.202 c 367.809 147.745 376.246 124.123
 368.32 110.401 c h
368.32 110.401 m f
49.773 254.873 m 49.598 255.166 l 47.336 258.959 42.426 260.202 38.633 
257.94 c 34.836 255.674 33.594 250.764 35.855 246.971 c 36.055 246.643 l
 37.555 244.143 40.203 242.756 42.922 242.756 c 44.32 242.756 45.742 243.123
 47.031 243.897 c 50.82 246.17 52.047 251.084 49.773 254.873 c h
49.773 254.873 m f
325.797 330.038 m 325.41 330.03 l 320.992 329.944 317.48 326.295 317.566
 321.877 c 317.652 317.51 321.219 314.034 325.562 314.034 c 325.617 314.034
 325.668 314.034 325.723 314.034 c 326.059 314.038 l 330.473 314.112 333.996
 317.752 333.926 322.166 c 333.855 326.584 330.207 330.088 325.797 330.038
 c h
325.797 330.038 m f
204.918 244.401 m 183.137 244.401 165.418 226.682 165.418 204.901 c 165.418
 183.123 183.137 165.405 204.918 165.405 c 226.699 165.405 244.414 183.123
 244.414 204.901 c 244.414 226.682 226.695 244.401 204.918 244.401 c h
204.918 181.405 m 191.961 181.405 181.418 191.944 181.418 204.901 c 181.418
 217.858 191.961 228.401 204.918 228.401 c 217.875 228.401 228.414 217.858
 228.414 204.901 c 228.414 191.944 217.875 181.405 204.918 181.405 c h
204.918 181.405 m f
Q Q
showpage
%%Trailer
end restore
%%EOF
