%!PS-Adobe-3.0 EPSF-3.0
%%Creator: cairo 1.14.2 (http://cairographics.org)
%%CreationDate: Thu Jul 26 08:14:03 2018
%%Pages: 1
%%DocumentData: Clean7Bit
%%LanguageLevel: 2
%%BoundingBox: 43 -1 367 410
%%EndComments
%%BeginProlog
save
50 dict begin
/q { gsave } bind def
/Q { grestore } bind def
/cm { 6 array astore concat } bind def
/w { setlinewidth } bind def
/J { setlinecap } bind def
/j { setlinejoin } bind def
/M { setmiterlimit } bind def
/d { setdash } bind def
/m { moveto } bind def
/l { lineto } bind def
/c { curveto } bind def
/h { closepath } bind def
/re { exch dup neg 3 1 roll 5 3 roll moveto 0 rlineto
      0 exch rlineto 0 rlineto closepath } bind def
/S { stroke } bind def
/f { fill } bind def
/f* { eofill } bind def
/n { newpath } bind def
/W { clip } bind def
/W* { eoclip } bind def
/BT { } bind def
/ET { } bind def
/pdfmark where { pop globaldict /?pdfmark /exec load put }
    { globaldict begin /?pdfmark /pop load def /pdfmark
    /cleartomark load def end } ifelse
/BDC { mark 3 1 roll /BDC pdfmark } bind def
/EMC { mark /EMC pdfmark } bind def
/cairo_store_point { /cairo_point_y exch def /cairo_point_x exch def } def
/Tj { show currentpoint cairo_store_point } bind def
/TJ {
  {
    dup
    type /stringtype eq
    { show } { -0.001 mul 0 cairo_font_matrix dtransform rmoveto } ifelse
  } forall
  currentpoint cairo_store_point
} bind def
/cairo_selectfont { cairo_font_matrix aload pop pop pop 0 0 6 array astore
    cairo_font exch selectfont cairo_point_x cairo_point_y moveto } bind def
/Tf { pop /cairo_font exch def /cairo_font_matrix where
      { pop cairo_selectfont } if } bind def
/Td { matrix translate cairo_font_matrix matrix concatmatrix dup
      /cairo_font_matrix exch def dup 4 get exch 5 get cairo_store_point
      /cairo_font where { pop cairo_selectfont } if } bind def
/Tm { 2 copy 8 2 roll 6 array astore /cairo_font_matrix exch def
      cairo_store_point /cairo_font where { pop cairo_selectfont } if } bind def
/g { setgray } bind def
/rg { setrgbcolor } bind def
/d1 { setcachedevice } bind def
%%EndProlog
%%BeginSetup
%%EndSetup
%%Page: 1 1
%%BeginPageSetup
%%PageBoundingBox: 43 -1 367 410
%%EndPageSetup
q 43 -1 324 411 rectclip q
0 g
326.398 409.6 m 83.199 409.6 l 61.145 409.6 43.199 391.655 43.199 369.6
 c 43.199 284.217 l 43.199 279.799 46.781 276.217 51.199 276.217 c 55.617
 276.217 59.199 279.799 59.199 284.217 c 59.199 369.6 l 59.199 382.834 69.965
 393.6 83.199 393.6 c 326.398 393.6 l 339.633 393.6 350.398 382.834 350.398
 369.6 c 350.398 39.998 l 350.398 26.768 339.633 15.998 326.398 15.998 c
 83.199 15.998 l 69.965 15.998 59.199 26.768 59.199 39.998 c 59.199 214.315
 l 59.199 218.733 55.617 222.315 51.199 222.315 c 46.781 222.315 43.199 
218.733 43.199 214.315 c 43.199 39.998 l 43.199 17.944 61.145 -0.002 83.199
 -0.002 c 326.398 -0.002 l 348.457 -0.002 366.398 17.944 366.398 39.998 
c 366.398 369.6 l 366.398 391.655 348.457 409.6 326.398 409.6 c h
326.398 409.6 m f
56.855 255.623 m 55.367 257.12 53.305 257.967 51.199 257.967 c 49.098 257.967
 47.031 257.12 45.543 255.623 c 44.055 254.135 43.199 252.08 43.199 249.967
 c 43.199 247.866 44.055 245.799 45.543 244.311 c 47.031 242.823 49.098 
241.967 51.199 241.967 c 53.305 241.967 55.367 242.823 56.855 244.311 c 
58.344 245.799 59.199 247.866 59.199 249.967 c 59.199 252.08 58.344 254.135
 56.855 255.623 c h
56.855 255.623 m f
326.398 377.6 m 83.199 377.6 l 78.781 377.6 75.199 374.018 75.199 369.6
 c 75.199 281.971 l 75.199 277.553 78.781 273.971 83.199 273.971 c 326.398
 273.971 l 330.82 273.971 334.398 277.553 334.398 281.971 c 334.398 369.6
 l 334.398 374.018 330.82 377.6 326.398 377.6 c h
91.199 289.971 m 91.199 361.6 l 209.586 361.6 l 137.957 289.971 l h
318.398 289.971 m 160.586 289.971 l 232.215 361.6 l 266.82 361.6 l 244.074
 338.858 l 240.953 335.733 240.953 330.666 244.074 327.541 c 245.637 325.979
 247.688 325.198 249.734 325.198 c 251.781 325.198 253.828 325.979 255.391
 327.541 c 289.445 361.6 l 318.398 361.6 l h
318.398 289.971 m f
131.199 257.971 m 83.199 257.971 l 78.781 257.971 75.199 254.389 75.199
 249.971 c 75.199 201.971 l 75.199 197.553 78.781 193.971 83.199 193.971
 c 131.199 193.971 l 135.617 193.971 139.199 197.553 139.199 201.971 c 139.199
 249.971 l 139.199 254.389 135.617 257.971 131.199 257.971 c h
123.199 209.971 m 91.199 209.971 l 91.199 241.971 l 123.199 241.971 l h
123.199 209.971 m f
228.801 257.971 m 180.801 257.971 l 176.383 257.971 172.801 254.389 172.801
 249.971 c 172.801 201.971 l 172.801 197.553 176.383 193.971 180.801 193.971
 c 228.801 193.971 l 233.219 193.971 236.801 197.553 236.801 201.971 c 236.801
 249.971 l 236.801 254.389 233.219 257.971 228.801 257.971 c h
220.801 209.971 m 188.801 209.971 l 188.801 241.971 l 220.801 241.971 l
 h
220.801 209.971 m f
326.398 257.971 m 278.398 257.971 l 273.98 257.971 270.398 254.389 270.398
 249.971 c 270.398 201.971 l 270.398 197.553 273.98 193.971 278.398 193.971
 c 326.398 193.971 l 330.82 193.971 334.398 197.553 334.398 201.971 c 334.398
 249.971 l 334.398 254.389 330.82 257.971 326.398 257.971 c h
318.398 209.971 m 286.398 209.971 l 286.398 241.971 l 318.398 241.971 l
 h
318.398 209.971 m f
131.199 96.049 m 83.199 96.049 l 78.781 96.049 75.199 92.467 75.199 88.049
 c 75.199 40.049 l 75.199 35.631 78.781 32.049 83.199 32.049 c 131.199 32.049
 l 135.617 32.049 139.199 35.631 139.199 40.049 c 139.199 88.049 l 139.199
 92.467 135.617 96.049 131.199 96.049 c h
123.199 48.049 m 91.199 48.049 l 91.199 80.049 l 123.199 80.049 l h
123.199 48.049 m f
131.199 177.01 m 83.199 177.01 l 78.781 177.01 75.199 173.428 75.199 169.01
 c 75.199 121.01 l 75.199 116.592 78.781 113.01 83.199 113.01 c 131.199 
113.01 l 135.617 113.01 139.199 116.592 139.199 121.01 c 139.199 169.01 
l 139.199 173.428 135.617 177.01 131.199 177.01 c h
123.199 129.01 m 91.199 129.01 l 91.199 161.01 l 123.199 161.01 l h
123.199 129.01 m f
228.902 177.01 m 180.902 177.01 l 176.484 177.01 172.902 173.428 172.902
 169.01 c 172.902 121.01 l 172.902 116.592 176.484 113.01 180.902 113.01
 c 228.902 113.01 l 233.32 113.01 236.902 116.592 236.902 121.01 c 236.902
 169.01 l 236.902 173.428 233.32 177.01 228.902 177.01 c h
220.902 129.01 m 188.902 129.01 l 188.902 161.01 l 220.902 161.01 l h
220.902 129.01 m f
228.801 96.049 m 180.801 96.049 l 176.383 96.049 172.801 92.467 172.801
 88.049 c 172.801 40.049 l 172.801 35.631 176.383 32.049 180.801 32.049 
c 228.801 32.049 l 233.219 32.049 236.801 35.631 236.801 40.049 c 236.801
 88.049 l 236.801 92.467 233.219 96.049 228.801 96.049 c h
220.801 48.049 m 188.801 48.049 l 188.801 80.049 l 220.801 80.049 l h
220.801 48.049 m f
326.398 177.01 m 278.398 177.01 l 273.98 177.01 270.398 173.428 270.398
 169.01 c 270.398 40.049 l 270.398 35.631 273.98 32.049 278.398 32.049 c
 326.398 32.049 l 330.82 32.049 334.398 35.631 334.398 40.049 c 334.398 
169.01 l 334.398 173.428 330.82 177.01 326.398 177.01 c h
318.398 48.049 m 286.398 48.049 l 286.398 161.01 l 318.398 161.01 l h
318.398 48.049 m f
234.391 317.858 m 232.902 319.342 230.84 320.202 228.734 320.202 c 226.625
 320.202 224.566 319.342 223.078 317.858 c 221.586 316.37 220.734 314.303
 220.734 312.202 c 220.734 310.096 221.586 308.034 223.078 306.545 c 224.566
 305.057 226.625 304.202 228.734 304.202 c 230.84 304.202 232.902 305.057
 234.391 306.545 c 235.879 308.034 236.734 310.096 236.734 312.202 c 236.734
 314.303 235.879 316.37 234.391 317.858 c h
234.391 317.858 m f
Q Q
showpage
%%Trailer
end restore
%%EOF
