%!PS-Adobe-3.0 EPSF-3.0
%%Creator: cairo 1.14.2 (http://cairographics.org)
%%CreationDate: Thu Jul 26 08:14:03 2018
%%Pages: 1
%%DocumentData: Clean7Bit
%%LanguageLevel: 2
%%BoundingBox: 0 -1 410 410
%%EndComments
%%BeginProlog
save
50 dict begin
/q { gsave } bind def
/Q { grestore } bind def
/cm { 6 array astore concat } bind def
/w { setlinewidth } bind def
/J { setlinecap } bind def
/j { setlinejoin } bind def
/M { setmiterlimit } bind def
/d { setdash } bind def
/m { moveto } bind def
/l { lineto } bind def
/c { curveto } bind def
/h { closepath } bind def
/re { exch dup neg 3 1 roll 5 3 roll moveto 0 rlineto
      0 exch rlineto 0 rlineto closepath } bind def
/S { stroke } bind def
/f { fill } bind def
/f* { eofill } bind def
/n { newpath } bind def
/W { clip } bind def
/W* { eoclip } bind def
/BT { } bind def
/ET { } bind def
/pdfmark where { pop globaldict /?pdfmark /exec load put }
    { globaldict begin /?pdfmark /pop load def /pdfmark
    /cleartomark load def end } ifelse
/BDC { mark 3 1 roll /BDC pdfmark } bind def
/EMC { mark /EMC pdfmark } bind def
/cairo_store_point { /cairo_point_y exch def /cairo_point_x exch def } def
/Tj { show currentpoint cairo_store_point } bind def
/TJ {
  {
    dup
    type /stringtype eq
    { show } { -0.001 mul 0 cairo_font_matrix dtransform rmoveto } ifelse
  } forall
  currentpoint cairo_store_point
} bind def
/cairo_selectfont { cairo_font_matrix aload pop pop pop 0 0 6 array astore
    cairo_font exch selectfont cairo_point_x cairo_point_y moveto } bind def
/Tf { pop /cairo_font exch def /cairo_font_matrix where
      { pop cairo_selectfont } if } bind def
/Td { matrix translate cairo_font_matrix matrix concatmatrix dup
      /cairo_font_matrix exch def dup 4 get exch 5 get cairo_store_point
      /cairo_font where { pop cairo_selectfont } if } bind def
/Tm { 2 copy 8 2 roll 6 array astore /cairo_font_matrix exch def
      cairo_store_point /cairo_font where { pop cairo_selectfont } if } bind def
/g { setgray } bind def
/rg { setrgbcolor } bind def
/d1 { setcachedevice } bind def
%%EndProlog
%%BeginSetup
%%EndSetup
%%Page: 1 1
%%BeginPageSetup
%%PageBoundingBox: 0 -1 410 410
%%EndPageSetup
q 0 -1 410 411 rectclip q
0 g
159.258 297.655 m 157.77 299.143 155.703 299.998 153.602 299.998 c 151.496
 299.998 149.434 299.143 147.945 297.655 c 146.457 296.166 145.602 294.104
 145.602 291.998 c 145.602 289.897 146.457 287.83 147.945 286.342 c 149.434
 284.854 151.496 283.998 153.602 283.998 c 155.703 283.998 157.77 284.854
 159.258 286.342 c 160.742 287.83 161.602 289.897 161.602 291.998 c 161.602
 294.104 160.742 296.166 159.258 297.655 c h
159.258 297.655 m f
401.602 252.799 m 306.508 252.799 l 306.492 252.819 306.477 252.838 306.457
 252.858 c 212.801 346.514 l 212.801 361.6 l 273.602 361.6 l 278.02 361.6
 281.602 365.182 281.602 369.6 c 281.602 401.6 l 281.602 406.018 278.02 
409.6 273.602 409.6 c 204.801 409.6 l 200.383 409.6 196.801 406.018 196.801
 401.6 c 196.801 346.514 l 165.844 315.557 l 162.719 312.432 162.719 307.366
 165.844 304.241 c 168.969 301.12 174.031 301.12 177.156 304.241 c 204.801
 331.885 l 292.801 243.885 l 292.801 15.998 l 276.801 15.998 l 276.801 103.998
 l 276.801 108.416 273.219 111.998 268.801 111.998 c 140.801 111.998 l 136.383
 111.998 132.801 108.416 132.801 103.998 c 132.801 15.998 l 116.801 15.998
 l 116.801 243.885 l 141.059 268.143 l 144.18 271.268 144.18 276.334 141.059
 279.459 c 137.934 282.58 132.867 282.58 129.742 279.459 c 103.141 252.858
 l 103.125 252.838 103.109 252.819 103.09 252.799 c 8 252.799 l 3.582 252.799
 0 249.221 0 244.799 c 0 8.002 l 0 3.584 3.582 0.002 8 0.002 c 401.602 0.002
 l 406.02 0.002 409.602 3.584 409.602 8.002 c 409.602 244.799 l 409.602 
249.217 406.02 252.799 401.602 252.799 c h
212.801 393.6 m 265.602 393.6 l 265.602 377.6 l 212.801 377.6 l h
100.801 15.998 m 16 15.998 l 16 191.998 l 100.801 191.998 l h
100.801 207.998 m 16 207.998 l 16 236.799 l 100.801 236.799 l h
196.801 15.998 m 148.801 15.998 l 148.801 95.998 l 196.801 95.998 l h
260.801 15.998 m 212.801 15.998 l 212.801 95.998 l 260.801 95.998 l h
393.602 15.998 m 308.801 15.998 l 308.801 191.998 l 393.602 191.998 l h
393.602 207.998 m 308.801 207.998 l 308.801 236.799 l 393.602 236.799 l
 h
393.602 207.998 m f
204.426 280.1 m 184.961 280.1 169.125 264.264 169.125 244.799 c 169.125
 225.334 184.961 209.498 204.426 209.498 c 223.891 209.498 239.727 225.334
 239.727 244.799 c 239.727 264.264 223.891 280.1 204.426 280.1 c h
204.426 225.498 m 193.781 225.498 185.125 234.155 185.125 244.799 c 185.125
 255.444 193.781 264.1 204.426 264.1 c 215.07 264.1 223.727 255.444 223.727
 244.799 c 223.727 234.155 215.07 225.498 204.426 225.498 c h
204.426 225.498 m f
268.801 175.998 m 239.602 175.998 l 235.18 175.998 231.602 172.416 231.602
 167.998 c 231.602 163.58 235.18 159.998 239.602 159.998 c 260.801 159.998
 l 260.801 143.998 l 148.801 143.998 l 148.801 159.998 l 172 159.998 l 176.418
 159.998 180 163.58 180 167.998 c 180 172.416 176.418 175.998 172 175.998
 c 140.801 175.998 l 136.383 175.998 132.801 172.416 132.801 167.998 c 132.801
 135.998 l 132.801 131.58 136.383 127.998 140.801 127.998 c 268.801 127.998
 l 273.219 127.998 276.801 131.58 276.801 135.998 c 276.801 167.998 l 276.801
 172.416 273.219 175.998 268.801 175.998 c h
268.801 175.998 m f
210.09 173.655 m 208.594 175.143 206.535 175.998 204.426 175.998 c 202.32
 175.998 200.258 175.143 198.77 173.655 c 197.281 172.166 196.426 170.104
 196.426 167.998 c 196.426 165.897 197.281 163.83 198.77 162.342 c 200.258
 160.858 202.32 159.998 204.426 159.998 c 206.527 159.998 208.594 160.854
 210.09 162.342 c 211.574 163.83 212.426 165.897 212.426 167.998 c 212.426
 170.104 211.574 172.166 210.09 173.655 c h
210.09 173.655 m f
74.398 175.998 m 42.398 175.998 l 37.98 175.998 34.398 172.416 34.398 167.998
 c 34.398 135.998 l 34.398 131.58 37.98 127.998 42.398 127.998 c 74.398 
127.998 l 78.82 127.998 82.398 131.58 82.398 135.998 c 82.398 167.998 l 
82.398 172.416 78.82 175.998 74.398 175.998 c h
66.398 143.998 m 50.398 143.998 l 50.398 159.998 l 66.398 159.998 l h
66.398 143.998 m f
74.398 91.198 m 42.398 91.198 l 37.98 91.198 34.398 87.616 34.398 83.198
 c 34.398 51.198 l 34.398 46.78 37.98 43.198 42.398 43.198 c 74.398 43.198
 l 78.82 43.198 82.398 46.78 82.398 51.198 c 82.398 83.198 l 82.398 87.62
 78.82 91.198 74.398 91.198 c h
66.398 59.198 m 50.398 59.198 l 50.398 75.198 l 66.398 75.198 l h
66.398 59.198 m f
365.668 175.998 m 333.668 175.998 l 329.25 175.998 325.668 172.416 325.668
 167.998 c 325.668 135.998 l 325.668 131.58 329.25 127.998 333.668 127.998
 c 365.668 127.998 l 370.086 127.998 373.668 131.58 373.668 135.998 c 373.668
 167.998 l 373.668 172.416 370.086 175.998 365.668 175.998 c h
357.668 143.998 m 341.668 143.998 l 341.668 159.998 l 357.668 159.998 l
 h
357.668 143.998 m f
365.668 91.198 m 333.668 91.198 l 329.25 91.198 325.668 87.616 325.668 
83.198 c 325.668 51.198 l 325.668 46.78 329.25 43.198 333.668 43.198 c 365.668
 43.198 l 370.086 43.198 373.668 46.78 373.668 51.198 c 373.668 83.198 l
 373.668 87.62 370.086 91.198 365.668 91.198 c h
357.668 59.198 m 341.668 59.198 l 341.668 75.198 l 357.668 75.198 l h
357.668 59.198 m f
Q Q
showpage
%%Trailer
end restore
%%EOF
