%!PS-Adobe-3.0 EPSF-3.0
%%Creator: cairo 1.14.2 (http://cairographics.org)
%%CreationDate: Thu Jul 26 08:14:03 2018
%%Pages: 1
%%DocumentData: Clean7Bit
%%LanguageLevel: 2
%%BoundingBox: 0 -1 410 410
%%EndComments
%%BeginProlog
save
50 dict begin
/q { gsave } bind def
/Q { grestore } bind def
/cm { 6 array astore concat } bind def
/w { setlinewidth } bind def
/J { setlinecap } bind def
/j { setlinejoin } bind def
/M { setmiterlimit } bind def
/d { setdash } bind def
/m { moveto } bind def
/l { lineto } bind def
/c { curveto } bind def
/h { closepath } bind def
/re { exch dup neg 3 1 roll 5 3 roll moveto 0 rlineto
      0 exch rlineto 0 rlineto closepath } bind def
/S { stroke } bind def
/f { fill } bind def
/f* { eofill } bind def
/n { newpath } bind def
/W { clip } bind def
/W* { eoclip } bind def
/BT { } bind def
/ET { } bind def
/pdfmark where { pop globaldict /?pdfmark /exec load put }
    { globaldict begin /?pdfmark /pop load def /pdfmark
    /cleartomark load def end } ifelse
/BDC { mark 3 1 roll /BDC pdfmark } bind def
/EMC { mark /EMC pdfmark } bind def
/cairo_store_point { /cairo_point_y exch def /cairo_point_x exch def } def
/Tj { show currentpoint cairo_store_point } bind def
/TJ {
  {
    dup
    type /stringtype eq
    { show } { -0.001 mul 0 cairo_font_matrix dtransform rmoveto } ifelse
  } forall
  currentpoint cairo_store_point
} bind def
/cairo_selectfont { cairo_font_matrix aload pop pop pop 0 0 6 array astore
    cairo_font exch selectfont cairo_point_x cairo_point_y moveto } bind def
/Tf { pop /cairo_font exch def /cairo_font_matrix where
      { pop cairo_selectfont } if } bind def
/Td { matrix translate cairo_font_matrix matrix concatmatrix dup
      /cairo_font_matrix exch def dup 4 get exch 5 get cairo_store_point
      /cairo_font where { pop cairo_selectfont } if } bind def
/Tm { 2 copy 8 2 roll 6 array astore /cairo_font_matrix exch def
      cairo_store_point /cairo_font where { pop cairo_selectfont } if } bind def
/g { setgray } bind def
/rg { setrgbcolor } bind def
/d1 { setcachedevice } bind def
%%EndProlog
%%BeginSetup
%%EndSetup
%%Page: 1 1
%%BeginPageSetup
%%PageBoundingBox: 0 -1 410 410
%%EndPageSetup
q 0 -1 410 411 rectclip q
0 g
340.781 209.6 m 336.363 209.6 332.781 206.018 332.781 201.6 c 332.781 139.202
 l 332.781 134.784 336.363 131.202 340.781 131.202 c 345.203 131.202 348.781
 134.784 348.781 139.202 c 348.781 201.6 l 348.781 206.018 345.203 209.6
 340.781 209.6 c h
340.781 209.6 m f
346.438 117.846 m 344.953 119.334 342.887 120.194 340.781 120.194 c 338.68
 120.194 336.613 119.334 335.129 117.846 c 333.641 116.354 332.781 114.295
 332.781 112.194 c 332.781 110.088 333.641 108.026 335.129 106.538 c 336.613
 105.049 338.68 104.194 340.781 104.194 c 342.887 104.194 344.953 105.049
 346.438 106.538 c 347.926 108.026 348.781 110.088 348.781 112.194 c 348.781
 114.295 347.926 116.354 346.438 117.846 c h
346.438 117.846 m f
372.781 209.6 m 368.363 209.6 364.781 206.018 364.781 201.6 c 364.781 111.998
 l 364.781 107.58 368.363 103.998 372.781 103.998 c 377.203 103.998 380.781
 107.58 380.781 111.998 c 380.781 201.6 l 380.781 206.018 377.203 209.6 
372.781 209.6 c h
372.781 209.6 m f
385.582 313.6 m 327.984 313.6 l 325.18 313.6 322.488 313.112 319.984 312.225
 c 319.984 385.6 l 319.984 398.834 309.219 409.6 295.984 409.6 c 238.383
 409.6 l 225.148 409.6 214.383 398.834 214.383 385.6 c 214.383 312.225 l
 211.879 313.112 209.188 313.6 206.383 313.6 c 148.781 313.6 l 135.551 313.6
 124.781 302.834 124.781 289.6 c 124.781 192.85 l 123.879 192.217 123.012
 191.584 122.176 190.959 c 119.742 205.198 113.012 218.315 102.59 228.737
 c 99.465 231.862 94.398 231.862 91.273 228.737 c 88.152 225.612 88.152 
220.549 91.273 217.424 c 98.152 210.545 102.949 202.147 105.379 192.991 
c 101.711 195.545 97.504 198.104 92.836 200.319 c 69.473 211.393 46.332 
208.709 25.902 192.553 c 5.043 176.057 -13.922 142.436 14.156 75.94 c 15.875
 71.87 20.57 69.963 24.641 71.682 c 28.711 73.401 30.617 78.096 28.898 82.166
 c 20.605 101.799 16.266 119.397 15.996 134.463 c 15.645 154.276 22.129 
169.17 35.828 180.002 c 57.07 196.803 77.535 191.213 91.422 183.053 c 81.891
 181.1 72.953 176.389 65.746 169.182 c 52.059 155.495 47.363 135.569 53.492
 117.186 c 54.289 114.795 56.164 112.924 58.551 112.127 c 63.887 110.346
 69.355 109.479 74.758 109.479 c 87.977 109.479 100.832 114.663 110.547 
124.377 c 123.074 136.905 128.062 154.655 124.121 171.67 c 127.855 175.268
 135.031 181.424 144.391 185.862 c 162.121 194.268 178.996 192.295 194.543
 180.002 c 212.156 166.073 218.07 144.311 212.129 115.327 c 207.027 90.467
 194.738 67.202 188.832 56.022 c 188.316 55.049 l 178.129 35.741 165.629
 15.998 150.164 15.998 c 141.023 15.998 136.484 18.858 131.676 21.885 c 
127.312 24.631 122.371 27.745 115.156 27.745 c 107.996 27.745 103.051 24.631
 98.691 21.885 c 93.883 18.858 89.344 15.998 80.203 15.998 c 71.699 15.998
 63.348 21.87 54.68 33.944 c 52.102 37.53 47.102 38.35 43.516 35.776 c 39.926
 33.198 39.105 28.198 41.684 24.608 c 53.574 8.049 66.176 -0.002 80.203 
-0.002 c 93.961 -0.002 101.621 4.823 107.215 8.346 c 110.863 10.643 112.723
 11.745 115.211 11.745 c 117.645 11.745 119.504 10.643 123.152 8.346 c 128.746
 4.827 136.406 -0.002 150.164 -0.002 c 206.383 -0.002 l 212.527 -0.002 218.133
 2.323 222.383 6.131 c 226.633 2.323 232.242 -0.002 238.383 -0.002 c 295.984
 -0.002 l 302.125 -0.002 307.734 2.323 311.984 6.131 c 316.234 2.323 321.84
 -0.002 327.984 -0.002 c 385.582 -0.002 l 398.816 -0.002 409.582 10.768 
409.582 23.998 c 409.582 289.6 l 409.582 302.834 398.816 313.6 385.582 313.6
 c h
99.234 135.694 m 90.84 127.299 79.02 123.846 67.594 126.229 c 65.211 137.655
 68.664 149.475 77.059 157.866 c 85.453 166.26 97.273 169.717 108.699 167.33
 c 111.082 155.909 107.625 144.088 99.234 135.694 c h
214.383 23.998 m 214.383 19.588 210.793 15.998 206.383 15.998 c 181.762
 15.998 l 189.621 24.635 196.305 35.901 202.469 47.58 c 202.977 48.549 l
 205.824 53.94 210.074 61.987 214.383 71.705 c h
214.383 182.991 m 211.465 186.432 208.164 189.627 204.465 192.553 c 184.984
 207.959 163.035 211.104 140.781 201.76 c 140.781 289.6 l 140.781 294.01
 144.371 297.6 148.781 297.6 c 206.383 297.6 l 210.793 297.6 214.383 294.01
 214.383 289.6 c h
303.984 48.018 m 303.984 48.01 303.98 48.006 303.98 48.002 c 303.98 47.998
 303.984 47.991 303.984 47.987 c 303.984 23.998 l 303.984 19.588 300.395
 15.998 295.984 15.998 c 238.383 15.998 l 233.973 15.998 230.383 19.588 
230.383 23.998 c 230.383 49.998 l 303.984 49.998 l h
303.984 65.998 m 230.383 65.998 l 230.383 343.6 l 303.984 343.6 l h
303.984 359.6 m 230.383 359.6 l 230.383 385.6 l 230.383 390.01 233.973 
393.6 238.383 393.6 c 295.984 393.6 l 300.395 393.6 303.984 390.01 303.984
 385.6 c h
393.582 23.998 m 393.582 19.588 389.996 15.998 385.582 15.998 c 327.984
 15.998 l 323.57 15.998 319.984 19.588 319.984 23.998 c 319.984 40.002 l
 393.582 40.002 l h
393.582 56.002 m 319.984 56.002 l 319.984 257.6 l 393.582 257.6 l h
393.582 273.6 m 319.984 273.6 l 319.984 289.6 l 319.984 294.01 323.57 297.6
 327.984 297.6 c 385.582 297.6 l 389.996 297.6 393.582 294.01 393.582 289.6
 c h
393.582 273.6 m f
281.316 180.432 m 253.051 180.432 l 248.633 180.432 245.051 176.85 245.051
 172.432 c 245.051 168.014 248.633 164.432 253.051 164.432 c 281.316 164.432
 l 285.734 164.432 289.316 168.014 289.316 172.432 c 289.316 176.85 285.734
 180.432 281.316 180.432 c h
281.316 180.432 m f
281.316 212.799 m 253.051 212.799 l 248.633 212.799 245.051 209.217 245.051
 204.799 c 245.051 200.381 248.633 196.799 253.051 196.799 c 281.316 196.799
 l 285.734 196.799 289.316 200.381 289.316 204.799 c 289.316 209.217 285.734
 212.799 281.316 212.799 c h
281.316 212.799 m f
281.316 245.166 m 253.051 245.166 l 248.633 245.166 245.051 241.588 245.051
 237.166 c 245.051 232.748 248.633 229.166 253.051 229.166 c 281.316 229.166
 l 285.734 229.166 289.316 232.748 289.316 237.166 c 289.316 241.588 285.734
 245.166 281.316 245.166 c h
281.316 245.166 m f
42.043 55.061 m 40.02 58.889 35.293 60.42 31.395 58.471 c 27.445 56.495
 25.844 51.69 27.82 47.737 c 27.895 47.584 27.984 47.416 28.07 47.268 c 
29.559 44.721 32.238 43.299 34.988 43.299 c 36.359 43.299 37.746 43.651 
39.012 44.389 c 42.738 46.565 44.059 51.288 42.043 55.061 c h
42.043 55.061 m f
Q Q
showpage
%%Trailer
end restore
%%EOF
