%!PS-Adobe-3.0 EPSF-3.0
%%Creator: cairo 1.14.2 (http://cairographics.org)
%%CreationDate: Thu Jul 26 08:14:03 2018
%%Pages: 1
%%DocumentData: Clean7Bit
%%LanguageLevel: 2
%%BoundingBox: 51 -1 359 410
%%EndComments
%%BeginProlog
save
50 dict begin
/q { gsave } bind def
/Q { grestore } bind def
/cm { 6 array astore concat } bind def
/w { setlinewidth } bind def
/J { setlinecap } bind def
/j { setlinejoin } bind def
/M { setmiterlimit } bind def
/d { setdash } bind def
/m { moveto } bind def
/l { lineto } bind def
/c { curveto } bind def
/h { closepath } bind def
/re { exch dup neg 3 1 roll 5 3 roll moveto 0 rlineto
      0 exch rlineto 0 rlineto closepath } bind def
/S { stroke } bind def
/f { fill } bind def
/f* { eofill } bind def
/n { newpath } bind def
/W { clip } bind def
/W* { eoclip } bind def
/BT { } bind def
/ET { } bind def
/pdfmark where { pop globaldict /?pdfmark /exec load put }
    { globaldict begin /?pdfmark /pop load def /pdfmark
    /cleartomark load def end } ifelse
/BDC { mark 3 1 roll /BDC pdfmark } bind def
/EMC { mark /EMC pdfmark } bind def
/cairo_store_point { /cairo_point_y exch def /cairo_point_x exch def } def
/Tj { show currentpoint cairo_store_point } bind def
/TJ {
  {
    dup
    type /stringtype eq
    { show } { -0.001 mul 0 cairo_font_matrix dtransform rmoveto } ifelse
  } forall
  currentpoint cairo_store_point
} bind def
/cairo_selectfont { cairo_font_matrix aload pop pop pop 0 0 6 array astore
    cairo_font exch selectfont cairo_point_x cairo_point_y moveto } bind def
/Tf { pop /cairo_font exch def /cairo_font_matrix where
      { pop cairo_selectfont } if } bind def
/Td { matrix translate cairo_font_matrix matrix concatmatrix dup
      /cairo_font_matrix exch def dup 4 get exch 5 get cairo_store_point
      /cairo_font where { pop cairo_selectfont } if } bind def
/Tm { 2 copy 8 2 roll 6 array astore /cairo_font_matrix exch def
      cairo_store_point /cairo_font where { pop cairo_selectfont } if } bind def
/g { setgray } bind def
/rg { setrgbcolor } bind def
/d1 { setcachedevice } bind def
%%EndProlog
%%BeginSetup
%%EndSetup
%%Page: 1 1
%%BeginPageSetup
%%PageBoundingBox: 51 -1 359 410
%%EndPageSetup
q 51 -1 308 411 rectclip q
0 g
134.945 212.057 m 133.461 213.545 131.395 214.401 129.289 214.401 c 127.188
 214.401 125.121 213.545 123.637 212.057 c 122.148 210.569 121.289 208.502
 121.289 206.401 c 121.289 204.295 122.145 202.233 123.637 200.745 c 125.121
 199.256 127.188 198.401 129.289 198.401 c 131.395 198.401 133.461 199.256
 134.945 200.745 c 136.434 202.233 137.289 204.295 137.289 206.401 c 137.289
 208.502 136.434 210.569 134.945 212.057 c h
134.945 212.057 m f
134.945 154.455 m 133.461 155.944 131.395 156.799 129.289 156.799 c 127.188
 156.799 125.121 155.944 123.637 154.455 c 122.148 152.967 121.289 150.913
 121.289 148.799 c 121.289 146.698 122.145 144.631 123.637 143.143 c 125.121
 141.655 127.188 140.799 129.289 140.799 c 131.395 140.799 133.461 141.655
 134.945 143.143 c 136.434 144.631 137.289 146.698 137.289 148.799 c 137.289
 150.905 136.434 152.967 134.945 154.455 c h
134.945 154.455 m f
134.945 96.858 m 133.461 98.342 131.395 99.202 129.289 99.202 c 127.188
 99.202 125.121 98.342 123.637 96.858 c 122.148 95.37 121.289 93.303 121.289
 91.202 c 121.289 89.096 122.145 87.034 123.637 85.545 c 125.121 84.057 
127.188 83.202 129.289 83.202 c 131.395 83.202 133.461 84.057 134.945 85.545
 c 136.434 87.034 137.289 89.096 137.289 91.202 c 137.289 93.303 136.434
 95.37 134.945 96.858 c h
134.945 96.858 m f
288.309 214.401 m 164.066 214.401 l 159.648 214.401 156.066 210.819 156.066
 206.401 c 156.066 201.983 159.648 198.401 164.066 198.401 c 288.309 198.401
 l 292.727 198.401 296.309 201.983 296.309 206.401 c 296.309 210.819 292.727
 214.401 288.309 214.401 c h
288.309 214.401 m f
288.309 156.799 m 164.066 156.799 l 159.648 156.799 156.066 153.217 156.066
 148.799 c 156.066 144.381 159.648 140.799 164.066 140.799 c 288.309 140.799
 l 292.727 140.799 296.309 144.381 296.309 148.799 c 296.309 153.217 292.727
 156.799 288.309 156.799 c h
288.309 156.799 m f
288.309 99.202 m 164.066 99.202 l 159.648 99.202 156.066 95.62 156.066 
91.202 c 156.066 86.78 159.648 83.202 164.066 83.202 c 288.309 83.202 l 
292.727 83.202 296.309 86.78 296.309 91.202 c 296.309 95.62 292.727 99.202
 288.309 99.202 c h
288.309 99.202 m f
358.324 248.389 m 358.32 248.42 358.316 248.448 358.312 248.479 c 358.305
 248.608 358.289 248.721 358.27 248.823 c 358.086 250.612 357.316 252.33
 355.992 253.659 c 272.789 336.858 l 271.34 338.303 269.43 339.104 267.465
 339.186 c 267.363 339.194 267.258 339.202 267.133 339.202 c 212.867 339.202
 l 212.867 353.6 l 212.867 384.479 187.746 409.6 156.867 409.6 c 125.988
 409.6 100.867 384.479 100.867 353.6 c 100.867 339.202 l 83.266 339.202 
l 65.621 339.202 51.266 324.846 51.266 307.202 c 51.266 31.998 l 51.266 
14.354 65.621 -0.002 83.266 -0.002 c 326.332 -0.002 l 343.977 -0.002 358.332
 14.354 358.332 31.998 c 358.332 247.998 l 358.332 248.139 358.328 248.268
 358.324 248.389 c h
275.133 311.885 m 331.02 255.998 l 293.133 255.998 l 283.207 255.998 275.133
 264.073 275.133 273.998 c h
156.867 393.6 m 178.922 393.6 196.867 375.655 196.867 353.6 c 196.867 280.354
 l 196.867 266.924 185.941 255.998 172.512 255.998 c 159.082 255.998 148.156
 266.924 148.156 280.354 c 148.156 354.194 l 148.156 358.897 151.984 362.725
 156.688 362.725 c 161.395 362.725 165.223 358.897 165.223 354.194 c 165.223
 281.334 l 165.223 276.916 168.805 273.334 173.223 273.334 c 177.641 273.334
 181.223 276.916 181.223 281.334 c 181.223 354.194 l 181.223 367.721 170.219
 378.725 156.688 378.725 c 143.16 378.725 132.156 367.721 132.156 354.194
 c 132.156 339.202 l 116.867 339.202 l 116.867 353.6 l 116.867 375.655 134.809
 393.6 156.867 393.6 c h
342.332 31.998 m 342.332 23.178 335.156 15.998 326.332 15.998 c 83.266 
15.998 l 74.445 15.998 67.266 23.178 67.266 31.998 c 67.266 307.202 l 67.266
 316.022 74.445 323.202 83.266 323.202 c 132.156 323.202 l 132.156 280.354
 l 132.156 258.104 150.258 239.998 172.512 239.998 c 194.762 239.998 212.867
 258.104 212.867 280.354 c 212.867 323.202 l 259.133 323.202 l 259.133 273.998
 l 259.133 255.252 274.383 239.998 293.133 239.998 c 342.332 239.998 l h
342.332 31.998 m f
Q Q
showpage
%%Trailer
end restore
%%EOF
