%!PS-Adobe-3.0 EPSF-3.0
%%Creator: cairo 1.14.2 (http://cairographics.org)
%%CreationDate: Thu Jul 26 08:14:03 2018
%%Pages: 1
%%DocumentData: Clean7Bit
%%LanguageLevel: 2
%%BoundingBox: 0 -1 410 410
%%EndComments
%%BeginProlog
save
50 dict begin
/q { gsave } bind def
/Q { grestore } bind def
/cm { 6 array astore concat } bind def
/w { setlinewidth } bind def
/J { setlinecap } bind def
/j { setlinejoin } bind def
/M { setmiterlimit } bind def
/d { setdash } bind def
/m { moveto } bind def
/l { lineto } bind def
/c { curveto } bind def
/h { closepath } bind def
/re { exch dup neg 3 1 roll 5 3 roll moveto 0 rlineto
      0 exch rlineto 0 rlineto closepath } bind def
/S { stroke } bind def
/f { fill } bind def
/f* { eofill } bind def
/n { newpath } bind def
/W { clip } bind def
/W* { eoclip } bind def
/BT { } bind def
/ET { } bind def
/pdfmark where { pop globaldict /?pdfmark /exec load put }
    { globaldict begin /?pdfmark /pop load def /pdfmark
    /cleartomark load def end } ifelse
/BDC { mark 3 1 roll /BDC pdfmark } bind def
/EMC { mark /EMC pdfmark } bind def
/cairo_store_point { /cairo_point_y exch def /cairo_point_x exch def } def
/Tj { show currentpoint cairo_store_point } bind def
/TJ {
  {
    dup
    type /stringtype eq
    { show } { -0.001 mul 0 cairo_font_matrix dtransform rmoveto } ifelse
  } forall
  currentpoint cairo_store_point
} bind def
/cairo_selectfont { cairo_font_matrix aload pop pop pop 0 0 6 array astore
    cairo_font exch selectfont cairo_point_x cairo_point_y moveto } bind def
/Tf { pop /cairo_font exch def /cairo_font_matrix where
      { pop cairo_selectfont } if } bind def
/Td { matrix translate cairo_font_matrix matrix concatmatrix dup
      /cairo_font_matrix exch def dup 4 get exch 5 get cairo_store_point
      /cairo_font where { pop cairo_selectfont } if } bind def
/Tm { 2 copy 8 2 roll 6 array astore /cairo_font_matrix exch def
      cairo_store_point /cairo_font where { pop cairo_selectfont } if } bind def
/g { setgray } bind def
/rg { setrgbcolor } bind def
/d1 { setcachedevice } bind def
%%EndProlog
%%BeginSetup
%%EndSetup
%%Page: 1 1
%%BeginPageSetup
%%PageBoundingBox: 0 -1 410 410
%%EndPageSetup
q 0 -1 410 411 rectclip q
0 g
297.703 371.35 m 272.836 396.038 239.918 409.6 204.898 409.6 c 204.582 
409.6 204.258 409.6 203.941 409.596 c 169.754 409.354 137.387 395.959 112.797
 371.881 c 88.203 347.795 74.145 315.709 73.219 281.541 c 72.25 245.936 
85.293 212.209 109.941 186.58 c 129.355 166.401 140.043 139.557 140.043 
110.995 c 140.043 56.045 l 140.043 44.76 147.883 35.272 158.398 32.725 c
 158.398 25.401 l 158.398 11.393 169.793 -0.002 183.801 -0.002 c 225.801
 -0.002 l 239.805 -0.002 251.199 11.393 251.199 25.401 c 251.199 32.686 
l 261.809 35.163 269.734 44.694 269.734 56.045 c 269.734 110.991 l 269.734
 139.178 280.719 166.334 300.668 187.452 c 323.848 211.995 336.613 244.108
 336.613 277.877 c 336.613 313.237 322.793 346.432 297.703 371.35 c h
235.199 25.401 m 235.199 20.217 230.984 15.998 225.801 15.998 c 183.801
 15.998 l 178.617 15.998 174.398 20.217 174.398 25.401 c 174.398 32.049 
l 235.199 32.049 l h
253.738 56.045 m 253.738 51.639 250.148 48.049 245.738 48.049 c 164.043
 48.049 l 159.633 48.049 156.047 51.639 156.047 56.045 c 156.047 101.545
 l 253.738 101.545 l h
192.324 117.545 m 192.324 218.737 l 217.246 218.737 l 217.246 117.549 l
 192.324 117.549 l h
289.035 198.44 m 267.82 175.975 255.484 147.467 253.91 117.549 c 233.246
 117.549 l 233.246 218.737 l 240.438 218.737 l 253.227 218.737 263.629 229.139
 263.629 241.928 c 263.629 243.166 l 263.629 255.955 253.227 266.358 240.438
 266.358 c 227.652 266.358 217.246 255.955 217.246 243.166 c 217.246 234.737
 l 192.324 234.737 l 192.324 243.166 l 192.324 255.955 181.922 266.358 169.133
 266.358 c 167.559 266.358 l 154.77 266.358 144.367 255.955 144.367 243.166
 c 144.367 241.928 l 144.367 229.139 154.77 218.737 167.559 218.737 c 176.324
 218.737 l 176.324 117.549 l 155.879 117.549 l 154.355 147.807 142.273 176.049
 121.473 197.674 c 99.82 220.19 88.359 249.819 89.211 281.108 c 90.887 342.698
 142.406 393.163 204.055 393.596 c 235.168 393.815 264.387 381.881 286.43
 359.995 c 308.473 338.104 320.613 308.94 320.613 277.877 c 320.613 248.209
 309.398 219.998 289.035 198.44 c h
233.246 234.737 m 233.246 243.166 l 233.246 247.135 236.473 250.358 240.438
 250.358 c 244.402 250.358 247.629 247.131 247.629 243.166 c 247.629 241.928
 l 247.629 237.963 244.402 234.737 240.438 234.737 c h
176.324 243.166 m 176.324 234.737 l 167.559 234.737 l 163.594 234.737 160.367
 237.963 160.367 241.928 c 160.367 243.166 l 160.367 247.135 163.594 250.358
 167.559 250.358 c 169.133 250.358 l 173.098 250.358 176.324 247.131 176.324
 243.166 c h
176.324 243.166 m f
290.645 312.506 m 283.773 329.569 272.086 344.088 256.848 354.495 c 241.227
 365.163 222.914 370.733 203.941 370.6 c 199.523 370.569 195.965 366.959
 195.996 362.541 c 196.027 358.143 199.605 354.6 203.996 354.6 c 204.055
 354.6 l 204.242 354.6 204.426 354.6 204.613 354.6 c 236.113 354.6 264.023
 335.78 275.805 306.53 c 277.062 303.413 280.062 301.518 283.227 301.518
 c 284.223 301.518 285.234 301.702 286.215 302.1 c 290.312 303.748 292.297
 308.409 290.645 312.506 c h
290.645 312.506 m f
294.992 283.534 m 293.504 285.022 291.441 285.877 289.336 285.877 c 287.23
 285.877 285.168 285.022 283.68 283.534 c 282.184 282.045 281.336 279.983
 281.336 277.877 c 281.336 275.768 282.184 273.709 283.68 272.225 c 285.168
 270.729 287.223 269.877 289.336 269.877 c 291.441 269.877 293.504 270.729
 294.992 272.225 c 296.48 273.709 297.336 275.768 297.336 277.877 c 297.336
 279.983 296.48 282.045 294.992 283.534 c h
294.992 283.534 m f
371.543 369.752 m 368.418 372.877 363.355 372.877 360.23 369.752 c 345.324
 354.846 l 342.199 351.725 342.199 346.659 345.324 343.534 c 346.887 341.971
 348.934 341.19 350.98 341.19 c 353.031 341.19 355.078 341.971 356.641 343.534
 c 371.543 358.44 l 374.668 361.561 374.668 366.627 371.543 369.752 c h
371.543 369.752 m f
371.543 197.315 m 356.641 212.217 l 353.516 215.342 348.453 215.342 345.324
 212.217 c 342.199 209.096 342.199 204.03 345.324 200.905 c 360.23 185.998
 l 361.793 184.436 363.84 183.659 365.887 183.659 c 367.934 183.659 369.98
 184.44 371.543 185.998 c 374.668 189.123 374.668 194.19 371.543 197.315
 c h
371.543 197.315 m f
401.602 285.877 m 380.52 285.877 l 376.102 285.877 372.52 282.295 372.52
 277.877 c 372.52 273.459 376.102 269.877 380.52 269.877 c 401.602 269.877
 l 406.02 269.877 409.602 273.459 409.602 277.877 c 409.602 282.295 406.02
 285.877 401.602 285.877 c h
401.602 285.877 m f
64.273 354.846 m 49.371 369.752 l 46.246 372.877 41.18 372.877 38.055 369.752
 c 34.934 366.627 34.934 361.561 38.055 358.436 c 52.961 343.534 l 54.523
 341.971 56.57 341.19 58.617 341.19 c 60.664 341.19 62.711 341.971 64.273
 343.534 c 67.398 346.659 67.398 351.721 64.273 354.846 c h
64.273 354.846 m f
64.273 212.221 m 61.152 215.342 56.086 215.342 52.961 212.221 c 38.055 
197.315 l 34.934 194.19 34.934 189.123 38.055 185.998 c 39.617 184.436 41.664
 183.659 43.711 183.659 c 45.762 183.659 47.809 184.44 49.371 185.998 c 
64.273 200.905 l 67.398 204.03 67.398 209.096 64.273 212.221 c h
64.273 212.221 m f
29.078 285.877 m 8 285.877 l 3.582 285.877 0 282.295 0 277.877 c 0 273.459
 3.582 269.877 8 269.877 c 29.078 269.877 l 33.496 269.877 37.078 273.459
 37.078 277.877 c 37.078 282.295 33.496 285.877 29.078 285.877 c h
29.078 285.877 m f
Q Q
showpage
%%Trailer
end restore
%%EOF
