%!PS-Adobe-3.0 EPSF-3.0
%%Creator: cairo 1.14.2 (http://cairographics.org)
%%CreationDate: Thu Jul 26 08:14:03 2018
%%Pages: 1
%%DocumentData: Clean7Bit
%%LanguageLevel: 2
%%BoundingBox: 0 -1 410 410
%%EndComments
%%BeginProlog
save
50 dict begin
/q { gsave } bind def
/Q { grestore } bind def
/cm { 6 array astore concat } bind def
/w { setlinewidth } bind def
/J { setlinecap } bind def
/j { setlinejoin } bind def
/M { setmiterlimit } bind def
/d { setdash } bind def
/m { moveto } bind def
/l { lineto } bind def
/c { curveto } bind def
/h { closepath } bind def
/re { exch dup neg 3 1 roll 5 3 roll moveto 0 rlineto
      0 exch rlineto 0 rlineto closepath } bind def
/S { stroke } bind def
/f { fill } bind def
/f* { eofill } bind def
/n { newpath } bind def
/W { clip } bind def
/W* { eoclip } bind def
/BT { } bind def
/ET { } bind def
/pdfmark where { pop globaldict /?pdfmark /exec load put }
    { globaldict begin /?pdfmark /pop load def /pdfmark
    /cleartomark load def end } ifelse
/BDC { mark 3 1 roll /BDC pdfmark } bind def
/EMC { mark /EMC pdfmark } bind def
/cairo_store_point { /cairo_point_y exch def /cairo_point_x exch def } def
/Tj { show currentpoint cairo_store_point } bind def
/TJ {
  {
    dup
    type /stringtype eq
    { show } { -0.001 mul 0 cairo_font_matrix dtransform rmoveto } ifelse
  } forall
  currentpoint cairo_store_point
} bind def
/cairo_selectfont { cairo_font_matrix aload pop pop pop 0 0 6 array astore
    cairo_font exch selectfont cairo_point_x cairo_point_y moveto } bind def
/Tf { pop /cairo_font exch def /cairo_font_matrix where
      { pop cairo_selectfont } if } bind def
/Td { matrix translate cairo_font_matrix matrix concatmatrix dup
      /cairo_font_matrix exch def dup 4 get exch 5 get cairo_store_point
      /cairo_font where { pop cairo_selectfont } if } bind def
/Tm { 2 copy 8 2 roll 6 array astore /cairo_font_matrix exch def
      cairo_store_point /cairo_font where { pop cairo_selectfont } if } bind def
/g { setgray } bind def
/rg { setrgbcolor } bind def
/d1 { setcachedevice } bind def
%%EndProlog
%%BeginSetup
%%EndSetup
%%Page: 1 1
%%BeginPageSetup
%%PageBoundingBox: 0 -1 410 410
%%EndPageSetup
q 0 -1 410 411 rectclip q
0 g
96.391 282.178 m 95.973 282.178 l 91.555 282.178 87.973 278.596 87.973 
274.178 c 87.973 269.76 91.555 266.178 95.973 266.178 c 96.391 266.178 l
 100.809 266.178 104.391 269.76 104.391 274.178 c 104.391 278.596 100.809
 282.178 96.391 282.178 c h
96.391 282.178 m f
340.801 209.6 m 336.383 209.6 332.801 206.018 332.801 201.6 c 332.801 111.998
 l 332.801 107.58 336.383 103.998 340.801 103.998 c 345.219 103.998 348.801
 107.58 348.801 111.998 c 348.801 201.6 l 348.801 206.018 345.219 209.6 
340.801 209.6 c h
340.801 209.6 m f
372.801 209.6 m 368.383 209.6 364.801 206.018 364.801 201.6 c 364.801 111.998
 l 364.801 107.58 368.383 103.998 372.801 103.998 c 377.219 103.998 380.801
 107.58 380.801 111.998 c 380.801 201.6 l 380.801 206.018 377.219 209.6 
372.801 209.6 c h
372.801 209.6 m f
385.602 313.6 m 328 313.6 l 325.195 313.6 322.504 313.112 320 312.225 c
 320 385.6 l 320 398.834 309.234 409.6 296 409.6 c 238.398 409.6 l 225.168
 409.6 214.398 398.834 214.398 385.6 c 214.398 312.225 l 211.895 313.112
 209.203 313.6 206.398 313.6 c 148.801 313.6 l 145.996 313.6 143.305 313.112
 140.801 312.225 c 140.801 324.799 l 140.801 338.034 130.035 348.799 116.801
 348.799 c 24 348.799 l 10.766 348.799 0 338.034 0 324.799 c 0 23.998 l 
0 10.768 10.766 -0.002 24 -0.002 c 116.801 -0.002 l 122.941 -0.002 128.551
 2.323 132.801 6.131 c 137.051 2.323 142.656 -0.002 148.801 -0.002 c 206.398
 -0.002 l 212.543 -0.002 218.152 2.323 222.398 6.131 c 226.648 2.323 232.258
 -0.002 238.398 -0.002 c 296 -0.002 l 302.141 -0.002 307.75 2.323 312 6.131
 c 316.25 2.323 321.859 -0.002 328 -0.002 c 385.602 -0.002 l 398.832 -0.002
 409.602 10.768 409.602 23.998 c 409.602 289.6 l 409.602 302.834 398.832
 313.6 385.602 313.6 c h
124.801 23.998 m 124.801 19.588 121.211 15.998 116.801 15.998 c 24 15.998
 l 19.59 15.998 16 19.588 16 23.998 c 16 66.623 l 124.801 66.623 l h
124.801 82.623 m 16 82.623 l 16 266.178 l 63.188 266.178 l 67.605 266.178
 71.188 269.76 71.188 274.178 c 71.188 278.596 67.605 282.178 63.188 282.178
 c 16 282.178 l 16 324.799 l 16 329.209 19.59 332.799 24 332.799 c 116.801
 332.799 l 121.211 332.799 124.801 329.209 124.801 324.799 c h
214.398 23.998 m 214.398 19.588 210.812 15.998 206.398 15.998 c 148.801
 15.998 l 144.391 15.998 140.801 19.588 140.801 23.998 c 140.801 96.538 
l 214.398 96.538 l h
214.398 112.541 m 140.801 112.541 l 140.801 201.061 l 214.398 201.061 l
 h
214.398 217.061 m 140.801 217.061 l 140.801 289.6 l 140.801 294.01 144.391
 297.6 148.801 297.6 c 206.398 297.6 l 210.812 297.6 214.398 294.01 214.398
 289.6 c h
304 48.018 m 304 48.01 304 48.006 304 48.002 c 304 47.998 304 47.991 304
 47.987 c 304 23.998 l 304 19.588 300.41 15.998 296 15.998 c 238.398 15.998
 l 233.988 15.998 230.398 19.588 230.398 23.998 c 230.398 49.998 l 304 49.998
 l h
304 65.998 m 230.398 65.998 l 230.398 343.6 l 304 343.6 l h
304 359.6 m 230.398 359.6 l 230.398 385.6 l 230.398 390.01 233.988 393.6
 238.398 393.6 c 296 393.6 l 300.41 393.6 304 390.01 304 385.6 c h
393.602 23.998 m 393.602 19.588 390.012 15.998 385.602 15.998 c 328 15.998
 l 323.59 15.998 320 19.588 320 23.998 c 320 40.002 l 393.602 40.002 l h
393.602 56.002 m 320 56.002 l 320 257.6 l 393.602 257.6 l h
393.602 273.6 m 320 273.6 l 320 289.6 l 320 294.01 323.59 297.6 328 297.6
 c 385.602 297.6 l 390.012 297.6 393.602 294.01 393.602 289.6 c h
393.602 273.6 m f
267.199 255.42 m 262.781 255.42 259.199 251.838 259.199 247.42 c 259.199
 183.338 l 259.199 178.92 262.781 175.338 267.199 175.338 c 271.617 175.338
 275.199 178.92 275.199 183.338 c 275.199 247.42 l 275.199 251.838 271.617
 255.42 267.199 255.42 c h
267.199 255.42 m f
272.855 154.592 m 271.367 156.08 269.305 156.936 267.199 156.936 c 265.098
 156.936 263.031 156.08 261.543 154.592 c 260.055 153.104 259.199 151.041
 259.199 148.936 c 259.199 146.83 260.055 144.768 261.543 143.28 c 263.031
 141.791 265.098 140.936 267.199 140.936 c 269.305 140.936 271.367 141.791
 272.855 143.28 c 274.344 144.768 275.199 146.83 275.199 148.936 c 275.199
 151.041 274.344 153.104 272.855 154.592 c h
272.855 154.592 m f
Q Q
showpage
%%Trailer
end restore
%%EOF
