%!PS-Adobe-3.0 EPSF-3.0
%%Creator: cairo 1.14.2 (http://cairographics.org)
%%CreationDate: Thu Jul 26 08:14:03 2018
%%Pages: 1
%%DocumentData: Clean7Bit
%%LanguageLevel: 2
%%BoundingBox: 0 -1 410 410
%%EndComments
%%BeginProlog
save
50 dict begin
/q { gsave } bind def
/Q { grestore } bind def
/cm { 6 array astore concat } bind def
/w { setlinewidth } bind def
/J { setlinecap } bind def
/j { setlinejoin } bind def
/M { setmiterlimit } bind def
/d { setdash } bind def
/m { moveto } bind def
/l { lineto } bind def
/c { curveto } bind def
/h { closepath } bind def
/re { exch dup neg 3 1 roll 5 3 roll moveto 0 rlineto
      0 exch rlineto 0 rlineto closepath } bind def
/S { stroke } bind def
/f { fill } bind def
/f* { eofill } bind def
/n { newpath } bind def
/W { clip } bind def
/W* { eoclip } bind def
/BT { } bind def
/ET { } bind def
/pdfmark where { pop globaldict /?pdfmark /exec load put }
    { globaldict begin /?pdfmark /pop load def /pdfmark
    /cleartomark load def end } ifelse
/BDC { mark 3 1 roll /BDC pdfmark } bind def
/EMC { mark /EMC pdfmark } bind def
/cairo_store_point { /cairo_point_y exch def /cairo_point_x exch def } def
/Tj { show currentpoint cairo_store_point } bind def
/TJ {
  {
    dup
    type /stringtype eq
    { show } { -0.001 mul 0 cairo_font_matrix dtransform rmoveto } ifelse
  } forall
  currentpoint cairo_store_point
} bind def
/cairo_selectfont { cairo_font_matrix aload pop pop pop 0 0 6 array astore
    cairo_font exch selectfont cairo_point_x cairo_point_y moveto } bind def
/Tf { pop /cairo_font exch def /cairo_font_matrix where
      { pop cairo_selectfont } if } bind def
/Td { matrix translate cairo_font_matrix matrix concatmatrix dup
      /cairo_font_matrix exch def dup 4 get exch 5 get cairo_store_point
      /cairo_font where { pop cairo_selectfont } if } bind def
/Tm { 2 copy 8 2 roll 6 array astore /cairo_font_matrix exch def
      cairo_store_point /cairo_font where { pop cairo_selectfont } if } bind def
/g { setgray } bind def
/rg { setrgbcolor } bind def
/d1 { setcachedevice } bind def
%%EndProlog
%%BeginSetup
%%EndSetup
%%Page: 1 1
%%BeginPageSetup
%%PageBoundingBox: 0 -1 410 410
%%EndPageSetup
q 0 -1 410 411 rectclip q
0 g
402.594 113.351 m 294.039 221.905 l 381.414 309.28 l 386.988 314.855 390.059
 322.261 390.059 330.144 c 390.059 338.023 386.988 345.433 381.414 351.003
 c 351.004 381.413 l 345.434 386.988 338.023 390.058 330.141 390.058 c 322.262
 390.058 314.852 386.988 309.281 381.413 c 221.906 294.038 l 133.262 382.683
 l 133.262 382.687 l 133.258 382.687 l 113.352 402.593 l 104.023 411.921
 88.848 411.921 79.523 402.593 c 7.008 330.077 l 2.488 325.562 0 319.554
 0 313.163 c 0 306.773 2.488 300.769 7.008 296.249 c 115.559 187.695 l 73.438
 145.573 l 72.766 144.902 72.219 144.116 71.824 143.253 c 20.273 30.878 
l 18.875 27.839 19.523 24.253 21.887 21.886 c 23.422 20.355 25.469 19.542
 27.547 19.542 c 28.672 19.542 29.809 19.78 30.879 20.273 c 143.254 71.823
 l 144.117 72.218 144.902 72.765 145.574 73.437 c 187.695 115.558 l 222.09
 81.167 l 223.652 79.605 225.699 78.823 227.746 78.823 c 229.793 78.823 
231.84 79.605 233.402 81.167 c 236.527 84.288 236.527 89.355 233.402 92.48
 c 199.008 126.874 l 282.727 210.589 l 303.328 189.991 l 295.68 182.343 
l 292.555 179.218 292.555 174.152 295.68 171.027 c 297.242 169.464 299.289
 168.683 301.336 168.683 c 303.383 168.683 305.43 169.464 306.992 171.027
 c 314.641 178.675 l 334.496 158.82 l 311.645 135.964 l 308.52 132.839 308.52
 127.773 311.645 124.652 c 313.207 123.089 315.254 122.308 317.301 122.308
 c 319.348 122.308 321.395 123.089 322.957 124.652 c 345.812 147.503 l 365.668
 127.648 l 358.02 119.999 l 354.898 116.874 354.898 111.808 358.02 108.683
 c 359.582 107.12 361.629 106.339 363.676 106.339 c 365.727 106.339 367.773
 107.12 369.336 108.683 c 376.98 116.331 l 391.277 102.034 l 392.773 100.538
 393.598 98.55 393.598 96.437 c 393.598 94.32 392.773 92.331 391.277 90.835
 c 318.766 18.32 l 315.68 15.234 310.652 15.23 307.562 18.32 c 278.727 47.159
 l 275.602 50.28 270.535 50.28 267.41 47.159 c 264.289 44.034 264.289 38.968
 267.41 35.843 c 296.25 7.007 l 300.914 2.343 307.039 0.011 313.164 0.011
 c 319.289 0.011 325.414 2.343 330.078 7.007 c 402.594 79.523 l 407.113 
84.038 409.602 90.046 409.602 96.437 c 409.602 102.827 407.113 108.831 402.594
 113.351 c h
320.594 370.101 m 323.145 372.652 326.535 374.058 330.141 374.058 c 333.75
 374.058 337.141 372.652 339.691 370.101 c 370.102 339.691 l 375.367 334.425
 375.367 325.859 370.102 320.593 c 346.746 297.238 l 297.238 346.745 l h
18.32 307.566 m 16.824 309.062 16 311.05 16 313.163 c 16 315.28 16.824 
317.269 18.32 318.765 c 90.836 391.28 l 93.922 394.366 98.949 394.37 102.035
 391.28 c 116.289 377.03 l 108.637 369.382 l 105.516 366.257 105.516 361.191
 108.637 358.07 c 110.199 356.507 112.246 355.726 114.297 355.726 c 116.344
 355.726 118.391 356.507 119.953 358.07 c 127.602 365.714 l 147.469 345.847
 l 124.617 322.991 l 121.492 319.87 121.492 314.804 124.617 311.679 c 126.18
 310.116 128.227 309.335 130.273 309.335 c 132.32 309.335 134.367 310.116
 135.93 311.679 c 158.781 334.534 l 178.641 314.675 l 170.992 307.027 l 
167.867 303.902 167.867 298.839 170.992 295.714 c 172.555 294.152 174.602
 293.37 176.648 293.37 c 178.695 293.37 180.742 294.152 182.305 295.714 
c 189.953 303.363 l 210.59 282.726 l 126.875 199.007 l h
43.805 43.804 m 54.762 67.687 l 67.688 54.761 l h
83.199 61.874 m 61.875 83.198 l 81.57 126.128 l 126.125 81.57 l h
139.914 90.409 m 90.41 139.917 l 285.926 335.433 l 312.516 308.839 l 246.582
 242.905 l 243.457 239.78 243.457 234.714 246.582 231.593 c 248.145 230.03
 250.191 229.249 252.238 229.249 c 254.285 229.249 256.332 230.03 257.895
 231.593 c 323.828 297.527 l 335.43 285.925 l h
139.914 90.409 m f
257.895 67.991 m 256.406 69.48 254.344 70.327 252.238 70.327 c 250.129 
70.327 248.07 69.48 246.586 67.991 c 245.098 66.495 244.238 64.441 244.238
 62.327 c 244.238 60.226 245.098 58.159 246.586 56.671 c 248.07 55.183 250.137
 54.327 252.238 54.327 c 254.344 54.327 256.406 55.183 257.895 56.671 c 
259.383 58.159 260.238 60.226 260.238 62.327 c 260.238 64.441 259.383 66.495
 257.895 67.991 c h
257.895 67.991 m f
236.504 221.511 m 235.016 222.999 232.953 223.855 230.848 223.855 c 228.734
 223.855 226.68 222.999 225.191 221.511 c 223.695 220.023 222.848 217.96
 222.848 215.855 c 222.848 213.753 223.695 211.687 225.191 210.198 c 226.68
 208.71 228.738 207.855 230.848 207.855 c 232.953 207.855 235.016 208.71
 236.504 210.198 c 237.992 211.687 238.848 213.753 238.848 215.855 c 238.848
 217.96 237.992 220.023 236.504 221.511 c h
236.504 221.511 m f
Q Q
showpage
%%Trailer
end restore
%%EOF
