%!PS-Adobe-3.0 EPSF-3.0
%%Creator: cairo 1.14.2 (http://cairographics.org)
%%CreationDate: Thu Jul 26 08:14:03 2018
%%Pages: 1
%%DocumentData: Clean7Bit
%%LanguageLevel: 2
%%BoundingBox: 0 -1 410 410
%%EndComments
%%BeginProlog
save
50 dict begin
/q { gsave } bind def
/Q { grestore } bind def
/cm { 6 array astore concat } bind def
/w { setlinewidth } bind def
/J { setlinecap } bind def
/j { setlinejoin } bind def
/M { setmiterlimit } bind def
/d { setdash } bind def
/m { moveto } bind def
/l { lineto } bind def
/c { curveto } bind def
/h { closepath } bind def
/re { exch dup neg 3 1 roll 5 3 roll moveto 0 rlineto
      0 exch rlineto 0 rlineto closepath } bind def
/S { stroke } bind def
/f { fill } bind def
/f* { eofill } bind def
/n { newpath } bind def
/W { clip } bind def
/W* { eoclip } bind def
/BT { } bind def
/ET { } bind def
/pdfmark where { pop globaldict /?pdfmark /exec load put }
    { globaldict begin /?pdfmark /pop load def /pdfmark
    /cleartomark load def end } ifelse
/BDC { mark 3 1 roll /BDC pdfmark } bind def
/EMC { mark /EMC pdfmark } bind def
/cairo_store_point { /cairo_point_y exch def /cairo_point_x exch def } def
/Tj { show currentpoint cairo_store_point } bind def
/TJ {
  {
    dup
    type /stringtype eq
    { show } { -0.001 mul 0 cairo_font_matrix dtransform rmoveto } ifelse
  } forall
  currentpoint cairo_store_point
} bind def
/cairo_selectfont { cairo_font_matrix aload pop pop pop 0 0 6 array astore
    cairo_font exch selectfont cairo_point_x cairo_point_y moveto } bind def
/Tf { pop /cairo_font exch def /cairo_font_matrix where
      { pop cairo_selectfont } if } bind def
/Td { matrix translate cairo_font_matrix matrix concatmatrix dup
      /cairo_font_matrix exch def dup 4 get exch 5 get cairo_store_point
      /cairo_font where { pop cairo_selectfont } if } bind def
/Tm { 2 copy 8 2 roll 6 array astore /cairo_font_matrix exch def
      cairo_store_point /cairo_font where { pop cairo_selectfont } if } bind def
/g { setgray } bind def
/rg { setrgbcolor } bind def
/d1 { setcachedevice } bind def
%%EndProlog
%%BeginSetup
%%EndSetup
%%Page: 1 1
%%BeginPageSetup
%%PageBoundingBox: 0 -1 410 410
%%EndPageSetup
q 0 -1 410 411 rectclip q
0 g
349.617 349.616 m 310.934 388.299 259.504 409.6 204.801 409.6 c 150.098
 409.6 98.668 388.299 59.984 349.616 c 21.305 310.932 0 259.502 0 204.799
 c 0 150.096 21.305 98.666 59.984 59.987 c 98.668 21.303 150.098 -0.002 
204.801 -0.002 c 259.504 -0.002 310.934 21.303 349.617 59.987 c 388.297 
98.666 409.602 150.096 409.602 204.799 c 409.602 259.502 388.297 310.932
 349.617 349.616 c h
204.801 15.998 m 100.695 15.998 16 100.694 16 204.799 c 16 308.905 100.695
 393.6 204.801 393.6 c 308.906 393.6 393.602 308.905 393.602 204.799 c 393.602
 100.694 308.906 15.998 204.801 15.998 c h
204.801 15.998 m f
249.402 371.733 m 245.137 372.873 240.754 370.334 239.613 366.065 c 238.477
 361.795 241.016 357.413 245.285 356.276 c 313.738 338.03 361.551 275.741
 361.551 204.799 c 361.551 118.366 291.234 48.049 204.801 48.049 c 118.367
 48.049 48.051 118.366 48.051 204.799 c 48.051 276.151 96.207 338.53 165.156
 356.495 c 169.434 357.608 171.996 361.979 170.879 366.252 c 169.766 370.53
 165.395 373.092 161.121 371.979 c 85.125 352.174 32.051 283.428 32.051 
204.799 c 32.051 158.659 50.02 115.276 82.648 82.647 c 115.273 50.018 158.656
 32.049 204.801 32.049 c 250.941 32.049 294.324 50.018 326.953 82.647 c 
359.582 115.276 377.551 158.659 377.551 204.799 c 377.551 282.979 324.855
 351.623 249.402 371.733 c h
249.402 371.733 m f
204.801 377.549 m 204.422 377.549 l 200.004 377.534 196.434 373.94 196.449
 369.522 c 196.465 365.112 200.043 361.549 204.449 361.549 c 204.801 361.549
 l 209.219 361.549 212.801 365.131 212.801 369.549 c 212.801 373.967 209.219
 377.549 204.801 377.549 c h
204.801 377.549 m f
300.406 303.245 m 298.672 304.987 296.223 305.834 293.789 305.541 c 178.578
 291.76 l 178.363 291.737 178.152 291.702 177.941 291.659 c 155.133 289.315
 133.676 279.116 117.441 262.881 c 98.504 243.948 88.098 218.752 88.133 
191.94 c 88.172 165.135 98.645 139.924 117.621 120.948 c 118.359 120.209
 119.109 119.487 119.867 118.776 c 117.488 110.592 116.25 102.026 116.25
 93.268 c 116.25 88.85 119.832 85.268 124.25 85.268 c 128.668 85.268 132.25
 88.85 132.25 93.268 c 132.25 98.229 132.73 103.112 133.664 107.87 c 149.863
 97.221 168.801 91.491 188.613 91.463 c 188.754 91.463 l 215.512 91.463 
240.652 101.866 259.555 120.768 c 275.754 136.967 285.965 158.42 288.32 
181.198 c 288.324 181.229 288.328 181.256 288.332 181.288 c 302.676 296.612
 l 302.98 299.053 302.141 301.498 300.406 303.245 c h
272.488 183.534 m 272.465 183.381 272.441 183.233 272.43 183.08 c 270.496
 163.858 261.906 145.748 248.238 132.08 c 232.359 116.202 211.242 107.463
 188.754 107.463 c 188.637 107.463 l 170.449 107.487 153.133 113.233 138.734
 123.834 c 142.418 132.053 147.605 139.62 154.164 146.178 c 156.633 148.643
 l 221.621 148.643 l 226.035 148.643 229.621 152.225 229.621 156.643 c 229.621
 161.065 226.035 164.643 221.621 164.643 c 172.633 164.643 l 198.633 190.647
 l 242.41 190.647 l 246.828 190.647 250.41 194.229 250.41 198.647 c 250.41
 203.065 246.828 206.647 242.41 206.647 c 214.633 206.647 l 260.43 252.444
 l 263.555 255.569 263.555 260.631 260.43 263.756 c 257.309 266.881 252.242
 266.881 249.117 263.756 c 203.32 217.959 l 203.32 245.741 l 203.32 250.159
 199.738 253.741 195.32 253.741 c 190.902 253.741 187.32 250.159 187.32 
245.741 c 187.32 201.959 l 161.316 175.959 l 161.316 205.174 l 161.316 209.592
 157.734 213.174 153.316 213.174 c 148.898 213.174 145.316 209.592 145.316
 205.174 c 145.316 159.959 l 142.852 157.491 l 136.129 150.768 130.598 143.174
 126.348 134.971 c 112.027 150.584 104.164 170.674 104.137 191.963 c 104.105
 214.495 112.848 235.663 128.754 251.569 c 142.566 265.381 160.879 273.991
 180.312 275.815 c 180.656 275.846 180.992 275.901 181.32 275.975 c 285.535
 288.444 l h
272.488 183.534 m f
158.977 240.858 m 157.48 242.342 155.426 243.202 153.32 243.202 c 151.207
 243.202 149.152 242.342 147.656 240.858 c 146.168 239.37 145.32 237.303
 145.32 235.202 c 145.32 233.096 146.168 231.034 147.656 229.545 c 149.152
 228.057 151.207 227.202 153.32 227.202 c 155.426 227.202 157.48 228.057
 158.977 229.545 c 160.465 231.034 161.32 233.096 161.32 235.202 c 161.32
 237.303 160.465 239.37 158.977 240.858 c h
158.977 240.858 m f
Q Q
showpage
%%Trailer
end restore
%%EOF
