%!PS-Adobe-3.0 EPSF-3.0
%%Creator: cairo 1.14.2 (http://cairographics.org)
%%CreationDate: Thu Jul 26 08:14:03 2018
%%Pages: 1
%%DocumentData: Clean7Bit
%%LanguageLevel: 2
%%BoundingBox: 0 31 410 378
%%EndComments
%%BeginProlog
save
50 dict begin
/q { gsave } bind def
/Q { grestore } bind def
/cm { 6 array astore concat } bind def
/w { setlinewidth } bind def
/J { setlinecap } bind def
/j { setlinejoin } bind def
/M { setmiterlimit } bind def
/d { setdash } bind def
/m { moveto } bind def
/l { lineto } bind def
/c { curveto } bind def
/h { closepath } bind def
/re { exch dup neg 3 1 roll 5 3 roll moveto 0 rlineto
      0 exch rlineto 0 rlineto closepath } bind def
/S { stroke } bind def
/f { fill } bind def
/f* { eofill } bind def
/n { newpath } bind def
/W { clip } bind def
/W* { eoclip } bind def
/BT { } bind def
/ET { } bind def
/pdfmark where { pop globaldict /?pdfmark /exec load put }
    { globaldict begin /?pdfmark /pop load def /pdfmark
    /cleartomark load def end } ifelse
/BDC { mark 3 1 roll /BDC pdfmark } bind def
/EMC { mark /EMC pdfmark } bind def
/cairo_store_point { /cairo_point_y exch def /cairo_point_x exch def } def
/Tj { show currentpoint cairo_store_point } bind def
/TJ {
  {
    dup
    type /stringtype eq
    { show } { -0.001 mul 0 cairo_font_matrix dtransform rmoveto } ifelse
  } forall
  currentpoint cairo_store_point
} bind def
/cairo_selectfont { cairo_font_matrix aload pop pop pop 0 0 6 array astore
    cairo_font exch selectfont cairo_point_x cairo_point_y moveto } bind def
/Tf { pop /cairo_font exch def /cairo_font_matrix where
      { pop cairo_selectfont } if } bind def
/Td { matrix translate cairo_font_matrix matrix concatmatrix dup
      /cairo_font_matrix exch def dup 4 get exch 5 get cairo_store_point
      /cairo_font where { pop cairo_selectfont } if } bind def
/Tm { 2 copy 8 2 roll 6 array astore /cairo_font_matrix exch def
      cairo_store_point /cairo_font where { pop cairo_selectfont } if } bind def
/g { setgray } bind def
/rg { setrgbcolor } bind def
/d1 { setcachedevice } bind def
%%EndProlog
%%BeginSetup
%%EndSetup
%%Page: 1 1
%%BeginPageSetup
%%PageBoundingBox: 0 31 410 378
%%EndPageSetup
q 0 31 410 347 rectclip q
0 g
369.602 377.6 m 40 377.6 l 17.945 377.6 0 359.655 0 337.6 c 0 71.998 l 
0 49.944 17.945 31.998 40 31.998 c 98.469 31.998 l 102.891 31.998 106.469
 35.58 106.469 39.998 c 106.469 44.42 102.891 47.998 98.469 47.998 c 40 
47.998 l 26.766 47.998 16 58.768 16 71.998 c 16 337.6 l 16 350.834 26.766
 361.6 40 361.6 c 369.602 361.6 l 382.832 361.6 393.602 350.834 393.602 
337.6 c 393.602 71.998 l 393.602 58.768 382.832 47.998 369.602 47.998 c 
169.867 47.998 l 165.449 47.998 161.867 44.42 161.867 39.998 c 161.867 35.58
 165.449 31.998 169.867 31.998 c 369.602 31.998 l 391.656 31.998 409.602
 49.944 409.602 71.998 c 409.602 337.6 l 409.602 359.655 391.656 377.6 369.602
 377.6 c h
369.602 377.6 m f
140.855 45.655 m 139.367 47.143 137.305 47.998 135.199 47.998 c 133.098
 47.998 131.031 47.143 129.543 45.655 c 128.055 44.166 127.199 42.104 127.199
 39.998 c 127.199 37.897 128.055 35.83 129.543 34.342 c 131.031 32.858 133.098
 31.998 135.199 31.998 c 137.305 31.998 139.367 32.858 140.855 34.342 c 
142.344 35.83 143.199 37.897 143.199 39.998 c 143.199 42.104 142.344 44.166
 140.855 45.655 c h
140.855 45.655 m f
369.602 345.6 m 40 345.6 l 35.582 345.6 32 342.018 32 337.6 c 32 71.998
 l 32 67.58 35.582 63.998 40 63.998 c 369.602 63.998 l 374.02 63.998 377.602
 67.58 377.602 71.998 c 377.602 337.6 l 377.602 342.018 374.02 345.6 369.602
 345.6 c h
361.602 79.998 m 48 79.998 l 48 289.6 l 119.199 289.6 l 123.617 289.6 127.199
 293.182 127.199 297.6 c 127.199 302.018 123.617 305.6 119.199 305.6 c 48
 305.6 l 48 329.6 l 361.602 329.6 l h
361.602 79.998 m f
294.691 187.174 m 284.629 187.174 l 278.027 187.174 272.656 192.604 272.656
 199.28 c 272.656 211.069 l 272.656 217.745 278.027 223.174 284.629 223.174
 c 294.691 223.174 l 299.109 223.174 302.691 226.756 302.691 231.174 c 302.691
 235.592 299.109 239.174 294.691 239.174 c 284.629 239.174 l 269.203 239.174
 256.656 226.569 256.656 211.069 c 256.656 199.28 l 256.656 183.784 269.203
 171.174 284.629 171.174 c 294.691 171.174 l 299.109 171.174 302.691 174.756
 302.691 179.174 c 302.691 183.592 299.109 187.174 294.691 187.174 c h
294.691 187.174 m f
335.168 252.651 m 332.07 252.651 l 336.406 257.83 339.828 263.764 339.828
 269.596 c 339.828 280.346 332.324 287.854 321.574 287.854 c 311.508 287.854
 303.32 279.663 303.32 269.596 c 303.32 265.178 306.902 261.596 311.32 261.596
 c 315.738 261.596 319.32 265.178 319.32 269.596 c 319.32 270.838 320.332
 271.854 321.574 271.854 c 323.734 271.854 323.828 271.346 323.828 269.596
 c 323.797 266.373 315.465 257.42 306.691 251.178 c 303.852 249.163 302.641
 245.541 303.695 242.225 c 304.754 238.905 307.836 236.651 311.32 236.651
 c 335.168 236.651 l 339.586 236.651 343.168 240.233 343.168 244.651 c 343.168
 249.069 339.586 252.651 335.168 252.651 c h
335.168 252.651 m f
233.113 239.545 m 229.871 240.655 226.293 239.577 224.199 236.87 c 210.098
 218.647 l 196 236.87 l 193.906 239.577 190.324 240.651 187.086 239.545 
c 183.848 238.44 181.672 235.397 181.672 231.975 c 181.672 179.174 l 181.672
 174.756 185.254 171.174 189.672 171.174 c 194.094 171.174 197.672 174.756
 197.672 179.174 c 197.672 208.561 l 203.773 200.678 l 205.289 198.721 207.625
 197.577 210.102 197.577 c 212.574 197.577 214.91 198.721 216.426 200.678
 c 222.527 208.561 l 222.527 179.174 l 222.527 174.756 226.109 171.174 230.527
 171.174 c 234.945 171.174 238.527 174.756 238.527 179.174 c 238.527 231.975
 l 238.527 235.397 236.352 238.44 233.113 239.545 c h
233.113 239.545 m f
158.066 212.799 m 137.273 212.799 l 132.855 212.799 129.273 209.217 129.273
 204.799 c 129.273 200.381 132.855 196.799 137.273 196.799 c 158.066 196.799
 l 162.484 196.799 166.066 200.381 166.066 204.799 c 166.066 209.217 162.484
 212.799 158.066 212.799 c h
158.066 212.799 m f
158.066 187.174 m 137.273 187.174 l 132.855 187.174 129.273 183.592 129.273
 179.174 c 129.273 174.756 132.855 171.174 137.273 171.174 c 158.066 171.174
 l 162.484 171.174 166.066 174.756 166.066 179.174 c 166.066 183.592 162.484
 187.174 158.066 187.174 c h
158.066 187.174 m f
100.863 187.174 m 82.434 187.174 l 82.434 197.577 l 99.277 197.577 l 103.695
 197.577 107.277 201.159 107.277 205.577 c 107.277 209.995 103.695 213.577
 99.277 213.577 c 82.434 213.577 l 82.434 223.975 l 100.863 223.975 l 105.281
 223.975 108.863 227.557 108.863 231.975 c 108.863 236.393 105.281 239.975
 100.863 239.975 c 74.434 239.975 l 70.016 239.975 66.434 236.393 66.434
 231.975 c 66.434 179.174 l 66.434 174.756 70.016 171.174 74.434 171.174
 c 100.863 171.174 l 105.281 171.174 108.863 174.756 108.863 179.174 c 108.863
 183.592 105.281 187.174 100.863 187.174 c h
100.863 187.174 m f
158.457 303.256 m 156.969 304.745 154.902 305.6 152.801 305.6 c 150.695
 305.6 148.633 304.745 147.145 303.256 c 145.656 301.768 144.801 299.705
 144.801 297.6 c 144.801 295.495 145.656 293.432 147.145 291.944 c 148.633
 290.455 150.695 289.6 152.801 289.6 c 154.902 289.6 156.969 290.455 158.457
 291.944 c 159.945 293.432 160.801 295.495 160.801 297.6 c 160.801 299.705
 159.945 301.768 158.457 303.256 c h
158.457 303.256 m f
Q Q
showpage
%%Trailer
end restore
%%EOF
