%!PS-Adobe-3.0 EPSF-3.0
%%Creator: cairo 1.14.2 (http://cairographics.org)
%%CreationDate: Thu Jul 26 08:14:03 2018
%%Pages: 1
%%DocumentData: Clean7Bit
%%LanguageLevel: 2
%%BoundingBox: 61 -1 349 410
%%EndComments
%%BeginProlog
save
50 dict begin
/q { gsave } bind def
/Q { grestore } bind def
/cm { 6 array astore concat } bind def
/w { setlinewidth } bind def
/J { setlinecap } bind def
/j { setlinejoin } bind def
/M { setmiterlimit } bind def
/d { setdash } bind def
/m { moveto } bind def
/l { lineto } bind def
/c { curveto } bind def
/h { closepath } bind def
/re { exch dup neg 3 1 roll 5 3 roll moveto 0 rlineto
      0 exch rlineto 0 rlineto closepath } bind def
/S { stroke } bind def
/f { fill } bind def
/f* { eofill } bind def
/n { newpath } bind def
/W { clip } bind def
/W* { eoclip } bind def
/BT { } bind def
/ET { } bind def
/pdfmark where { pop globaldict /?pdfmark /exec load put }
    { globaldict begin /?pdfmark /pop load def /pdfmark
    /cleartomark load def end } ifelse
/BDC { mark 3 1 roll /BDC pdfmark } bind def
/EMC { mark /EMC pdfmark } bind def
/cairo_store_point { /cairo_point_y exch def /cairo_point_x exch def } def
/Tj { show currentpoint cairo_store_point } bind def
/TJ {
  {
    dup
    type /stringtype eq
    { show } { -0.001 mul 0 cairo_font_matrix dtransform rmoveto } ifelse
  } forall
  currentpoint cairo_store_point
} bind def
/cairo_selectfont { cairo_font_matrix aload pop pop pop 0 0 6 array astore
    cairo_font exch selectfont cairo_point_x cairo_point_y moveto } bind def
/Tf { pop /cairo_font exch def /cairo_font_matrix where
      { pop cairo_selectfont } if } bind def
/Td { matrix translate cairo_font_matrix matrix concatmatrix dup
      /cairo_font_matrix exch def dup 4 get exch 5 get cairo_store_point
      /cairo_font where { pop cairo_selectfont } if } bind def
/Tm { 2 copy 8 2 roll 6 array astore /cairo_font_matrix exch def
      cairo_store_point /cairo_font where { pop cairo_selectfont } if } bind def
/g { setgray } bind def
/rg { setrgbcolor } bind def
/d1 { setcachedevice } bind def
%%EndProlog
%%BeginSetup
%%EndSetup
%%Page: 1 1
%%BeginPageSetup
%%PageBoundingBox: 61 -1 349 410
%%EndPageSetup
q 61 -1 288 411 rectclip q
0 g
210.457 241.256 m 208.969 242.745 206.906 243.6 204.801 243.6 c 202.695
 243.6 200.633 242.745 199.145 241.256 c 197.656 239.768 196.801 237.705
 196.801 235.6 c 196.801 233.495 197.656 231.432 199.145 229.944 c 200.633
 228.455 202.695 227.6 204.801 227.6 c 206.906 227.6 208.969 228.455 210.457
 229.944 c 211.945 231.432 212.801 233.495 212.801 235.6 c 212.801 237.705
 211.945 239.768 210.457 241.256 c h
210.457 241.256 m f
315.352 212.799 m 282.094 212.799 l 304.906 234.073 318.402 264.209 318.402
 295.998 c 318.402 358.639 267.441 409.6 204.801 409.6 c 142.16 409.6 91.199
 358.639 91.199 295.998 c 91.199 264.209 104.695 234.073 127.508 212.799
 c 94.25 212.799 l 76.211 212.799 61.539 198.127 61.539 180.088 c 61.539
 162.053 76.211 147.377 94.25 147.377 c 102.504 147.377 l 104.652 142.565
 l 115.926 117.276 121.641 90.416 121.641 62.733 c 121.641 7.998 l 121.641
 3.58 125.223 -0.002 129.641 -0.002 c 134.059 -0.002 137.641 3.58 137.641
 7.998 c 137.641 62.733 l 137.641 69.854 137.277 76.924 136.582 83.936 c
 155.852 58.776 l 155.734 58.229 155.672 57.666 155.672 57.088 c 155.672
 8.018 l 155.672 3.6 159.254 0.018 163.672 0.018 c 168.09 0.018 171.672 
3.6 171.672 8.018 c 171.672 38.276 l 198.57 3.155 l 200.086 1.178 202.434
 0.018 204.922 0.018 c 207.41 0.018 209.758 1.178 211.273 3.155 c 234.379
 33.327 l 234.379 8.018 l 234.379 3.6 237.961 0.018 242.379 0.018 c 246.801
 0.018 250.379 3.6 250.379 8.018 c 250.379 54.377 l 274.023 85.248 l 272.66
 74.428 271.961 63.479 271.961 52.432 c 271.961 7.998 l 271.961 3.58 275.543
 -0.002 279.961 -0.002 c 284.379 -0.002 287.961 3.58 287.961 7.998 c 287.961
 52.432 l 287.961 85.284 294.43 117.198 307.168 147.377 c 315.352 147.377
 l 333.391 147.377 348.062 162.053 348.062 180.088 c 348.062 198.127 333.391
 212.799 315.352 212.799 c h
275.805 229.1 m 260.492 245.104 251.102 265.959 249.262 287.998 c 302.055
 287.998 l 300.215 265.858 290.812 245.084 275.805 229.1 c h
302.07 303.998 m 249.262 303.998 l 251.102 326.038 260.492 346.889 275.801
 362.897 c 290.566 347.233 300.219 326.705 302.07 303.998 c h
212.801 393.272 m 231.914 391.713 249.48 384.623 263.906 373.612 c 245.961
 354.686 235.078 330.01 233.219 303.998 c 212.801 303.998 l h
204.801 262.135 m 209.219 262.135 212.801 265.713 212.801 270.135 c 212.801
 287.998 l 233.219 287.998 l 235.078 261.983 245.969 237.295 263.93 218.366
 c 261.336 216.385 258.629 214.526 255.82 212.799 c 153.781 212.799 l 150.973
 214.526 148.266 216.385 145.672 218.366 c 163.633 237.295 174.523 261.983
 176.387 287.998 c 196.801 287.998 l 196.801 270.135 l 196.801 265.713 200.383
 262.135 204.801 262.135 c h
196.801 393.272 m 196.801 303.998 l 176.387 303.998 l 174.523 330.01 163.641
 354.686 145.695 373.612 c 160.121 384.623 177.688 391.713 196.801 393.272
 c h
133.801 362.897 m 149.109 346.889 158.5 326.038 160.34 303.998 c 107.531
 303.998 l 109.383 326.705 119.035 347.233 133.801 362.897 c h
107.547 287.998 m 160.34 287.998 l 158.5 265.959 149.109 245.104 133.797
 229.1 c 118.789 245.084 109.387 265.858 107.547 287.998 c h
129.875 119.623 m 127.246 129.038 123.953 138.303 119.996 147.377 c 151.133
 147.377 l h
167.219 70.245 m 139.719 106.159 l 167.219 142.069 l 194.723 106.159 l 
h
183.309 147.377 m 226.293 147.377 l 204.801 119.315 l h
204.922 21.174 m 177.355 57.166 l 204.801 93.002 l 232.367 57.01 l h
242.383 70.245 m 214.879 106.159 l 242.383 142.069 l 269.887 106.159 l 
h
280.492 118.623 m 258.469 147.377 l 289.895 147.377 l 286.191 137.94 283.051
 128.346 280.492 118.623 c h
315.352 163.377 m 94.25 163.377 l 85.035 163.377 77.539 170.877 77.539 
180.088 c 77.539 189.303 85.035 196.799 94.25 196.799 c 315.352 196.799 
l 324.566 196.799 332.062 189.303 332.062 180.088 c 332.062 170.873 324.566
 163.377 315.352 163.377 c h
315.352 163.377 m f
Q Q
showpage
%%Trailer
end restore
%%EOF
