%!PS-Adobe-3.0 EPSF-3.0
%%Creator: cairo 1.14.2 (http://cairographics.org)
%%CreationDate: Thu Jul 26 08:14:03 2018
%%Pages: 1
%%DocumentData: Clean7Bit
%%LanguageLevel: 2
%%BoundingBox: 35 -1 375 410
%%EndComments
%%BeginProlog
save
50 dict begin
/q { gsave } bind def
/Q { grestore } bind def
/cm { 6 array astore concat } bind def
/w { setlinewidth } bind def
/J { setlinecap } bind def
/j { setlinejoin } bind def
/M { setmiterlimit } bind def
/d { setdash } bind def
/m { moveto } bind def
/l { lineto } bind def
/c { curveto } bind def
/h { closepath } bind def
/re { exch dup neg 3 1 roll 5 3 roll moveto 0 rlineto
      0 exch rlineto 0 rlineto closepath } bind def
/S { stroke } bind def
/f { fill } bind def
/f* { eofill } bind def
/n { newpath } bind def
/W { clip } bind def
/W* { eoclip } bind def
/BT { } bind def
/ET { } bind def
/pdfmark where { pop globaldict /?pdfmark /exec load put }
    { globaldict begin /?pdfmark /pop load def /pdfmark
    /cleartomark load def end } ifelse
/BDC { mark 3 1 roll /BDC pdfmark } bind def
/EMC { mark /EMC pdfmark } bind def
/cairo_store_point { /cairo_point_y exch def /cairo_point_x exch def } def
/Tj { show currentpoint cairo_store_point } bind def
/TJ {
  {
    dup
    type /stringtype eq
    { show } { -0.001 mul 0 cairo_font_matrix dtransform rmoveto } ifelse
  } forall
  currentpoint cairo_store_point
} bind def
/cairo_selectfont { cairo_font_matrix aload pop pop pop 0 0 6 array astore
    cairo_font exch selectfont cairo_point_x cairo_point_y moveto } bind def
/Tf { pop /cairo_font exch def /cairo_font_matrix where
      { pop cairo_selectfont } if } bind def
/Td { matrix translate cairo_font_matrix matrix concatmatrix dup
      /cairo_font_matrix exch def dup 4 get exch 5 get cairo_store_point
      /cairo_font where { pop cairo_selectfont } if } bind def
/Tm { 2 copy 8 2 roll 6 array astore /cairo_font_matrix exch def
      cairo_store_point /cairo_font where { pop cairo_selectfont } if } bind def
/g { setgray } bind def
/rg { setrgbcolor } bind def
/d1 { setcachedevice } bind def
%%EndProlog
%%BeginSetup
%%EndSetup
%%Page: 1 1
%%BeginPageSetup
%%PageBoundingBox: 35 -1 375 410
%%EndPageSetup
q 35 -1 340 411 rectclip q
0 g
330.281 164.061 m 254.992 282.674 l 253.809 284.534 251.914 285.823 249.754
 286.241 c 247.59 286.659 245.348 286.163 243.562 284.877 c 210.035 260.733
 l 210.035 260.733 210.035 260.733 210.031 260.733 c 210.031 260.729 210.031
 260.729 210.031 260.729 c 78.855 166.268 l 76.035 164.237 74.848 160.623
 75.914 157.319 c 76.98 154.014 80.059 151.776 83.531 151.776 c 179.992 
151.776 l 184.41 151.776 187.992 155.358 187.992 159.776 c 187.992 164.194
 184.41 167.776 179.992 167.776 c 140.344 167.776 l 139.625 174.377 137.59
 180.713 134.328 186.498 c 213.445 243.475 l 222.621 234.35 235.137 229.065
 248.238 229.065 c 254.922 229.065 261.48 230.424 267.559 233.018 c 290.695
 196.573 l 282.242 189.053 276.668 178.924 274.855 167.776 c 246.391 167.776
 l 241.973 167.776 238.391 164.194 238.391 159.776 c 238.391 155.358 241.973
 151.776 246.391 151.776 c 323.531 151.776 l 326.449 151.776 329.133 153.366
 330.539 155.92 c 331.945 158.479 331.848 161.6 330.281 164.061 c h
108.328 167.776 m 121.223 177.061 l 122.672 174.127 123.676 171.006 124.203
 167.776 c h
248.238 245.065 m 240.285 245.065 232.648 247.948 226.684 253.006 c 246.027
 266.936 l 258.805 246.807 l 255.418 245.67 251.859 245.065 248.238 245.065
 c h
291.184 167.776 m 292.574 173.42 295.414 178.584 299.445 182.788 c 308.977
 167.776 l h
291.184 167.776 m f
220.367 165.432 m 218.879 166.92 216.816 167.776 214.711 167.776 c 212.609
 167.776 210.543 166.92 209.055 165.432 c 207.566 163.944 206.711 161.881
 206.711 159.776 c 206.711 157.663 207.566 155.608 209.055 154.12 c 210.543
 152.631 212.609 151.776 214.711 151.776 c 216.824 151.776 218.879 152.631
 220.367 154.12 c 221.855 155.608 222.711 157.67 222.711 159.776 c 222.711
 161.881 221.855 163.944 220.367 165.432 c h
220.367 165.432 m f
120.738 107.545 m 120.738 119.014 111.406 128.342 99.938 128.342 c 85.113
 128.342 l 80.695 128.342 77.113 124.764 77.113 120.342 c 77.113 69.143 
l 77.113 64.725 80.695 61.143 85.113 61.143 c 99.938 61.143 l 111.406 61.143
 120.738 70.475 120.738 81.944 c 120.738 86.768 119.082 91.209 116.312 94.745
 c 119.082 98.276 120.738 102.721 120.738 107.545 c h
99.938 77.143 m 93.113 77.143 l 93.113 86.745 l 99.938 86.745 l 102.586
 86.745 104.738 84.592 104.738 81.944 c 104.738 79.295 102.582 77.143 99.938
 77.143 c h
99.938 102.745 m 93.113 102.745 l 93.113 112.342 l 99.938 112.342 l 102.586
 112.342 104.738 110.19 104.738 107.545 c 104.738 104.897 102.586 102.745
 99.938 102.745 c h
99.938 102.745 m f
320.402 90.354 m 315.984 90.354 312.402 86.772 312.402 82.354 c 312.402
 79.483 310.066 77.143 307.191 77.143 c 304.32 77.143 301.98 79.483 301.98
 82.354 c 301.98 107.135 l 301.98 110.006 304.32 112.342 307.191 112.342
 c 310.066 112.342 312.402 110.006 312.402 107.135 c 312.402 102.713 315.984
 99.135 320.402 99.135 c 324.82 99.135 328.402 102.713 328.402 107.135 c
 328.402 118.83 318.887 128.342 307.191 128.342 c 295.496 128.342 285.98
 118.83 285.98 107.135 c 285.98 82.354 l 285.98 70.659 295.496 61.143 307.191
 61.143 c 318.887 61.143 328.402 70.659 328.402 82.354 c 328.402 86.772 
324.82 90.354 320.402 90.354 c h
320.402 90.354 m f
277.734 310.346 m 255.844 361.545 l 254.586 364.491 251.691 366.401 248.488
 366.401 c 245.285 366.401 242.391 364.491 241.133 361.545 c 219.238 310.342
 l 217.504 306.28 219.391 301.58 223.453 299.842 c 224.477 299.405 225.543
 299.198 226.59 299.198 c 229.699 299.198 232.652 301.018 233.953 304.057
 c 237.469 312.28 l 259.504 312.28 l 263.023 304.053 l 264.758 299.991 269.461
 298.108 273.523 299.842 c 277.586 301.58 279.473 306.284 277.734 310.346
 c h
244.309 328.28 m 248.488 338.049 l 252.664 328.28 l h
244.309 328.28 m f
372.062 308.807 m 370.574 310.295 368.512 311.151 366.406 311.151 c 364.305
 311.151 362.238 310.295 360.754 308.807 c 359.266 307.319 358.406 305.256
 358.406 303.151 c 358.406 301.041 359.266 298.983 360.754 297.495 c 362.238
 295.998 364.305 295.151 366.406 295.151 c 368.512 295.151 370.574 295.998
 372.062 297.495 c 373.551 298.983 374.406 301.041 374.406 303.151 c 374.406
 305.256 373.551 307.311 372.062 308.807 c h
372.062 308.807 m f
366.406 327.866 m 370.828 327.866 374.406 331.448 374.406 335.866 c 374.406
 385.6 l 374.406 398.834 363.641 409.6 350.406 409.6 c 121.582 409.6 l 119.461
 409.6 117.426 408.756 115.926 407.256 c 37.535 328.866 l 36.035 327.366
 35.191 325.33 35.191 323.209 c 35.191 23.998 l 35.191 10.768 45.957 -0.002
 59.191 -0.002 c 350.406 -0.002 l 363.641 -0.002 374.406 10.768 374.406 
23.998 c 374.406 265.6 l 374.406 270.018 370.828 273.6 366.406 273.6 c 361.988
 273.6 358.406 270.018 358.406 265.6 c 358.406 23.998 l 358.406 19.588 354.82
 15.998 350.406 15.998 c 59.191 15.998 l 54.781 15.998 51.191 19.588 51.191
 23.998 c 51.191 315.209 l 105.582 315.209 l 118.816 315.209 129.582 325.975
 129.582 339.209 c 129.582 393.6 l 350.406 393.6 l 354.82 393.6 358.406 
390.01 358.406 385.6 c 358.406 335.866 l 358.406 331.448 361.988 327.866
 366.406 327.866 c h
113.582 339.209 m 113.582 334.795 109.992 331.209 105.582 331.209 c 62.504
 331.209 l 113.582 382.288 l h
113.582 339.209 m f
Q Q
showpage
%%Trailer
end restore
%%EOF
