%!PS-Adobe-3.0 EPSF-3.0
%%Creator: cairo 1.14.2 (http://cairographics.org)
%%CreationDate: Thu Jul 26 08:14:03 2018
%%Pages: 1
%%DocumentData: Clean7Bit
%%LanguageLevel: 2
%%BoundingBox: 0 -1 410 410
%%EndComments
%%BeginProlog
save
50 dict begin
/q { gsave } bind def
/Q { grestore } bind def
/cm { 6 array astore concat } bind def
/w { setlinewidth } bind def
/J { setlinecap } bind def
/j { setlinejoin } bind def
/M { setmiterlimit } bind def
/d { setdash } bind def
/m { moveto } bind def
/l { lineto } bind def
/c { curveto } bind def
/h { closepath } bind def
/re { exch dup neg 3 1 roll 5 3 roll moveto 0 rlineto
      0 exch rlineto 0 rlineto closepath } bind def
/S { stroke } bind def
/f { fill } bind def
/f* { eofill } bind def
/n { newpath } bind def
/W { clip } bind def
/W* { eoclip } bind def
/BT { } bind def
/ET { } bind def
/pdfmark where { pop globaldict /?pdfmark /exec load put }
    { globaldict begin /?pdfmark /pop load def /pdfmark
    /cleartomark load def end } ifelse
/BDC { mark 3 1 roll /BDC pdfmark } bind def
/EMC { mark /EMC pdfmark } bind def
/cairo_store_point { /cairo_point_y exch def /cairo_point_x exch def } def
/Tj { show currentpoint cairo_store_point } bind def
/TJ {
  {
    dup
    type /stringtype eq
    { show } { -0.001 mul 0 cairo_font_matrix dtransform rmoveto } ifelse
  } forall
  currentpoint cairo_store_point
} bind def
/cairo_selectfont { cairo_font_matrix aload pop pop pop 0 0 6 array astore
    cairo_font exch selectfont cairo_point_x cairo_point_y moveto } bind def
/Tf { pop /cairo_font exch def /cairo_font_matrix where
      { pop cairo_selectfont } if } bind def
/Td { matrix translate cairo_font_matrix matrix concatmatrix dup
      /cairo_font_matrix exch def dup 4 get exch 5 get cairo_store_point
      /cairo_font where { pop cairo_selectfont } if } bind def
/Tm { 2 copy 8 2 roll 6 array astore /cairo_font_matrix exch def
      cairo_store_point /cairo_font where { pop cairo_selectfont } if } bind def
/g { setgray } bind def
/rg { setrgbcolor } bind def
/d1 { setcachedevice } bind def
%%EndProlog
%%BeginSetup
%%EndSetup
%%Page: 1 1
%%BeginPageSetup
%%PageBoundingBox: 0 -1 410 410
%%EndPageSetup
q 0 -1 410 411 rectclip q
0 g
377.691 377.663 m 357.094 398.256 329.715 409.6 300.59 409.6 c 271.465 
409.6 244.082 398.256 223.488 377.663 c 223.18 377.354 222.91 377.026 222.664
 376.682 c 216.77 377.284 210.809 377.596 204.801 377.596 c 158.637 377.596
 115.238 359.62 82.598 326.979 c 49.957 294.334 31.977 250.936 31.977 204.776
 c 31.977 198.768 32.289 192.807 32.891 186.909 c 32.551 186.663 32.219 
186.393 31.91 186.084 c -10.602 143.573 -10.602 74.397 31.91 31.885 c 53.168
 10.627 81.09 -0.002 109.012 -0.002 c 136.934 -0.002 164.855 10.627 186.109
 31.885 c 187.078 32.85 l 192.926 32.26 198.84 31.952 204.801 31.952 c 250.961
 31.952 294.363 49.928 327.004 82.573 c 359.645 115.213 377.621 158.612 
377.621 204.776 c 377.621 210.733 377.316 216.647 376.723 222.498 c 377.691
 223.463 l 420.203 265.975 420.203 335.151 377.691 377.663 c h
77.789 296.643 m 78.59 297.745 79.402 298.834 80.227 299.916 c 85.809 306.44
 94.094 310.592 103.336 310.592 c 120.098 310.592 133.738 296.952 133.738
 280.186 c 133.738 263.42 120.098 249.784 103.336 249.784 c 86.57 249.784
 72.93 263.42 72.93 280.186 c 72.93 286.248 74.723 291.897 77.789 296.643
 c h
43.227 43.202 m 25.656 60.772 15.977 84.135 15.977 108.987 c 15.977 130.256
 23.074 150.432 36.137 166.827 c 43.195 135.155 59.094 106.073 82.598 82.573
 c 106.098 59.069 135.172 43.174 166.844 36.112 c 130.355 7.112 76.957 9.467
 43.227 43.202 c h
71.914 121.6 m 72.469 132.12 76.836 141.924 84.355 149.416 c 92.375 157.409
 103.023 161.807 114.348 161.807 c 114.426 161.807 l 125.777 161.788 136.441
 157.346 144.453 149.307 c 152.465 141.264 156.863 130.584 156.844 119.233
 c 156.824 107.881 152.383 97.221 144.344 89.209 c 136.32 81.213 125.672
 76.815 114.352 76.815 c 114.32 76.815 114.289 76.815 114.258 76.815 c 114.25
 76.815 114.246 76.815 114.238 76.815 c 97.359 88.799 82.949 104.034 71.914
 121.6 c h
204.801 47.955 m 203.938 47.955 203.074 47.971 202.215 47.987 c 216.492
 62.264 l 219.617 65.389 219.617 70.455 216.492 73.58 c 213.367 76.705 208.301
 76.705 205.176 73.58 c 181.309 49.713 l 164.812 52.202 149.156 57.276 134.754
 64.495 c 156.938 72.78 172.801 94.163 172.848 119.205 c 172.875 134.83 
166.816 149.534 155.789 160.6 c 144.758 171.67 130.082 177.78 114.457 177.807
 c 114.348 177.807 l 90.438 177.807 69.832 163.377 60.773 142.764 c 52.551
 161.795 47.98 182.76 47.98 204.776 c 47.98 225.838 52.164 245.94 59.73 
264.303 c 66.23 246.514 83.324 233.78 103.336 233.78 c 128.922 233.78 149.738
 254.596 149.738 280.186 c 149.738 304.858 130.383 325.088 106.059 326.506
 c 133.035 348.432 167.406 361.592 204.801 361.592 c 222.734 361.592 239.973
 358.561 256.035 352.991 c 250.777 349.928 245.902 346.194 241.547 341.842
 c 223.523 323.815 216.543 297.338 223.332 272.741 c 224.312 269.194 227.531
 266.87 231.039 266.87 c 231.746 266.87 232.461 266.963 233.176 267.159 
c 237.434 268.334 239.934 272.741 238.758 277.002 c 233.496 296.057 238.902
 316.565 252.863 330.526 c 259.387 337.049 267.406 341.795 276.199 344.373
 c 305.441 329.358 329.383 305.416 344.402 276.17 c 341.824 267.381 337.074
 259.358 330.551 252.834 c 317.277 239.561 298.387 234.014 280.008 237.998
 c 275.691 238.932 271.434 236.19 270.496 231.873 c 269.559 227.553 272.301
 223.295 276.621 222.358 c 281.676 221.264 286.762 220.725 291.805 220.725
 c 310.406 220.725 328.379 228.034 341.867 241.522 c 346.219 245.873 349.953
 250.748 353.016 256.006 c 356.105 247.092 358.418 237.819 359.859 228.264
 c 248.117 116.518 l 244.992 113.393 244.992 108.327 248.117 105.202 c 249.68
 103.639 251.727 102.862 253.773 102.862 c 255.82 102.862 257.871 103.643
 259.43 105.202 c 361.586 207.358 l 361.602 206.498 361.621 205.639 361.621
 204.772 c 361.621 118.303 291.27 47.955 204.801 47.955 c h
373.465 242.721 m 366.402 274.397 350.504 303.475 327.004 326.979 c 303.5
 350.479 274.422 366.377 242.746 373.44 c 259.141 386.502 279.32 393.596
 300.59 393.596 c 325.438 393.596 348.801 383.92 366.375 366.35 c 383.945
 348.776 393.625 325.413 393.625 300.565 c 393.625 279.291 386.527 259.116
 373.465 242.721 c h
373.465 242.721 m f
238.133 95.217 m 236.637 96.705 234.578 97.561 232.477 97.561 c 230.363
 97.561 228.297 96.705 226.809 95.217 c 225.324 93.729 224.465 91.663 224.465
 89.561 c 224.465 87.455 225.324 85.393 226.809 83.905 c 228.297 82.416 
230.363 81.561 232.477 81.561 c 234.578 81.561 236.637 82.416 238.133 83.905
 c 239.621 85.393 240.469 87.455 240.469 89.561 c 240.469 91.663 239.621
 93.729 238.133 95.217 c h
238.133 95.217 m f
253.121 252.58 m 252.863 252.838 l 249.738 255.959 244.672 255.959 241.547
 252.838 c 238.422 249.713 238.422 244.647 241.547 241.522 c 241.895 241.178
 l 243.453 239.643 245.48 238.877 247.508 238.877 c 249.574 238.877 251.641
 239.678 253.207 241.268 c 256.309 244.416 256.27 249.483 253.121 252.58
 c h
253.121 252.58 m f
248.008 189.045 m 237.402 199.651 220.145 199.651 209.535 189.045 c 198.93
 178.436 198.93 161.178 209.535 150.573 c 214.84 145.268 221.805 142.62 
228.773 142.62 c 235.738 142.62 242.703 145.268 248.008 150.573 c 258.613
 161.178 258.613 178.436 248.008 189.045 c h
236.691 161.889 m 232.324 157.518 225.219 157.522 220.852 161.889 c 216.484
 166.256 216.484 173.362 220.852 177.729 c 223.035 179.913 225.902 181.006
 228.773 181.006 c 231.641 181.006 234.508 179.913 236.691 177.729 c 241.059
 173.362 241.059 166.256 236.691 161.889 c h
236.691 161.889 m f
306.605 116.69 m 305.117 118.178 303.051 119.026 300.949 119.026 c 298.836
 119.026 296.777 118.178 295.281 116.69 c 293.797 115.194 292.945 113.139
 292.945 111.026 c 292.945 108.924 293.797 106.858 295.281 105.37 c 296.777
 103.881 298.836 103.026 300.949 103.026 c 303.051 103.026 305.117 103.881
 306.605 105.37 c 308.094 106.858 308.949 108.924 308.949 111.026 c 308.949
 113.131 308.094 115.194 306.605 116.69 c h
306.605 116.69 m f
163.715 218.768 m 162.227 220.256 160.164 221.112 158.059 221.112 c 155.953
 221.112 153.891 220.256 152.402 218.768 c 150.914 217.28 150.059 215.213
 150.059 213.112 c 150.059 211.006 150.914 208.944 152.402 207.455 c 153.891
 205.967 155.953 205.112 158.059 205.112 c 160.164 205.112 162.227 205.967
 163.715 207.455 c 165.203 208.944 166.059 211.006 166.059 213.112 c 166.059
 215.213 165.203 217.28 163.715 218.768 c h
163.715 218.768 m f
198.457 334.448 m 196.969 335.936 194.902 336.791 192.797 336.791 c 190.695
 336.791 188.629 335.936 187.141 334.448 c 185.652 332.959 184.797 330.893
 184.797 328.791 c 184.797 326.686 185.652 324.62 187.141 323.131 c 188.629
 321.643 190.695 320.788 192.797 320.788 c 194.902 320.788 196.969 321.643
 198.457 323.131 c 199.941 324.62 200.801 326.686 200.801 328.791 c 200.801
 330.893 199.941 332.959 198.457 334.448 c h
198.457 334.448 m f
Q Q
showpage
%%Trailer
end restore
%%EOF
