%!PS-Adobe-3.0 EPSF-3.0
%%Creator: cairo 1.14.2 (http://cairographics.org)
%%CreationDate: Thu Jul 26 08:14:03 2018
%%Pages: 1
%%DocumentData: Clean7Bit
%%LanguageLevel: 2
%%BoundingBox: 0 -1 410 410
%%EndComments
%%BeginProlog
save
50 dict begin
/q { gsave } bind def
/Q { grestore } bind def
/cm { 6 array astore concat } bind def
/w { setlinewidth } bind def
/J { setlinecap } bind def
/j { setlinejoin } bind def
/M { setmiterlimit } bind def
/d { setdash } bind def
/m { moveto } bind def
/l { lineto } bind def
/c { curveto } bind def
/h { closepath } bind def
/re { exch dup neg 3 1 roll 5 3 roll moveto 0 rlineto
      0 exch rlineto 0 rlineto closepath } bind def
/S { stroke } bind def
/f { fill } bind def
/f* { eofill } bind def
/n { newpath } bind def
/W { clip } bind def
/W* { eoclip } bind def
/BT { } bind def
/ET { } bind def
/pdfmark where { pop globaldict /?pdfmark /exec load put }
    { globaldict begin /?pdfmark /pop load def /pdfmark
    /cleartomark load def end } ifelse
/BDC { mark 3 1 roll /BDC pdfmark } bind def
/EMC { mark /EMC pdfmark } bind def
/cairo_store_point { /cairo_point_y exch def /cairo_point_x exch def } def
/Tj { show currentpoint cairo_store_point } bind def
/TJ {
  {
    dup
    type /stringtype eq
    { show } { -0.001 mul 0 cairo_font_matrix dtransform rmoveto } ifelse
  } forall
  currentpoint cairo_store_point
} bind def
/cairo_selectfont { cairo_font_matrix aload pop pop pop 0 0 6 array astore
    cairo_font exch selectfont cairo_point_x cairo_point_y moveto } bind def
/Tf { pop /cairo_font exch def /cairo_font_matrix where
      { pop cairo_selectfont } if } bind def
/Td { matrix translate cairo_font_matrix matrix concatmatrix dup
      /cairo_font_matrix exch def dup 4 get exch 5 get cairo_store_point
      /cairo_font where { pop cairo_selectfont } if } bind def
/Tm { 2 copy 8 2 roll 6 array astore /cairo_font_matrix exch def
      cairo_store_point /cairo_font where { pop cairo_selectfont } if } bind def
/g { setgray } bind def
/rg { setrgbcolor } bind def
/d1 { setcachedevice } bind def
%%EndProlog
%%BeginSetup
%%EndSetup
%%Page: 1 1
%%BeginPageSetup
%%PageBoundingBox: 0 -1 410 410
%%EndPageSetup
q 0 -1 410 411 rectclip q
0 g
222.398 59.202 m 129.602 59.202 l 125.18 59.202 121.602 55.62 121.602 51.202
 c 121.602 46.78 125.18 43.202 129.602 43.202 c 222.398 43.202 l 226.82 
43.202 230.398 46.78 230.398 51.202 c 230.398 55.62 226.82 59.202 222.398
 59.202 c h
222.398 59.202 m f
181.602 97.6 m 129.602 97.6 l 125.18 97.6 121.602 94.018 121.602 89.6 c
 121.602 85.182 125.18 81.6 129.602 81.6 c 181.602 81.6 l 186.02 81.6 189.602
 85.182 189.602 89.6 c 189.602 94.018 186.02 97.6 181.602 97.6 c h
181.602 97.6 m f
228.055 95.256 m 226.566 96.745 224.504 97.6 222.398 97.6 c 220.297 97.6
 218.23 96.745 216.742 95.256 c 215.258 93.768 214.398 91.705 214.398 89.6
 c 214.398 87.495 215.258 85.432 216.742 83.944 c 218.23 82.455 220.297 
81.6 222.398 81.6 c 224.504 81.6 226.566 82.455 228.055 83.944 c 229.543
 85.432 230.398 87.495 230.398 89.6 c 230.398 91.705 229.543 93.768 228.055
 95.256 c h
228.055 95.256 m f
385.602 409.6 m 56 409.6 l 42.766 409.6 32 398.834 32 385.6 c 32 366.401
 l 27.199 366.401 l 12.203 366.401 0 354.198 0 339.202 c 0 324.202 12.203
 311.998 27.199 311.998 c 29.004 311.998 30.66 312.604 32 313.612 c 32 276.799
 l 27.199 276.799 l 12.203 276.799 0 264.6 0 249.6 c 0 234.6 12.203 222.401
 27.199 222.401 c 29.004 222.401 30.66 223.002 32 224.01 c 32 187.202 l 
27.199 187.202 l 12.203 187.202 0 174.998 0 159.998 c 0 145.002 12.203 132.799
 27.199 132.799 c 29.004 132.799 30.66 133.405 32 134.413 c 32 97.6 l 27.199
 97.6 l 12.203 97.6 0 85.397 0 70.401 c 0 55.401 12.203 43.202 27.199 43.202
 c 29.004 43.202 30.66 43.803 32 44.811 c 32 23.998 l 32 10.768 42.766 -0.002
 56 -0.002 c 385.602 -0.002 l 398.832 -0.002 409.602 10.768 409.602 23.998
 c 409.602 385.6 l 409.602 398.834 398.832 409.6 385.602 409.6 c h
32 57.588 m 30.66 58.596 29.004 59.202 27.199 59.202 c 21.023 59.202 16
 64.225 16 70.401 c 16 76.577 21.023 81.6 27.199 81.6 c 32 81.6 l h
32 147.19 m 30.66 148.198 29.004 148.799 27.199 148.799 c 21.023 148.799
 16 153.823 16 159.998 c 16 166.174 21.023 171.202 27.199 171.202 c 32 171.202
 l h
32 236.788 m 30.66 237.795 29.004 238.401 27.199 238.401 c 21.023 238.401
 16 243.424 16 249.6 c 16 255.776 21.023 260.799 27.199 260.799 c 32 260.799
 l h
32 326.389 m 30.66 327.397 29.004 327.998 27.199 327.998 c 21.023 327.998
 16 333.026 16 339.202 c 16 345.377 21.023 350.401 27.199 350.401 c 32 350.401
 l h
393.602 23.998 m 393.602 19.588 390.012 15.998 385.602 15.998 c 365.023
 15.998 l 365.91 18.502 366.398 21.194 366.398 23.998 c 366.398 256.334 
l 366.398 260.752 362.82 264.334 358.398 264.334 c 353.98 264.334 350.398
 260.752 350.398 256.334 c 350.398 23.998 l 350.398 19.588 346.812 15.998
 342.398 15.998 c 56 15.998 l 51.59 15.998 48 19.588 48 23.998 c 48 81.6
 l 66.535 81.6 l 72.711 81.6 77.734 76.577 77.734 70.401 c 77.734 64.225
 72.711 59.202 66.535 59.202 c 60.934 59.202 l 56.516 59.202 52.934 55.62
 52.934 51.202 c 52.934 46.78 56.516 43.202 60.934 43.202 c 66.535 43.202
 l 81.531 43.202 93.734 55.401 93.734 70.401 c 93.734 85.397 81.531 97.6
 66.535 97.6 c 48 97.6 l 48 171.202 l 66.535 171.202 l 72.711 171.202 77.734
 166.174 77.734 159.998 c 77.734 153.823 72.711 148.799 66.535 148.799 c
 60.934 148.799 l 56.516 148.799 52.934 145.217 52.934 140.799 c 52.934 
136.381 56.516 132.799 60.934 132.799 c 66.535 132.799 l 81.531 132.799 
93.734 145.002 93.734 159.998 c 93.734 174.998 81.531 187.202 66.535 187.202
 c 48 187.202 l 48 260.799 l 66.535 260.799 l 72.711 260.799 77.734 255.776
 77.734 249.6 c 77.734 243.424 72.711 238.401 66.535 238.401 c 60.934 238.401
 l 56.516 238.401 52.934 234.819 52.934 230.401 c 52.934 225.983 56.516 
222.401 60.934 222.401 c 66.535 222.401 l 81.531 222.401 93.734 234.6 93.734
 249.6 c 93.734 264.6 81.531 276.799 66.535 276.799 c 48 276.799 l 48 350.401
 l 66.535 350.401 l 72.711 350.401 77.734 345.377 77.734 339.202 c 77.734
 333.026 72.711 327.998 66.535 327.998 c 60.934 327.998 l 56.516 327.998
 52.934 324.42 52.934 319.998 c 52.934 315.58 56.516 311.998 60.934 311.998
 c 66.535 311.998 l 81.531 311.998 93.734 324.202 93.734 339.202 c 93.734
 354.198 81.531 366.401 66.535 366.401 c 48 366.401 l 48 385.6 l 48 390.01
 51.59 393.6 56 393.6 c 342.398 393.6 l 346.812 393.6 350.398 390.01 350.398
 385.6 c 350.398 319.998 l 350.398 315.58 353.98 311.998 358.398 311.998
 c 362.82 311.998 366.398 315.58 366.398 319.998 c 366.398 385.6 l 366.398
 388.405 365.91 391.096 365.023 393.6 c 385.602 393.6 l 390.012 393.6 393.602
 390.01 393.602 385.6 c h
393.602 23.998 m f
364.055 293.655 m 362.566 295.143 360.504 295.998 358.398 295.998 c 356.297
 295.998 354.23 295.143 352.742 293.655 c 351.258 292.166 350.398 290.104
 350.398 287.998 c 350.398 285.897 351.258 283.83 352.742 282.342 c 354.23
 280.858 356.297 279.998 358.398 279.998 c 360.504 279.998 362.566 280.858
 364.055 282.342 c 365.543 283.83 366.398 285.897 366.398 287.998 c 366.398
 290.104 365.543 292.166 364.055 293.655 c h
364.055 293.655 m f
310.398 366.401 m 204.801 366.401 l 200.383 366.401 196.801 362.819 196.801
 358.401 c 196.801 287.998 l 196.801 283.58 200.383 279.998 204.801 279.998
 c 310.398 279.998 l 314.82 279.998 318.398 283.58 318.398 287.998 c 318.398
 358.401 l 318.398 362.819 314.82 366.401 310.398 366.401 c h
302.398 295.998 m 212.801 295.998 l 212.801 350.401 l 302.398 350.401 l
 h
302.398 295.998 m f
Q Q
showpage
%%Trailer
end restore
%%EOF
