%!PS-Adobe-3.0 EPSF-3.0
%%Creator: cairo 1.14.2 (http://cairographics.org)
%%CreationDate: Thu Jul 26 08:14:03 2018
%%Pages: 1
%%DocumentData: Clean7Bit
%%LanguageLevel: 2
%%BoundingBox: 0 -1 410 410
%%EndComments
%%BeginProlog
save
50 dict begin
/q { gsave } bind def
/Q { grestore } bind def
/cm { 6 array astore concat } bind def
/w { setlinewidth } bind def
/J { setlinecap } bind def
/j { setlinejoin } bind def
/M { setmiterlimit } bind def
/d { setdash } bind def
/m { moveto } bind def
/l { lineto } bind def
/c { curveto } bind def
/h { closepath } bind def
/re { exch dup neg 3 1 roll 5 3 roll moveto 0 rlineto
      0 exch rlineto 0 rlineto closepath } bind def
/S { stroke } bind def
/f { fill } bind def
/f* { eofill } bind def
/n { newpath } bind def
/W { clip } bind def
/W* { eoclip } bind def
/BT { } bind def
/ET { } bind def
/pdfmark where { pop globaldict /?pdfmark /exec load put }
    { globaldict begin /?pdfmark /pop load def /pdfmark
    /cleartomark load def end } ifelse
/BDC { mark 3 1 roll /BDC pdfmark } bind def
/EMC { mark /EMC pdfmark } bind def
/cairo_store_point { /cairo_point_y exch def /cairo_point_x exch def } def
/Tj { show currentpoint cairo_store_point } bind def
/TJ {
  {
    dup
    type /stringtype eq
    { show } { -0.001 mul 0 cairo_font_matrix dtransform rmoveto } ifelse
  } forall
  currentpoint cairo_store_point
} bind def
/cairo_selectfont { cairo_font_matrix aload pop pop pop 0 0 6 array astore
    cairo_font exch selectfont cairo_point_x cairo_point_y moveto } bind def
/Tf { pop /cairo_font exch def /cairo_font_matrix where
      { pop cairo_selectfont } if } bind def
/Td { matrix translate cairo_font_matrix matrix concatmatrix dup
      /cairo_font_matrix exch def dup 4 get exch 5 get cairo_store_point
      /cairo_font where { pop cairo_selectfont } if } bind def
/Tm { 2 copy 8 2 roll 6 array astore /cairo_font_matrix exch def
      cairo_store_point /cairo_font where { pop cairo_selectfont } if } bind def
/g { setgray } bind def
/rg { setrgbcolor } bind def
/d1 { setcachedevice } bind def
%%EndProlog
%%BeginSetup
%%EndSetup
%%Page: 1 1
%%BeginPageSetup
%%PageBoundingBox: 0 -1 410 410
%%EndPageSetup
q 0 -1 410 411 rectclip q
0 g
219.062 279.202 m 214.422 279.202 l 214.422 335.202 l 214.422 338.807 212.008
 341.967 208.527 342.916 c 205.051 343.866 201.363 342.373 199.531 339.268
 c 188.324 320.28 l 186.074 316.475 187.34 311.569 191.145 309.323 c 193.445
 307.963 196.148 307.889 198.422 308.881 c 198.422 279.202 l 193.781 279.202
 l 189.363 279.202 185.781 275.62 185.781 271.202 c 185.781 266.78 189.363
 263.202 193.781 263.202 c 219.062 263.202 l 223.477 263.202 227.062 266.78
 227.062 271.202 c 227.062 275.62 223.477 279.202 219.062 279.202 c h
219.062 279.202 m f
125.645 82.401 m 108.309 82.401 l 118.254 92.639 128.93 107.01 128.93 121.514
 c 128.93 136.397 118.93 146.401 104.043 146.401 c 90.32 146.401 79.156 
135.237 79.156 121.514 c 79.156 117.096 82.738 113.514 87.156 113.514 c 
91.574 113.514 95.156 117.096 95.156 121.514 c 95.156 126.413 99.145 130.401
 104.043 130.401 c 112.008 130.401 112.93 125.327 112.93 121.514 c 112.93
 106.69 90.328 86.682 82.418 80.846 c 79.633 78.799 78.477 75.194 79.555
 71.905 c 80.633 68.623 83.699 66.401 87.156 66.401 c 125.645 66.401 l 130.062
 66.401 133.645 69.983 133.645 74.401 c 133.645 78.819 130.062 82.401 125.645
 82.401 c h
125.645 82.401 m f
326.098 122.291 m 326.102 135.502 315.352 146.252 302.145 146.252 c 288.301
 146.252 l 283.883 146.252 280.301 142.67 280.301 138.252 c 280.301 133.83
 283.883 130.252 288.301 130.252 c 302.145 130.252 l 306.531 130.252 310.102
 126.682 310.102 122.295 c 310.102 118.303 307.148 115.002 303.316 114.432
 c 302.926 114.452 302.535 114.463 302.145 114.463 c 288.301 114.463 l 283.883
 114.463 280.301 110.881 280.301 106.463 c 280.301 102.045 283.883 98.463
 288.301 98.463 c 293.867 98.463 l 294.316 98.385 294.773 98.338 295.238
 98.338 c 302.145 98.338 l 302.535 98.338 302.926 98.346 303.312 98.366 
c 307.145 97.795 310.098 94.495 310.098 90.506 c 310.098 86.12 306.531 82.549
 302.145 82.549 c 288.301 82.549 l 283.883 82.549 280.301 78.967 280.301
 74.549 c 280.301 70.131 283.883 66.549 288.301 66.549 c 302.145 66.549 
l 315.352 66.549 326.098 77.295 326.098 90.506 c 326.098 96.6 323.809 102.166
 320.047 106.401 c 323.809 110.631 326.098 116.198 326.098 122.291 c h
326.098 122.291 m f
369.602 212.799 m 303.18 212.799 l 308.211 219.491 311.199 227.803 311.199
 236.799 c 311.199 272.534 l 311.199 276.952 307.617 280.534 303.199 280.534
 c 298.781 280.534 295.199 276.952 295.199 272.534 c 295.199 236.799 l 295.199
 223.565 284.434 212.799 271.199 212.799 c 138.398 212.799 l 125.168 212.799
 114.398 223.565 114.398 236.799 c 114.398 369.6 l 114.398 382.834 125.168
 393.6 138.398 393.6 c 271.199 393.6 l 284.434 393.6 295.199 382.834 295.199
 369.6 c 295.199 339.202 l 295.199 334.78 298.781 331.202 303.199 331.202
 c 307.617 331.202 311.199 334.78 311.199 339.202 c 311.199 369.6 l 311.199
 391.655 293.258 409.6 271.199 409.6 c 138.398 409.6 l 116.344 409.6 98.398
 391.655 98.398 369.6 c 98.398 236.799 l 98.398 227.803 101.387 219.491 
106.422 212.799 c 40 212.799 l 17.945 212.799 0 194.858 0 172.799 c 0 39.998
 l 0 17.944 17.945 -0.002 40 -0.002 c 172.801 -0.002 l 185.871 -0.002 197.496
 6.303 204.801 16.03 c 212.105 6.303 223.73 -0.002 236.801 -0.002 c 369.602
 -0.002 l 391.656 -0.002 409.602 17.944 409.602 39.998 c 409.602 172.799
 l 409.602 194.858 391.656 212.799 369.602 212.799 c h
196.801 39.998 m 196.801 26.768 186.035 15.998 172.801 15.998 c 40 15.998
 l 26.766 15.998 16 26.768 16 39.998 c 16 172.799 l 16 186.034 26.766 196.799
 40 196.799 c 172.801 196.799 l 186.035 196.799 196.801 186.034 196.801 
172.799 c h
204.801 196.772 m 204.793 196.78 204.785 196.791 204.777 196.799 c 204.82
 196.799 l 204.812 196.791 204.805 196.78 204.801 196.772 c h
393.602 39.998 m 393.602 26.768 382.832 15.998 369.602 15.998 c 236.801
 15.998 l 223.566 15.998 212.801 26.768 212.801 39.998 c 212.801 172.799
 l 212.801 186.034 223.566 196.799 236.801 196.799 c 369.602 196.799 l 382.832
 196.799 393.602 186.034 393.602 172.799 c h
393.602 39.998 m f
308.855 308.858 m 307.367 310.342 305.305 311.202 303.199 311.202 c 301.098
 311.202 299.031 310.342 297.543 308.858 c 296.055 307.37 295.199 305.303
 295.199 303.202 c 295.199 301.096 296.055 299.034 297.543 297.545 c 299.031
 296.057 301.098 295.202 303.199 295.202 c 305.305 295.202 307.367 296.057
 308.855 297.545 c 310.344 299.034 311.199 301.096 311.199 303.202 c 311.199
 305.303 310.344 307.37 308.855 308.858 c h
308.855 308.858 m f
Q Q
showpage
%%Trailer
end restore
%%EOF
