%!PS-Adobe-3.0 EPSF-3.0
%%Creator: cairo 1.14.2 (http://cairographics.org)
%%CreationDate: Thu Jul 26 08:14:03 2018
%%Pages: 1
%%DocumentData: Clean7Bit
%%LanguageLevel: 2
%%BoundingBox: 0 29 410 380
%%EndComments
%%BeginProlog
save
50 dict begin
/q { gsave } bind def
/Q { grestore } bind def
/cm { 6 array astore concat } bind def
/w { setlinewidth } bind def
/J { setlinecap } bind def
/j { setlinejoin } bind def
/M { setmiterlimit } bind def
/d { setdash } bind def
/m { moveto } bind def
/l { lineto } bind def
/c { curveto } bind def
/h { closepath } bind def
/re { exch dup neg 3 1 roll 5 3 roll moveto 0 rlineto
      0 exch rlineto 0 rlineto closepath } bind def
/S { stroke } bind def
/f { fill } bind def
/f* { eofill } bind def
/n { newpath } bind def
/W { clip } bind def
/W* { eoclip } bind def
/BT { } bind def
/ET { } bind def
/pdfmark where { pop globaldict /?pdfmark /exec load put }
    { globaldict begin /?pdfmark /pop load def /pdfmark
    /cleartomark load def end } ifelse
/BDC { mark 3 1 roll /BDC pdfmark } bind def
/EMC { mark /EMC pdfmark } bind def
/cairo_store_point { /cairo_point_y exch def /cairo_point_x exch def } def
/Tj { show currentpoint cairo_store_point } bind def
/TJ {
  {
    dup
    type /stringtype eq
    { show } { -0.001 mul 0 cairo_font_matrix dtransform rmoveto } ifelse
  } forall
  currentpoint cairo_store_point
} bind def
/cairo_selectfont { cairo_font_matrix aload pop pop pop 0 0 6 array astore
    cairo_font exch selectfont cairo_point_x cairo_point_y moveto } bind def
/Tf { pop /cairo_font exch def /cairo_font_matrix where
      { pop cairo_selectfont } if } bind def
/Td { matrix translate cairo_font_matrix matrix concatmatrix dup
      /cairo_font_matrix exch def dup 4 get exch 5 get cairo_store_point
      /cairo_font where { pop cairo_selectfont } if } bind def
/Tm { 2 copy 8 2 roll 6 array astore /cairo_font_matrix exch def
      cairo_store_point /cairo_font where { pop cairo_selectfont } if } bind def
/g { setgray } bind def
/rg { setrgbcolor } bind def
/d1 { setcachedevice } bind def
%%EndProlog
%%BeginSetup
%%EndSetup
%%Page: 1 1
%%BeginPageSetup
%%PageBoundingBox: 0 29 410 380
%%EndPageSetup
q 0 29 410 351 rectclip q
0 g
401.602 379.202 m 236.801 379.202 l 223.73 379.202 212.105 372.897 204.801
 363.17 c 197.496 372.897 185.871 379.202 172.801 379.202 c 8 379.202 l 
3.582 379.202 0 375.62 0 371.202 c 0 38.401 l 0 33.983 3.582 30.401 8 30.401
 c 401.602 30.401 l 406.02 30.401 409.602 33.983 409.602 38.401 c 409.602
 371.202 l 409.602 375.62 406.02 379.202 401.602 379.202 c h
196.801 46.401 m 16 46.401 l 16 87.998 l 172.699 87.998 l 185.945 87.998
 196.758 77.221 196.801 63.975 c h
196.801 95.916 m 190.082 100.991 181.73 103.998 172.699 103.998 c 16 103.998
 l 16 363.202 l 172.801 363.202 l 186.035 363.202 196.801 352.432 196.801
 339.202 c h
307.199 363.202 m 355.199 363.202 l 355.199 302.381 l 334.895 312.948 l
 333.734 313.549 332.469 313.85 331.199 313.85 c 329.934 313.85 328.664 
313.549 327.508 312.948 c 307.199 302.381 l h
393.602 46.401 m 212.801 46.401 l 212.801 63.975 l 212.844 77.221 223.652
 87.998 236.902 87.998 c 393.602 87.998 l h
393.602 103.998 m 236.902 103.998 l 227.867 103.998 219.52 100.991 212.801
 95.916 c 212.801 339.202 l 212.801 352.432 223.566 363.202 236.801 363.202
 c 291.199 363.202 l 291.199 289.202 l 291.199 286.405 292.66 283.811 295.051
 282.362 c 297.441 280.909 300.414 280.811 302.895 282.104 c 331.199 296.834
 l 359.508 282.104 l 360.668 281.498 361.934 281.202 363.199 281.202 c 364.641
 281.202 366.078 281.588 367.352 282.362 c 369.738 283.811 371.199 286.405
 371.199 289.202 c 371.199 363.202 l 393.602 363.202 l h
393.602 103.998 m f
159.266 156.057 m 157.777 157.545 155.711 158.401 153.609 158.401 c 151.504
 158.401 149.441 157.545 147.953 156.057 c 146.465 154.569 145.609 152.502
 145.609 150.401 c 145.609 148.288 146.465 146.233 147.953 144.745 c 149.441
 143.256 151.504 142.401 153.609 142.401 c 155.719 142.401 157.777 143.256
 159.266 144.745 c 160.75 146.233 161.609 148.295 161.609 150.401 c 161.609
 152.502 160.754 154.569 159.266 156.057 c h
159.266 156.057 m f
123.453 158.401 m 51.457 158.401 l 47.039 158.401 43.457 154.819 43.457
 150.401 c 43.457 145.983 47.039 142.401 51.457 142.401 c 123.453 142.401
 l 127.871 142.401 131.453 145.983 131.453 150.401 c 131.453 154.819 127.871
 158.401 123.453 158.401 c h
123.453 158.401 m f
153.609 213.866 m 51.457 213.866 l 47.039 213.866 43.457 210.284 43.457
 205.866 c 43.457 201.448 47.039 197.866 51.457 197.866 c 153.609 197.866
 l 158.027 197.866 161.609 201.448 161.609 205.866 c 161.609 210.284 158.027
 213.866 153.609 213.866 c h
153.609 213.866 m f
153.609 269.334 m 51.457 269.334 l 47.039 269.334 43.457 265.752 43.457
 261.334 c 43.457 256.916 47.039 253.334 51.457 253.334 c 153.609 253.334
 l 158.027 253.334 161.609 256.916 161.609 261.334 c 161.609 265.752 158.027
 269.334 153.609 269.334 c h
153.609 269.334 m f
153.609 324.799 m 81.332 324.799 l 76.914 324.799 73.332 321.217 73.332
 316.799 c 73.332 312.381 76.914 308.799 81.332 308.799 c 153.609 308.799
 l 158.027 308.799 161.609 312.381 161.609 316.799 c 161.609 321.217 158.027
 324.799 153.609 324.799 c h
153.609 324.799 m f
57.109 322.455 m 55.625 323.944 53.559 324.799 51.457 324.799 c 49.352 
324.799 47.289 323.944 45.801 322.455 c 44.312 320.967 43.457 318.905 43.457
 316.799 c 43.457 314.698 44.312 312.631 45.801 311.143 c 47.289 309.655
 49.352 308.799 51.457 308.799 c 53.559 308.799 55.625 309.655 57.109 311.143
 c 58.598 312.631 59.457 314.698 59.457 316.799 c 59.457 318.905 58.602 
320.967 57.109 322.455 c h
57.109 322.455 m f
264.801 324.799 m 256.246 324.799 l 251.828 324.799 248.246 321.217 248.246
 316.799 c 248.246 312.381 251.828 308.799 256.246 308.799 c 264.801 308.799
 l 269.219 308.799 272.801 312.381 272.801 316.799 c 272.801 321.217 269.219
 324.799 264.801 324.799 c h
264.801 324.799 m f
358.434 158.401 m 256.246 158.401 l 251.828 158.401 248.246 154.819 248.246
 150.401 c 248.246 145.983 251.828 142.401 256.246 142.401 c 358.434 142.401
 l 362.852 142.401 366.434 145.983 366.434 150.401 c 366.434 154.819 362.852
 158.401 358.434 158.401 c h
358.434 158.401 m f
358.398 213.866 m 256.246 213.866 l 251.828 213.866 248.246 210.284 248.246
 205.866 c 248.246 201.448 251.828 197.866 256.246 197.866 c 358.398 197.866
 l 362.816 197.866 366.398 201.448 366.398 205.866 c 366.398 210.284 362.816
 213.866 358.398 213.866 c h
358.398 213.866 m f
358.398 269.334 m 256.246 269.334 l 251.828 269.334 248.246 265.752 248.246
 261.334 c 248.246 256.916 251.828 253.334 256.246 253.334 c 358.398 253.334
 l 362.816 253.334 366.398 256.916 366.398 261.334 c 366.398 265.752 362.816
 269.334 358.398 269.334 c h
358.398 269.334 m f
Q Q
showpage
%%Trailer
end restore
%%EOF
