%!PS-Adobe-3.0 EPSF-3.0
%%Creator: cairo 1.14.2 (http://cairographics.org)
%%CreationDate: Thu Jul 26 08:14:03 2018
%%Pages: 1
%%DocumentData: Clean7Bit
%%LanguageLevel: 2
%%BoundingBox: 43 -1 367 410
%%EndComments
%%BeginProlog
save
50 dict begin
/q { gsave } bind def
/Q { grestore } bind def
/cm { 6 array astore concat } bind def
/w { setlinewidth } bind def
/J { setlinecap } bind def
/j { setlinejoin } bind def
/M { setmiterlimit } bind def
/d { setdash } bind def
/m { moveto } bind def
/l { lineto } bind def
/c { curveto } bind def
/h { closepath } bind def
/re { exch dup neg 3 1 roll 5 3 roll moveto 0 rlineto
      0 exch rlineto 0 rlineto closepath } bind def
/S { stroke } bind def
/f { fill } bind def
/f* { eofill } bind def
/n { newpath } bind def
/W { clip } bind def
/W* { eoclip } bind def
/BT { } bind def
/ET { } bind def
/pdfmark where { pop globaldict /?pdfmark /exec load put }
    { globaldict begin /?pdfmark /pop load def /pdfmark
    /cleartomark load def end } ifelse
/BDC { mark 3 1 roll /BDC pdfmark } bind def
/EMC { mark /EMC pdfmark } bind def
/cairo_store_point { /cairo_point_y exch def /cairo_point_x exch def } def
/Tj { show currentpoint cairo_store_point } bind def
/TJ {
  {
    dup
    type /stringtype eq
    { show } { -0.001 mul 0 cairo_font_matrix dtransform rmoveto } ifelse
  } forall
  currentpoint cairo_store_point
} bind def
/cairo_selectfont { cairo_font_matrix aload pop pop pop 0 0 6 array astore
    cairo_font exch selectfont cairo_point_x cairo_point_y moveto } bind def
/Tf { pop /cairo_font exch def /cairo_font_matrix where
      { pop cairo_selectfont } if } bind def
/Td { matrix translate cairo_font_matrix matrix concatmatrix dup
      /cairo_font_matrix exch def dup 4 get exch 5 get cairo_store_point
      /cairo_font where { pop cairo_selectfont } if } bind def
/Tm { 2 copy 8 2 roll 6 array astore /cairo_font_matrix exch def
      cairo_store_point /cairo_font where { pop cairo_selectfont } if } bind def
/g { setgray } bind def
/rg { setrgbcolor } bind def
/d1 { setcachedevice } bind def
%%EndProlog
%%BeginSetup
%%EndSetup
%%Page: 1 1
%%BeginPageSetup
%%PageBoundingBox: 43 -1 367 410
%%EndPageSetup
q 43 -1 324 411 rectclip q
0 g
56.855 234.049 m 55.367 235.545 53.305 236.393 51.199 236.393 c 49.098 
236.393 47.031 235.545 45.543 234.049 c 44.055 232.561 43.199 230.502 43.199
 228.393 c 43.199 226.288 44.055 224.225 45.543 222.737 c 47.031 221.248
 49.098 220.393 51.199 220.393 c 53.305 220.393 55.367 221.248 56.855 222.737
 c 58.344 224.233 59.199 226.288 59.199 228.393 c 59.199 230.495 58.344 
232.561 56.855 234.049 c h
56.855 234.049 m f
358.398 409.6 m 86.379 409.6 l 62.57 409.6 43.199 390.229 43.199 366.42
 c 43.199 266.803 l 43.199 262.385 46.781 258.803 51.199 258.803 c 55.617
 258.803 59.199 262.385 59.199 266.803 c 59.199 366.42 l 59.199 381.409 
71.391 393.6 86.379 393.6 c 350.398 393.6 l 350.398 86.358 l 86.379 86.358
 l 76.086 86.358 66.629 82.733 59.199 76.698 c 59.199 196.998 l 59.199 201.42
 55.617 204.998 51.199 204.998 c 46.781 204.998 43.199 201.42 43.199 196.998
 c 43.199 43.178 l 43.199 19.37 62.57 -0.002 86.379 -0.002 c 358.398 -0.002
 l 362.816 -0.002 366.398 3.58 366.398 7.998 c 366.398 401.6 l 366.398 406.018
 362.816 409.6 358.398 409.6 c h
283.066 70.358 m 318.266 70.358 l 318.266 44.209 l 303.871 50.506 l 302.852
 50.955 301.758 51.178 300.668 51.178 c 299.574 51.178 298.48 50.955 297.461
 50.506 c 283.066 44.209 l h
350.398 15.998 m 86.379 15.998 l 71.391 15.998 59.199 28.194 59.199 43.178
 c 59.199 58.163 71.391 70.358 86.379 70.358 c 267.066 70.358 l 267.066 
31.979 l 267.066 29.28 268.43 26.76 270.688 25.284 c 272.945 23.807 275.801
 23.569 278.273 24.651 c 300.664 34.448 l 323.059 24.651 l 324.086 24.202
 325.176 23.979 326.266 23.979 c 327.797 23.979 329.324 24.42 330.645 25.284
 c 332.902 26.76 334.266 29.28 334.266 31.979 c 334.266 70.358 l 350.398
 70.358 l h
350.398 15.998 m f
224 184.295 m 216.512 184.295 209.723 181.256 204.801 176.342 c 199.875
 181.256 193.086 184.295 185.602 184.295 c 170.602 184.295 158.398 172.096
 158.398 157.096 c 158.398 134.862 l 158.398 130.444 161.98 126.862 166.398
 126.862 c 243.199 126.862 l 247.617 126.862 251.199 130.444 251.199 134.862
 c 251.199 157.096 l 251.199 172.096 239 184.295 224 184.295 c h
196.801 142.862 m 174.398 142.862 l 174.398 157.096 l 174.398 163.272 179.426
 168.295 185.602 168.295 c 191.777 168.295 196.801 163.272 196.801 157.096
 c h
235.199 142.862 m 212.801 142.862 l 212.801 157.096 l 212.801 163.272 217.824
 168.295 224 168.295 c 230.176 168.295 235.199 163.272 235.199 157.096 c
 h
235.199 142.862 m f
222.484 250.799 m 187.117 250.799 l 171.281 250.799 158.402 237.916 158.402
 222.08 c 158.402 206.248 171.281 193.366 187.117 193.366 c 222.48 193.366
 l 238.316 193.366 251.199 206.248 251.199 222.08 c 251.199 237.916 238.316
 250.799 222.484 250.799 c h
222.48 209.366 m 187.117 209.366 l 180.105 209.366 174.398 215.069 174.398
 222.08 c 174.398 229.096 180.105 234.799 187.117 234.799 c 222.48 234.799
 l 229.496 234.799 235.199 229.096 235.199 222.08 c 235.199 215.069 229.496
 209.366 222.48 209.366 c h
222.48 209.366 m f
222.484 317.998 m 187.117 317.998 l 171.281 317.998 158.402 305.116 158.402
 289.284 c 158.402 273.448 171.281 260.565 187.117 260.565 c 222.48 260.565
 l 238.316 260.565 251.199 273.448 251.199 289.284 c 251.199 305.116 238.316
 317.998 222.484 317.998 c h
222.48 276.565 m 187.117 276.565 l 180.105 276.565 174.398 282.272 174.398
 289.284 c 174.398 296.295 180.105 301.998 187.117 301.998 c 222.48 301.998
 l 229.496 301.998 235.199 296.295 235.199 289.284 c 235.199 282.272 229.496
 276.565 222.48 276.565 c h
222.48 276.565 m f
243.199 346.799 m 227.559 346.799 l 248.207 363.358 l 251.652 366.123 252.203
 371.159 249.441 374.604 c 246.676 378.053 241.641 378.604 238.195 375.842
 c 204.801 349.057 l 171.406 375.838 l 167.961 378.604 162.926 378.053 160.16
 374.604 c 157.395 371.159 157.945 366.123 161.395 363.358 c 182.039 346.799
 l 166.398 346.799 l 161.98 346.799 158.398 343.217 158.398 338.799 c 158.398
 334.381 161.98 330.799 166.398 330.799 c 243.199 330.799 l 247.617 330.799
 251.199 334.381 251.199 338.799 c 251.199 343.217 247.617 346.799 243.199
 346.799 c h
243.199 346.799 m f
320 195.467 m 315.582 195.467 312 191.885 312 187.467 c 312 110.666 l 312
 106.248 315.582 102.666 320 102.666 c 324.418 102.666 328 106.248 328 110.666
 c 328 187.467 l 328 191.885 324.418 195.467 320 195.467 c h
320 195.467 m f
325.656 227.737 m 324.168 229.225 322.105 230.08 320 230.08 c 317.895 230.08
 315.832 229.225 314.344 227.737 c 312.855 226.248 312 224.186 312 222.08
 c 312 219.975 312.855 217.913 314.344 216.424 c 315.832 214.936 317.895
 214.08 320 214.08 c 322.105 214.08 324.168 214.936 325.656 216.424 c 327.145
 217.913 328 219.975 328 222.08 c 328 224.194 327.145 226.248 325.656 227.737
 c h
325.656 227.737 m f
Q Q
showpage
%%Trailer
end restore
%%EOF
