%!PS-Adobe-3.0 EPSF-3.0
%%Creator: cairo 1.14.2 (http://cairographics.org)
%%CreationDate: Thu Jul 26 08:14:03 2018
%%Pages: 1
%%DocumentData: Clean7Bit
%%LanguageLevel: 2
%%BoundingBox: 0 16 410 393
%%EndComments
%%BeginProlog
save
50 dict begin
/q { gsave } bind def
/Q { grestore } bind def
/cm { 6 array astore concat } bind def
/w { setlinewidth } bind def
/J { setlinecap } bind def
/j { setlinejoin } bind def
/M { setmiterlimit } bind def
/d { setdash } bind def
/m { moveto } bind def
/l { lineto } bind def
/c { curveto } bind def
/h { closepath } bind def
/re { exch dup neg 3 1 roll 5 3 roll moveto 0 rlineto
      0 exch rlineto 0 rlineto closepath } bind def
/S { stroke } bind def
/f { fill } bind def
/f* { eofill } bind def
/n { newpath } bind def
/W { clip } bind def
/W* { eoclip } bind def
/BT { } bind def
/ET { } bind def
/pdfmark where { pop globaldict /?pdfmark /exec load put }
    { globaldict begin /?pdfmark /pop load def /pdfmark
    /cleartomark load def end } ifelse
/BDC { mark 3 1 roll /BDC pdfmark } bind def
/EMC { mark /EMC pdfmark } bind def
/cairo_store_point { /cairo_point_y exch def /cairo_point_x exch def } def
/Tj { show currentpoint cairo_store_point } bind def
/TJ {
  {
    dup
    type /stringtype eq
    { show } { -0.001 mul 0 cairo_font_matrix dtransform rmoveto } ifelse
  } forall
  currentpoint cairo_store_point
} bind def
/cairo_selectfont { cairo_font_matrix aload pop pop pop 0 0 6 array astore
    cairo_font exch selectfont cairo_point_x cairo_point_y moveto } bind def
/Tf { pop /cairo_font exch def /cairo_font_matrix where
      { pop cairo_selectfont } if } bind def
/Td { matrix translate cairo_font_matrix matrix concatmatrix dup
      /cairo_font_matrix exch def dup 4 get exch 5 get cairo_store_point
      /cairo_font where { pop cairo_selectfont } if } bind def
/Tm { 2 copy 8 2 roll 6 array astore /cairo_font_matrix exch def
      cairo_store_point /cairo_font where { pop cairo_selectfont } if } bind def
/g { setgray } bind def
/rg { setrgbcolor } bind def
/d1 { setcachedevice } bind def
%%EndProlog
%%BeginSetup
%%EndSetup
%%Page: 1 1
%%BeginPageSetup
%%PageBoundingBox: 0 16 410 393
%%EndPageSetup
q 0 16 410 377 rectclip q
0 g
393.602 331.027 m 393.602 345.777 l 393.602 362.195 380.242 375.55 363.824
 375.55 c 338.965 375.55 l 329.184 385.913 315.34 392.402 300 392.402 c 
109.672 392.402 l 94.332 392.402 80.488 385.913 70.707 375.55 c 45.773 375.55
 l 29.355 375.55 16 362.195 16 345.777 c 16 331.027 l 6.688 327.722 0 318.831
 0 308.402 c 0 273.202 l 0 259.968 10.766 249.202 24 249.202 c 37.234 249.202
 48 259.968 48 273.202 c 48 308.402 l 48 318.831 41.312 327.722 32 331.027
 c 32 345.777 l 32 353.37 38.18 359.55 45.773 359.55 c 60.254 359.55 l 57.562
 353.167 56.07 346.155 56.07 338.8 c 56.07 225.905 l 48.352 221.101 43.199
 212.542 43.199 202.8 c 43.199 134.929 l 30.23 130.839 20.801 118.702 20.801
 104.402 c 20.801 86.757 35.156 72.402 52.801 72.402 c 56.07 72.402 l 56.07
 47.601 l 56.07 42.394 57.387 37.491 59.703 33.202 c 24 33.202 l 19.582 
33.202 16 29.62 16 25.202 c 16 20.78 19.582 17.202 24 17.202 c 163.301 17.202
 l 167.719 17.202 171.301 20.78 171.301 25.202 c 171.301 29.62 167.719 33.202
 163.301 33.202 c 113.234 33.202 l 115.555 37.491 116.871 42.394 116.871
 47.601 c 116.871 72.402 l 292.801 72.402 l 292.801 47.601 l 292.801 42.394
 294.117 37.491 296.434 33.202 c 250.398 33.202 l 245.98 33.202 242.398 
29.62 242.398 25.202 c 242.398 20.78 245.98 17.202 250.398 17.202 c 371.625
 17.202 l 376.043 17.202 379.625 20.78 379.625 25.202 c 379.625 29.62 376.043
 33.202 371.625 33.202 c 349.965 33.202 l 352.281 37.491 353.602 42.394 
353.602 47.601 c 353.602 72.402 l 356.801 72.402 l 374.445 72.402 388.801
 86.757 388.801 104.402 c 388.801 118.675 379.402 130.796 366.469 134.905
 c 366.469 202.8 l 366.469 212.542 361.32 221.101 353.602 225.905 c 353.602
 338.8 l 353.602 346.155 352.109 353.163 349.418 359.55 c 363.824 359.55
 l 371.422 359.55 377.602 353.37 377.602 345.777 c 377.602 331.027 l 368.289
 327.722 361.602 318.831 361.602 308.402 c 361.602 273.202 l 361.602 259.968
 372.367 249.202 385.602 249.202 c 398.836 249.202 409.602 259.968 409.602
 273.202 c 409.602 308.402 l 409.602 318.831 402.91 327.722 393.602 331.027
 c h
32 273.202 m 32 268.788 28.41 265.202 24 265.202 c 19.59 265.202 16 268.788
 16 273.202 c 16 308.402 l 16 312.812 19.59 316.402 24 316.402 c 28.41 316.402
 32 312.812 32 308.402 c h
212.805 376.402 m 300 376.402 l 301.211 376.402 302.41 376.339 303.594 
376.226 c 256.285 328.917 l 253.16 325.792 253.16 320.726 256.285 317.601
 c 257.848 316.038 259.895 315.257 261.941 315.257 c 263.988 315.257 266.035
 316.038 267.598 317.601 c 320.375 370.378 l 329.277 364.613 335.602 355.198
 337.199 344.261 c 222.938 229.999 l 212.805 229.999 l h
337.602 322.034 m 337.602 229.999 l 245.566 229.999 l h
72.07 338.8 m 72.07 359.534 88.938 376.402 109.672 376.402 c 165.621 376.402
 l 98.012 308.792 l 94.887 305.667 94.887 300.601 98.012 297.476 c 99.574
 295.913 101.621 295.132 103.668 295.132 c 105.715 295.132 107.762 295.913
 109.324 297.476 c 188.25 376.402 l 196.805 376.402 l 196.805 342.015 l 
84.789 229.999 l 72.07 229.999 l h
196.805 319.39 m 196.805 229.999 l 107.414 229.999 l h
100.871 47.601 m 100.871 39.659 94.41 33.202 86.469 33.202 c 78.531 33.202
 72.07 39.659 72.07 47.601 c 72.07 72.402 l 100.871 72.402 l h
337.602 47.601 m 337.602 39.659 331.141 33.202 323.199 33.202 c 315.262
 33.202 308.801 39.659 308.801 47.601 c 308.801 72.402 l 337.602 72.402 
l h
356.801 120.402 m 365.621 120.402 372.801 113.222 372.801 104.402 c 372.801
 95.577 365.621 88.402 356.801 88.402 c 52.801 88.402 l 43.977 88.402 36.801
 95.577 36.801 104.402 c 36.801 113.222 43.977 120.402 52.801 120.402 c 
h
350.469 202.8 m 350.469 136.402 l 59.199 136.402 l 59.199 202.8 l 59.199
 208.976 64.223 213.999 70.398 213.999 c 339.27 213.999 l 345.445 213.999
 350.469 208.976 350.469 202.8 c h
393.602 273.202 m 393.602 268.788 390.012 265.202 385.602 265.202 c 381.188
 265.202 377.602 268.788 377.602 273.202 c 377.602 308.402 l 377.602 312.812
 381.188 316.402 385.602 316.402 c 390.012 316.402 393.602 312.812 393.602
 308.402 c h
393.602 273.202 m f
244.168 305.48 m 242.68 306.976 240.617 307.823 238.512 307.823 c 236.406
 307.823 234.344 306.976 232.855 305.48 c 231.367 303.991 230.512 301.937
 230.512 299.831 c 230.512 297.722 231.367 295.655 232.855 294.167 c 234.344
 292.679 236.406 291.823 238.512 291.823 c 240.617 291.823 242.68 292.679
 244.168 294.167 c 245.656 295.655 246.512 297.722 246.512 299.831 c 246.512
 301.937 245.656 303.991 244.168 305.48 c h
244.168 305.48 m f
112.07 199.202 m 98.836 199.202 88.07 188.433 88.07 175.202 c 88.07 161.968
 98.836 151.202 112.07 151.202 c 125.305 151.202 136.07 161.968 136.07 175.202
 c 136.07 188.433 125.305 199.202 112.07 199.202 c h
112.07 167.202 m 107.66 167.202 104.07 170.788 104.07 175.202 c 104.07 
179.613 107.66 183.202 112.07 183.202 c 116.48 183.202 120.07 179.613 120.07
 175.202 c 120.07 170.788 116.48 167.202 112.07 167.202 c h
112.07 167.202 m f
297.602 199.202 m 284.367 199.202 273.602 188.433 273.602 175.202 c 273.602
 161.968 284.367 151.202 297.602 151.202 c 310.832 151.202 321.602 161.968
 321.602 175.202 c 321.602 188.433 310.832 199.202 297.602 199.202 c h
297.602 167.202 m 293.188 167.202 289.602 170.788 289.602 175.202 c 289.602
 179.613 293.188 183.202 297.602 183.202 c 302.012 183.202 305.602 179.613
 305.602 175.202 c 305.602 170.788 302.012 167.202 297.602 167.202 c h
297.602 167.202 m f
246.5 167.202 m 163.301 167.202 l 158.883 167.202 155.301 163.62 155.301
 159.202 c 155.301 154.78 158.883 151.202 163.301 151.202 c 246.5 151.202
 l 250.918 151.202 254.5 154.78 254.5 159.202 c 254.5 163.62 250.918 167.202
 246.5 167.202 c h
246.5 167.202 m f
246.5 199.202 m 163.301 199.202 l 158.883 199.202 155.301 195.62 155.301
 191.202 c 155.301 186.78 158.883 183.202 163.301 183.202 c 246.5 183.202
 l 250.918 183.202 254.5 186.78 254.5 191.202 c 254.5 195.62 250.918 199.202
 246.5 199.202 c h
246.5 199.202 m f
210.559 30.859 m 209.07 32.343 207.008 33.202 204.902 33.202 c 202.793 
33.202 200.734 32.343 199.246 30.859 c 197.754 29.37 196.902 27.304 196.902
 25.202 c 196.902 23.097 197.754 21.034 199.246 19.546 c 200.734 18.058 
202.793 17.202 204.902 17.202 c 207.008 17.202 209.07 18.058 210.559 19.546
 c 212.047 21.034 212.902 23.097 212.902 25.202 c 212.902 27.304 212.047
 29.37 210.559 30.859 c h
210.559 30.859 m f
Q Q
showpage
%%Trailer
end restore
%%EOF
