%!PS-Adobe-3.0 EPSF-3.0
%%Creator: cairo 1.14.2 (http://cairographics.org)
%%CreationDate: Thu Jul 26 08:14:03 2018
%%Pages: 1
%%DocumentData: Clean7Bit
%%LanguageLevel: 2
%%BoundingBox: 0 15 410 394
%%EndComments
%%BeginProlog
save
50 dict begin
/q { gsave } bind def
/Q { grestore } bind def
/cm { 6 array astore concat } bind def
/w { setlinewidth } bind def
/J { setlinecap } bind def
/j { setlinejoin } bind def
/M { setmiterlimit } bind def
/d { setdash } bind def
/m { moveto } bind def
/l { lineto } bind def
/c { curveto } bind def
/h { closepath } bind def
/re { exch dup neg 3 1 roll 5 3 roll moveto 0 rlineto
      0 exch rlineto 0 rlineto closepath } bind def
/S { stroke } bind def
/f { fill } bind def
/f* { eofill } bind def
/n { newpath } bind def
/W { clip } bind def
/W* { eoclip } bind def
/BT { } bind def
/ET { } bind def
/pdfmark where { pop globaldict /?pdfmark /exec load put }
    { globaldict begin /?pdfmark /pop load def /pdfmark
    /cleartomark load def end } ifelse
/BDC { mark 3 1 roll /BDC pdfmark } bind def
/EMC { mark /EMC pdfmark } bind def
/cairo_store_point { /cairo_point_y exch def /cairo_point_x exch def } def
/Tj { show currentpoint cairo_store_point } bind def
/TJ {
  {
    dup
    type /stringtype eq
    { show } { -0.001 mul 0 cairo_font_matrix dtransform rmoveto } ifelse
  } forall
  currentpoint cairo_store_point
} bind def
/cairo_selectfont { cairo_font_matrix aload pop pop pop 0 0 6 array astore
    cairo_font exch selectfont cairo_point_x cairo_point_y moveto } bind def
/Tf { pop /cairo_font exch def /cairo_font_matrix where
      { pop cairo_selectfont } if } bind def
/Td { matrix translate cairo_font_matrix matrix concatmatrix dup
      /cairo_font_matrix exch def dup 4 get exch 5 get cairo_store_point
      /cairo_font where { pop cairo_selectfont } if } bind def
/Tm { 2 copy 8 2 roll 6 array astore /cairo_font_matrix exch def
      cairo_store_point /cairo_font where { pop cairo_selectfont } if } bind def
/g { setgray } bind def
/rg { setrgbcolor } bind def
/d1 { setcachedevice } bind def
%%EndProlog
%%BeginSetup
%%EndSetup
%%Page: 1 1
%%BeginPageSetup
%%PageBoundingBox: 0 15 410 394
%%EndPageSetup
q 0 15 410 379 rectclip q
0 g
84.77 96.799 m 83.281 98.288 81.215 99.143 79.113 99.143 c 77.008 99.143
 74.945 98.288 73.457 96.799 c 71.969 95.303 71.113 93.248 71.113 91.143
 c 71.113 89.034 71.969 86.975 73.457 85.479 c 74.945 83.991 77.008 83.143
 79.113 83.143 c 81.215 83.143 83.281 83.991 84.77 85.479 c 86.254 86.975
 87.113 89.041 87.113 91.143 c 87.113 93.248 86.258 95.303 84.77 96.799 
c h
84.77 96.799 m f
268.016 96.799 m 266.527 98.288 264.465 99.135 262.359 99.135 c 260.258
 99.135 258.191 98.288 256.703 96.799 c 255.219 95.311 254.359 93.248 254.359
 91.135 c 254.359 89.034 255.215 86.975 256.703 85.479 c 258.191 83.991 
260.258 83.143 262.359 83.143 c 264.465 83.143 266.527 83.991 268.016 85.479
 c 269.504 86.975 270.359 89.034 270.359 91.135 c 270.359 93.248 269.504
 95.311 268.016 96.799 c h
268.016 96.799 m f
358.398 393.577 m 353.98 393.577 350.398 389.995 350.398 385.577 c 350.398
 381.159 353.98 377.577 358.398 377.577 c 377.809 377.577 393.602 361.784
 393.602 342.373 c 393.602 110.342 l 384.141 110.342 l 383.578 118.233 381.969
 125.838 379.453 133.022 c 379.363 133.338 379.254 133.651 379.125 133.955
 c 366.848 167.788 334.387 192.026 296.367 192.026 c 268.125 192.026 242.953
 178.651 226.84 157.905 c 221.66 164.401 213.684 168.577 204.746 168.577
 c 195.805 168.577 187.832 164.401 182.648 157.905 c 166.535 178.651 141.363
 192.026 113.121 192.026 c 66.723 192.026 28.598 155.928 25.348 110.342 
c 16 110.342 l 16 342.373 l 16 361.784 31.789 377.577 51.199 377.577 c 55.617
 377.577 59.199 381.159 59.199 385.577 c 59.199 389.995 55.617 393.577 51.199
 393.577 c 22.969 393.577 0 370.608 0 342.373 c 0 107.944 l 0 100.444 6.102
 94.342 13.602 94.342 c 25.656 94.342 l 30.492 50.358 67.871 16.026 113.121
 16.026 c 161.645 16.026 201.121 55.502 201.121 104.026 c 201.121 114.186
 199.387 123.944 196.203 133.03 c 196.113 133.342 196.008 133.647 195.879
 133.948 c 194.906 136.631 193.809 139.252 192.59 141.807 c 193.324 147.866
 198.488 152.577 204.746 152.577 c 211 152.577 216.164 147.866 216.902 141.807
 c 211.434 130.354 208.367 117.541 208.367 104.026 c 208.367 55.502 247.844
 16.026 296.367 16.026 c 341.617 16.026 378.996 50.358 383.832 94.342 c 
396 94.342 l 403.5 94.342 409.602 100.444 409.602 107.944 c 409.602 342.373
 l 409.602 370.608 386.633 393.577 358.398 393.577 c h
41.121 104.026 m 41.121 143.725 73.422 176.026 113.121 176.026 c 124.621
 176.026 135.5 173.311 145.152 168.495 c 96.484 119.827 l 93.363 116.702
 93.363 111.635 96.484 108.51 c 98.047 106.948 100.094 106.17 102.141 106.17
 c 104.191 106.17 106.238 106.948 107.801 108.51 c 158.871 159.58 l 167.57
 152.405 174.555 143.229 179.129 132.764 c 84.379 38.018 l 58.945 49.135
 41.121 74.538 41.121 104.026 c h
113.121 32.026 m 109.305 32.026 105.555 32.327 101.895 32.901 c 184.242
 115.252 l 184.82 111.592 185.121 107.842 185.121 104.026 c 185.121 64.323
 152.824 32.026 113.121 32.026 c h
224.367 104.026 m 224.367 143.725 256.668 176.026 296.367 176.026 c 307.867
 176.026 318.746 173.311 328.398 168.495 c 279.73 119.827 l 276.609 116.702
 276.609 111.635 279.73 108.51 c 281.293 106.948 283.34 106.17 285.391 106.17
 c 287.438 106.17 289.484 106.948 291.047 108.51 c 342.117 159.58 l 350.816
 152.405 357.801 143.229 362.375 132.764 c 267.629 38.018 l 242.191 49.135
 224.367 74.538 224.367 104.026 c h
296.367 32.026 m 292.551 32.026 288.801 32.327 285.141 32.901 c 367.492
 115.252 l 368.066 111.592 368.367 107.842 368.367 104.026 c 368.367 64.323
 336.07 32.026 296.367 32.026 c h
296.367 32.026 m f
Q Q
showpage
%%Trailer
end restore
%%EOF
