%!PS-Adobe-3.0 EPSF-3.0
%%Creator: cairo 1.14.2 (http://cairographics.org)
%%CreationDate: Thu Jul 26 08:14:03 2018
%%Pages: 1
%%DocumentData: Clean7Bit
%%LanguageLevel: 2
%%BoundingBox: 21 -1 388 410
%%EndComments
%%BeginProlog
save
50 dict begin
/q { gsave } bind def
/Q { grestore } bind def
/cm { 6 array astore concat } bind def
/w { setlinewidth } bind def
/J { setlinecap } bind def
/j { setlinejoin } bind def
/M { setmiterlimit } bind def
/d { setdash } bind def
/m { moveto } bind def
/l { lineto } bind def
/c { curveto } bind def
/h { closepath } bind def
/re { exch dup neg 3 1 roll 5 3 roll moveto 0 rlineto
      0 exch rlineto 0 rlineto closepath } bind def
/S { stroke } bind def
/f { fill } bind def
/f* { eofill } bind def
/n { newpath } bind def
/W { clip } bind def
/W* { eoclip } bind def
/BT { } bind def
/ET { } bind def
/pdfmark where { pop globaldict /?pdfmark /exec load put }
    { globaldict begin /?pdfmark /pop load def /pdfmark
    /cleartomark load def end } ifelse
/BDC { mark 3 1 roll /BDC pdfmark } bind def
/EMC { mark /EMC pdfmark } bind def
/cairo_store_point { /cairo_point_y exch def /cairo_point_x exch def } def
/Tj { show currentpoint cairo_store_point } bind def
/TJ {
  {
    dup
    type /stringtype eq
    { show } { -0.001 mul 0 cairo_font_matrix dtransform rmoveto } ifelse
  } forall
  currentpoint cairo_store_point
} bind def
/cairo_selectfont { cairo_font_matrix aload pop pop pop 0 0 6 array astore
    cairo_font exch selectfont cairo_point_x cairo_point_y moveto } bind def
/Tf { pop /cairo_font exch def /cairo_font_matrix where
      { pop cairo_selectfont } if } bind def
/Td { matrix translate cairo_font_matrix matrix concatmatrix dup
      /cairo_font_matrix exch def dup 4 get exch 5 get cairo_store_point
      /cairo_font where { pop cairo_selectfont } if } bind def
/Tm { 2 copy 8 2 roll 6 array astore /cairo_font_matrix exch def
      cairo_store_point /cairo_font where { pop cairo_selectfont } if } bind def
/g { setgray } bind def
/rg { setrgbcolor } bind def
/d1 { setcachedevice } bind def
%%EndProlog
%%BeginSetup
%%EndSetup
%%Page: 1 1
%%BeginPageSetup
%%PageBoundingBox: 21 -1 388 410
%%EndPageSetup
q 21 -1 367 411 rectclip q
0 g
380 86.355 m 296.434 86.355 l 311.324 99.695 323.527 119.855 334.645 140.922
 c 335.426 142.406 l 344.906 160.348 364.633 197.68 373.016 238.566 c 377.805
 261.934 378.133 283.145 373.984 301.609 c 368.895 324.273 357.062 343.078
 338.824 357.504 c 301.031 387.395 264.672 380.191 240.828 368.883 c 229.656
 363.586 220.25 356.977 213.18 351.195 c 214.879 368.098 222.277 383.77 
234.453 395.945 c 237.574 399.066 237.574 404.133 234.453 407.258 c 231.328
 410.383 226.262 410.383 223.137 407.258 c 207.812 391.934 198.703 372.047
 197.07 350.66 c 189.93 356.566 180.289 363.422 168.773 368.883 c 144.93
 380.191 108.57 387.391 70.777 357.5 c 52.539 343.078 40.707 324.273 35.617
 301.609 c 31.469 283.145 31.793 261.934 36.586 238.566 c 44.969 197.68 
64.695 160.348 74.172 142.406 c 74.957 140.922 l 86.074 119.855 98.277 99.695
 113.164 86.355 c 64.777 86.355 l 40.969 86.355 21.602 66.988 21.602 43.176
 c 21.602 19.367 40.969 0 64.777 0 c 380 0 l 384.418 0 388 3.582 388 8 c
 388 78.355 l 388 82.773 384.418 86.355 380 86.355 c h
188.73 327.402 m 150.477 289.145 l 147.352 286.023 147.352 280.957 150.477
 277.832 c 152.039 276.27 154.086 275.488 156.133 275.488 c 158.18 275.488
 160.227 276.27 161.789 277.832 c 200.047 316.09 l 201.434 299.48 195.551
 282.965 183.391 270.801 c 168.859 256.273 148.121 250.699 128.426 255.781
 c 123.34 275.477 128.918 296.215 143.445 310.746 c 155.609 322.906 172.125
 328.789 188.73 327.402 c h
89.109 148.387 m 88.32 149.879 l 79.188 167.164 60.188 203.133 52.262 241.781
 c 42.812 287.844 52.383 322.555 80.703 344.953 c 105.742 364.754 132.922
 368.012 161.492 354.629 c 168.531 351.328 174.828 347.379 180.156 343.512
 c 162.367 342.598 145.266 335.191 132.133 322.059 c 112.328 302.254 105.531
 273.422 114.402 246.816 c 115.199 244.43 117.074 242.555 119.461 241.758
 c 127.184 239.184 135.094 237.93 142.918 237.93 c 162.043 237.93 180.648
 245.43 194.703 259.488 c 213.387 278.172 220.484 304.883 213.785 330.184
 c 219.145 335.555 231.598 346.891 248.113 354.625 c 276.68 368.008 303.859
 364.754 328.902 344.949 c 357.219 322.555 366.789 287.844 357.344 241.777
 c 349.418 203.133 330.414 167.164 321.281 149.879 c 320.496 148.387 l 303.496
 116.168 284.199 86.355 258.34 86.355 c 243.129 86.355 235.328 91.27 227.785
 96.02 c 221.293 100.105 214.578 104.336 204.848 104.336 c 204.758 104.336
 l 195.027 104.336 188.312 100.105 181.82 96.02 c 174.277 91.27 166.477 
86.355 151.266 86.355 c 125.402 86.355 106.109 116.172 89.109 148.387 c 
h
212.621 86.355 m 196.98 86.355 l 199.605 87.645 201.973 88.336 204.758 
88.336 c 204.844 88.336 l 207.629 88.336 209.996 87.645 212.621 86.355 c
 h
372 51.18 m 118.668 51.18 l 114.25 51.18 110.668 47.598 110.668 43.18 c
 110.668 38.762 114.25 35.18 118.668 35.18 c 372 35.18 l 372 16 l 64.777
 16 l 49.793 16 37.602 28.191 37.602 43.18 c 37.602 58.164 49.793 70.355
 64.777 70.355 c 372 70.355 l h
372 51.18 m f
89.129 48.832 m 87.633 50.32 85.578 51.176 83.465 51.176 c 81.359 51.176
 79.297 50.32 77.809 48.832 c 76.32 47.344 75.465 45.289 75.465 43.176 c
 75.465 41.07 76.32 39.008 77.809 37.52 c 79.305 36.031 81.359 35.176 83.465
 35.176 c 85.57 35.176 87.633 36.031 89.129 37.52 c 90.617 39.008 91.465
 41.07 91.465 43.176 c 91.465 45.281 90.617 47.344 89.129 48.832 c h
89.129 48.832 m f
329.184 255.723 m 324.855 256.617 320.625 253.836 319.727 249.512 c 319.664
 249.211 l 318.773 244.883 321.559 240.648 325.883 239.758 c 326.43 239.645
 326.973 239.594 327.508 239.594 c 331.227 239.594 334.555 242.195 335.336
 245.977 c 335.395 246.266 l 336.293 250.59 333.512 254.824 329.184 255.723
 c h
329.184 255.723 m f
320.629 222.273 m 316.488 223.816 311.883 221.707 310.344 217.566 c 302.559
 196.641 293.027 178.598 287.328 167.816 c 286.535 166.309 l 284.469 162.402
 285.965 157.563 289.871 155.5 c 291.062 154.871 292.34 154.574 293.602 
154.574 c 296.469 154.574 299.246 156.125 300.68 158.84 c 301.477 160.344
 l 307.355 171.469 317.191 190.09 325.34 211.988 c 326.879 216.129 324.77
 220.734 320.629 222.273 c h
320.629 222.273 m f
Q Q
showpage
%%Trailer
end restore
%%EOF
