%!PS-Adobe-3.0 EPSF-3.0
%%Creator: cairo 1.14.2 (http://cairographics.org)
%%CreationDate: Thu Jul 26 08:14:03 2018
%%Pages: 1
%%DocumentData: Clean7Bit
%%LanguageLevel: 2
%%BoundingBox: 0 31 410 378
%%EndComments
%%BeginProlog
save
50 dict begin
/q { gsave } bind def
/Q { grestore } bind def
/cm { 6 array astore concat } bind def
/w { setlinewidth } bind def
/J { setlinecap } bind def
/j { setlinejoin } bind def
/M { setmiterlimit } bind def
/d { setdash } bind def
/m { moveto } bind def
/l { lineto } bind def
/c { curveto } bind def
/h { closepath } bind def
/re { exch dup neg 3 1 roll 5 3 roll moveto 0 rlineto
      0 exch rlineto 0 rlineto closepath } bind def
/S { stroke } bind def
/f { fill } bind def
/f* { eofill } bind def
/n { newpath } bind def
/W { clip } bind def
/W* { eoclip } bind def
/BT { } bind def
/ET { } bind def
/pdfmark where { pop globaldict /?pdfmark /exec load put }
    { globaldict begin /?pdfmark /pop load def /pdfmark
    /cleartomark load def end } ifelse
/BDC { mark 3 1 roll /BDC pdfmark } bind def
/EMC { mark /EMC pdfmark } bind def
/cairo_store_point { /cairo_point_y exch def /cairo_point_x exch def } def
/Tj { show currentpoint cairo_store_point } bind def
/TJ {
  {
    dup
    type /stringtype eq
    { show } { -0.001 mul 0 cairo_font_matrix dtransform rmoveto } ifelse
  } forall
  currentpoint cairo_store_point
} bind def
/cairo_selectfont { cairo_font_matrix aload pop pop pop 0 0 6 array astore
    cairo_font exch selectfont cairo_point_x cairo_point_y moveto } bind def
/Tf { pop /cairo_font exch def /cairo_font_matrix where
      { pop cairo_selectfont } if } bind def
/Td { matrix translate cairo_font_matrix matrix concatmatrix dup
      /cairo_font_matrix exch def dup 4 get exch 5 get cairo_store_point
      /cairo_font where { pop cairo_selectfont } if } bind def
/Tm { 2 copy 8 2 roll 6 array astore /cairo_font_matrix exch def
      cairo_store_point /cairo_font where { pop cairo_selectfont } if } bind def
/g { setgray } bind def
/rg { setrgbcolor } bind def
/d1 { setcachedevice } bind def
%%EndProlog
%%BeginSetup
%%EndSetup
%%Page: 1 1
%%BeginPageSetup
%%PageBoundingBox: 0 31 410 378
%%EndPageSetup
q 0 31 410 347 rectclip q
0 g
369.602 377.6 m 40 377.6 l 17.945 377.6 0 359.655 0 337.6 c 0 71.998 l 
0 49.944 17.945 31.998 40 31.998 c 98.469 31.998 l 102.891 31.998 106.469
 35.58 106.469 39.998 c 106.469 44.42 102.891 47.998 98.469 47.998 c 40 
47.998 l 26.766 47.998 16 58.768 16 71.998 c 16 337.6 l 16 350.834 26.766
 361.6 40 361.6 c 369.602 361.6 l 382.832 361.6 393.602 350.834 393.602 
337.6 c 393.602 71.998 l 393.602 58.768 382.832 47.998 369.602 47.998 c 
169.867 47.998 l 165.449 47.998 161.867 44.42 161.867 39.998 c 161.867 35.58
 165.449 31.998 169.867 31.998 c 369.602 31.998 l 391.656 31.998 409.602
 49.944 409.602 71.998 c 409.602 337.6 l 409.602 359.655 391.656 377.6 369.602
 377.6 c h
369.602 377.6 m f
140.855 45.655 m 139.367 47.143 137.305 47.998 135.199 47.998 c 133.098
 47.998 131.031 47.143 129.543 45.655 c 128.055 44.166 127.199 42.104 127.199
 39.998 c 127.199 37.897 128.055 35.83 129.543 34.342 c 131.031 32.858 133.098
 31.998 135.199 31.998 c 137.305 31.998 139.367 32.858 140.855 34.342 c 
142.344 35.83 143.199 37.897 143.199 39.998 c 143.199 42.104 142.344 44.166
 140.855 45.655 c h
140.855 45.655 m f
369.602 345.6 m 40 345.6 l 35.582 345.6 32 342.018 32 337.6 c 32 71.998
 l 32 67.58 35.582 63.998 40 63.998 c 369.602 63.998 l 374.02 63.998 377.602
 67.58 377.602 71.998 c 377.602 337.6 l 377.602 342.018 374.02 345.6 369.602
 345.6 c h
361.602 118.401 m 332.535 118.401 l 328.113 118.401 324.535 114.819 324.535
 110.401 c 324.535 105.983 328.113 102.401 332.535 102.401 c 361.602 102.401
 l 361.602 79.998 l 230.398 79.998 l 230.398 102.401 l 260.535 102.401 l
 264.953 102.401 268.535 105.983 268.535 110.401 c 268.535 114.819 264.953
 118.401 260.535 118.401 c 222.398 118.401 l 217.98 118.401 214.398 114.819
 214.398 110.401 c 214.398 79.998 l 48 79.998 l 48 329.6 l 361.602 329.6
 l h
361.602 118.401 m f
301.656 116.057 m 300.168 117.545 298.105 118.401 296 118.401 c 293.895
 118.401 291.832 117.545 290.344 116.057 c 288.855 114.569 288 112.502 288
 110.401 c 288 108.295 288.855 106.233 290.344 104.745 c 291.832 103.256
 293.895 102.401 296 102.401 c 298.105 102.401 300.168 103.256 301.656 104.745
 c 303.145 106.233 304 108.295 304 110.401 c 304 112.502 303.145 114.569
 301.656 116.057 c h
301.656 116.057 m f
236.234 238.936 m 236.234 253.936 224.031 266.139 209.035 266.139 c 186.801
 266.139 l 182.383 266.139 178.801 262.557 178.801 258.139 c 178.801 181.338
 l 178.801 176.92 182.383 173.338 186.801 173.338 c 209.035 173.338 l 224.031
 173.338 236.234 185.538 236.234 200.538 c 236.234 208.026 233.191 214.815
 228.281 219.737 c 233.191 224.663 236.234 231.452 236.234 238.936 c h
209.035 189.338 m 194.801 189.338 l 194.801 211.737 l 209.035 211.737 l
 215.211 211.737 220.234 206.713 220.234 200.538 c 220.234 194.362 215.211
 189.338 209.035 189.338 c h
209.035 227.737 m 194.801 227.737 l 194.801 250.139 l 209.035 250.139 l
 215.211 250.139 220.234 245.112 220.234 238.936 c 220.234 232.76 215.211
 227.737 209.035 227.737 c h
209.035 227.737 m f
154.562 183.745 m 150.246 197.424 l 153.008 198.686 154.934 201.463 154.934
 204.698 c 154.934 209.116 151.352 212.698 146.934 212.698 c 145.426 212.698
 l 130.332 260.545 l 129.281 263.873 126.191 266.139 122.703 266.139 c 119.211
 266.139 116.121 263.873 115.07 260.545 c 99.977 212.698 l 98.469 212.698
 l 94.051 212.698 90.469 209.116 90.469 204.698 c 90.469 201.463 92.395 
198.686 95.156 197.424 c 90.84 183.745 l 89.512 179.53 91.848 175.038 96.062
 173.709 c 100.277 172.377 104.77 174.717 106.098 178.932 c 111.707 196.698
 l 133.699 196.698 l 139.305 178.932 l 140.379 175.518 143.531 173.334 146.93
 173.334 c 147.73 173.334 148.539 173.455 149.34 173.709 c 153.555 175.038
 155.891 179.534 154.562 183.745 c h
116.754 212.698 m 122.703 231.549 l 128.648 212.698 l h
116.754 212.698 m f
308.887 209.155 m 304.469 209.155 300.887 205.573 300.887 201.155 c 300.887
 194.639 295.586 189.338 289.07 189.338 c 282.555 189.338 277.254 194.639
 277.254 201.155 c 277.254 238.323 l 277.254 244.838 282.555 250.139 289.07
 250.139 c 295.586 250.139 300.887 244.838 300.887 238.323 c 300.887 233.905
 304.469 230.323 308.887 230.323 c 313.305 230.323 316.887 233.905 316.887
 238.323 c 316.887 253.659 304.406 266.139 289.07 266.139 c 273.734 266.139
 261.254 253.659 261.254 238.323 c 261.254 201.155 l 261.254 185.815 273.734
 173.338 289.07 173.338 c 304.406 173.338 316.887 185.815 316.887 201.155
 c 316.887 205.573 313.305 209.155 308.887 209.155 c h
308.887 209.155 m f
Q Q
showpage
%%Trailer
end restore
%%EOF
