%!PS-Adobe-3.0 EPSF-3.0
%%Creator: cairo 1.14.2 (http://cairographics.org)
%%CreationDate: Thu Jul 26 08:14:03 2018
%%Pages: 1
%%DocumentData: Clean7Bit
%%LanguageLevel: 2
%%BoundingBox: 0 -1 410 410
%%EndComments
%%BeginProlog
save
50 dict begin
/q { gsave } bind def
/Q { grestore } bind def
/cm { 6 array astore concat } bind def
/w { setlinewidth } bind def
/J { setlinecap } bind def
/j { setlinejoin } bind def
/M { setmiterlimit } bind def
/d { setdash } bind def
/m { moveto } bind def
/l { lineto } bind def
/c { curveto } bind def
/h { closepath } bind def
/re { exch dup neg 3 1 roll 5 3 roll moveto 0 rlineto
      0 exch rlineto 0 rlineto closepath } bind def
/S { stroke } bind def
/f { fill } bind def
/f* { eofill } bind def
/n { newpath } bind def
/W { clip } bind def
/W* { eoclip } bind def
/BT { } bind def
/ET { } bind def
/pdfmark where { pop globaldict /?pdfmark /exec load put }
    { globaldict begin /?pdfmark /pop load def /pdfmark
    /cleartomark load def end } ifelse
/BDC { mark 3 1 roll /BDC pdfmark } bind def
/EMC { mark /EMC pdfmark } bind def
/cairo_store_point { /cairo_point_y exch def /cairo_point_x exch def } def
/Tj { show currentpoint cairo_store_point } bind def
/TJ {
  {
    dup
    type /stringtype eq
    { show } { -0.001 mul 0 cairo_font_matrix dtransform rmoveto } ifelse
  } forall
  currentpoint cairo_store_point
} bind def
/cairo_selectfont { cairo_font_matrix aload pop pop pop 0 0 6 array astore
    cairo_font exch selectfont cairo_point_x cairo_point_y moveto } bind def
/Tf { pop /cairo_font exch def /cairo_font_matrix where
      { pop cairo_selectfont } if } bind def
/Td { matrix translate cairo_font_matrix matrix concatmatrix dup
      /cairo_font_matrix exch def dup 4 get exch 5 get cairo_store_point
      /cairo_font where { pop cairo_selectfont } if } bind def
/Tm { 2 copy 8 2 roll 6 array astore /cairo_font_matrix exch def
      cairo_store_point /cairo_font where { pop cairo_selectfont } if } bind def
/g { setgray } bind def
/rg { setrgbcolor } bind def
/d1 { setcachedevice } bind def
%%EndProlog
%%BeginSetup
%%EndSetup
%%Page: 1 1
%%BeginPageSetup
%%PageBoundingBox: 0 -1 410 410
%%EndPageSetup
q 0 -1 410 411 rectclip q
0 g
286.992 407.256 m 285.504 408.745 283.441 409.6 281.336 409.6 c 279.223
 409.6 277.168 408.745 275.68 407.256 c 274.184 405.768 273.336 403.705 
273.336 401.6 c 273.336 399.495 274.184 397.432 275.68 395.944 c 277.168
 394.455 279.23 393.6 281.336 393.6 c 283.441 393.6 285.504 394.455 286.992
 395.944 c 288.48 397.432 289.336 399.495 289.336 401.6 c 289.336 403.705
 288.48 405.768 286.992 407.256 c h
286.992 407.256 m f
401.602 409.6 m 313.867 409.6 l 309.449 409.6 305.867 406.018 305.867 401.6
 c 305.867 397.182 309.449 393.6 313.867 393.6 c 393.602 393.6 l 393.602
 351.998 l 16 351.998 l 16 393.6 l 247.199 393.6 l 251.617 393.6 255.199
 397.182 255.199 401.6 c 255.199 406.018 251.617 409.6 247.199 409.6 c 8
 409.6 l 3.582 409.6 0 406.018 0 401.6 c 0 343.998 l 0 339.58 3.582 335.998
 8 335.998 c 8 81.6 l 8 77.182 11.582 73.6 16 73.6 c 47.602 73.6 l 52.02
 73.6 55.602 77.182 55.602 81.6 c 55.602 86.018 52.02 89.6 47.602 89.6 c
 24 89.6 l 24 335.998 l 385.602 335.998 l 385.602 89.6 l 112 89.6 l 107.582
 89.6 104 86.018 104 81.6 c 104 77.182 107.582 73.6 112 73.6 c 196.801 73.6
 l 196.801 46.623 l 187.488 43.323 180.801 34.428 180.801 23.998 c 180.801
 10.768 191.566 -0.002 204.801 -0.002 c 218.035 -0.002 228.801 10.768 228.801
 23.998 c 228.801 34.428 222.109 43.323 212.801 46.623 c 212.801 73.6 l 
393.602 73.6 l 398.02 73.6 401.602 77.182 401.602 81.6 c 401.602 335.998
 l 406.02 335.998 409.602 339.58 409.602 343.998 c 409.602 401.6 l 409.602
 406.018 406.02 409.6 401.602 409.6 c h
204.801 15.998 m 200.391 15.998 196.801 19.588 196.801 23.998 c 196.801
 28.413 200.391 31.998 204.801 31.998 c 209.211 31.998 212.801 28.413 212.801
 23.998 c 212.801 19.588 209.211 15.998 204.801 15.998 c h
204.801 15.998 m f
154.219 309.073 m 69.629 309.073 l 56.227 309.073 45.324 298.17 45.324 
284.768 c 45.324 271.366 56.227 260.459 69.629 260.459 c 73.562 260.459 
76.785 257.26 76.812 253.327 c 76.82 252.096 l 76.918 238.725 87.875 227.846
 101.246 227.846 c 123.594 227.846 l 136.445 227.846 146.906 238.303 146.906
 251.159 c 146.906 251.788 l 146.906 255.819 150.184 259.1 154.219 259.1
 c 167.07 259.1 177.527 269.557 177.527 282.413 c 177.527 285.76 l 177.527
 298.616 167.07 309.073 154.219 309.073 c h
161.527 282.413 m 161.527 278.381 158.25 275.1 154.219 275.1 c 141.363 
275.1 130.906 264.643 130.906 251.788 c 130.906 251.159 l 130.906 247.127
 127.625 243.846 123.594 243.846 c 101.246 243.846 l 96.633 243.846 92.855
 247.6 92.82 252.213 c 92.812 253.444 l 92.723 266.135 82.32 276.459 69.629
 276.459 c 65.047 276.459 61.324 280.186 61.324 284.768 c 61.324 289.346
 65.047 293.073 69.629 293.073 c 154.219 293.073 l 158.25 293.073 161.527
 289.791 161.527 285.76 c h
161.527 282.413 m f
340.602 293.858 m 336.895 293.858 l 336.59 293.858 336.34 294.108 336.34
 294.409 c 336.34 302.522 l 336.34 311.647 328.914 319.073 319.789 319.073
 c 245.07 319.073 l 228.559 319.073 215.129 305.639 215.129 289.131 c 215.129
 289.045 215.062 288.979 214.977 288.979 c 202.613 288.979 192.559 278.924
 192.559 266.561 c 192.559 252.471 204.023 241.006 218.113 241.006 c 245.258
 241.006 l 245.258 233.592 l 201.723 233.592 l 187.879 233.592 176.617 222.334
 176.617 208.491 c 176.617 200.959 l 176.617 187.12 187.879 175.858 201.723
 175.858 c 204.543 175.858 206.84 173.561 206.84 170.741 c 206.84 123.342
 l 206.84 120.034 208.879 117.065 211.965 115.877 c 212.902 115.518 213.875
 115.342 214.84 115.342 c 217.059 115.342 219.23 116.268 220.773 117.979
 c 236.809 135.721 l 237.523 136.506 238.539 136.959 239.598 136.959 c 250.492
 136.959 259.359 145.823 259.359 156.717 c 259.359 173.725 l 259.359 173.827
 259.441 173.909 259.543 173.909 c 263.32 173.909 l 272.242 173.909 279.504
 181.17 279.504 190.092 c 279.504 199.362 l 279.504 208.288 272.242 215.545
 263.32 215.545 c 263.219 215.545 263.137 215.631 263.137 215.733 c 263.137
 216.35 263.102 216.963 263.043 217.565 c 266.375 217.557 l 266.414 217.557
 l 274.098 217.557 280.445 223.479 281.117 231.002 c 317.934 231.002 l 330.129
 231.002 340.047 240.924 340.047 253.12 c 340.047 253.424 340.297 253.67
 340.602 253.67 c 349.73 253.67 357.152 261.096 357.152 270.225 c 357.152
 277.307 l 357.152 286.432 349.727 293.858 340.602 293.858 c h
263.32 199.549 m 263.422 199.549 263.504 199.463 263.504 199.362 c 263.504
 190.096 l 263.504 189.995 263.422 189.909 263.32 189.909 c 259.543 189.909
 l 250.617 189.909 243.359 182.651 243.359 173.725 c 243.359 156.721 l 243.359
 154.647 241.672 152.959 239.598 152.959 c 234.023 152.959 228.68 150.588
 224.941 146.452 c 222.84 144.127 l 222.84 170.741 l 222.84 182.385 213.367
 191.858 201.723 191.858 c 196.703 191.858 192.621 195.94 192.621 200.959
 c 192.621 208.491 l 192.621 213.51 196.703 217.592 201.723 217.592 c 245.277
 217.592 l 246.301 217.592 247.137 216.76 247.137 215.733 c 247.137 206.807
 254.395 199.549 263.32 199.549 c h
341.156 270.229 m 341.156 269.924 340.906 269.674 340.602 269.674 c 331.477
 269.674 324.051 262.248 324.051 253.123 c 324.051 249.752 321.305 247.006
 317.934 247.006 c 279.934 247.006 l 272.258 247.006 265.906 241.08 265.234
 233.565 c 261.258 233.573 l 261.258 249.006 l 261.258 253.428 257.676 257.006
 253.258 257.006 c 218.113 257.006 l 212.844 257.006 208.559 261.295 208.559
 266.561 c 208.559 270.1 211.438 272.979 214.977 272.979 c 223.883 272.979
 231.129 280.225 231.129 289.131 c 231.129 296.819 237.383 303.073 245.07
 303.073 c 319.789 303.073 l 320.094 303.073 320.34 302.827 320.34 302.522
 c 320.34 294.413 l 320.34 285.288 327.766 277.862 336.895 277.862 c 340.602
 277.862 l 340.906 277.862 341.156 277.616 341.156 277.311 c h
341.156 270.229 m f
150.465 188.116 m 149.32 188.116 l 149.32 194.342 l 149.32 206.6 139.348
 216.573 127.094 216.573 c 93.832 216.573 l 81.48 216.573 71.434 206.526
 71.434 194.174 c 71.434 186.491 l 71.434 174.139 81.484 164.092 93.832 
164.092 c 96.941 164.092 99.473 161.561 99.473 158.452 c 99.473 127.409 
l 99.473 115.897 108.84 106.526 120.355 106.526 c 131.871 106.526 141.238
 115.893 141.238 127.409 c 141.238 137.276 l 141.238 138.971 142.617 140.35
 144.309 140.35 c 150.465 140.35 l 163.637 140.35 174.352 151.065 174.352
 164.233 c 174.352 177.401 163.637 188.116 150.465 188.116 c h
150.465 156.35 m 144.309 156.35 l 133.793 156.35 125.238 147.791 125.238
 137.276 c 125.238 127.409 l 125.238 124.717 123.047 122.526 120.355 122.526
 c 117.664 122.526 115.473 124.717 115.473 127.409 c 115.473 158.452 l 115.473
 170.385 105.766 180.092 93.832 180.092 c 90.305 180.092 87.434 182.963 
87.434 186.491 c 87.434 194.174 l 87.434 197.702 90.305 200.573 93.832 200.573
 c 127.094 200.573 l 130.527 200.573 133.32 197.776 133.32 194.342 c 133.32
 186.975 l 133.32 178.78 139.988 172.116 148.18 172.116 c 150.465 172.116
 l 154.812 172.116 158.352 168.58 158.352 164.233 c 158.352 159.885 154.812
 156.35 150.465 156.35 c h
150.465 156.35 m f
350.117 205.186 m 338.117 205.186 l 324.965 205.186 314.27 194.487 314.27
 181.338 c 314.27 168.19 324.965 157.491 338.117 157.491 c 350.117 157.491
 l 363.266 157.491 373.965 168.19 373.965 181.338 c 373.965 194.487 363.266
 205.186 350.117 205.186 c h
350.117 173.491 m 338.117 173.491 l 333.789 173.491 330.27 177.01 330.27
 181.338 c 330.27 185.666 333.789 189.186 338.117 189.186 c 350.117 189.186
 l 354.445 189.186 357.965 185.666 357.965 181.338 c 357.965 177.01 354.445
 173.491 350.117 173.491 c h
350.117 173.491 m f
85.098 87.256 m 83.602 88.745 81.535 89.6 79.434 89.6 c 77.328 89.6 75.273
 88.745 73.777 87.256 c 72.289 85.768 71.434 83.705 71.434 81.6 c 71.434
 79.495 72.289 77.432 73.777 75.944 c 75.266 74.455 77.328 73.6 79.434 73.6
 c 81.535 73.6 83.602 74.455 85.098 75.944 c 86.586 77.432 87.434 79.495
 87.434 81.6 c 87.434 83.705 86.586 85.768 85.098 87.256 c h
85.098 87.256 m f
Q Q
showpage
%%Trailer
end restore
%%EOF
