%!PS-Adobe-3.0 EPSF-3.0
%%Creator: cairo 1.14.2 (http://cairographics.org)
%%CreationDate: Thu Jul 26 08:14:03 2018
%%Pages: 1
%%DocumentData: Clean7Bit
%%LanguageLevel: 2
%%BoundingBox: 0 -1 410 410
%%EndComments
%%BeginProlog
save
50 dict begin
/q { gsave } bind def
/Q { grestore } bind def
/cm { 6 array astore concat } bind def
/w { setlinewidth } bind def
/J { setlinecap } bind def
/j { setlinejoin } bind def
/M { setmiterlimit } bind def
/d { setdash } bind def
/m { moveto } bind def
/l { lineto } bind def
/c { curveto } bind def
/h { closepath } bind def
/re { exch dup neg 3 1 roll 5 3 roll moveto 0 rlineto
      0 exch rlineto 0 rlineto closepath } bind def
/S { stroke } bind def
/f { fill } bind def
/f* { eofill } bind def
/n { newpath } bind def
/W { clip } bind def
/W* { eoclip } bind def
/BT { } bind def
/ET { } bind def
/pdfmark where { pop globaldict /?pdfmark /exec load put }
    { globaldict begin /?pdfmark /pop load def /pdfmark
    /cleartomark load def end } ifelse
/BDC { mark 3 1 roll /BDC pdfmark } bind def
/EMC { mark /EMC pdfmark } bind def
/cairo_store_point { /cairo_point_y exch def /cairo_point_x exch def } def
/Tj { show currentpoint cairo_store_point } bind def
/TJ {
  {
    dup
    type /stringtype eq
    { show } { -0.001 mul 0 cairo_font_matrix dtransform rmoveto } ifelse
  } forall
  currentpoint cairo_store_point
} bind def
/cairo_selectfont { cairo_font_matrix aload pop pop pop 0 0 6 array astore
    cairo_font exch selectfont cairo_point_x cairo_point_y moveto } bind def
/Tf { pop /cairo_font exch def /cairo_font_matrix where
      { pop cairo_selectfont } if } bind def
/Td { matrix translate cairo_font_matrix matrix concatmatrix dup
      /cairo_font_matrix exch def dup 4 get exch 5 get cairo_store_point
      /cairo_font where { pop cairo_selectfont } if } bind def
/Tm { 2 copy 8 2 roll 6 array astore /cairo_font_matrix exch def
      cairo_store_point /cairo_font where { pop cairo_selectfont } if } bind def
/g { setgray } bind def
/rg { setrgbcolor } bind def
/d1 { setcachedevice } bind def
%%EndProlog
%%BeginSetup
%%EndSetup
%%Page: 1 1
%%BeginPageSetup
%%PageBoundingBox: 0 -1 410 410
%%EndPageSetup
q 0 -1 410 411 rectclip q
0 g
384 247.596 m 384 298.174 l 384 303.643 381.191 308.577 376.488 311.37 
c 216.426 406.409 l 209.254 410.663 200.348 410.666 193.176 406.409 c 33.113
 311.37 l 28.41 308.577 25.602 303.643 25.602 298.174 c 25.602 292.705 28.41
 287.772 33.113 284.979 c 77.973 258.342 l 77.973 211.952 l 77.973 203.248
 82.621 195.084 90.105 190.639 c 192.148 130.053 l 196.051 127.737 200.426
 126.577 204.801 126.577 c 209.176 126.577 213.551 127.737 217.453 130.053
 c 319.496 190.639 l 326.98 195.084 331.629 203.248 331.629 211.952 c 331.629
 258.342 l 368 279.936 l 368 247.596 l 358.688 244.295 352 235.405 352 224.975
 c 352 166.174 l 352 161.756 355.582 158.174 360 158.174 c 392 158.174 l
 396.418 158.174 400 161.756 400 166.174 c 400 224.975 l 400 235.401 393.309
 244.295 384 247.596 c h
196.801 145.897 m 98.273 204.397 l 95.621 205.971 93.973 208.866 93.973
 211.952 c 93.973 248.842 l 193.176 189.94 l 194.344 189.245 195.559 188.678
 196.801 188.213 c h
315.629 211.952 m 315.629 208.87 313.98 205.975 311.328 204.401 c 212.801
 145.897 l 212.801 188.213 l 214.043 188.678 215.258 189.248 216.426 189.94
 c 315.629 248.842 l h
208.254 203.698 m 206.125 202.432 203.477 202.432 201.344 203.698 c 42.227
 298.174 l 201.344 392.647 l 203.477 393.913 206.125 393.913 208.254 392.647
 c 367.371 298.174 l h
384 174.174 m 368 174.174 l 368 224.975 l 368 229.385 371.59 232.975 376
 232.975 c 380.41 232.975 384 229.385 384 224.975 c h
384 174.174 m f
204.801 323.811 m 187.641 323.811 173.68 311.373 173.68 296.08 c 173.68
 280.791 187.641 268.35 204.801 268.35 c 221.961 268.35 235.922 280.791 
235.922 296.08 c 235.922 311.373 221.961 323.811 204.801 323.811 c h
204.801 284.35 m 196.605 284.35 189.68 289.721 189.68 296.08 c 189.68 302.44
 196.605 307.811 204.801 307.811 c 212.996 307.811 219.922 302.44 219.922
 296.08 c 219.922 289.721 212.996 284.35 204.801 284.35 c h
204.801 284.35 m f
348.043 112.401 m 178.402 112.401 l 173.98 112.401 170.402 108.819 170.402
 104.401 c 170.402 99.979 173.98 96.401 178.402 96.401 c 204.801 96.401 
l 229.922 96.401 250.355 75.963 250.355 50.842 c 250.355 31.631 234.727 
15.998 215.512 15.998 c 79.254 15.998 l 87.84 25.108 93.121 37.366 93.121
 50.842 c 93.121 68.881 85.324 85.131 72.922 96.401 c 107.469 96.401 l 111.887
 96.401 115.469 99.979 115.469 104.401 c 115.469 108.819 111.887 112.401
 107.469 112.401 c 31.566 112.401 l 31.41 112.401 31.273 112.393 31.148 
112.377 c 26.926 112.159 23.566 108.678 23.566 104.401 c 23.566 100.299 
26.652 96.928 30.625 96.459 c 30.824 96.42 31.125 96.401 31.566 96.401 c
 56.684 96.401 77.121 75.963 77.121 50.842 c 77.121 31.631 61.488 15.998
 42.277 15.998 c 27.789 15.998 16 27.788 16 42.276 c 16 52.983 24.711 61.694
 35.422 61.694 c 43.105 61.694 49.355 55.444 49.355 47.76 c 49.355 43.342
 52.938 39.76 57.355 39.76 c 61.773 39.76 65.355 43.342 65.355 47.76 c 65.355
 64.268 51.926 77.694 35.422 77.694 c 15.891 77.694 0 61.807 0 42.276 c 
0 18.963 18.965 -0.002 42.277 -0.002 c 358.754 -0.002 l 386.789 -0.002 409.598
 22.807 409.598 50.846 c 409.602 84.788 381.984 112.401 348.043 112.401 
c h
358.754 15.998 m 252.488 15.998 l 261.074 25.108 266.355 37.37 266.355 
50.846 c 266.355 68.881 258.559 85.131 246.156 96.401 c 348.043 96.401 l
 373.164 96.401 393.598 75.963 393.598 50.846 c 393.602 31.631 377.969 15.998
 358.754 15.998 c h
358.754 15.998 m f
148.855 110.057 m 147.367 111.541 145.305 112.401 143.199 112.401 c 141.098
 112.401 139.035 111.541 137.543 110.057 c 136.059 108.569 135.199 106.502
 135.199 104.401 c 135.199 102.295 136.059 100.233 137.543 98.745 c 139.031
 97.256 141.098 96.401 143.199 96.401 c 145.305 96.401 147.367 97.256 148.855
 98.745 c 150.344 100.233 151.199 102.295 151.199 104.401 c 151.199 106.502
 150.344 108.569 148.855 110.057 c h
148.855 110.057 m f
Q Q
showpage
%%Trailer
end restore
%%EOF
