%!PS-Adobe-3.0 EPSF-3.0
%%Creator: cairo 1.14.2 (http://cairographics.org)
%%CreationDate: Thu Jul 26 08:14:03 2018
%%Pages: 1
%%DocumentData: Clean7Bit
%%LanguageLevel: 2
%%BoundingBox: 0 -1 410 410
%%EndComments
%%BeginProlog
save
50 dict begin
/q { gsave } bind def
/Q { grestore } bind def
/cm { 6 array astore concat } bind def
/w { setlinewidth } bind def
/J { setlinecap } bind def
/j { setlinejoin } bind def
/M { setmiterlimit } bind def
/d { setdash } bind def
/m { moveto } bind def
/l { lineto } bind def
/c { curveto } bind def
/h { closepath } bind def
/re { exch dup neg 3 1 roll 5 3 roll moveto 0 rlineto
      0 exch rlineto 0 rlineto closepath } bind def
/S { stroke } bind def
/f { fill } bind def
/f* { eofill } bind def
/n { newpath } bind def
/W { clip } bind def
/W* { eoclip } bind def
/BT { } bind def
/ET { } bind def
/pdfmark where { pop globaldict /?pdfmark /exec load put }
    { globaldict begin /?pdfmark /pop load def /pdfmark
    /cleartomark load def end } ifelse
/BDC { mark 3 1 roll /BDC pdfmark } bind def
/EMC { mark /EMC pdfmark } bind def
/cairo_store_point { /cairo_point_y exch def /cairo_point_x exch def } def
/Tj { show currentpoint cairo_store_point } bind def
/TJ {
  {
    dup
    type /stringtype eq
    { show } { -0.001 mul 0 cairo_font_matrix dtransform rmoveto } ifelse
  } forall
  currentpoint cairo_store_point
} bind def
/cairo_selectfont { cairo_font_matrix aload pop pop pop 0 0 6 array astore
    cairo_font exch selectfont cairo_point_x cairo_point_y moveto } bind def
/Tf { pop /cairo_font exch def /cairo_font_matrix where
      { pop cairo_selectfont } if } bind def
/Td { matrix translate cairo_font_matrix matrix concatmatrix dup
      /cairo_font_matrix exch def dup 4 get exch 5 get cairo_store_point
      /cairo_font where { pop cairo_selectfont } if } bind def
/Tm { 2 copy 8 2 roll 6 array astore /cairo_font_matrix exch def
      cairo_store_point /cairo_font where { pop cairo_selectfont } if } bind def
/g { setgray } bind def
/rg { setrgbcolor } bind def
/d1 { setcachedevice } bind def
%%EndProlog
%%BeginSetup
%%EndSetup
%%Page: 1 1
%%BeginPageSetup
%%PageBoundingBox: 0 -1 410 410
%%EndPageSetup
q 0 -1 410 411 rectclip q
0 g
65.793 45.729 m 64.305 47.217 62.238 48.073 60.137 48.073 c 58.023 48.073
 55.969 47.217 54.48 45.729 c 52.992 44.241 52.137 42.178 52.137 40.073 
c 52.137 37.971 52.992 35.905 54.48 34.416 c 55.969 32.928 58.031 32.073
 60.137 32.073 c 62.238 32.073 64.305 32.928 65.793 34.416 c 67.281 35.905
 68.137 37.971 68.137 40.073 c 68.137 42.186 67.281 44.241 65.793 45.729
 c h
65.793 45.729 m f
102.457 45.729 m 100.969 47.217 98.902 48.073 96.801 48.073 c 94.695 48.073
 92.633 47.217 91.145 45.729 c 89.656 44.241 88.801 42.186 88.801 40.073
 c 88.801 37.971 89.656 35.905 91.145 34.416 c 92.633 32.928 94.695 32.073
 96.801 32.073 c 98.902 32.073 100.969 32.928 102.457 34.416 c 103.945 35.905
 104.801 37.971 104.801 40.073 c 104.801 42.178 103.945 44.241 102.457 45.729
 c h
102.457 45.729 m f
139.121 45.729 m 137.633 47.217 135.574 48.073 133.465 48.073 c 131.359
 48.073 129.297 47.217 127.809 45.729 c 126.32 44.241 125.465 42.186 125.465
 40.073 c 125.465 37.971 126.32 35.905 127.809 34.42 c 129.297 32.932 131.359
 32.073 133.465 32.073 c 135.566 32.073 137.633 32.932 139.121 34.42 c 140.609
 35.905 141.465 37.971 141.465 40.073 c 141.465 42.178 140.609 44.241 139.121
 45.729 c h
139.121 45.729 m f
371.906 358.413 m 371.906 360.534 371.062 362.569 369.562 364.069 c 339.043
 394.588 293.414 401.01 256.531 383.346 c 236.559 403.319 l 228.215 411.663
 214.637 411.659 206.293 403.319 c 190.074 387.096 l 186.035 383.057 183.809
 377.682 183.809 371.963 c 183.809 370.131 184.039 368.33 184.484 366.6 
c 99.145 281.26 l 97.645 279.76 96.801 277.725 96.801 275.604 c 96.801 83.225
 l 74 83.225 l 33.195 83.225 0 50.03 0 9.225 c 0 8.026 l 0 3.608 3.582 0.026
 8 0.026 c 249.965 0.026 l 254.383 0.026 257.965 3.608 257.965 8.026 c 257.965
 9.225 l 257.965 50.03 224.77 83.225 183.965 83.225 c 144.602 83.225 l 144.602
 257.311 l 202.645 315.358 l 195.633 283.405 204.523 248.631 229.324 223.83
 c 230.824 222.33 232.859 221.487 234.98 221.487 c 237.102 221.487 239.137
 222.33 240.637 223.83 c 269.852 253.045 l 278.406 246.827 288.664 243.463
 299.441 243.463 c 312.926 243.463 325.605 248.713 335.141 258.252 c 344.676
 267.788 349.926 280.463 349.926 293.948 c 349.926 304.729 346.562 314.987
 340.348 323.538 c 369.562 352.756 l 371.062 354.256 371.906 356.291 371.906
 358.413 c h
201.391 375.784 m 217.609 392.002 l 219.711 394.108 223.141 394.108 225.242
 392.002 c 242.27 374.975 l 237.723 371.768 233.387 368.135 229.324 364.069
 c 225.258 360.002 221.625 355.666 218.414 351.123 c 201.391 368.147 l 200.367
 369.166 199.809 370.522 199.809 371.963 c 199.809 373.409 200.367 374.764
 201.391 375.784 c h
183.965 67.225 m 213.645 67.225 238.191 44.815 241.566 16.026 c 16.395 
16.026 l 19.773 44.815 44.316 67.225 74 67.225 c h
130.941 266.284 m 129.441 264.784 128.602 262.748 128.602 260.627 c 128.602
 83.225 l 112.801 83.225 l 112.801 272.291 l 193.711 353.198 l 205.785 341.123
 l h
323.824 269.565 m 312.328 258.069 294.668 256.413 281.387 264.577 c 328.812
 312.006 l 336.98 298.721 335.324 281.065 323.824 269.565 c h
323.832 329.651 m 323.828 329.647 l 323.82 329.643 l 263.746 269.569 l 
263.746 269.569 263.746 269.565 263.746 269.565 c 263.742 269.565 263.742
 269.565 263.742 269.561 c 235.25 241.069 l 208.324 273.705 210.121 322.237
 240.637 352.756 c 256.848 368.967 278.145 377.073 299.441 377.073 c 318.234
 377.073 337.023 370.764 352.32 358.139 c h
323.832 329.651 m f
401.602 331.991 m 367.867 331.991 l 363.449 331.991 359.867 328.409 359.867
 323.991 c 359.867 319.573 363.449 315.991 367.867 315.991 c 401.602 315.991
 l 406.02 315.991 409.602 319.573 409.602 323.991 c 409.602 328.409 406.02
 331.991 401.602 331.991 c h
401.602 331.991 m f
262.102 221.627 m 257.684 221.627 254.102 218.045 254.102 213.627 c 254.102
 168.827 l 254.102 164.409 257.684 160.827 262.102 160.827 c 266.52 160.827
 270.102 164.409 270.102 168.827 c 270.102 213.627 l 270.102 218.045 266.52
 221.627 262.102 221.627 c h
262.102 221.627 m f
267.762 144.491 m 266.273 145.979 264.207 146.834 262.105 146.834 c 259.992
 146.834 257.938 145.979 256.449 144.491 c 254.961 143.002 254.105 140.936
 254.105 138.827 c 254.105 136.721 254.961 134.666 256.449 133.17 c 257.938
 131.682 259.992 130.834 262.105 130.834 c 264.207 130.834 266.273 131.682
 267.762 133.17 c 269.246 134.666 270.105 136.721 270.105 138.827 c 270.105
 140.936 269.246 142.995 267.762 144.491 c h
267.762 144.491 m f
Q Q
showpage
%%Trailer
end restore
%%EOF
