<?xml version="1.0" encoding="iso-8859-1"?>
<!-- Generator: Adobe Illustrator 19.0.0, SVG Export Plug-In . SVG Version: 6.00 Build 0)  -->
<svg version="1.1" id="Capa_1" xmlns="http://www.w3.org/2000/svg" xmlns:xlink="http://www.w3.org/1999/xlink" x="0px" y="0px"
	 viewBox="0 0 480 480" style="enable-background:new 0 0 480 480;" xml:space="preserve">
<g>
	<g>
		<path d="M479.016,468.16L301.504,144H360v88c0,4.418,3.582,8,8,8h32c4.418,0,8-3.582,8-8V8c0-4.418-3.582-8-8-8H80
			c-4.418,0-8,3.582-8,8v224c0,4.418,3.582,8,8,8h32c4.418,0,8-3.582,8-8v-88h58.496L0.984,468.16
			c-1.357,2.479-1.305,5.489,0.136,7.92C2.56,478.51,5.175,480,8,480h464c4.418-0.001,7.999-3.584,7.998-8.002
			C479.997,470.656,479.66,469.337,479.016,468.16z M392,224h-16v-80h16V224z M344,16h48v48h-48V16z M344,80h48v48h-48V80z M280,16
			h48v48h-48V16z M280,80h48v48h-48V80z M216,16h48v48h-48V16z M216,80h48v48h-48V80z M152,16h48v48h-48V16z M104,224H88v-80h16V224
			z M136,128H88V80h48V128z M136,64H88V16h48V64z M152,128V80h48v48H152z M248,464V344c0-4.418-3.582-8-8-8s-8,3.582-8,8v120H21.504
			l175.232-320H232v24c0,4.418,3.582,8,8,8s8-3.582,8-8v-24h35.264l175.2,320H248z"/>
	</g>
</g>
<g>
	<g>
		<path d="M240,200c-4.418,0-8,3.582-8,8v80c0,4.418,3.582,8,8,8s8-3.582,8-8v-80C248,203.582,244.418,200,240,200z"/>
	</g>
</g>
<g>
	<g>
		<path d="M476,97.072c-8.203-4.068-17.772-4.361-26.208-0.8c-6.4,1.856-10.24,2.792-13.792,0.8
			c-3.826-2.209-8.719-0.898-10.928,2.928c-0.702,1.216-1.072,2.596-1.072,4v128c0,4.418,3.582,8,8,8s8-3.582,8-8v-85.792h0.392
			c4.704-0.19,9.359-1.043,13.824-2.536c6.4-1.856,10.232-2.784,13.792-0.76c3.829,2.205,8.72,0.888,10.925-2.941
			c0.696-1.208,1.064-2.577,1.067-3.971v-32C480,101.142,478.475,98.501,476,97.072z M464,125.776
			c-4.835,0.168-9.621,1.022-14.216,2.536c-3.145,1.13-6.445,1.769-9.784,1.896v-16c4.835-0.163,9.623-1.017,14.216-2.536
			c3.145-1.125,6.445-1.759,9.784-1.88V125.776z"/>
	</g>
</g>
<g>
	<g>
		<path d="M48.008,96c-1.404,0-2.784,0.37-4,1.072c-3.552,2.032-7.368,1.096-13.792-0.8c-8.436-3.561-18.005-3.268-26.208,0.8
			C1.53,98.499,0.002,101.14,0,104v32c0,2.858,1.525,5.499,4,6.928c2.475,1.429,5.525,1.429,8,0c3.56-2.024,7.368-1.096,13.792,0.76
			c4.465,1.493,9.12,2.346,13.824,2.536h0.392V232c0.003,4.418,3.587,7.997,8.006,7.994c4.414-0.003,7.991-3.581,7.994-7.994V104
			C56.008,99.582,52.426,96,48.008,96z M40,130.224c-3.339-0.132-6.638-0.771-9.784-1.896c-4.465-1.493-9.12-2.346-13.824-2.536H16
			v-16c3.341,0.116,6.642,0.755,9.784,1.896c4.591,1.528,9.38,2.383,14.216,2.536V130.224z"/>
	</g>
</g>
<g>
</g>
<g>
</g>
<g>
</g>
<g>
</g>
<g>
</g>
<g>
</g>
<g>
</g>
<g>
</g>
<g>
</g>
<g>
</g>
<g>
</g>
<g>
</g>
<g>
</g>
<g>
</g>
<g>
</g>
</svg>
