%!PS-Adobe-3.0 EPSF-3.0
%%Creator: cairo 1.14.2 (http://cairographics.org)
%%CreationDate: Fri Jun 15 11:41:46 2018
%%Pages: 1
%%DocumentData: Clean7Bit
%%LanguageLevel: 2
%%BoundingBox: 13 -1 396 410
%%EndComments
%%BeginProlog
save
50 dict begin
/q { gsave } bind def
/Q { grestore } bind def
/cm { 6 array astore concat } bind def
/w { setlinewidth } bind def
/J { setlinecap } bind def
/j { setlinejoin } bind def
/M { setmiterlimit } bind def
/d { setdash } bind def
/m { moveto } bind def
/l { lineto } bind def
/c { curveto } bind def
/h { closepath } bind def
/re { exch dup neg 3 1 roll 5 3 roll moveto 0 rlineto
      0 exch rlineto 0 rlineto closepath } bind def
/S { stroke } bind def
/f { fill } bind def
/f* { eofill } bind def
/n { newpath } bind def
/W { clip } bind def
/W* { eoclip } bind def
/BT { } bind def
/ET { } bind def
/pdfmark where { pop globaldict /?pdfmark /exec load put }
    { globaldict begin /?pdfmark /pop load def /pdfmark
    /cleartomark load def end } ifelse
/BDC { mark 3 1 roll /BDC pdfmark } bind def
/EMC { mark /EMC pdfmark } bind def
/cairo_store_point { /cairo_point_y exch def /cairo_point_x exch def } def
/Tj { show currentpoint cairo_store_point } bind def
/TJ {
  {
    dup
    type /stringtype eq
    { show } { -0.001 mul 0 cairo_font_matrix dtransform rmoveto } ifelse
  } forall
  currentpoint cairo_store_point
} bind def
/cairo_selectfont { cairo_font_matrix aload pop pop pop 0 0 6 array astore
    cairo_font exch selectfont cairo_point_x cairo_point_y moveto } bind def
/Tf { pop /cairo_font exch def /cairo_font_matrix where
      { pop cairo_selectfont } if } bind def
/Td { matrix translate cairo_font_matrix matrix concatmatrix dup
      /cairo_font_matrix exch def dup 4 get exch 5 get cairo_store_point
      /cairo_font where { pop cairo_selectfont } if } bind def
/Tm { 2 copy 8 2 roll 6 array astore /cairo_font_matrix exch def
      cairo_store_point /cairo_font where { pop cairo_selectfont } if } bind def
/g { setgray } bind def
/rg { setrgbcolor } bind def
/d1 { setcachedevice } bind def
%%EndProlog
%%BeginSetup
%%EndSetup
%%Page: 1 1
%%BeginPageSetup
%%PageBoundingBox: 13 -1 396 410
%%EndPageSetup
q 13 -1 383 411 rectclip q
0.431373 0.529412 0.960784 rg
342.195 7.998 m 67.406 7.998 l 42.219 7.998 21.797 28.42 21.797 53.607 
c 21.797 355.994 l 21.797 381.181 42.219 401.599 67.406 401.599 c 342.195
 401.599 l 367.383 401.599 387.801 381.181 387.801 355.994 c 387.801 53.607
 l 387.801 28.42 367.383 7.998 342.195 7.998 c h
342.195 7.998 m f
0.843137 0.980392 0.568627 rg
65 358.4 278.398 -83.199 re f
0.843137 0.843137 0.901961 rg
65 143.998 92.801 -92.797 re f
65 236.798 92.801 -92.801 re f
157.801 143.998 92.801 -92.797 re f
0.960784 0.784314 0.431373 rg
250.602 236.798 92.797 -185.598 re f
0.843137 0.843137 0.901961 rg
157.801 236.798 92.801 -92.801 re f
0 g
351.398 358.4 m 351.398 362.818 347.816 366.4 343.398 366.4 c 65 366.4 
l 60.582 366.4 57 362.818 57 358.4 c 57 275.201 l 57 270.779 60.582 267.201
 65 267.201 c 343.398 267.201 l 347.816 267.201 351.398 270.779 351.398 
275.201 c h
73 350.4 m 258.844 350.4 l 191.906 283.462 l 191.824 283.377 191.75 283.287
 191.672 283.201 c 145.539 283.201 l 165.34 302.998 l 168.465 306.123 168.465
 311.189 165.34 314.314 c 162.215 317.435 157.152 317.435 154.027 314.314
 c 122.91 283.201 l 73 283.201 l h
335.398 283.201 m 214.273 283.201 l 281.473 350.4 l 335.398 350.4 l h
335.398 283.201 m f
131.797 198.4 m 119.398 198.4 l 119.398 210.798 l 119.398 215.216 115.816
 218.798 111.398 218.798 c 106.98 218.798 103.398 215.216 103.398 210.798
 c 103.398 198.4 l 91 198.4 l 86.582 198.4 83 194.818 83 190.4 c 83 185.982
 86.582 182.4 91 182.4 c 103.398 182.4 l 103.398 169.998 l 103.398 165.58
 106.98 161.998 111.398 161.998 c 115.816 161.998 119.398 165.58 119.398
 169.998 c 119.398 182.4 l 131.797 182.4 l 136.215 182.4 139.797 185.982
 139.797 190.4 c 139.797 194.818 136.215 198.4 131.797 198.4 c h
131.797 198.4 m f
224.598 105.599 m 183.797 105.599 l 179.379 105.599 175.797 102.017 175.797
 97.599 c 175.797 93.181 179.379 89.599 183.797 89.599 c 224.598 89.599 
l 229.016 89.599 232.598 93.181 232.598 97.599 c 232.598 102.017 229.016
 105.599 224.598 105.599 c h
224.598 105.599 m f
204.199 112.935 m 206.301 112.935 208.367 113.783 209.855 115.271 c 211.34
 116.767 212.199 118.822 212.199 120.935 c 212.199 123.041 211.344 125.095
 209.855 126.591 c 208.367 128.08 206.301 128.935 204.199 128.935 c 202.094
 128.935 200.031 128.08 198.543 126.591 c 197.055 125.103 196.199 123.041
 196.199 120.935 c 196.199 118.822 197.055 116.767 198.543 115.271 c 200.031
 113.783 202.094 112.935 204.199 112.935 c h
204.199 112.935 m f
204.199 82.263 m 202.094 82.263 200.031 81.416 198.543 79.92 c 197.055 
78.431 196.199 76.377 196.199 74.263 c 196.199 72.158 197.055 70.095 198.543
 68.607 c 200.031 67.119 202.094 66.263 204.199 66.263 c 206.301 66.263 
208.367 67.119 209.855 68.607 c 211.34 70.095 212.199 72.158 212.199 74.263
 c 212.199 76.369 211.344 78.431 209.855 79.92 c 208.367 81.416 206.301 
82.263 204.199 82.263 c h
204.199 82.263 m f
183.797 182.4 m 224.598 182.4 l 229.016 182.4 232.598 185.982 232.598 190.4
 c 232.598 194.818 229.016 198.4 224.598 198.4 c 183.797 198.4 l 179.379
 198.4 175.797 194.818 175.797 190.4 c 175.797 185.982 179.379 182.4 183.797
 182.4 c h
183.797 182.4 m f
131.48 117.681 m 128.355 120.806 123.293 120.806 120.164 117.681 c 111.398
 108.912 l 102.629 117.681 l 99.504 120.806 94.441 120.806 91.316 117.681
 c 88.191 114.556 88.191 109.494 91.316 106.369 c 100.082 97.599 l 91.316
 88.83 l 88.191 85.709 88.191 80.642 91.316 77.517 c 92.879 75.955 94.926
 75.173 96.973 75.173 c 99.02 75.173 101.066 75.955 102.629 77.517 c 111.398
 86.287 l 120.164 77.517 l 121.727 75.955 123.773 75.173 125.82 75.173 c
 127.867 75.173 129.914 75.955 131.477 77.517 c 134.602 80.642 134.602 85.705
 131.477 88.83 c 122.711 97.599 l 131.48 106.369 l 134.605 109.49 134.605
 114.556 131.48 117.681 c h
131.48 117.681 m f
179.414 320.392 m 181.52 320.392 183.582 321.248 185.07 322.736 c 186.559
 324.224 187.414 326.287 187.414 328.392 c 187.414 330.494 186.559 332.56
 185.07 334.048 c 183.582 335.537 181.527 336.392 179.414 336.392 c 177.309
 336.392 175.246 335.537 173.758 334.048 c 172.27 332.56 171.414 330.494
 171.414 328.392 c 171.414 326.287 172.27 324.224 173.758 322.736 c 175.246
 321.248 177.309 320.392 179.414 320.392 c h
179.414 320.392 m f
343.398 244.798 m 65 244.798 l 60.582 244.798 57 241.216 57 236.798 c 57
 51.201 l 57 46.779 60.582 43.201 65 43.201 c 343.398 43.201 l 347.816 43.201
 351.398 46.779 351.398 51.201 c 351.398 236.798 l 351.398 241.216 347.816
 244.798 343.398 244.798 c h
242.598 151.998 m 165.797 151.998 l 165.797 228.798 l 242.598 228.798 l
 h
73 228.798 m 149.797 228.798 l 149.797 151.998 l 73 151.998 l h
73 135.998 m 149.797 135.998 l 149.797 59.201 l 73 59.201 l h
165.797 135.998 m 242.598 135.998 l 242.598 59.201 l 165.797 59.201 l h
335.398 59.201 m 258.598 59.201 l 258.598 228.798 l 335.398 228.798 l h
335.398 59.201 m f
277.797 155.201 m 316.199 155.201 l 320.617 155.201 324.199 158.779 324.199
 163.201 c 324.199 167.619 320.617 171.201 316.199 171.201 c 277.797 171.201
 l 273.379 171.201 269.797 167.619 269.797 163.201 c 269.797 158.779 273.379
 155.201 277.797 155.201 c h
277.797 155.201 m f
277.797 116.798 m 316.199 116.798 l 320.617 116.798 324.199 120.38 324.199
 124.798 c 324.199 129.216 320.617 132.798 316.199 132.798 c 277.797 132.798
 l 273.379 132.798 269.797 129.216 269.797 124.798 c 269.797 120.38 273.379
 116.798 277.797 116.798 c h
277.797 116.798 m f
395.801 355.994 m 395.801 385.552 371.754 409.599 342.195 409.599 c 67.406
 409.599 l 37.848 409.599 13.797 385.552 13.797 355.994 c 13.797 53.607 
l 13.797 24.048 37.848 0.002 67.406 0.002 c 342.195 0.002 l 371.754 0.002
 395.801 24.048 395.801 53.607 c 395.801 226.4 l 395.801 230.818 392.219
 234.4 387.801 234.4 c 383.383 234.4 379.801 230.818 379.801 226.4 c 379.801
 53.607 l 379.801 32.869 362.93 15.998 342.195 15.998 c 67.406 15.998 l 
46.668 15.998 29.797 32.869 29.797 53.607 c 29.797 355.994 l 29.797 376.728
 46.668 393.599 67.406 393.599 c 342.195 393.599 l 362.93 393.599 379.801
 376.728 379.801 355.994 c 379.801 285.599 l 379.801 281.181 383.383 277.599
 387.801 277.599 c 392.219 277.599 395.801 281.181 395.801 285.599 c h
395.801 355.994 m f
382.148 262.056 m 380.652 260.568 379.797 258.502 379.797 256.4 c 379.797
 254.295 380.652 252.232 382.148 250.744 c 383.629 249.255 385.695 248.4
 387.805 248.4 c 389.91 248.4 391.965 249.255 393.461 250.744 c 394.949 
252.232 395.797 254.295 395.797 256.4 c 395.797 258.502 394.949 260.568 
393.461 262.056 c 391.973 263.545 389.91 264.4 387.805 264.4 c 385.695 264.4
 383.629 263.545 382.148 262.056 c h
382.148 262.056 m f
Q Q
showpage
%%Trailer
end restore
%%EOF
