%!PS-Adobe-3.0 EPSF-3.0
%%Creator: cairo 1.14.2 (http://cairographics.org)
%%CreationDate: Fri Jun 15 11:41:46 2018
%%Pages: 1
%%DocumentData: Clean7Bit
%%LanguageLevel: 2
%%BoundingBox: 0 15 410 394
%%EndComments
%%BeginProlog
save
50 dict begin
/q { gsave } bind def
/Q { grestore } bind def
/cm { 6 array astore concat } bind def
/w { setlinewidth } bind def
/J { setlinecap } bind def
/j { setlinejoin } bind def
/M { setmiterlimit } bind def
/d { setdash } bind def
/m { moveto } bind def
/l { lineto } bind def
/c { curveto } bind def
/h { closepath } bind def
/re { exch dup neg 3 1 roll 5 3 roll moveto 0 rlineto
      0 exch rlineto 0 rlineto closepath } bind def
/S { stroke } bind def
/f { fill } bind def
/f* { eofill } bind def
/n { newpath } bind def
/W { clip } bind def
/W* { eoclip } bind def
/BT { } bind def
/ET { } bind def
/pdfmark where { pop globaldict /?pdfmark /exec load put }
    { globaldict begin /?pdfmark /pop load def /pdfmark
    /cleartomark load def end } ifelse
/BDC { mark 3 1 roll /BDC pdfmark } bind def
/EMC { mark /EMC pdfmark } bind def
/cairo_store_point { /cairo_point_y exch def /cairo_point_x exch def } def
/Tj { show currentpoint cairo_store_point } bind def
/TJ {
  {
    dup
    type /stringtype eq
    { show } { -0.001 mul 0 cairo_font_matrix dtransform rmoveto } ifelse
  } forall
  currentpoint cairo_store_point
} bind def
/cairo_selectfont { cairo_font_matrix aload pop pop pop 0 0 6 array astore
    cairo_font exch selectfont cairo_point_x cairo_point_y moveto } bind def
/Tf { pop /cairo_font exch def /cairo_font_matrix where
      { pop cairo_selectfont } if } bind def
/Td { matrix translate cairo_font_matrix matrix concatmatrix dup
      /cairo_font_matrix exch def dup 4 get exch 5 get cairo_store_point
      /cairo_font where { pop cairo_selectfont } if } bind def
/Tm { 2 copy 8 2 roll 6 array astore /cairo_font_matrix exch def
      cairo_store_point /cairo_font where { pop cairo_selectfont } if } bind def
/g { setgray } bind def
/rg { setrgbcolor } bind def
/d1 { setcachedevice } bind def
%%EndProlog
%%BeginSetup
%%EndSetup
%%Page: 1 1
%%BeginPageSetup
%%PageBoundingBox: 0 15 410 394
%%EndPageSetup
q 0 15 410 379 rectclip q
1 g
401.602 39.998 m 401.602 305.866 l 401.602 326.041 385.242 342.401 365.066
 342.401 c 44.535 342.401 l 24.355 342.401 8 326.041 8 305.866 c 8 39.998
 l 8 31.163 15.164 23.998 24 23.998 c 385.602 23.998 l 394.438 23.998 401.602
 31.163 401.602 39.998 c h
401.602 39.998 m f
1 0.352941 0.352941 rg
365.066 342.401 m 44.535 342.401 l 24.355 342.401 8 326.041 8 305.866 c
 8 252.799 l 401.602 252.799 l 401.602 305.866 l 401.602 326.041 385.242
 342.401 365.066 342.401 c h
365.066 342.401 m f
0.960784 0.784314 0.431373 rg
76.801 159.998 m 62.66 159.998 51.199 171.463 51.199 185.6 c 51.199 199.737
 62.66 211.202 76.801 211.202 c 90.938 211.202 102.398 199.737 102.398 185.6
 c 102.398 171.463 90.938 159.998 76.801 159.998 c h
76.801 159.998 m f
0.647059 0.862745 0.411765 rg
332.801 159.998 m 318.66 159.998 307.199 171.463 307.199 185.6 c 307.199
 199.737 318.66 211.202 332.801 211.202 c 346.938 211.202 358.398 199.737
 358.398 185.6 c 358.398 171.463 346.938 159.998 332.801 159.998 c h
332.801 159.998 m f
0.960784 0.784314 0.431373 rg
247.465 159.998 m 233.328 159.998 221.867 171.463 221.867 185.6 c 221.867
 199.737 233.328 211.202 247.465 211.202 c 261.605 211.202 273.066 199.737
 273.066 185.6 c 273.066 171.463 261.605 159.998 247.465 159.998 c h
247.465 159.998 m f
1 g
162.133 159.998 m 147.996 159.998 136.535 171.463 136.535 185.6 c 136.535
 199.737 147.996 211.202 162.133 211.202 c 176.273 211.202 187.734 199.737
 187.734 185.6 c 187.734 171.463 176.273 159.998 162.133 159.998 c h
162.133 159.998 m f
0.960784 0.784314 0.431373 rg
76.801 62.401 m 62.66 62.401 51.199 73.862 51.199 87.998 c 51.199 102.139
 62.66 113.6 76.801 113.6 c 90.938 113.6 102.398 102.139 102.398 87.998 
c 102.398 73.862 90.938 62.401 76.801 62.401 c h
76.801 62.401 m f
247.465 62.401 m 233.328 62.401 221.867 73.862 221.867 87.998 c 221.867
 102.139 233.328 113.6 247.465 113.6 c 261.605 113.6 273.066 102.139 273.066
 87.998 c 273.066 73.862 261.605 62.401 247.465 62.401 c h
247.465 62.401 m f
0.647059 0.862745 0.411765 rg
332.801 62.401 m 318.66 62.401 307.199 73.862 307.199 87.998 c 307.199 
102.139 318.66 113.6 332.801 113.6 c 346.938 113.6 358.398 102.139 358.398
 87.998 c 358.398 73.862 346.938 62.401 332.801 62.401 c h
332.801 62.401 m f
0.960784 0.784314 0.431373 rg
162.133 62.401 m 147.996 62.401 136.535 73.862 136.535 87.998 c 136.535
 102.139 147.996 113.6 162.133 113.6 c 176.273 113.6 187.734 102.139 187.734
 87.998 c 187.734 73.862 176.273 62.401 162.133 62.401 c h
162.133 62.401 m f
162.133 159.998 m 147.996 159.998 136.535 171.463 136.535 185.6 c 136.535
 199.737 147.996 211.202 162.133 211.202 c 176.273 211.202 187.734 199.737
 187.734 185.6 c 187.734 171.463 176.273 159.998 162.133 159.998 c h
162.133 159.998 m f
0 g
372.32 247.143 m 373.809 248.631 374.664 250.698 374.664 252.799 c 374.664
 254.905 373.809 256.967 372.32 258.455 c 370.832 259.944 368.773 260.799
 366.664 260.799 c 364.559 260.799 362.496 259.944 361.008 258.455 c 359.52
 256.967 358.664 254.905 358.664 252.799 c 358.664 250.698 359.52 248.631
 361.008 247.143 c 362.496 245.655 364.559 244.799 366.664 244.799 c 368.777
 244.799 370.832 245.655 372.32 247.143 c h
372.32 247.143 m f
365.066 350.401 m 355.906 350.401 l 357.32 351.842 358.195 353.819 358.195
 355.998 c 358.195 366.401 l 358.195 381.397 345.996 393.6 330.996 393.6
 c 316 393.6 303.797 381.397 303.797 366.401 c 303.797 350.401 l 229.605
 350.401 l 231.023 351.842 231.898 353.819 231.898 355.998 c 231.898 366.401
 l 231.898 381.397 219.695 393.6 204.699 393.6 c 189.699 393.6 177.5 381.397
 177.5 366.401 c 177.5 350.401 l 103.309 350.401 l 104.723 351.842 105.602
 353.819 105.602 355.998 c 105.602 366.401 l 105.602 381.397 93.398 393.6
 78.398 393.6 c 63.402 393.6 51.199 381.397 51.199 366.401 c 51.199 350.401
 l 44.535 350.401 l 19.977 350.401 0 330.424 0 305.866 c 0 39.998 l 0 26.768
 10.766 15.998 24 15.998 c 162.133 15.998 l 166.551 15.998 170.133 19.58
 170.133 23.998 c 170.133 28.42 166.551 31.998 162.133 31.998 c 24 31.998
 l 19.59 31.998 16 35.588 16 39.998 c 16 244.799 l 327.473 244.799 l 331.891
 244.799 335.473 248.381 335.473 252.799 c 335.473 257.217 331.891 260.799
 327.473 260.799 c 16 260.799 l 16 305.866 l 16 321.6 28.801 334.401 44.535
 334.401 c 51.199 334.401 l 51.199 315.065 l 51.199 300.069 63.402 287.866
 78.398 287.866 c 93.398 287.866 105.602 300.069 105.602 315.065 c 105.602
 319.483 102.02 323.065 97.602 323.065 c 93.184 323.065 89.602 319.483 89.602
 315.065 c 89.602 308.889 84.574 303.866 78.398 303.866 c 72.223 303.866
 67.199 308.889 67.199 315.065 c 67.199 334.401 l 177.5 334.401 l 177.5 
315.065 l 177.5 300.069 189.699 287.866 204.699 287.866 c 219.695 287.866
 231.898 300.069 231.898 315.065 c 231.898 319.483 228.316 323.065 223.898
 323.065 c 219.48 323.065 215.898 319.483 215.898 315.065 c 215.898 308.889
 210.875 303.866 204.699 303.866 c 198.523 303.866 193.5 308.889 193.5 315.065
 c 193.5 334.401 l 303.797 334.401 l 303.797 315.065 l 303.797 300.069 316
 287.866 330.996 287.866 c 345.996 287.866 358.195 300.069 358.195 315.065
 c 358.195 319.483 354.613 323.065 350.195 323.065 c 345.777 323.065 342.195
 319.483 342.195 315.065 c 342.195 308.889 337.172 303.866 330.996 303.866
 c 324.82 303.866 319.797 308.889 319.797 315.065 c 319.797 334.401 l 365.066
 334.401 l 380.801 334.401 393.602 321.6 393.602 305.866 c 393.602 39.998
 l 393.602 35.588 390.012 31.998 385.602 31.998 c 247.465 31.998 l 243.047
 31.998 239.465 28.42 239.465 23.998 c 239.465 19.58 243.047 15.998 247.465
 15.998 c 385.602 15.998 l 398.832 15.998 409.602 26.768 409.602 39.998 
c 409.602 305.866 l 409.602 330.424 389.621 350.401 365.066 350.401 c h
67.199 366.401 m 67.199 372.577 72.223 377.6 78.398 377.6 c 84.574 377.6
 89.602 372.577 89.602 366.401 c 89.602 355.998 l 89.602 353.819 90.477 
351.842 91.891 350.401 c 67.199 350.401 l h
193.5 366.401 m 193.5 372.577 198.523 377.6 204.699 377.6 c 210.875 377.6
 215.898 372.577 215.898 366.401 c 215.898 355.998 l 215.898 353.819 216.773
 351.842 218.191 350.401 c 193.5 350.401 l h
319.797 366.401 m 319.797 372.577 324.82 377.6 330.996 377.6 c 337.172 
377.6 342.195 372.577 342.195 366.401 c 342.195 355.998 l 342.195 353.819
 343.074 351.842 344.488 350.401 c 319.797 350.401 l h
319.797 366.401 m f
76.801 219.202 m 58.273 219.202 43.199 204.127 43.199 185.6 c 43.199 167.073
 58.273 151.998 76.801 151.998 c 95.328 151.998 110.398 167.073 110.398 
185.6 c 110.398 204.127 95.328 219.202 76.801 219.202 c h
76.801 167.998 m 67.094 167.998 59.199 175.897 59.199 185.6 c 59.199 195.303
 67.094 203.202 76.801 203.202 c 86.504 203.202 94.398 195.303 94.398 185.6
 c 94.398 175.897 86.504 167.998 76.801 167.998 c h
76.801 167.998 m f
332.801 219.202 m 314.273 219.202 299.199 204.127 299.199 185.6 c 299.199
 167.073 314.273 151.998 332.801 151.998 c 351.328 151.998 366.398 167.073
 366.398 185.6 c 366.398 204.127 351.328 219.202 332.801 219.202 c h
332.801 167.998 m 323.094 167.998 315.199 175.897 315.199 185.6 c 315.199
 195.303 323.094 203.202 332.801 203.202 c 342.504 203.202 350.398 195.303
 350.398 185.6 c 350.398 175.897 342.504 167.998 332.801 167.998 c h
332.801 167.998 m f
247.465 151.998 m 265.992 151.998 281.066 167.073 281.066 185.6 c 281.066
 204.127 265.992 219.202 247.465 219.202 c 228.938 219.202 213.867 204.127
 213.867 185.6 c 213.867 167.073 228.938 151.998 247.465 151.998 c h
247.465 203.202 m 257.172 203.202 265.066 195.303 265.066 185.6 c 265.066
 175.897 257.172 167.998 247.465 167.998 c 237.762 167.998 229.867 175.897
 229.867 185.6 c 229.867 195.303 237.762 203.202 247.465 203.202 c h
247.465 203.202 m f
162.133 219.202 m 143.605 219.202 128.535 204.127 128.535 185.6 c 128.535
 167.073 143.605 151.998 162.133 151.998 c 180.66 151.998 195.734 167.073
 195.734 185.6 c 195.734 204.127 180.66 219.202 162.133 219.202 c h
162.133 167.998 m 152.43 167.998 144.535 175.897 144.535 185.6 c 144.535
 195.303 152.43 203.202 162.133 203.202 c 171.84 203.202 179.734 195.303
 179.734 185.6 c 179.734 175.897 171.84 167.998 162.133 167.998 c h
162.133 167.998 m f
76.801 121.6 m 58.273 121.6 43.199 106.526 43.199 87.998 c 43.199 69.471
 58.273 54.401 76.801 54.401 c 95.328 54.401 110.398 69.471 110.398 87.998
 c 110.398 106.526 95.328 121.6 76.801 121.6 c h
76.801 70.401 m 67.094 70.401 59.199 78.295 59.199 87.998 c 59.199 97.705
 67.094 105.6 76.801 105.6 c 86.504 105.6 94.398 97.705 94.398 87.998 c 
94.398 78.295 86.504 70.401 76.801 70.401 c h
76.801 70.401 m f
281.066 87.998 m 281.066 106.526 265.992 121.6 247.465 121.6 c 228.938 
121.6 213.867 106.526 213.867 87.998 c 213.867 69.471 228.938 54.401 247.465
 54.401 c 265.992 54.401 281.066 69.471 281.066 87.998 c h
229.867 87.998 m 229.867 97.705 237.762 105.6 247.465 105.6 c 257.172 105.6
 265.066 97.705 265.066 87.998 c 265.066 78.295 257.172 70.401 247.465 70.401
 c 237.762 70.401 229.867 78.295 229.867 87.998 c h
229.867 87.998 m f
332.801 54.401 m 351.328 54.401 366.398 69.471 366.398 87.998 c 366.398
 106.526 351.328 121.6 332.801 121.6 c 314.273 121.6 299.199 106.526 299.199
 87.998 c 299.199 69.471 314.273 54.401 332.801 54.401 c h
332.801 105.6 m 342.504 105.6 350.398 97.705 350.398 87.998 c 350.398 78.295
 342.504 70.401 332.801 70.401 c 323.094 70.401 315.199 78.295 315.199 87.998
 c 315.199 97.705 323.094 105.6 332.801 105.6 c h
332.801 105.6 m f
162.133 121.6 m 143.605 121.6 128.535 106.526 128.535 87.998 c 128.535 
69.471 143.605 54.401 162.133 54.401 c 180.66 54.401 195.734 69.471 195.734
 87.998 c 195.734 106.526 180.66 121.6 162.133 121.6 c h
162.133 70.401 m 152.43 70.401 144.535 78.295 144.535 87.998 c 144.535 
97.705 152.43 105.6 162.133 105.6 c 171.84 105.6 179.734 97.705 179.734 
87.998 c 179.734 78.295 171.84 70.401 162.133 70.401 c h
162.133 70.401 m f
204.801 31.998 m 202.688 31.998 200.633 31.143 199.145 29.655 c 197.648
 28.166 196.801 26.104 196.801 23.998 c 196.801 21.897 197.648 19.83 199.145
 18.342 c 200.633 16.858 202.688 15.998 204.801 15.998 c 206.902 15.998 
208.969 16.858 210.457 18.342 c 211.941 19.83 212.801 21.897 212.801 23.998
 c 212.801 26.104 211.945 28.166 210.457 29.655 c 208.969 31.143 206.902
 31.998 204.801 31.998 c h
204.801 31.998 m f
Q Q
showpage
%%Trailer
end restore
%%EOF
