%!PS-Adobe-3.0 EPSF-3.0
%%Creator: cairo 1.14.2 (http://cairographics.org)
%%CreationDate: Fri Jun 15 11:41:46 2018
%%Pages: 1
%%DocumentData: Clean7Bit
%%LanguageLevel: 2
%%BoundingBox: 0 -1 410 410
%%EndComments
%%BeginProlog
save
50 dict begin
/q { gsave } bind def
/Q { grestore } bind def
/cm { 6 array astore concat } bind def
/w { setlinewidth } bind def
/J { setlinecap } bind def
/j { setlinejoin } bind def
/M { setmiterlimit } bind def
/d { setdash } bind def
/m { moveto } bind def
/l { lineto } bind def
/c { curveto } bind def
/h { closepath } bind def
/re { exch dup neg 3 1 roll 5 3 roll moveto 0 rlineto
      0 exch rlineto 0 rlineto closepath } bind def
/S { stroke } bind def
/f { fill } bind def
/f* { eofill } bind def
/n { newpath } bind def
/W { clip } bind def
/W* { eoclip } bind def
/BT { } bind def
/ET { } bind def
/pdfmark where { pop globaldict /?pdfmark /exec load put }
    { globaldict begin /?pdfmark /pop load def /pdfmark
    /cleartomark load def end } ifelse
/BDC { mark 3 1 roll /BDC pdfmark } bind def
/EMC { mark /EMC pdfmark } bind def
/cairo_store_point { /cairo_point_y exch def /cairo_point_x exch def } def
/Tj { show currentpoint cairo_store_point } bind def
/TJ {
  {
    dup
    type /stringtype eq
    { show } { -0.001 mul 0 cairo_font_matrix dtransform rmoveto } ifelse
  } forall
  currentpoint cairo_store_point
} bind def
/cairo_selectfont { cairo_font_matrix aload pop pop pop 0 0 6 array astore
    cairo_font exch selectfont cairo_point_x cairo_point_y moveto } bind def
/Tf { pop /cairo_font exch def /cairo_font_matrix where
      { pop cairo_selectfont } if } bind def
/Td { matrix translate cairo_font_matrix matrix concatmatrix dup
      /cairo_font_matrix exch def dup 4 get exch 5 get cairo_store_point
      /cairo_font where { pop cairo_selectfont } if } bind def
/Tm { 2 copy 8 2 roll 6 array astore /cairo_font_matrix exch def
      cairo_store_point /cairo_font where { pop cairo_selectfont } if } bind def
/g { setgray } bind def
/rg { setrgbcolor } bind def
/d1 { setcachedevice } bind def
%%EndProlog
%%BeginSetup
%%EndSetup
%%Page: 1 1
%%BeginPageSetup
%%PageBoundingBox: 0 -1 410 410
%%EndPageSetup
q 0 -1 410 411 rectclip q
1 0.352941 0.352941 rg
136.328 170.307 m 136.328 198.944 l 136.328 208.893 128.262 216.955 118.316
 216.955 c 8 216.955 l 8 9.475 l 118.316 9.475 l 128.266 9.475 136.328 17.538
 136.328 27.487 c h
136.328 170.307 m f
1 0.803922 0.67451 rg
375.664 163.612 m 354.848 163.612 l 369.172 163.612 380.781 175.225 380.781
 189.549 c 380.781 203.87 369.172 215.483 354.848 215.483 c 254.688 215.483
 l 269.887 260.612 l 278.164 285.186 264.496 311.737 239.688 319.28 c 225.652
 323.545 l 203.598 262.592 l 196.68 243.471 182.996 227.541 165.141 217.819
 c 135.793 201.838 l 136.328 23.26 l 154.988 15.94 l 168.367 10.694 182.605
 8.002 196.973 8.002 c 336.762 8.002 l 351.086 8.002 362.695 19.612 362.695
 33.936 c 362.695 48.26 351.086 59.87 336.762 59.87 c 356.922 59.87 l 371.246
 59.87 382.859 71.483 382.859 85.807 c 382.859 100.131 371.246 111.741 356.922
 111.741 c 375.664 111.741 l 389.988 111.741 401.602 123.354 401.602 137.678
 c 401.602 151.998 389.988 163.612 375.664 163.612 c h
375.664 163.612 m f
1 g
101.742 54.768 m 101.742 46.811 95.293 40.362 87.336 40.362 c 79.379 40.362
 72.93 46.811 72.93 54.768 c 72.93 62.725 79.379 69.174 87.336 69.174 c 
95.293 69.174 101.742 62.725 101.742 54.768 c h
101.742 54.768 m f
0 g
136.328 147.288 m 134.223 147.288 132.16 146.44 130.672 144.952 c 129.184
 143.455 128.328 141.393 128.328 139.295 c 128.328 137.186 129.184 135.127
 130.672 133.639 c 132.16 132.143 134.223 131.295 136.328 131.295 c 138.434
 131.295 140.496 132.143 141.984 133.639 c 143.473 135.127 144.328 137.186
 144.328 139.295 c 144.328 141.393 143.473 143.455 141.984 144.952 c 140.496
 146.44 138.434 147.288 136.328 147.288 c h
136.328 147.288 m f
409.602 137.674 m 409.602 153.83 398.246 167.377 383.102 170.78 c 386.688
 176.159 388.781 182.612 388.781 189.549 c 388.781 208.26 373.559 223.483
 354.848 223.483 c 265.824 223.483 l 277.469 258.057 l 282.168 272.01 281.047
 286.905 274.309 299.995 c 267.57 313.084 256.102 322.651 242.016 326.932
 c 227.98 331.202 l 223.902 332.44 219.578 330.268 218.129 326.268 c 196.074
 265.311 l 189.812 248.014 177.469 233.639 161.312 224.842 c 139.281 212.846
 l 134.543 219.291 126.91 223.483 118.316 223.483 c 8 223.483 l 3.582 223.483
 0 219.901 0 215.483 c 0 8.002 l 0 3.584 3.582 0.002 8 0.002 c 118.316 0.002
 l 127.887 0.002 136.262 5.202 140.777 12.92 c 152.07 8.491 l 166.438 2.858
 181.543 -0.002 196.973 -0.002 c 336.762 -0.002 l 355.473 -0.002 370.695
 15.225 370.695 33.936 c 370.695 40.928 368.57 47.428 364.934 52.834 c 379.789
 56.444 390.859 69.854 390.859 85.807 c 390.859 92.936 388.645 99.553 384.871
 105.022 c 399.121 109.045 409.602 122.155 409.602 137.674 c h
375.664 119.741 m 293.379 119.741 l 288.965 119.741 285.379 116.159 285.379
 111.741 c 285.379 107.323 288.965 103.741 293.379 103.741 c 356.922 103.741
 l 366.812 103.741 374.859 95.694 374.859 85.807 c 374.859 75.916 366.812
 67.87 356.922 67.87 c 293.383 67.87 l 288.965 67.87 285.383 64.288 285.383
 59.87 c 285.383 55.452 288.965 51.87 293.383 51.87 c 336.762 51.87 l 346.652
 51.87 354.695 43.827 354.695 33.936 c 354.695 24.045 346.652 15.998 336.762
 15.998 c 196.973 15.998 l 183.551 15.998 170.41 18.487 157.91 23.385 c 
144.328 28.713 l 144.328 107.202 l 144.328 111.62 140.746 115.202 136.328
 115.202 c 131.91 115.202 128.328 111.62 128.328 107.202 c 128.328 26.014
 l 128.328 20.495 123.836 16.002 118.316 16.002 c 16 16.002 l 16 207.483
 l 118.316 207.483 l 123.836 207.483 128.328 202.995 128.328 197.471 c 128.328
 170.307 l 128.328 165.889 131.91 162.307 136.328 162.307 c 140.746 162.307
 144.328 165.889 144.328 170.307 c 144.328 197.377 l 168.965 210.791 l 188.559
 221.459 203.527 238.889 211.121 259.87 c 230.594 313.686 l 237.363 311.627
 l 247.273 308.612 255.34 301.881 260.082 292.67 c 264.824 283.459 265.613
 272.983 262.309 263.166 c 247.105 218.038 l 246.285 215.596 246.688 212.909
 248.191 210.819 c 249.695 208.725 252.113 207.487 254.688 207.487 c 354.848
 207.487 l 364.738 207.487 372.781 199.44 372.781 189.549 c 372.781 179.659
 364.738 171.616 354.848 171.616 c 293.379 171.616 l 288.965 171.616 285.379
 168.034 285.379 163.616 c 285.379 159.198 288.965 155.616 293.379 155.616
 c 320.137 155.616 l 320.152 155.616 320.168 155.612 320.18 155.612 c 375.664
 155.612 l 385.555 155.612 393.602 147.565 393.602 137.678 c 393.602 127.788
 385.555 119.741 375.664 119.741 c h
375.664 119.741 m f
87.34 77.174 m 74.98 77.174 64.93 67.123 64.93 54.768 c 64.93 42.413 74.98
 32.358 87.34 32.358 c 99.695 32.358 109.746 42.413 109.746 54.768 c 109.746
 67.123 99.695 77.174 87.34 77.174 c h
87.34 48.358 m 83.805 48.358 80.93 51.233 80.93 54.768 c 80.93 58.303 83.805
 61.174 87.34 61.174 c 90.871 61.174 93.746 58.303 93.746 54.768 c 93.746
 51.233 90.871 48.358 87.34 48.358 c h
87.34 48.358 m f
239.055 393.6 m 241.16 393.6 243.223 394.455 244.711 395.944 c 246.199 
397.432 247.055 399.495 247.055 401.6 c 247.055 403.705 246.199 405.768 
244.711 407.256 c 243.223 408.745 241.16 409.6 239.055 409.6 c 236.953 409.6
 234.887 408.745 233.398 407.256 c 231.91 405.768 231.055 403.705 231.055
 401.6 c 231.055 399.495 231.91 397.432 233.398 395.944 c 234.887 394.455
 236.953 393.6 239.055 393.6 c h
239.055 393.6 m f
239.055 379.733 m 234.637 379.733 231.055 376.151 231.055 371.733 c 231.055
 352.268 l 231.055 347.85 234.637 344.268 239.055 344.268 c 243.473 344.268
 247.055 347.85 247.055 352.268 c 247.055 371.733 l 247.055 376.151 243.473
 379.733 239.055 379.733 c h
239.055 379.733 m f
286.715 296.588 m 286.715 292.17 290.297 288.588 294.715 288.588 c 344.047
 288.588 l 348.465 288.588 352.047 292.17 352.047 296.588 c 352.047 301.006
 348.465 304.588 344.047 304.588 c 294.715 304.588 l 290.297 304.588 286.715
 301.006 286.715 296.588 c h
286.715 296.588 m f
134.043 288.608 m 183.375 288.608 l 187.793 288.608 191.375 292.19 191.375
 296.608 c 191.375 301.026 187.793 304.608 183.375 304.608 c 134.043 304.608
 l 129.625 304.608 126.043 301.026 126.043 296.608 c 126.043 292.19 129.625
 288.608 134.043 288.608 c h
134.043 288.608 m f
188.164 336.178 m 189.727 334.62 191.773 333.834 193.824 333.834 c 195.871
 333.834 197.918 334.62 199.48 336.178 c 202.602 339.303 202.602 344.37 
199.48 347.495 c 176.188 370.788 l 173.062 373.909 168 373.909 164.871 370.788
 c 161.75 367.663 161.75 362.596 164.871 359.471 c h
188.164 336.178 m f
284.281 333.823 m 286.332 333.823 288.379 334.604 289.941 336.163 c 313.23
 359.455 l 316.355 362.58 316.355 367.647 313.23 370.772 c 310.105 373.893
 305.043 373.893 301.918 370.772 c 278.625 347.479 l 275.5 344.354 275.5
 339.288 278.625 336.163 c 280.188 334.604 282.234 333.823 284.281 333.823
 c h
284.281 333.823 m f
Q Q
showpage
%%Trailer
end restore
%%EOF
