%!PS-Adobe-3.0 EPSF-3.0
%%Creator: cairo 1.14.2 (http://cairographics.org)
%%CreationDate: Fri Jun 15 11:41:46 2018
%%Pages: 1
%%DocumentData: Clean7Bit
%%LanguageLevel: 2
%%BoundingBox: 43 -1 367 410
%%EndComments
%%BeginProlog
save
50 dict begin
/q { gsave } bind def
/Q { grestore } bind def
/cm { 6 array astore concat } bind def
/w { setlinewidth } bind def
/J { setlinecap } bind def
/j { setlinejoin } bind def
/M { setmiterlimit } bind def
/d { setdash } bind def
/m { moveto } bind def
/l { lineto } bind def
/c { curveto } bind def
/h { closepath } bind def
/re { exch dup neg 3 1 roll 5 3 roll moveto 0 rlineto
      0 exch rlineto 0 rlineto closepath } bind def
/S { stroke } bind def
/f { fill } bind def
/f* { eofill } bind def
/n { newpath } bind def
/W { clip } bind def
/W* { eoclip } bind def
/BT { } bind def
/ET { } bind def
/pdfmark where { pop globaldict /?pdfmark /exec load put }
    { globaldict begin /?pdfmark /pop load def /pdfmark
    /cleartomark load def end } ifelse
/BDC { mark 3 1 roll /BDC pdfmark } bind def
/EMC { mark /EMC pdfmark } bind def
/cairo_store_point { /cairo_point_y exch def /cairo_point_x exch def } def
/Tj { show currentpoint cairo_store_point } bind def
/TJ {
  {
    dup
    type /stringtype eq
    { show } { -0.001 mul 0 cairo_font_matrix dtransform rmoveto } ifelse
  } forall
  currentpoint cairo_store_point
} bind def
/cairo_selectfont { cairo_font_matrix aload pop pop pop 0 0 6 array astore
    cairo_font exch selectfont cairo_point_x cairo_point_y moveto } bind def
/Tf { pop /cairo_font exch def /cairo_font_matrix where
      { pop cairo_selectfont } if } bind def
/Td { matrix translate cairo_font_matrix matrix concatmatrix dup
      /cairo_font_matrix exch def dup 4 get exch 5 get cairo_store_point
      /cairo_font where { pop cairo_selectfont } if } bind def
/Tm { 2 copy 8 2 roll 6 array astore /cairo_font_matrix exch def
      cairo_store_point /cairo_font where { pop cairo_selectfont } if } bind def
/g { setgray } bind def
/rg { setrgbcolor } bind def
/d1 { setcachedevice } bind def
%%EndProlog
%%BeginSetup
%%EndSetup
%%Page: 1 1
%%BeginPageSetup
%%PageBoundingBox: 43 -1 367 410
%%EndPageSetup
q 43 -1 324 411 rectclip q
0.941176 0.941176 0.980392 rg
51.199 401.601 m 51.199 7.999 l 81.922 38.722 l 112.641 7.999 l 143.359
 38.722 l 174.082 7.999 l 204.801 38.722 l 235.52 7.999 l 266.242 38.722
 l 296.961 7.999 l 327.68 38.722 l 358.402 7.999 l 358.402 401.601 l 327.68
 370.878 l 296.961 401.601 l 266.242 370.878 l 235.52 401.601 l 204.801 
370.878 l 174.082 401.601 l 143.359 370.878 l 112.641 401.601 l 81.922 370.878
 l h
51.199 401.601 m f
0 g
358.402 -0.001 m 356.32 -0.001 354.273 0.812 352.742 2.343 c 327.68 27.405
 l 302.617 2.343 l 301.117 0.843 299.082 -0.001 296.961 -0.001 c 294.84 
-0.001 292.805 0.843 291.305 2.343 c 266.238 27.405 l 241.176 2.343 l 239.676
 0.843 237.641 -0.001 235.52 -0.001 c 233.398 -0.001 231.363 0.843 229.863
 2.343 c 204.801 27.405 l 179.738 2.343 l 178.238 0.843 176.203 -0.001 174.082
 -0.001 c 171.961 -0.001 169.926 0.843 168.426 2.343 c 143.363 27.405 l 
118.297 2.343 l 116.797 0.843 114.762 -0.001 112.641 -0.001 c 110.52 -0.001
 108.484 0.843 106.984 2.343 c 81.922 27.405 l 56.859 2.343 l 54.57 0.058
 51.129 -0.63 48.141 0.609 c 45.152 1.847 43.203 4.765 43.203 7.999 c 43.203
 169.601 l 43.203 174.019 46.785 177.601 51.203 177.601 c 55.621 177.601
 59.203 174.019 59.203 169.601 c 59.203 27.316 l 76.266 44.378 l 77.766 
45.878 79.801 46.722 81.922 46.722 c 84.043 46.722 86.078 45.878 87.578 
44.378 c 112.641 19.312 l 137.703 44.378 l 139.203 45.878 141.238 46.722
 143.359 46.722 c 145.48 46.722 147.516 45.878 149.016 44.378 c 174.078 
19.312 l 199.141 44.378 l 202.266 47.499 207.332 47.499 210.457 44.378 c
 235.52 19.312 l 260.582 44.378 l 262.082 45.878 264.117 46.722 266.238 
46.722 c 268.359 46.722 270.395 45.878 271.895 44.378 c 296.961 19.312 l
 322.023 44.378 l 323.523 45.878 325.559 46.722 327.68 46.722 c 329.801 
46.722 331.836 45.878 333.336 44.378 c 350.398 27.312 l 350.398 382.288 
l 333.336 365.222 l 331.836 363.722 329.801 362.878 327.68 362.878 c 325.559
 362.878 323.523 363.722 322.023 365.222 c 296.961 390.288 l 271.895 365.222
 l 270.395 363.722 268.359 362.878 266.238 362.878 c 264.117 362.878 262.082
 363.722 260.582 365.222 c 235.52 390.288 l 210.457 365.222 l 207.332 362.101
 202.27 362.101 199.141 365.222 c 174.078 390.288 l 149.02 365.222 l 147.52
 363.722 145.48 362.878 143.359 362.878 c 141.238 362.878 139.203 363.722
 137.703 365.222 c 112.641 390.288 l 87.578 365.222 l 86.078 363.722 84.043
 362.878 81.922 362.878 c 79.801 362.878 77.766 363.722 76.266 365.222 c
 59.199 382.288 l 59.199 244.402 l 59.199 239.98 55.617 236.402 51.199 236.402
 c 46.781 236.402 43.199 239.98 43.199 244.402 c 43.199 401.601 l 43.199
 404.835 45.152 407.753 48.141 408.991 c 51.129 410.23 54.57 409.546 56.859
 407.257 c 81.922 382.195 l 106.984 407.257 l 108.484 408.757 110.52 409.601
 112.641 409.601 c 114.762 409.601 116.797 408.757 118.297 407.257 c 143.359
 382.195 l 168.422 407.257 l 169.926 408.757 171.957 409.601 174.078 409.601
 c 176.203 409.601 178.234 408.757 179.738 407.257 c 204.801 382.195 l 229.863
 407.257 l 231.363 408.757 233.398 409.601 235.52 409.601 c 237.641 409.601
 239.676 408.757 241.176 407.257 c 266.238 382.195 l 291.305 407.257 l 292.805
 408.757 294.84 409.601 296.961 409.601 c 299.082 409.601 301.117 408.757
 302.617 407.257 c 327.68 382.195 l 352.742 407.257 l 355.031 409.542 358.473
 410.23 361.461 408.991 c 364.449 407.753 366.398 404.835 366.398 401.601
 c 366.398 7.999 l 366.398 4.765 364.449 1.847 361.461 0.609 c 360.473 0.198
 359.434 -0.001 358.402 -0.001 c h
358.402 -0.001 m f
204.902 280.48 m 194.59 280.48 186.199 287.761 186.199 296.714 c 186.199
 305.663 194.59 312.948 204.902 312.948 c 215.215 312.948 223.605 305.663
 223.605 296.714 c 223.605 292.296 227.188 288.714 231.605 288.714 c 236.023
 288.714 239.605 292.296 239.605 296.714 c 239.605 311.929 228.191 324.71
 212.902 328.073 c 212.902 335.96 l 212.902 340.378 209.32 343.96 204.902
 343.96 c 200.484 343.96 196.902 340.378 196.902 335.96 c 196.902 328.073
 l 181.613 324.71 170.199 311.929 170.199 296.714 c 170.199 278.941 185.766
 264.48 204.902 264.48 c 215.215 264.48 223.605 257.195 223.605 248.245 
c 223.605 239.292 215.215 232.011 204.902 232.011 c 194.59 232.011 186.199
 239.292 186.199 248.245 c 186.199 252.663 182.617 256.245 178.199 256.245
 c 173.781 256.245 170.199 252.663 170.199 248.245 c 170.199 233.027 181.613
 220.249 196.902 216.882 c 196.902 210.491 l 196.902 206.073 200.484 202.491
 204.902 202.491 c 209.32 202.491 212.902 206.073 212.902 210.491 c 212.902
 216.882 l 228.191 220.249 239.605 233.027 239.605 248.245 c 239.605 266.019
 224.039 280.48 204.902 280.48 c h
204.902 280.48 m f
264.105 73.066 m 262 73.066 259.938 73.921 258.449 75.409 c 256.953 76.898
 256.105 78.96 256.105 81.066 c 256.105 83.175 256.953 85.241 258.449 86.722
 c 259.938 88.214 262 89.066 264.105 89.066 c 266.207 89.066 268.273 88.214
 269.762 86.722 c 271.246 85.234 272.105 83.175 272.105 81.066 c 272.105
 78.96 271.25 76.898 269.762 75.409 c 268.273 73.921 266.207 73.066 264.105
 73.066 c h
264.105 73.066 m f
229.148 73.066 m 145.703 73.066 l 141.285 73.066 137.703 76.648 137.703
 81.066 c 137.703 85.488 141.285 89.066 145.703 89.066 c 229.148 89.066 
l 233.566 89.066 237.148 85.488 237.148 81.066 c 237.148 76.648 233.566 
73.066 229.148 73.066 c h
229.148 73.066 m f
264.102 121.066 m 145.703 121.066 l 141.285 121.066 137.703 124.648 137.703
 129.066 c 137.703 133.488 141.285 137.066 145.703 137.066 c 264.102 137.066
 l 268.52 137.066 272.102 133.488 272.102 129.066 c 272.102 124.648 268.52
 121.066 264.102 121.066 c h
264.102 121.066 m f
264.102 169.066 m 145.703 169.066 l 141.285 169.066 137.703 172.648 137.703
 177.066 c 137.703 181.488 141.285 185.066 145.703 185.066 c 264.102 185.066
 l 268.52 185.066 272.102 181.488 272.102 177.066 c 272.102 172.648 268.52
 169.066 264.102 169.066 c h
264.102 169.066 m f
51.199 196.8 m 49.098 196.8 47.031 197.655 45.543 199.144 c 44.059 200.632
 43.199 202.695 43.199 204.8 c 43.199 206.905 44.055 208.968 45.543 210.456
 c 47.031 211.945 49.098 212.8 51.199 212.8 c 53.305 212.8 55.367 211.945
 56.855 210.456 c 58.344 208.968 59.199 206.905 59.199 204.8 c 59.199 202.695
 58.344 200.632 56.855 199.144 c 55.367 197.655 53.305 196.8 51.199 196.8
 c h
51.199 196.8 m f
Q Q
showpage
%%Trailer
end restore
%%EOF
