%!PS-Adobe-3.0 EPSF-3.0
%%Creator: cairo 1.14.2 (http://cairographics.org)
%%CreationDate: Fri Jun 15 11:41:46 2018
%%Pages: 1
%%DocumentData: Clean7Bit
%%LanguageLevel: 2
%%BoundingBox: 0 -1 410 410
%%EndComments
%%BeginProlog
save
50 dict begin
/q { gsave } bind def
/Q { grestore } bind def
/cm { 6 array astore concat } bind def
/w { setlinewidth } bind def
/J { setlinecap } bind def
/j { setlinejoin } bind def
/M { setmiterlimit } bind def
/d { setdash } bind def
/m { moveto } bind def
/l { lineto } bind def
/c { curveto } bind def
/h { closepath } bind def
/re { exch dup neg 3 1 roll 5 3 roll moveto 0 rlineto
      0 exch rlineto 0 rlineto closepath } bind def
/S { stroke } bind def
/f { fill } bind def
/f* { eofill } bind def
/n { newpath } bind def
/W { clip } bind def
/W* { eoclip } bind def
/BT { } bind def
/ET { } bind def
/pdfmark where { pop globaldict /?pdfmark /exec load put }
    { globaldict begin /?pdfmark /pop load def /pdfmark
    /cleartomark load def end } ifelse
/BDC { mark 3 1 roll /BDC pdfmark } bind def
/EMC { mark /EMC pdfmark } bind def
/cairo_store_point { /cairo_point_y exch def /cairo_point_x exch def } def
/Tj { show currentpoint cairo_store_point } bind def
/TJ {
  {
    dup
    type /stringtype eq
    { show } { -0.001 mul 0 cairo_font_matrix dtransform rmoveto } ifelse
  } forall
  currentpoint cairo_store_point
} bind def
/cairo_selectfont { cairo_font_matrix aload pop pop pop 0 0 6 array astore
    cairo_font exch selectfont cairo_point_x cairo_point_y moveto } bind def
/Tf { pop /cairo_font exch def /cairo_font_matrix where
      { pop cairo_selectfont } if } bind def
/Td { matrix translate cairo_font_matrix matrix concatmatrix dup
      /cairo_font_matrix exch def dup 4 get exch 5 get cairo_store_point
      /cairo_font where { pop cairo_selectfont } if } bind def
/Tm { 2 copy 8 2 roll 6 array astore /cairo_font_matrix exch def
      cairo_store_point /cairo_font where { pop cairo_selectfont } if } bind def
/g { setgray } bind def
/rg { setrgbcolor } bind def
/d1 { setcachedevice } bind def
%%EndProlog
%%BeginSetup
%%EndSetup
%%Page: 1 1
%%BeginPageSetup
%%PageBoundingBox: 0 -1 410 410
%%EndPageSetup
q 0 -1 410 411 rectclip q
0.980392 0.72549 0.901961 rg
46.398 358.401 m 46.398 347.795 37.805 339.202 27.199 339.202 c 16.598 
339.202 8 347.795 8 358.401 c 8 369.002 16.598 377.6 27.199 377.6 c 37.805
 377.6 46.398 369.002 46.398 358.401 c h
46.398 358.401 m f
401.602 148.416 m 401.602 137.811 393.004 129.217 382.398 129.217 c 371.797
 129.217 363.199 137.811 363.199 148.416 c 363.199 159.018 371.797 167.616
 382.398 167.616 c 393.004 167.616 401.602 159.018 401.602 148.416 c h
401.602 148.416 m f
1 g
254.398 363.202 m 155.199 363.202 l 144.598 363.202 136 371.795 136 382.401
 c 136 393.002 144.598 401.6 155.199 401.6 c 254.398 401.6 l 265.004 401.6
 273.602 393.002 273.602 382.401 c 273.602 371.795 265.004 363.202 254.398
 363.202 c h
254.398 363.202 m f
348.223 44.233 m 254.398 206.737 l 254.398 363.202 l 155.199 363.202 l 
155.199 206.737 l 61.379 44.233 l 52.082 28.131 63.703 7.998 82.297 7.998
 c 327.301 7.998 l 345.898 7.998 357.52 28.131 348.223 44.233 c h
348.223 44.233 m f
0.901961 0.54902 0.745098 rg
254.398 206.737 m 254.398 208.94 l 253.883 208.78 253.602 208.69 253.602
 208.69 c 253.602 208.69 224.406 184.514 204.625 204.295 c 184.844 224.077
 155.953 204.295 155.953 204.295 c 152.598 202.229 l 61.379 44.233 l 52.082
 28.131 63.703 7.998 82.297 7.998 c 327.301 7.998 l 345.898 7.998 357.52
 28.131 348.223 44.233 c h
254.398 206.737 m f
1 g
268.176 68.745 m 268.176 58.139 259.578 49.545 248.977 49.545 c 238.371
 49.545 229.777 58.139 229.777 68.745 c 229.777 79.346 238.371 87.944 248.977
 87.944 c 259.578 87.944 268.176 79.346 268.176 68.745 c h
268.176 68.745 m f
186.398 113.217 m 186.398 104.381 179.238 97.217 170.398 97.217 c 161.562
 97.217 154.398 104.381 154.398 113.217 c 154.398 122.053 161.562 129.217
 170.398 129.217 c 179.238 129.217 186.398 122.053 186.398 113.217 c h
186.398 113.217 m f
0 g
224.801 336.272 m 222.695 336.272 220.633 335.416 219.145 333.928 c 217.656
 332.44 216.801 330.377 216.801 328.272 c 216.801 326.159 217.656 324.104
 219.145 322.616 c 220.633 321.12 222.695 320.272 224.801 320.272 c 226.902
 320.272 228.969 321.12 230.457 322.616 c 231.941 324.104 232.801 326.166
 232.801 328.272 c 232.801 330.377 231.945 332.432 230.457 333.928 c 228.969
 335.416 226.902 336.272 224.801 336.272 c h
224.801 336.272 m f
224.801 302.62 m 220.383 302.62 216.801 299.038 216.801 294.62 c 216.801
 236.534 l 216.801 232.116 220.383 228.534 224.801 228.534 c 229.219 228.534
 232.801 232.116 232.801 236.534 c 232.801 294.62 l 232.801 299.038 229.219
 302.62 224.801 302.62 c h
224.801 302.62 m f
262.398 208.881 m 262.398 356.401 l 273.504 359.827 281.602 370.186 281.602
 382.401 c 281.602 397.397 269.398 409.6 254.398 409.6 c 155.199 409.6 l
 140.203 409.6 128 397.397 128 382.401 c 128 370.186 136.094 359.827 147.199
 356.401 c 147.199 208.881 l 114.66 152.522 l 112.453 148.698 113.762 143.803
 117.59 141.596 c 118.848 140.866 120.227 140.522 121.582 140.522 c 124.348
 140.522 127.035 141.955 128.52 144.522 c 158.695 196.795 l 159.301 197.014
 159.895 197.303 160.453 197.678 c 161.414 198.33 184.184 213.424 198.969
 198.639 c 206.316 191.288 214.809 188.573 223.199 188.573 c 233.27 188.573
 243.176 192.495 250.777 197.006 c 341.293 40.233 l 344.211 35.174 344.211
 29.135 341.293 24.077 c 338.371 19.022 333.141 15.998 327.301 15.998 c 
82.297 15.998 l 76.457 15.998 71.227 19.018 68.309 24.077 c 65.387 29.135
 65.387 35.174 68.309 40.233 c 95.414 87.182 l 97.621 91.01 96.312 95.901
 92.484 98.112 c 88.656 100.319 83.766 99.01 81.559 95.182 c 54.453 48.233
 l 48.637 38.166 48.637 26.147 54.453 16.077 c 60.262 6.01 70.672 -0.002
 82.297 -0.002 c 327.301 -0.002 l 338.926 -0.002 349.336 6.01 355.148 16.077
 c 360.961 26.147 360.961 38.166 355.148 48.233 c h
155.199 393.6 m 254.398 393.6 l 260.574 393.6 265.602 388.577 265.602 382.401
 c 265.602 376.225 260.574 371.202 254.398 371.202 c 155.199 371.202 l 149.023
 371.202 144 376.225 144 382.401 c 144 388.577 149.023 393.6 155.199 393.6
 c h
210.281 209.952 m 195.859 224.377 176.867 222.346 163.199 217.01 c 163.199
 355.202 l 246.398 355.202 l 246.398 213.295 l 243.801 211.471 239.039 208.459
 233.453 206.467 c 218.938 201.299 212.426 207.811 210.281 209.952 c h
210.281 209.952 m f
99.793 126.225 m 98.305 124.737 97.445 122.678 97.445 120.569 c 97.445 
118.463 98.305 116.409 99.793 114.913 c 101.289 113.424 103.352 112.569 
105.457 112.569 c 107.559 112.569 109.613 113.424 111.105 114.913 c 112.602
 116.409 113.457 118.463 113.457 120.569 c 113.457 122.682 112.602 124.737
 111.105 126.225 c 109.617 127.713 107.559 128.569 105.457 128.569 c 103.344
 128.569 101.281 127.713 99.793 126.225 c h
99.793 126.225 m f
339.199 350.401 m 350.398 350.401 l 350.398 339.202 l 350.398 334.784 353.98
 331.202 358.398 331.202 c 362.816 331.202 366.398 334.784 366.398 339.202
 c 366.398 350.401 l 377.602 350.401 l 382.02 350.401 385.602 353.983 385.602
 358.401 c 385.602 362.819 382.02 366.401 377.602 366.401 c 366.398 366.401
 l 366.398 377.6 l 366.398 382.018 362.816 385.6 358.398 385.6 c 353.98 
385.6 350.398 382.018 350.398 377.6 c 350.398 366.401 l 339.199 366.401 
l 334.781 366.401 331.199 362.819 331.199 358.401 c 331.199 353.983 334.781
 350.401 339.199 350.401 c h
339.199 350.401 m f
76 215.998 m 87.199 215.998 l 87.199 204.799 l 87.199 200.381 90.781 196.799
 95.199 196.799 c 99.617 196.799 103.199 200.381 103.199 204.799 c 103.199
 215.998 l 114.398 215.998 l 118.816 215.998 122.398 219.58 122.398 223.998
 c 122.398 228.416 118.816 231.998 114.398 231.998 c 103.199 231.998 l 103.199
 243.202 l 103.199 247.62 99.617 251.202 95.199 251.202 c 90.781 251.202
 87.199 247.62 87.199 243.202 c 87.199 231.998 l 76 231.998 l 71.582 231.998
 68 228.416 68 223.998 c 68 219.58 71.582 215.998 76 215.998 c h
76 215.998 m f
27.199 385.6 m 12.203 385.6 0 373.397 0 358.401 c 0 343.401 12.203 331.202
 27.199 331.202 c 42.199 331.202 54.398 343.401 54.398 358.401 c 54.398 
373.397 42.199 385.6 27.199 385.6 c h
27.199 347.202 m 21.023 347.202 16 352.225 16 358.401 c 16 364.577 21.023
 369.6 27.199 369.6 c 33.375 369.6 38.398 364.577 38.398 358.401 c 38.398
 352.225 33.375 347.202 27.199 347.202 c h
27.199 347.202 m f
382.398 175.616 m 367.402 175.616 355.199 163.413 355.199 148.416 c 355.199
 133.416 367.402 121.217 382.398 121.217 c 397.398 121.217 409.602 133.416
 409.602 148.416 c 409.602 163.413 397.398 175.616 382.398 175.616 c h
382.398 137.217 m 376.223 137.217 371.199 142.241 371.199 148.416 c 371.199
 154.592 376.223 159.616 382.398 159.616 c 388.574 159.616 393.602 154.592
 393.602 148.416 c 393.602 142.241 388.574 137.217 382.398 137.217 c h
382.398 137.217 m f
248.973 41.541 m 263.973 41.541 276.176 53.745 276.176 68.741 c 276.176
 83.741 263.973 95.94 248.973 95.94 c 233.977 95.94 221.773 83.741 221.773
 68.741 c 221.773 53.745 233.977 41.541 248.973 41.541 c h
248.973 79.94 m 255.152 79.94 260.176 74.916 260.176 68.741 c 260.176 62.565
 255.152 57.541 248.973 57.541 c 242.797 57.541 237.773 62.565 237.773 68.741
 c 237.773 74.916 242.797 79.94 248.973 79.94 c h
248.973 79.94 m f
194.398 113.217 m 194.398 126.448 183.633 137.217 170.398 137.217 c 157.168
 137.217 146.398 126.448 146.398 113.217 c 146.398 99.983 157.168 89.217
 170.398 89.217 c 183.633 89.217 194.398 99.983 194.398 113.217 c h
162.398 113.217 m 162.398 117.627 165.988 121.217 170.398 121.217 c 174.812
 121.217 178.398 117.627 178.398 113.217 c 178.398 108.803 174.812 105.217
 170.398 105.217 c 165.988 105.217 162.398 108.803 162.398 113.217 c h
162.398 113.217 m f
134.414 53.026 m 135.902 54.522 136.762 56.584 136.762 58.678 c 136.762
 60.784 135.906 62.846 134.414 64.342 c 132.93 65.83 130.863 66.678 128.762
 66.678 c 126.656 66.678 124.594 65.83 123.105 64.342 c 121.617 62.846 120.762
 60.791 120.762 58.678 c 120.762 56.577 121.617 54.51 123.105 53.026 c 124.594
 51.538 126.656 50.678 128.762 50.678 c 130.863 50.682 132.93 51.538 134.414
 53.026 c h
134.414 53.026 m f
235.434 161.959 m 236.918 163.448 237.777 165.51 237.777 167.616 c 237.777
 169.721 236.922 171.784 235.434 173.272 c 233.938 174.76 231.879 175.616
 229.777 175.616 c 227.672 175.616 225.609 174.76 224.121 173.272 c 222.625
 171.784 221.777 169.721 221.777 167.616 c 221.777 165.51 222.625 163.448
 224.121 161.959 c 225.609 160.471 227.672 159.616 229.777 159.616 c 231.879
 159.616 233.945 160.471 235.434 161.959 c h
235.434 161.959 m f
192 256.799 m 189.895 256.799 187.832 255.944 186.344 254.455 c 184.855
 252.967 184 250.905 184 248.799 c 184 246.69 184.855 244.631 186.344 243.143
 c 187.832 241.659 189.895 240.799 192 240.799 c 194.105 240.799 196.168
 241.655 197.656 243.143 c 199.145 244.631 200 246.698 200 248.799 c 200
 250.905 199.145 252.967 197.656 254.455 c 196.168 255.944 194.105 256.799
 192 256.799 c h
192 256.799 m f
189.062 309.6 m 189.062 311.705 188.215 313.768 186.719 315.256 c 185.23
 316.745 183.176 317.6 181.062 317.6 c 178.961 317.6 176.895 316.745 175.406
 315.256 c 173.922 313.768 173.062 311.705 173.062 309.6 c 173.062 307.495
 173.918 305.432 175.406 303.944 c 176.895 302.455 178.961 301.6 181.062
 301.6 c 183.168 301.6 185.23 302.455 186.719 303.944 c 188.215 305.432 
189.062 307.495 189.062 309.6 c h
189.062 309.6 m f
324 253.6 m 326.105 253.6 328.168 254.455 329.656 255.944 c 331.145 257.432
 332 259.495 332 261.6 c 332 263.705 331.145 265.768 329.656 267.256 c 328.168
 268.745 326.105 269.6 324 269.6 c 321.895 269.6 319.832 268.745 318.344
 267.256 c 316.855 265.768 316 263.705 316 261.6 c 316 259.495 316.855 257.432
 318.344 255.944 c 319.832 254.455 321.895 253.6 324 253.6 c h
324 253.6 m f
95.199 293.6 m 97.305 293.6 99.367 294.455 100.855 295.944 c 102.344 297.432
 103.199 299.495 103.199 301.6 c 103.199 303.705 102.344 305.768 100.855
 307.256 c 99.367 308.745 97.305 309.6 95.199 309.6 c 93.086 309.6 91.031
 308.745 89.543 307.256 c 88.055 305.768 87.199 303.705 87.199 301.6 c 87.199
 299.495 88.055 297.432 89.543 295.944 c 91.031 294.455 93.098 293.6 95.199
 293.6 c h
95.199 293.6 m f
Q Q
showpage
%%Trailer
end restore
%%EOF
