%!PS-Adobe-3.0 EPSF-3.0
%%Creator: cairo 1.14.2 (http://cairographics.org)
%%CreationDate: Fri Jun 15 11:41:46 2018
%%Pages: 1
%%DocumentData: Clean7Bit
%%LanguageLevel: 2
%%BoundingBox: 0 -1 410 410
%%EndComments
%%BeginProlog
save
50 dict begin
/q { gsave } bind def
/Q { grestore } bind def
/cm { 6 array astore concat } bind def
/w { setlinewidth } bind def
/J { setlinecap } bind def
/j { setlinejoin } bind def
/M { setmiterlimit } bind def
/d { setdash } bind def
/m { moveto } bind def
/l { lineto } bind def
/c { curveto } bind def
/h { closepath } bind def
/re { exch dup neg 3 1 roll 5 3 roll moveto 0 rlineto
      0 exch rlineto 0 rlineto closepath } bind def
/S { stroke } bind def
/f { fill } bind def
/f* { eofill } bind def
/n { newpath } bind def
/W { clip } bind def
/W* { eoclip } bind def
/BT { } bind def
/ET { } bind def
/pdfmark where { pop globaldict /?pdfmark /exec load put }
    { globaldict begin /?pdfmark /pop load def /pdfmark
    /cleartomark load def end } ifelse
/BDC { mark 3 1 roll /BDC pdfmark } bind def
/EMC { mark /EMC pdfmark } bind def
/cairo_store_point { /cairo_point_y exch def /cairo_point_x exch def } def
/Tj { show currentpoint cairo_store_point } bind def
/TJ {
  {
    dup
    type /stringtype eq
    { show } { -0.001 mul 0 cairo_font_matrix dtransform rmoveto } ifelse
  } forall
  currentpoint cairo_store_point
} bind def
/cairo_selectfont { cairo_font_matrix aload pop pop pop 0 0 6 array astore
    cairo_font exch selectfont cairo_point_x cairo_point_y moveto } bind def
/Tf { pop /cairo_font exch def /cairo_font_matrix where
      { pop cairo_selectfont } if } bind def
/Td { matrix translate cairo_font_matrix matrix concatmatrix dup
      /cairo_font_matrix exch def dup 4 get exch 5 get cairo_store_point
      /cairo_font where { pop cairo_selectfont } if } bind def
/Tm { 2 copy 8 2 roll 6 array astore /cairo_font_matrix exch def
      cairo_store_point /cairo_font where { pop cairo_selectfont } if } bind def
/g { setgray } bind def
/rg { setrgbcolor } bind def
/d1 { setcachedevice } bind def
%%EndProlog
%%BeginSetup
%%EndSetup
%%Page: 1 1
%%BeginPageSetup
%%PageBoundingBox: 0 -1 410 410
%%EndPageSetup
q 0 -1 410 411 rectclip q
1 0.901961 0.764706 rg
120.434 253.932 m 131.199 253.932 l 131.199 298.733 l 120.434 298.733 l
 112.242 298.733 105.602 292.092 105.602 283.901 c 105.602 268.768 l 105.602
 260.577 112.242 253.932 120.434 253.932 c h
120.434 253.932 m f
289.168 298.733 m 278.398 298.733 l 278.398 253.932 l 289.168 253.932 l
 297.359 253.932 304 260.573 304 268.768 c 304 283.901 l 304 292.092 297.359
 298.733 289.168 298.733 c h
289.168 298.733 m f
1 0.803922 0.67451 rg
216.266 195.522 m 193.332 195.522 l 159.02 195.522 131.199 223.338 131.199
 257.655 c 131.199 339.467 l 131.199 373.78 159.02 401.6 193.332 401.6 c
 216.266 401.6 l 250.582 401.6 278.398 373.78 278.398 339.467 c 278.398 
257.655 l 278.398 223.338 250.582 195.522 216.266 195.522 c h
216.266 195.522 m f
1 0.509804 0.294118 rg
216.266 401.6 m 193.332 401.6 l 159.02 401.6 131.199 373.784 131.199 339.467
 c 131.199 299.03 l 132.105 298.733 l 172.383 298.733 l 210.379 298.733 
246.816 313.827 273.684 340.694 c 273.684 340.694 275.59 342.448 278.141
 344.995 c 275.344 376.717 248.719 401.6 216.266 401.6 c h
216.266 401.6 m f
1 0.803922 0.67451 rg
166.316 200.143 m 166.316 193.557 l 166.316 175.377 153.664 159.647 135.906
 155.752 c 108.551 149.752 l 67.586 140.764 38.398 104.479 38.398 62.545
 c 38.398 7.998 l 371.199 7.998 l 371.199 62.495 l 371.199 104.452 341.98
 140.752 300.992 149.713 c 273.297 155.768 l 255.527 159.655 242.859 175.389
 242.859 193.58 c 242.859 200.268 l f
0.666667 0.901961 1 rg
300.992 149.713 m 273.297 155.768 l 267.031 157.139 261.402 159.987 256.738
 163.893 c 256.406 163.631 256.223 163.491 256.223 163.491 c 227.824 135.088
 181.777 135.088 153.375 163.491 c 152.391 163.83 l 147.742 159.948 142.141
 157.12 135.906 155.752 c 108.551 149.752 l 67.586 140.764 38.398 104.479
 38.398 62.545 c 38.398 7.998 l 371.199 7.998 l 371.199 62.495 l 371.199
 104.452 341.98 140.752 300.992 149.713 c h
300.992 149.713 m f
0 g
340.012 119.342 m 341.582 117.741 343.656 116.936 345.734 116.936 c 347.75
 116.936 349.77 117.694 351.328 119.217 c 354.484 122.307 354.543 127.37
 351.453 130.53 c 350.875 131.112 l 347.758 134.245 342.691 134.256 339.562
 131.139 c 336.43 128.022 336.418 122.955 339.535 119.823 c h
340.012 119.342 m f
401.602 15.998 m 379.199 15.998 l 379.199 62.495 l 379.199 77.698 375.578
 92.881 368.73 106.409 c 366.734 110.35 361.918 111.924 357.98 109.928 c
 354.035 107.932 352.461 103.12 354.457 99.178 c 360.176 87.881 363.199 
75.198 363.199 62.495 c 363.199 15.998 l 46.398 15.998 l 46.398 62.545 l
 46.398 100.428 73.258 133.819 110.262 141.936 c 137.621 147.936 l 142.828
 149.08 147.68 151.096 152.047 153.807 c 166.703 141.116 185.219 134.19 
204.801 134.19 c 224.309 134.19 242.762 141.065 257.395 153.666 c 261.699
 151.038 266.473 149.069 271.59 147.952 c 299.281 141.897 l 306.105 140.405
 312.707 138.045 318.895 134.889 c 320.059 134.295 321.301 134.01 322.523
 134.01 c 325.434 134.01 328.242 135.604 329.656 138.373 c 331.664 142.311
 330.102 147.127 326.168 149.139 c 318.762 152.92 310.863 155.741 302.699
 157.53 c 275.008 163.58 l 261.016 166.643 250.859 179.256 250.859 193.577
 c 250.859 196.663 l 268.824 206.893 281.848 224.827 285.414 245.932 c 289.168
 245.932 l 301.758 245.932 312 256.174 312 268.768 c 312 283.901 l 312 296.491
 301.758 306.733 289.168 306.733 c 286.398 306.733 l 286.398 339.467 l 286.398
 378.139 254.938 409.6 216.266 409.6 c 193.332 409.6 l 154.66 409.6 123.199
 378.139 123.199 339.467 c 123.199 306.733 l 120.434 306.733 l 107.844 306.733
 97.602 296.491 97.602 283.901 c 97.602 268.768 l 97.602 256.178 107.844
 245.932 120.434 245.932 c 124.184 245.932 l 127.723 224.991 140.574 207.174
 158.316 196.905 c 158.316 193.557 l 158.316 179.245 148.172 166.631 134.191
 163.565 c 106.836 157.565 l 85.25 152.83 65.734 140.737 51.883 123.518 
c 38.027 106.299 30.398 84.643 30.398 62.545 c 30.398 15.998 l 8 15.998 
l 3.582 15.998 0 12.416 0 7.998 c 0 3.58 3.582 -0.002 8 -0.002 c 401.602
 -0.002 l 406.02 -0.002 409.602 3.58 409.602 7.998 c 409.602 12.416 406.02
 15.998 401.602 15.998 c h
289.168 290.733 m 292.934 290.733 296 287.67 296 283.901 c 296 268.768 
l 296 264.998 292.934 261.932 289.168 261.932 c 286.398 261.932 l 286.398
 290.733 l h
193.332 393.6 m 216.266 393.6 l 243.328 393.6 265.812 373.639 269.777 347.67
 c 269.152 347.319 268.562 346.885 268.027 346.354 c 242.48 320.803 208.512
 306.733 172.383 306.733 c 139.199 306.733 l 139.199 339.467 l 139.199 369.315
 163.484 393.6 193.332 393.6 c h
113.602 268.768 m 113.602 283.901 l 113.602 287.67 116.664 290.733 120.434
 290.733 c 123.199 290.733 l 123.199 261.932 l 120.434 261.932 l 116.664
 261.932 113.602 264.998 113.602 268.768 c h
139.199 257.655 m 139.199 290.733 l 172.383 290.733 l 192.348 290.733 211.824
 294.608 230.27 302.248 c 244.949 308.33 258.402 316.569 270.398 326.791
 c 270.398 257.655 l 270.398 227.803 246.117 203.522 216.266 203.522 c 193.332
 203.522 l 163.484 203.522 139.199 227.803 139.199 257.655 c h
193.332 187.522 m 216.266 187.522 l 222.754 187.522 229.035 188.409 235.004
 190.065 c 235.738 180.506 239.422 171.588 245.223 164.37 c 233.785 155.186
 219.68 150.186 204.801 150.186 c 189.812 150.186 175.605 155.256 164.125
 164.569 c 169.855 171.784 173.48 180.666 174.184 190.178 c 180.273 188.448
 186.695 187.522 193.332 187.522 c h
193.332 187.522 m f
88.832 113.561 m 73.137 101.143 64.137 82.545 64.137 62.545 c 64.137 58.127
 67.719 54.545 72.137 54.545 c 76.555 54.545 80.137 58.127 80.137 62.545
 c 80.137 77.627 86.926 91.651 98.762 101.014 c 102.227 103.76 102.812 108.791
 100.07 112.256 c 97.328 115.717 92.297 116.303 88.832 113.561 c h
88.832 113.561 m f
115.23 126.069 m 114.859 125.987 l 110.543 125.03 107.824 120.756 108.785
 116.44 c 109.613 112.713 112.918 110.174 116.586 110.174 c 117.16 110.174
 117.742 110.237 118.328 110.366 c 118.68 110.444 l 122.992 111.397 125.719
 115.666 124.766 119.983 c 123.812 124.295 119.547 127.018 115.23 126.069
 c h
115.23 126.069 m f
Q Q
showpage
%%Trailer
end restore
%%EOF
