%!PS-Adobe-3.0 EPSF-3.0
%%Creator: cairo 1.14.2 (http://cairographics.org)
%%CreationDate: Fri Jun 15 11:41:46 2018
%%Pages: 1
%%DocumentData: Clean7Bit
%%LanguageLevel: 2
%%BoundingBox: 0 -1 410 410
%%EndComments
%%BeginProlog
save
50 dict begin
/q { gsave } bind def
/Q { grestore } bind def
/cm { 6 array astore concat } bind def
/w { setlinewidth } bind def
/J { setlinecap } bind def
/j { setlinejoin } bind def
/M { setmiterlimit } bind def
/d { setdash } bind def
/m { moveto } bind def
/l { lineto } bind def
/c { curveto } bind def
/h { closepath } bind def
/re { exch dup neg 3 1 roll 5 3 roll moveto 0 rlineto
      0 exch rlineto 0 rlineto closepath } bind def
/S { stroke } bind def
/f { fill } bind def
/f* { eofill } bind def
/n { newpath } bind def
/W { clip } bind def
/W* { eoclip } bind def
/BT { } bind def
/ET { } bind def
/pdfmark where { pop globaldict /?pdfmark /exec load put }
    { globaldict begin /?pdfmark /pop load def /pdfmark
    /cleartomark load def end } ifelse
/BDC { mark 3 1 roll /BDC pdfmark } bind def
/EMC { mark /EMC pdfmark } bind def
/cairo_store_point { /cairo_point_y exch def /cairo_point_x exch def } def
/Tj { show currentpoint cairo_store_point } bind def
/TJ {
  {
    dup
    type /stringtype eq
    { show } { -0.001 mul 0 cairo_font_matrix dtransform rmoveto } ifelse
  } forall
  currentpoint cairo_store_point
} bind def
/cairo_selectfont { cairo_font_matrix aload pop pop pop 0 0 6 array astore
    cairo_font exch selectfont cairo_point_x cairo_point_y moveto } bind def
/Tf { pop /cairo_font exch def /cairo_font_matrix where
      { pop cairo_selectfont } if } bind def
/Td { matrix translate cairo_font_matrix matrix concatmatrix dup
      /cairo_font_matrix exch def dup 4 get exch 5 get cairo_store_point
      /cairo_font where { pop cairo_selectfont } if } bind def
/Tm { 2 copy 8 2 roll 6 array astore /cairo_font_matrix exch def
      cairo_store_point /cairo_font where { pop cairo_selectfont } if } bind def
/g { setgray } bind def
/rg { setrgbcolor } bind def
/d1 { setcachedevice } bind def
%%EndProlog
%%BeginSetup
%%EndSetup
%%Page: 1 1
%%BeginPageSetup
%%PageBoundingBox: 0 -1 410 410
%%EndPageSetup
q 0 -1 410 411 rectclip q
1 0.352941 0.352941 rg
152.355 320.19 m 76.324 320.19 l 8 251.87 l 251.777 8.092 l 320.102 76.413
 l 320.102 152.444 l h
152.355 320.19 m f
0.784314 0.960784 1 rg
200.852 33.198 m 327.891 160.237 l 389.344 221.69 414.754 310.498 395.102
 395.159 c 395.188 395.069 l 310.527 414.721 221.719 389.315 160.266 327.862
 c 33.227 200.823 l h
200.852 33.198 m f
0.490196 0.607843 1 rg
298.113 238.959 m 298.113 206.26 271.609 179.756 238.91 179.756 c 206.215
 179.756 179.707 206.26 179.707 238.959 c 179.707 271.655 206.215 298.163
 238.91 298.163 c 271.609 298.163 298.113 271.655 298.113 238.959 c h
298.113 238.959 m f
1 0.352941 0.352941 rg
124.93 40.545 m 40.496 124.979 l 65.25 168.799 l 168.746 65.303 l h
124.93 40.545 m f
0.960784 0.784314 0.431373 rg
109.371 56.174 m 90.52 37.319 67.023 23.772 41.258 16.901 c 8 8.03 l 16.871
 41.288 l 23.742 67.053 37.289 90.549 56.145 109.405 c h
109.371 56.174 m f
0 g
403.148 395.862 m 402.969 397.643 402.199 399.362 400.867 400.702 c 400.781
 400.788 l 399.438 402.147 397.695 402.94 395.883 403.12 c 353.359 412.791
 308.758 411.569 266.824 399.573 c 224.523 387.471 185.719 364.627 154.609
 333.518 c 149.281 328.19 l 76.324 328.19 l 74.199 328.19 72.168 327.346
 70.664 325.846 c 2.344 257.526 l -0.781 254.401 -0.781 249.334 2.344 246.209
 c 34.824 213.729 l 27.57 206.479 l 24.445 203.354 24.445 198.288 27.57 
195.163 c 55.293 167.436 l 33.527 128.913 l 31.762 125.784 32.297 121.862
 34.836 119.319 c 44.953 109.205 l 28 90.444 15.672 67.838 9.141 43.35 c
 0.27 10.092 l -0.465 7.334 0.324 4.393 2.344 2.373 c 3.863 0.854 5.906 
0.03 8 0.03 c 8.688 0.03 9.379 0.12 10.062 0.303 c 43.316 9.17 l 67.809 
15.705 90.414 28.034 109.176 44.987 c 119.27 34.893 l 120.809 33.35 122.855
 32.549 124.93 32.549 c 126.273 32.549 127.629 32.889 128.859 33.58 c 167.387
 55.346 l 195.191 27.541 l 196.754 25.979 198.801 25.198 200.848 25.198 
c 202.895 25.198 204.941 25.979 206.504 27.541 c 213.758 34.795 l 246.117
 2.436 l 247.617 0.936 249.652 0.092 251.773 0.092 c 253.895 0.092 255.93
 0.936 257.43 2.436 c 325.754 70.76 l 327.254 72.26 328.094 74.295 328.094
 76.416 c 328.094 149.131 l 333.543 154.58 l 364.652 185.69 387.496 224.495
 399.598 266.795 c 411.598 308.729 412.82 353.334 403.148 395.862 c h
19.316 251.87 m 79.637 312.19 l 133.281 312.19 l 60.777 239.69 l 60.777
 239.686 60.773 239.686 60.773 239.682 c 60.77 239.678 60.77 239.678 60.766
 239.674 c 46.137 225.045 l h
39.195 24.631 m 19.293 19.323 l 24.602 39.225 l 30.406 60.998 41.305 81.12
 56.277 97.881 c 97.848 56.311 l 81.086 41.338 60.969 30.44 39.195 24.631
 c h
126.285 50.502 m 115.625 61.166 l 115.438 61.397 115.242 61.62 115.031 
61.834 c 114.816 62.045 114.594 62.241 114.363 62.424 c 62.395 114.393 l
 62.211 114.623 62.016 114.846 61.805 115.061 c 61.59 115.272 61.367 115.467
 61.137 115.655 c 50.453 126.334 l 67.039 155.694 l 155.645 67.088 l h
312.098 79.729 m 251.777 19.405 l 225.078 46.108 l 312.098 133.131 l h
322.234 165.893 m 208.113 51.772 l 208.109 51.772 208.105 51.768 208.105
 51.764 c 208.102 51.764 208.102 51.76 208.098 51.756 c 200.852 44.51 l 
174.406 70.959 l 70.91 174.455 l 70.906 174.455 70.906 174.459 70.902 174.459
 c 44.543 200.823 l 66.43 222.709 l 173.203 115.936 l 174.766 114.373 176.812
 113.592 178.859 113.592 c 180.906 113.592 182.953 114.373 184.516 115.936
 c 187.641 119.061 187.641 124.127 184.516 127.252 c 77.746 234.026 l 165.922
 322.202 l 224.621 380.905 307.457 405.44 388.406 388.377 c 405.469 307.424
 380.934 224.592 322.234 165.893 c h
322.234 165.893 m f
298.109 246.959 m 293.695 246.959 290.109 243.377 290.109 238.959 c 290.105
 238.452 l 290.07 234.034 293.625 230.42 298.043 230.385 c 298.066 230.385
 298.086 230.385 298.109 230.385 c 302.496 230.385 306.074 233.924 306.109
 238.323 c 306.113 238.959 l 306.109 243.377 302.531 246.959 298.109 246.959
 c h
298.109 246.959 m f
294.102 216.049 m 290.285 218.276 285.387 216.991 283.156 213.174 c 273.996
 197.495 257.043 187.756 238.906 187.756 c 210.676 187.756 187.703 210.725
 187.703 238.959 c 187.703 267.194 210.676 290.163 238.906 290.163 c 254.086
 290.163 268.391 283.483 278.156 271.842 c 281 268.455 286.047 268.018 289.43
 270.858 c 292.812 273.698 293.258 278.741 290.414 282.127 c 277.602 297.405
 258.828 306.163 238.906 306.163 c 201.852 306.163 171.703 276.014 171.703
 238.959 c 171.703 201.905 201.852 171.756 238.906 171.756 c 262.707 171.756
 284.957 184.534 296.973 205.108 c 299.203 208.92 297.914 213.819 294.102
 216.049 c h
294.102 216.049 m f
197.629 110.823 m 195.523 110.823 193.461 109.971 191.973 108.475 c 190.484
 106.991 189.629 104.932 189.629 102.823 c 189.629 100.717 190.484 98.655
 191.973 97.166 c 193.461 95.678 195.523 94.823 197.629 94.823 c 199.742
 94.823 201.797 95.678 203.285 97.166 c 204.781 98.663 205.629 100.717 205.629
 102.823 c 205.629 104.924 204.781 106.991 203.285 108.475 c 201.797 109.975
 199.738 110.823 197.629 110.823 c h
197.629 110.823 m f
Q Q
showpage
%%Trailer
end restore
%%EOF
