%!PS-Adobe-3.0 EPSF-3.0
%%Creator: cairo 1.14.2 (http://cairographics.org)
%%CreationDate: Fri Jun 15 11:41:46 2018
%%Pages: 1
%%DocumentData: Clean7Bit
%%LanguageLevel: 2
%%BoundingBox: 0 21 410 389
%%EndComments
%%BeginProlog
save
50 dict begin
/q { gsave } bind def
/Q { grestore } bind def
/cm { 6 array astore concat } bind def
/w { setlinewidth } bind def
/J { setlinecap } bind def
/j { setlinejoin } bind def
/M { setmiterlimit } bind def
/d { setdash } bind def
/m { moveto } bind def
/l { lineto } bind def
/c { curveto } bind def
/h { closepath } bind def
/re { exch dup neg 3 1 roll 5 3 roll moveto 0 rlineto
      0 exch rlineto 0 rlineto closepath } bind def
/S { stroke } bind def
/f { fill } bind def
/f* { eofill } bind def
/n { newpath } bind def
/W { clip } bind def
/W* { eoclip } bind def
/BT { } bind def
/ET { } bind def
/pdfmark where { pop globaldict /?pdfmark /exec load put }
    { globaldict begin /?pdfmark /pop load def /pdfmark
    /cleartomark load def end } ifelse
/BDC { mark 3 1 roll /BDC pdfmark } bind def
/EMC { mark /EMC pdfmark } bind def
/cairo_store_point { /cairo_point_y exch def /cairo_point_x exch def } def
/Tj { show currentpoint cairo_store_point } bind def
/TJ {
  {
    dup
    type /stringtype eq
    { show } { -0.001 mul 0 cairo_font_matrix dtransform rmoveto } ifelse
  } forall
  currentpoint cairo_store_point
} bind def
/cairo_selectfont { cairo_font_matrix aload pop pop pop 0 0 6 array astore
    cairo_font exch selectfont cairo_point_x cairo_point_y moveto } bind def
/Tf { pop /cairo_font exch def /cairo_font_matrix where
      { pop cairo_selectfont } if } bind def
/Td { matrix translate cairo_font_matrix matrix concatmatrix dup
      /cairo_font_matrix exch def dup 4 get exch 5 get cairo_store_point
      /cairo_font where { pop cairo_selectfont } if } bind def
/Tm { 2 copy 8 2 roll 6 array astore /cairo_font_matrix exch def
      cairo_store_point /cairo_font where { pop cairo_selectfont } if } bind def
/g { setgray } bind def
/rg { setrgbcolor } bind def
/d1 { setcachedevice } bind def
%%EndProlog
%%BeginSetup
%%EndSetup
%%Page: 1 1
%%BeginPageSetup
%%PageBoundingBox: 0 21 410 389
%%EndPageSetup
q 0 21 410 368 rectclip q
0.647059 0.862745 0.411765 rg
76.762 379.909 255.871 -127.934 re f
0.960784 0.784314 0.431373 rg
7.996 132.034 102.348 -102.348 re f
0.490196 0.607843 1 rg
153.629 132.034 102.348 -102.348 re f
1 0.54902 0.54902 rg
299.25 132.034 102.352 -102.348 re f
0 g
274.266 210.397 m 272.16 210.397 270.098 209.541 268.609 208.053 c 267.125
 206.565 266.27 204.502 266.27 202.401 c 266.27 200.299 267.121 198.237 
268.609 196.748 c 270.098 195.264 272.16 194.405 274.266 194.405 c 276.367
 194.405 278.422 195.26 279.914 196.748 c 281.402 198.237 282.262 200.299
 282.262 202.401 c 282.262 204.502 281.406 206.569 279.914 208.053 c 278.43
 209.541 276.367 210.397 274.266 210.397 c h
274.266 210.397 m f
255.973 140.034 m 212.695 140.034 l 212.695 194.405 l 244.68 194.405 l 
249.094 194.405 252.676 197.987 252.676 202.401 c 252.676 206.815 249.094
 210.397 244.68 210.397 c 212.695 210.397 l 212.695 243.979 l 332.637 243.979
 l 337.051 243.979 340.633 247.561 340.633 251.975 c 340.633 379.913 l 340.633
 384.327 337.051 387.909 332.637 387.909 c 76.762 387.909 l 72.348 387.909
 68.766 384.327 68.766 379.913 c 68.766 251.975 l 68.766 247.561 72.348 
243.979 76.762 243.979 c 196.703 243.979 l 196.703 210.397 l 60.105 210.397
 l 55.691 210.397 52.109 206.815 52.109 202.401 c 52.109 140.034 l 7.996
 140.034 l 3.582 140.034 0 136.452 0 132.038 c 0 29.686 l 0 25.272 3.582
 21.69 7.996 21.69 c 110.344 21.69 l 114.762 21.69 118.34 25.272 118.34 
29.686 c 118.34 132.038 l 118.34 136.452 114.762 140.034 110.344 140.034
 c 68.102 140.034 l 68.102 194.405 l 196.703 194.405 l 196.703 140.034 l
 153.625 140.034 l 149.211 140.034 145.629 136.452 145.629 132.038 c 145.629
 29.686 l 145.629 25.272 149.211 21.69 153.625 21.69 c 255.977 21.69 l 260.391
 21.69 263.973 25.272 263.973 29.686 c 263.973 132.038 l 263.969 136.452
 260.391 140.034 255.973 140.034 c h
84.758 339.932 m 138.926 339.932 l 143.34 339.932 146.922 343.514 146.922
 347.928 c 146.922 352.342 143.34 355.924 138.926 355.924 c 84.758 355.924
 l 84.758 371.916 l 324.637 371.916 l 324.637 259.971 l 84.758 259.971 l
 h
102.348 37.682 m 15.992 37.682 l 15.992 124.041 l 102.348 124.041 l h
247.977 37.682 m 161.621 37.682 l 161.621 124.041 l 247.977 124.041 l h
247.977 37.682 m f
401.605 140.034 m 357.289 140.034 l 357.289 202.401 l 357.289 206.815 353.707
 210.397 349.293 210.397 c 305.449 210.397 l 301.031 210.397 297.453 206.815
 297.453 202.401 c 297.453 197.987 301.031 194.405 305.449 194.405 c 341.297
 194.405 l 341.297 140.034 l 299.254 140.034 l 294.84 140.034 291.258 136.452
 291.258 132.038 c 291.258 29.686 l 291.258 25.272 294.84 21.69 299.254 
21.69 c 401.605 21.69 l 406.02 21.69 409.602 25.272 409.602 29.686 c 409.602
 132.038 l 409.602 136.452 406.02 140.034 401.605 140.034 c h
393.609 37.682 m 307.25 37.682 l 307.25 124.041 l 393.609 124.041 l h
393.609 37.682 m f
172.562 355.924 m 170.453 355.924 168.398 355.069 166.902 353.58 c 165.414
 352.096 164.566 350.03 164.566 347.928 c 164.566 345.827 165.414 343.764
 166.902 342.276 c 168.398 340.791 170.461 339.932 172.562 339.932 c 174.664
 339.932 176.719 340.788 178.215 342.276 c 179.703 343.764 180.559 345.827
 180.559 347.928 c 180.559 350.03 179.703 352.096 178.215 353.58 c 176.727
 355.069 174.664 355.924 172.562 355.924 c h
172.562 355.924 m f
Q Q
showpage
%%Trailer
end restore
%%EOF
