%!PS-Adobe-3.0 EPSF-3.0
%%Creator: cairo 1.14.2 (http://cairographics.org)
%%CreationDate: Fri Jun 15 11:41:46 2018
%%Pages: 1
%%DocumentData: Clean7Bit
%%LanguageLevel: 2
%%BoundingBox: 0 -1 410 410
%%EndComments
%%BeginProlog
save
50 dict begin
/q { gsave } bind def
/Q { grestore } bind def
/cm { 6 array astore concat } bind def
/w { setlinewidth } bind def
/J { setlinecap } bind def
/j { setlinejoin } bind def
/M { setmiterlimit } bind def
/d { setdash } bind def
/m { moveto } bind def
/l { lineto } bind def
/c { curveto } bind def
/h { closepath } bind def
/re { exch dup neg 3 1 roll 5 3 roll moveto 0 rlineto
      0 exch rlineto 0 rlineto closepath } bind def
/S { stroke } bind def
/f { fill } bind def
/f* { eofill } bind def
/n { newpath } bind def
/W { clip } bind def
/W* { eoclip } bind def
/BT { } bind def
/ET { } bind def
/pdfmark where { pop globaldict /?pdfmark /exec load put }
    { globaldict begin /?pdfmark /pop load def /pdfmark
    /cleartomark load def end } ifelse
/BDC { mark 3 1 roll /BDC pdfmark } bind def
/EMC { mark /EMC pdfmark } bind def
/cairo_store_point { /cairo_point_y exch def /cairo_point_x exch def } def
/Tj { show currentpoint cairo_store_point } bind def
/TJ {
  {
    dup
    type /stringtype eq
    { show } { -0.001 mul 0 cairo_font_matrix dtransform rmoveto } ifelse
  } forall
  currentpoint cairo_store_point
} bind def
/cairo_selectfont { cairo_font_matrix aload pop pop pop 0 0 6 array astore
    cairo_font exch selectfont cairo_point_x cairo_point_y moveto } bind def
/Tf { pop /cairo_font exch def /cairo_font_matrix where
      { pop cairo_selectfont } if } bind def
/Td { matrix translate cairo_font_matrix matrix concatmatrix dup
      /cairo_font_matrix exch def dup 4 get exch 5 get cairo_store_point
      /cairo_font where { pop cairo_selectfont } if } bind def
/Tm { 2 copy 8 2 roll 6 array astore /cairo_font_matrix exch def
      cairo_store_point /cairo_font where { pop cairo_selectfont } if } bind def
/g { setgray } bind def
/rg { setrgbcolor } bind def
/d1 { setcachedevice } bind def
%%EndProlog
%%BeginSetup
%%EndSetup
%%Page: 1 1
%%BeginPageSetup
%%PageBoundingBox: 0 -1 410 410
%%EndPageSetup
q 0 -1 410 411 rectclip q
1 g
401.602 204.799 m 401.602 96.112 313.488 7.998 204.801 7.998 c 96.109 7.998
 8 96.112 8 204.799 c 8 313.491 96.109 401.6 204.801 401.6 c 313.488 401.6
 401.602 313.491 401.602 204.799 c h
401.602 204.799 m f
1 0.352941 0.352941 rg
204.801 342.401 m 128.805 342.401 67.199 280.795 67.199 204.799 c 67.199
 166.803 82.602 132.401 107.504 107.502 c 138.051 138.045 l 120.969 155.131
 110.398 178.729 110.398 204.799 c 110.398 256.936 152.664 299.202 204.801
 299.202 c f
271.551 271.553 m 288.633 254.471 299.199 230.87 299.199 204.799 c 299.199
 152.663 256.938 110.401 204.801 110.401 c 204.801 67.202 l 280.793 67.202
 342.398 128.807 342.398 204.799 c 342.398 242.795 327 277.198 302.098 302.096
 c h
271.551 271.553 m f
204.801 368.213 m 252 320.799 l 204.801 273.385 l h
204.801 368.213 m f
204.801 41.405 m 157.602 88.819 l 204.801 136.233 l h
204.801 41.405 m f
0 g
204.801 -0.002 m 150.098 -0.002 98.668 21.303 59.984 59.983 c 21.301 98.666
 0 150.096 0 204.799 c 0 259.502 21.301 310.932 59.984 349.616 c 98.668 
388.295 150.098 409.6 204.801 409.6 c 259.504 409.6 310.934 388.295 349.613
 349.616 c 388.297 310.932 409.602 259.502 409.602 204.799 c 409.602 150.096
 388.297 98.666 349.613 59.983 c 310.934 21.303 259.504 -0.002 204.801 -0.002
 c h
204.801 393.6 m 100.695 393.6 16 308.905 16 204.799 c 16 100.694 100.695
 15.998 204.801 15.998 c 308.906 15.998 393.602 100.694 393.602 204.799 
c 393.602 308.905 308.906 393.6 204.801 393.6 c h
204.801 393.6 m f
107.5 294.096 m 105.445 294.096 103.395 294.885 101.832 296.455 c 98.715
 299.588 98.727 304.655 101.859 307.768 c 102.07 307.979 l 105.195 311.104
 110.262 311.104 113.387 307.979 c 116.508 304.858 116.508 299.791 113.387
 296.666 c 113.145 296.424 l 111.582 294.873 109.543 294.096 107.5 294.096
 c h
107.5 294.096 m f
301.832 99.237 m 299.777 99.237 297.727 100.022 296.164 101.592 c 293.043
 104.721 293.055 109.788 296.188 112.905 c 296.453 113.17 l 299.586 116.288
 304.648 116.276 307.766 113.147 c 310.883 110.014 310.871 104.948 307.742
 101.83 c 307.477 101.565 l 305.914 100.014 303.871 99.237 301.832 99.237
 c h
301.832 99.237 m f
257.668 326.444 m 210.469 373.858 l 208.184 376.155 204.738 376.846 201.746
 375.608 c 198.754 374.373 196.801 371.452 196.801 368.213 c 196.801 350.182
 l 171.758 348.819 147.586 341.061 126.445 327.538 c 122.723 325.159 121.637
 320.209 124.02 316.491 c 125.543 314.104 128.125 312.799 130.766 312.799
 c 132.238 312.799 133.734 313.205 135.066 314.061 c 153.629 325.932 174.824
 332.795 196.801 334.139 c 196.801 306.889 l 144.062 302.795 102.398 258.573
 102.398 204.799 c 102.398 180.131 111.066 156.791 126.953 138.264 c 107.672
 118.983 l 86.672 142.686 75.199 172.862 75.199 204.799 c 75.199 229.666
 82.258 253.819 95.613 274.647 c 97.996 278.366 96.914 283.315 93.195 285.698
 c 89.477 288.084 84.527 287.002 82.145 283.284 c 67.133 259.87 59.199 232.733
 59.199 204.799 c 59.199 165.909 74.344 129.346 101.848 101.842 c 103.41
 100.284 105.457 99.502 107.504 99.502 c 109.551 99.502 111.598 100.284 
113.16 101.842 c 143.711 132.389 l 145.211 133.889 146.055 135.924 146.055
 138.045 c 146.055 140.166 145.211 142.202 143.711 143.702 c 127.387 160.022
 118.398 181.721 118.398 204.799 c 118.398 249.745 152.895 286.776 196.801
 290.827 c 196.801 273.389 l 196.801 270.147 198.754 267.229 201.746 265.995
 c 202.734 265.584 203.77 265.389 204.797 265.389 c 206.887 265.389 208.938
 266.205 210.469 267.745 c 257.668 315.159 l 260.777 318.276 260.777 323.323
 257.668 326.444 c h
212.801 292.764 m 212.801 348.838 l 240.711 320.799 l h
212.801 292.764 m f
307.758 307.752 m 304.633 310.877 299.566 310.877 296.441 307.752 c 265.891
 277.209 l 264.391 275.709 263.547 273.674 263.547 271.553 c 263.547 269.432
 264.391 267.397 265.891 265.897 c 282.211 249.577 291.199 227.877 291.199
 204.799 c 291.199 159.858 256.703 122.823 212.801 118.772 c 212.801 136.233
 l 212.801 139.471 210.848 142.393 207.852 143.627 c 204.859 144.862 201.414
 144.174 199.129 141.877 c 151.93 94.463 l 148.824 91.342 148.824 86.299
 151.93 83.178 c 199.129 35.764 l 200.66 34.225 202.715 33.405 204.801 33.405
 c 205.828 33.405 206.867 33.604 207.852 34.01 c 210.848 35.248 212.801 
38.166 212.801 41.405 c 212.801 59.44 l 236.617 60.745 259.746 67.83 280.125
 80.174 c 283.906 82.463 285.113 87.385 282.824 91.163 c 280.535 94.944 
275.617 96.147 271.836 93.862 c 253.953 83.03 233.691 76.729 212.801 75.444
 c 212.801 102.709 l 265.539 106.803 307.199 151.026 307.199 204.799 c 307.199
 229.467 298.535 252.807 282.648 271.334 c 301.93 290.612 l 322.926 266.909
 334.398 236.737 334.398 204.799 c 334.398 181.038 327.914 157.799 315.641
 137.604 c 313.348 133.827 314.547 128.909 318.324 126.612 c 322.102 124.319
 327.023 125.518 329.316 129.295 c 343.109 151.995 350.398 178.104 350.398
 204.799 c 350.398 243.69 335.254 280.252 307.758 307.752 c h
196.801 60.784 m 168.887 88.823 l 196.801 116.858 l h
196.801 60.784 m f
Q Q
showpage
%%Trailer
end restore
%%EOF
