%!PS-Adobe-3.0 EPSF-3.0
%%Creator: cairo 1.14.2 (http://cairographics.org)
%%CreationDate: Fri Jun 15 11:41:46 2018
%%Pages: 1
%%DocumentData: Clean7Bit
%%LanguageLevel: 2
%%BoundingBox: 8 -1 401 410
%%EndComments
%%BeginProlog
save
50 dict begin
/q { gsave } bind def
/Q { grestore } bind def
/cm { 6 array astore concat } bind def
/w { setlinewidth } bind def
/J { setlinecap } bind def
/j { setlinejoin } bind def
/M { setmiterlimit } bind def
/d { setdash } bind def
/m { moveto } bind def
/l { lineto } bind def
/c { curveto } bind def
/h { closepath } bind def
/re { exch dup neg 3 1 roll 5 3 roll moveto 0 rlineto
      0 exch rlineto 0 rlineto closepath } bind def
/S { stroke } bind def
/f { fill } bind def
/f* { eofill } bind def
/n { newpath } bind def
/W { clip } bind def
/W* { eoclip } bind def
/BT { } bind def
/ET { } bind def
/pdfmark where { pop globaldict /?pdfmark /exec load put }
    { globaldict begin /?pdfmark /pop load def /pdfmark
    /cleartomark load def end } ifelse
/BDC { mark 3 1 roll /BDC pdfmark } bind def
/EMC { mark /EMC pdfmark } bind def
/cairo_store_point { /cairo_point_y exch def /cairo_point_x exch def } def
/Tj { show currentpoint cairo_store_point } bind def
/TJ {
  {
    dup
    type /stringtype eq
    { show } { -0.001 mul 0 cairo_font_matrix dtransform rmoveto } ifelse
  } forall
  currentpoint cairo_store_point
} bind def
/cairo_selectfont { cairo_font_matrix aload pop pop pop 0 0 6 array astore
    cairo_font exch selectfont cairo_point_x cairo_point_y moveto } bind def
/Tf { pop /cairo_font exch def /cairo_font_matrix where
      { pop cairo_selectfont } if } bind def
/Td { matrix translate cairo_font_matrix matrix concatmatrix dup
      /cairo_font_matrix exch def dup 4 get exch 5 get cairo_store_point
      /cairo_font where { pop cairo_selectfont } if } bind def
/Tm { 2 copy 8 2 roll 6 array astore /cairo_font_matrix exch def
      cairo_store_point /cairo_font where { pop cairo_selectfont } if } bind def
/g { setgray } bind def
/rg { setrgbcolor } bind def
/d1 { setcachedevice } bind def
%%EndProlog
%%BeginSetup
%%EndSetup
%%Page: 1 1
%%BeginPageSetup
%%PageBoundingBox: 8 -1 401 410
%%EndPageSetup
q 8 -1 393 411 rectclip q
0.647059 0.862745 0.411765 rg
337.578 335.998 m 337.582 315.674 321.102 299.198 300.777 299.198 c 280.453
 299.198 263.977 315.674 263.977 335.998 c 263.977 356.323 280.453 372.799
 300.777 372.799 c 321.102 372.795 337.578 356.323 337.578 335.998 c h
337.578 335.998 m f
0.960784 0.784314 0.431373 rg
140.824 369.6 m 140.824 351.928 126.496 337.6 108.824 337.6 c 91.148 337.6
 76.824 351.928 76.824 369.6 c 76.824 387.272 91.148 401.6 108.824 401.6
 c 126.496 401.6 140.824 387.272 140.824 369.6 c h
140.824 369.6 m f
1 0.352941 0.352941 rg
171.621 299.198 m 171.621 319.522 188.098 335.998 208.422 335.998 c 228.742
 335.998 245.223 319.522 245.223 299.198 c h
171.621 299.198 m f
0.607843 0.745098 1 rg
16.801 299.198 m 16.801 255.998 l 166.402 106.401 l 166.402 7.998 l 243.199
 35.202 l 243.199 106.401 l 392.801 255.998 l 392.801 299.198 l h
16.801 299.198 m f
0.431373 0.529412 0.960784 rg
16.801 299.202 375.996 -43.199 re f
0 g
100.602 164.198 m 98.496 164.198 96.434 165.053 94.945 166.541 c 93.457
 168.03 92.602 170.096 92.602 172.198 c 92.602 174.303 93.457 176.366 94.945
 177.854 c 96.434 179.342 98.496 180.198 100.602 180.198 c 102.703 180.198
 104.77 179.342 106.258 177.854 c 107.746 176.366 108.602 174.303 108.602
 172.198 c 108.602 170.088 107.746 168.03 106.258 166.541 c 104.77 165.053
 102.703 164.198 100.602 164.198 c h
100.602 164.198 m f
108.82 329.6 m 86.766 329.604 68.82 347.545 68.82 369.6 c 68.82 380.284
 72.98 390.33 80.535 397.885 c 88.094 405.44 98.137 409.6 108.82 409.6 c
 130.875 409.6 148.82 391.655 148.82 369.6 c 148.82 347.545 130.879 329.604
 108.82 329.6 c h
108.82 393.6 m 102.41 393.6 96.383 391.104 91.848 386.569 c 87.316 382.038
 84.82 376.01 84.82 369.6 c 84.82 356.366 95.586 345.6 108.82 345.6 c 122.055
 345.6 132.82 356.366 132.82 369.6 c 132.82 382.834 122.055 393.6 108.82
 393.6 c h
108.82 393.6 m f
392.801 307.198 m 335.062 307.198 l 341.621 314.991 345.582 325.038 345.582
 335.998 c 345.582 360.702 325.484 380.799 300.781 380.799 c 288.812 380.799
 277.562 376.139 269.102 367.674 c 260.637 359.213 255.98 347.963 255.98
 335.998 c 255.98 325.338 259.684 315.256 266.473 307.198 c 252.492 307.198
 l 248.707 328.096 230.391 343.998 208.422 343.998 c 196.453 343.998 185.203
 339.338 176.742 330.877 c 170.199 324.334 165.941 316.12 164.34 307.198
 c 16.801 307.198 l 12.383 307.198 8.801 303.616 8.801 299.198 c 8.801 255.998
 l 8.801 253.877 9.645 251.842 11.145 250.342 c 74.145 187.342 l 77.27 184.217
 82.332 184.217 85.457 187.342 c 88.582 190.467 88.582 195.53 85.457 198.655
 c 36.113 247.998 l 312 247.998 l 316.418 247.998 320 251.58 320 255.998
 c 320 260.416 316.418 263.998 312 263.998 c 24.801 263.998 l 24.801 291.198
 l 384.797 291.198 l 384.797 259.315 l 237.543 112.057 l 236.043 110.557
 235.199 108.522 235.199 106.401 c 235.199 40.854 l 174.402 19.319 l 174.402
 106.401 l 174.402 108.522 173.559 110.557 172.059 112.057 c 126.457 157.655
 l 123.332 160.78 118.27 160.78 115.145 157.655 c 112.02 154.534 112.02 
149.467 115.145 146.342 c 158.398 103.084 l 158.398 7.998 l 158.398 5.401
 159.66 2.967 161.781 1.467 c 163.152 0.498 164.77 -0.002 166.402 -0.002
 c 167.297 -0.002 168.203 0.151 169.07 0.459 c 245.871 27.659 l 249.062 
28.791 251.199 31.811 251.199 35.202 c 251.199 103.084 l 398.457 250.342
 l 399.957 251.842 400.797 253.877 400.797 255.998 c 400.797 299.198 l 400.801
 303.616 397.219 307.198 392.801 307.198 c h
280.414 315.635 m 274.973 321.073 271.98 328.307 271.98 335.998 c 271.98
 343.69 274.973 350.924 280.414 356.362 c 285.855 361.803 293.086 364.799
 300.781 364.799 c 316.66 364.799 329.582 351.877 329.582 335.998 c 329.582
 320.12 316.66 307.198 300.781 307.198 c 293.086 307.198 285.855 310.194
 280.414 315.635 c h
188.059 319.561 m 193.496 325.002 200.73 327.998 208.422 327.998 c 221.527
 327.998 232.609 319.198 236.086 307.198 c 180.75 307.198 l 182.078 311.823
 184.559 316.065 188.059 319.561 c h
188.059 319.561 m f
341.598 247.998 m 339.496 247.998 337.43 248.854 335.941 250.342 c 334.457
 251.83 333.598 253.893 333.598 255.998 c 333.598 258.104 334.457 260.166
 335.941 261.655 c 337.43 263.143 339.496 263.998 341.598 263.998 c 343.703
 263.998 345.766 263.143 347.254 261.655 c 348.742 260.166 349.598 258.104
 349.598 255.998 c 349.598 253.893 348.742 251.83 347.254 250.342 c 345.766
 248.854 343.703 247.998 341.598 247.998 c h
341.598 247.998 m f
Q Q
showpage
%%Trailer
end restore
%%EOF
