%!PS-Adobe-3.0 EPSF-3.0
%%Creator: cairo 1.14.2 (http://cairographics.org)
%%CreationDate: Fri Jun 15 11:41:46 2018
%%Pages: 1
%%DocumentData: Clean7Bit
%%LanguageLevel: 2
%%BoundingBox: 0 -1 410 410
%%EndComments
%%BeginProlog
save
50 dict begin
/q { gsave } bind def
/Q { grestore } bind def
/cm { 6 array astore concat } bind def
/w { setlinewidth } bind def
/J { setlinecap } bind def
/j { setlinejoin } bind def
/M { setmiterlimit } bind def
/d { setdash } bind def
/m { moveto } bind def
/l { lineto } bind def
/c { curveto } bind def
/h { closepath } bind def
/re { exch dup neg 3 1 roll 5 3 roll moveto 0 rlineto
      0 exch rlineto 0 rlineto closepath } bind def
/S { stroke } bind def
/f { fill } bind def
/f* { eofill } bind def
/n { newpath } bind def
/W { clip } bind def
/W* { eoclip } bind def
/BT { } bind def
/ET { } bind def
/pdfmark where { pop globaldict /?pdfmark /exec load put }
    { globaldict begin /?pdfmark /pop load def /pdfmark
    /cleartomark load def end } ifelse
/BDC { mark 3 1 roll /BDC pdfmark } bind def
/EMC { mark /EMC pdfmark } bind def
/cairo_store_point { /cairo_point_y exch def /cairo_point_x exch def } def
/Tj { show currentpoint cairo_store_point } bind def
/TJ {
  {
    dup
    type /stringtype eq
    { show } { -0.001 mul 0 cairo_font_matrix dtransform rmoveto } ifelse
  } forall
  currentpoint cairo_store_point
} bind def
/cairo_selectfont { cairo_font_matrix aload pop pop pop 0 0 6 array astore
    cairo_font exch selectfont cairo_point_x cairo_point_y moveto } bind def
/Tf { pop /cairo_font exch def /cairo_font_matrix where
      { pop cairo_selectfont } if } bind def
/Td { matrix translate cairo_font_matrix matrix concatmatrix dup
      /cairo_font_matrix exch def dup 4 get exch 5 get cairo_store_point
      /cairo_font where { pop cairo_selectfont } if } bind def
/Tm { 2 copy 8 2 roll 6 array astore /cairo_font_matrix exch def
      cairo_store_point /cairo_font where { pop cairo_selectfont } if } bind def
/g { setgray } bind def
/rg { setrgbcolor } bind def
/d1 { setcachedevice } bind def
%%EndProlog
%%BeginSetup
%%EndSetup
%%Page: 1 1
%%BeginPageSetup
%%PageBoundingBox: 0 -1 410 410
%%EndPageSetup
q 0 -1 410 411 rectclip q
0.960784 0.784314 0.431373 rg
7.996 401.502 102.348 -102.348 re f
153.629 401.502 102.348 -102.348 re f
299.25 401.502 102.352 -102.348 re f
7.996 255.971 102.348 -102.348 re f
153.629 255.971 102.348 -102.348 re f
299.25 255.971 102.352 -102.348 re f
7.996 110.444 102.348 -102.348 re f
153.629 110.444 102.348 -102.348 re f
299.25 110.444 102.352 -102.348 re f
0 g
255.973 291.159 m 153.625 291.159 l 149.211 291.159 145.629 294.737 145.629
 299.155 c 145.629 401.502 l 145.629 405.916 149.211 409.498 153.625 409.498
 c 255.977 409.498 l 260.391 409.498 263.973 405.916 263.973 401.502 c 263.973
 299.155 l 263.969 294.737 260.391 291.159 255.973 291.159 c h
161.621 307.151 m 247.977 307.151 l 247.977 393.506 l 161.621 393.506 l
 h
161.621 307.151 m f
401.605 291.159 m 299.254 291.159 l 294.84 291.159 291.258 294.737 291.258
 299.155 c 291.258 401.502 l 291.258 405.916 294.84 409.498 299.254 409.498
 c 401.605 409.498 l 406.02 409.498 409.602 405.916 409.602 401.502 c 409.602
 299.155 l 409.602 294.737 406.02 291.159 401.605 291.159 c h
307.25 307.151 m 393.609 307.151 l 393.609 393.506 l 307.25 393.506 l h
307.25 307.151 m f
110.344 145.631 m 7.996 145.631 l 3.578 145.631 0 149.209 0 153.627 c 0
 255.975 l 0 260.389 3.578 263.971 7.996 263.971 c 110.344 263.971 l 114.762
 263.971 118.34 260.389 118.34 255.975 c 118.34 153.623 l 118.34 149.209
 114.762 145.631 110.344 145.631 c h
15.992 161.623 m 102.348 161.623 l 102.348 247.979 l 15.992 247.979 l h
15.992 161.623 m f
255.973 145.631 m 153.625 145.631 l 149.211 145.631 145.629 149.209 145.629
 153.627 c 145.629 255.975 l 145.629 260.389 149.211 263.971 153.625 263.971
 c 255.977 263.971 l 260.391 263.971 263.973 260.389 263.973 255.975 c 263.973
 153.623 l 263.969 149.209 260.391 145.631 255.973 145.631 c h
161.621 161.623 m 247.977 161.623 l 247.977 247.979 l 161.621 247.979 l
 h
161.621 161.623 m f
401.605 145.631 m 299.254 145.631 l 294.84 145.631 291.258 149.209 291.258
 153.627 c 291.258 255.975 l 291.258 260.389 294.84 263.971 299.254 263.971
 c 401.605 263.971 l 406.02 263.971 409.602 260.389 409.602 255.975 c 409.602
 153.623 l 409.602 149.209 406.02 145.631 401.605 145.631 c h
307.25 161.623 m 393.609 161.623 l 393.609 247.979 l 307.25 247.979 l h
307.25 161.623 m f
110.344 0.1 m 7.996 0.1 l 3.578 0.1 0 3.682 0 8.096 c 0 110.448 l 0 114.862
 3.578 118.444 7.996 118.444 c 110.344 118.444 l 114.762 118.444 118.34 
114.862 118.34 110.448 c 118.34 8.096 l 118.34 3.682 114.762 0.1 110.344
 0.1 c h
15.992 16.092 m 102.348 16.092 l 102.348 102.452 l 15.992 102.452 l h
15.992 16.092 m f
255.973 0.1 m 153.625 0.1 l 149.211 0.1 145.629 3.682 145.629 8.096 c 145.629
 110.448 l 145.629 114.862 149.211 118.444 153.625 118.444 c 255.977 118.444
 l 260.391 118.444 263.973 114.862 263.973 110.448 c 263.973 8.096 l 263.969
 3.682 260.391 0.1 255.973 0.1 c h
161.621 16.092 m 247.977 16.092 l 247.977 102.452 l 161.621 102.452 l h
161.621 16.092 m f
353.16 102.452 m 351.051 102.452 348.996 103.307 347.508 104.795 c 346.012
 106.28 345.164 108.342 345.164 110.448 c 345.164 112.549 346.012 114.612
 347.508 116.1 c 348.996 117.588 351.051 118.444 353.16 118.444 c 355.266
 118.444 357.328 117.588 358.812 116.1 c 360.301 114.612 361.156 112.549
 361.156 110.448 c 361.156 108.342 360.301 106.28 358.812 104.795 c 357.328
 103.307 355.266 102.452 353.16 102.452 c h
353.16 102.452 m f
401.605 0.1 m 299.254 0.1 l 294.84 0.1 291.258 3.682 291.258 8.096 c 291.258
 110.448 l 291.258 114.862 294.84 118.444 299.254 118.444 c 317.977 118.444
 l 322.391 118.444 325.973 114.862 325.973 110.448 c 325.973 106.034 322.391
 102.452 317.977 102.452 c 307.25 102.452 l 307.25 16.096 l 393.609 16.096
 l 393.609 102.452 l 389.406 102.452 l 384.992 102.452 381.41 106.03 381.41
 110.448 c 381.41 114.862 384.992 118.444 389.406 118.444 c 401.605 118.444
 l 406.02 118.444 409.602 114.862 409.602 110.448 c 409.602 8.096 l 409.602
 3.682 406.02 0.1 401.605 0.1 c h
401.605 0.1 m f
56.445 291.159 m 54.34 291.159 52.277 292.01 50.793 293.502 c 49.305 294.987
 48.449 297.049 48.449 299.155 c 48.449 301.256 49.305 303.319 50.793 304.807
 c 52.277 306.295 54.332 307.151 56.445 307.151 c 58.547 307.151 60.609 
306.295 62.098 304.807 c 63.586 303.319 64.441 301.256 64.441 299.155 c 
64.441 297.049 63.586 294.987 62.098 293.502 c 60.609 292.014 58.547 291.159
 56.445 291.159 c h
56.445 291.159 m f
110.344 291.159 m 91.625 291.159 l 87.207 291.159 83.629 294.737 83.629
 299.155 c 83.629 303.569 87.207 307.147 91.625 307.147 c 102.348 307.147
 l 102.348 393.506 l 15.992 393.506 l 15.992 307.151 l 20.191 307.151 l 
24.609 307.151 28.188 303.569 28.188 299.155 c 28.188 294.737 24.609 291.159
 20.191 291.159 c 7.996 291.159 l 3.578 291.159 0 294.737 0 299.155 c 0 
401.502 l 0 405.916 3.578 409.498 7.996 409.498 c 110.344 409.498 l 114.762
 409.498 118.34 405.916 118.34 401.502 c 118.34 299.155 l 118.34 294.737
 114.762 291.159 110.344 291.159 c h
110.344 291.159 m f
Q Q
showpage
%%Trailer
end restore
%%EOF
