%!PS-Adobe-3.0 EPSF-3.0
%%Creator: cairo 1.14.2 (http://cairographics.org)
%%CreationDate: Fri Jun 15 11:41:46 2018
%%Pages: 1
%%DocumentData: Clean7Bit
%%LanguageLevel: 2
%%BoundingBox: 0 -1 410 410
%%EndComments
%%BeginProlog
save
50 dict begin
/q { gsave } bind def
/Q { grestore } bind def
/cm { 6 array astore concat } bind def
/w { setlinewidth } bind def
/J { setlinecap } bind def
/j { setlinejoin } bind def
/M { setmiterlimit } bind def
/d { setdash } bind def
/m { moveto } bind def
/l { lineto } bind def
/c { curveto } bind def
/h { closepath } bind def
/re { exch dup neg 3 1 roll 5 3 roll moveto 0 rlineto
      0 exch rlineto 0 rlineto closepath } bind def
/S { stroke } bind def
/f { fill } bind def
/f* { eofill } bind def
/n { newpath } bind def
/W { clip } bind def
/W* { eoclip } bind def
/BT { } bind def
/ET { } bind def
/pdfmark where { pop globaldict /?pdfmark /exec load put }
    { globaldict begin /?pdfmark /pop load def /pdfmark
    /cleartomark load def end } ifelse
/BDC { mark 3 1 roll /BDC pdfmark } bind def
/EMC { mark /EMC pdfmark } bind def
/cairo_store_point { /cairo_point_y exch def /cairo_point_x exch def } def
/Tj { show currentpoint cairo_store_point } bind def
/TJ {
  {
    dup
    type /stringtype eq
    { show } { -0.001 mul 0 cairo_font_matrix dtransform rmoveto } ifelse
  } forall
  currentpoint cairo_store_point
} bind def
/cairo_selectfont { cairo_font_matrix aload pop pop pop 0 0 6 array astore
    cairo_font exch selectfont cairo_point_x cairo_point_y moveto } bind def
/Tf { pop /cairo_font exch def /cairo_font_matrix where
      { pop cairo_selectfont } if } bind def
/Td { matrix translate cairo_font_matrix matrix concatmatrix dup
      /cairo_font_matrix exch def dup 4 get exch 5 get cairo_store_point
      /cairo_font where { pop cairo_selectfont } if } bind def
/Tm { 2 copy 8 2 roll 6 array astore /cairo_font_matrix exch def
      cairo_store_point /cairo_font where { pop cairo_selectfont } if } bind def
/g { setgray } bind def
/rg { setrgbcolor } bind def
/d1 { setcachedevice } bind def
%%EndProlog
%%BeginSetup
%%EndSetup
%%Page: 1 1
%%BeginPageSetup
%%PageBoundingBox: 0 -1 410 410
%%EndPageSetup
q 0 -1 410 411 rectclip q
1 0.352941 0.352941 rg
368.484 401.592 m 226.117 401.592 l 17.699 193.17 l 4.766 180.241 4.766
 159.272 17.699 146.338 c 146.348 17.69 l 159.281 4.756 180.25 4.756 193.18
 17.69 c 401.602 226.108 l 401.602 368.475 l 401.602 386.764 386.773 401.592
 368.484 401.592 c h
368.484 401.592 m f
1 g
358.488 329.502 m 358.488 313.6 345.594 300.705 329.688 300.705 c 313.781
 300.705 300.887 313.6 300.887 329.502 c 300.887 345.409 313.781 358.303
 329.688 358.303 c 345.594 358.303 358.488 345.409 358.488 329.502 c h
358.488 329.502 m f
0.980392 0.882353 0.588235 rg
319.602 209.725 m 189.734 79.858 l 178.91 69.034 161.359 69.034 150.535
 79.858 c 79.867 150.522 l 69.043 161.346 69.043 178.897 79.867 189.725 
c 209.734 319.588 l 220.559 330.413 238.109 330.413 248.934 319.588 c 319.602
 248.924 l 330.426 238.1 330.426 220.549 319.602 209.725 c h
319.602 209.725 m f
0 g
128.855 296.334 m 130.969 296.334 133.023 297.182 134.52 298.67 c 136.008
 300.166 136.863 302.221 136.863 304.334 c 136.863 306.44 136.008 308.495
 134.52 309.991 c 133.023 311.479 130.969 312.334 128.855 312.334 c 126.754
 312.334 124.695 311.479 123.199 309.991 c 121.711 308.495 120.855 306.44
 120.855 304.334 c 120.855 302.221 121.711 300.166 123.199 298.67 c 124.695
 297.182 126.754 296.334 128.855 296.334 c h
128.855 296.334 m f
368.484 409.592 m 226.117 409.592 l 223.996 409.592 221.961 408.748 220.461
 407.248 c 144.203 330.987 l 141.078 327.866 141.078 322.799 144.203 319.674
 c 147.328 316.549 152.391 316.549 155.516 319.674 c 229.434 393.592 l 368.484
 393.592 l 382.336 393.592 393.602 382.323 393.602 368.475 c 393.602 229.424
 l 187.523 23.346 l 177.73 13.553 161.797 13.557 152.004 23.346 c 23.355
 151.995 l 18.613 156.741 16 163.045 16 169.756 c 16 176.463 18.613 182.772
 23.355 187.514 c 110.316 274.475 l 113.441 277.596 113.441 282.663 110.316
 285.788 c 107.191 288.913 102.125 288.913 99 285.788 c 12.043 198.827 l
 4.277 191.061 0 180.737 0 169.756 c 0 158.772 4.277 148.448 12.043 140.682
 c 140.691 12.034 l 148.707 4.018 159.234 0.01 169.766 0.01 c 180.293 0.01
 190.824 4.018 198.84 12.034 c 407.258 220.452 l 408.758 221.952 409.602
 223.987 409.602 226.108 c 409.602 368.475 l 409.602 391.147 391.156 409.592
 368.484 409.592 c h
368.484 409.592 m f
366.492 329.498 m 366.492 349.791 349.98 366.299 329.691 366.299 c 309.398
 366.299 292.891 349.791 292.891 329.498 c 292.891 309.209 309.398 292.702
 329.691 292.702 c 349.98 292.702 366.492 309.209 366.492 329.498 c h
308.891 329.498 m 308.891 340.971 318.223 350.299 329.691 350.299 c 341.16
 350.299 350.492 340.971 350.492 329.498 c 350.492 318.03 341.16 308.702
 329.691 308.702 c 318.223 308.702 308.891 318.03 308.891 329.498 c h
308.891 329.498 m f
229.332 335.709 m 219.793 335.709 210.824 331.995 204.078 325.248 c 74.211
 195.381 l 67.465 188.635 63.746 179.663 63.746 170.123 c 63.746 160.58 
67.465 151.612 74.211 144.866 c 144.875 74.202 l 151.84 67.237 160.988 63.756
 170.133 63.756 c 179.281 63.756 188.426 67.237 195.391 74.202 c 325.258
 204.069 l 332.004 210.815 335.719 219.784 335.719 229.323 c 335.719 238.866
 332.004 247.834 325.258 254.58 c 254.59 325.248 l 247.844 331.995 238.875
 335.709 229.332 335.709 c h
319.719 229.323 m 319.719 224.057 317.668 219.104 313.941 215.381 c 304.363
 205.799 l 265.477 244.686 l 262.352 247.811 257.285 247.811 254.16 244.686
 c 251.039 241.561 251.039 236.498 254.16 233.373 c 293.047 194.487 l 184.078
 85.514 l 176.391 77.827 163.879 77.827 156.191 85.514 c 85.523 156.182 
l 81.801 159.905 79.75 164.858 79.75 170.123 c 79.75 175.393 81.801 180.342
 85.523 184.069 c 215.391 313.932 l 219.113 317.659 224.066 319.709 229.336
 319.709 c 234.602 319.709 239.555 317.659 243.277 313.932 c 313.945 243.268
 l 317.668 239.541 319.719 234.592 319.719 229.323 c h
319.719 229.323 m f
236.023 270.823 m 233.922 270.823 231.855 269.967 230.367 268.479 c 228.879
 266.991 228.023 264.936 228.023 262.823 c 228.023 260.717 228.879 258.655
 230.367 257.166 c 231.855 255.678 233.922 254.823 236.023 254.823 c 238.129
 254.823 240.191 255.678 241.68 257.166 c 243.168 258.655 244.023 260.717
 244.023 262.823 c 244.023 264.936 243.168 266.991 241.68 268.479 c 240.191
 269.967 238.129 270.823 236.023 270.823 c h
236.023 270.823 m f
Q Q
showpage
%%Trailer
end restore
%%EOF
