%!PS-Adobe-3.0 EPSF-3.0
%%Creator: cairo 1.14.2 (http://cairographics.org)
%%CreationDate: Fri Jun 15 11:41:46 2018
%%Pages: 1
%%DocumentData: Clean7Bit
%%LanguageLevel: 2
%%BoundingBox: 43 -1 367 410
%%EndComments
%%BeginProlog
save
50 dict begin
/q { gsave } bind def
/Q { grestore } bind def
/cm { 6 array astore concat } bind def
/w { setlinewidth } bind def
/J { setlinecap } bind def
/j { setlinejoin } bind def
/M { setmiterlimit } bind def
/d { setdash } bind def
/m { moveto } bind def
/l { lineto } bind def
/c { curveto } bind def
/h { closepath } bind def
/re { exch dup neg 3 1 roll 5 3 roll moveto 0 rlineto
      0 exch rlineto 0 rlineto closepath } bind def
/S { stroke } bind def
/f { fill } bind def
/f* { eofill } bind def
/n { newpath } bind def
/W { clip } bind def
/W* { eoclip } bind def
/BT { } bind def
/ET { } bind def
/pdfmark where { pop globaldict /?pdfmark /exec load put }
    { globaldict begin /?pdfmark /pop load def /pdfmark
    /cleartomark load def end } ifelse
/BDC { mark 3 1 roll /BDC pdfmark } bind def
/EMC { mark /EMC pdfmark } bind def
/cairo_store_point { /cairo_point_y exch def /cairo_point_x exch def } def
/Tj { show currentpoint cairo_store_point } bind def
/TJ {
  {
    dup
    type /stringtype eq
    { show } { -0.001 mul 0 cairo_font_matrix dtransform rmoveto } ifelse
  } forall
  currentpoint cairo_store_point
} bind def
/cairo_selectfont { cairo_font_matrix aload pop pop pop 0 0 6 array astore
    cairo_font exch selectfont cairo_point_x cairo_point_y moveto } bind def
/Tf { pop /cairo_font exch def /cairo_font_matrix where
      { pop cairo_selectfont } if } bind def
/Td { matrix translate cairo_font_matrix matrix concatmatrix dup
      /cairo_font_matrix exch def dup 4 get exch 5 get cairo_store_point
      /cairo_font where { pop cairo_selectfont } if } bind def
/Tm { 2 copy 8 2 roll 6 array astore /cairo_font_matrix exch def
      cairo_store_point /cairo_font where { pop cairo_selectfont } if } bind def
/g { setgray } bind def
/rg { setrgbcolor } bind def
/d1 { setcachedevice } bind def
%%EndProlog
%%BeginSetup
%%EndSetup
%%Page: 1 1
%%BeginPageSetup
%%PageBoundingBox: 43 -1 367 410
%%EndPageSetup
q 43 -1 324 411 rectclip q
1 0.431373 0.215686 rg
161.477 51.201 m 161.477 27.341 180.82 8.002 204.68 8.002 c 228.535 8.002
 247.879 27.341 247.879 51.201 c h
161.477 51.201 m f
0.960784 0.784314 0.431373 rg
332.68 137.955 m 332.68 230.4 l 332.68 301.091 275.371 358.4 204.68 358.4
 c 133.988 358.4 76.68 301.091 76.68 230.4 c 76.68 137.955 l 76.68 123.978
 70.762 110.681 60.449 101.252 c 54.691 95.99 51.078 88.416 51.078 79.998
 c 51.078 64.095 63.973 51.201 79.875 51.201 c 329.48 51.201 l 345.383 51.201
 358.277 64.095 358.277 79.998 c 358.277 88.416 354.664 95.99 348.906 101.252
 c 338.594 110.681 332.68 123.978 332.68 137.955 c h
332.68 137.955 m f
1 0.352941 0.352941 rg
358.52 307.201 m 358.52 278.923 335.598 256.002 307.32 256.002 c 279.043
 256.002 256.121 278.923 256.121 307.201 c 256.121 335.478 279.043 358.4
 307.32 358.4 c 335.598 358.4 358.52 335.478 358.52 307.201 c h
358.52 307.201 m f
0 g
354.305 107.158 m 345.645 115.076 340.676 126.298 340.676 137.955 c 340.676
 217.599 l 340.676 222.017 337.098 225.599 332.676 225.599 c 328.258 225.599
 324.676 222.017 324.676 217.599 c 324.676 137.955 l 324.676 121.818 331.543
 106.291 343.508 95.349 c 347.812 91.416 350.277 85.822 350.277 79.998 c
 350.277 68.529 340.945 59.201 329.48 59.201 c 79.875 59.201 l 68.41 59.201
 59.078 68.529 59.078 79.998 c 59.078 85.822 61.543 91.416 65.848 95.349
 c 77.812 106.291 84.68 121.818 84.68 137.955 c 84.68 230.4 l 84.68 296.568
 138.512 350.4 204.68 350.4 c 222.875 350.4 240.801 346.263 257.035 338.392
 c 251.395 329.326 248.121 318.638 248.121 307.201 c 248.121 274.556 274.676
 248.002 307.32 248.002 c 339.965 248.002 366.52 274.556 366.52 307.201 
c 366.52 339.841 339.965 366.4 307.32 366.4 c 292.023 366.4 278.059 360.568
 267.543 351.005 c 255.617 357.228 242.824 361.627 229.613 364.084 c 232.562
 368.681 234.277 374.142 234.277 380.002 c 234.277 396.322 221 409.599 204.68
 409.599 c 188.355 409.599 175.078 396.322 175.078 380.002 c 175.078 374.15
 176.793 368.697 179.73 364.099 c 116.613 352.349 68.68 296.873 68.68 230.4
 c 68.68 137.955 l 68.68 126.298 63.711 115.076 55.051 107.158 c 47.441 
100.201 43.078 90.302 43.078 79.998 c 43.078 59.709 59.586 43.201 79.875
 43.201 c 154.105 43.201 l 157.961 18.755 179.168 0.002 204.68 0.002 c 230.188
 0.002 251.398 18.755 255.25 43.201 c 329.48 43.201 l 349.77 43.201 366.277
 59.709 366.277 79.998 c 366.277 90.302 361.914 100.201 354.305 107.158 
c h
350.52 307.201 m 350.52 283.38 331.141 264.002 307.32 264.002 c 283.5 264.002
 264.121 283.38 264.121 307.201 c 264.121 331.021 283.5 350.4 307.32 350.4
 c 331.141 350.4 350.52 331.021 350.52 307.201 c h
204.68 393.599 m 212.176 393.599 218.277 387.498 218.277 380.002 c 218.277
 372.502 212.176 366.4 204.68 366.4 c 197.18 366.4 191.078 372.502 191.078
 380.002 c 191.078 387.498 197.18 393.599 204.68 393.599 c h
204.68 16.002 m 188.023 16.002 174.039 27.634 170.406 43.201 c 238.949 
43.201 l 235.316 27.634 221.336 16.002 204.68 16.002 c h
204.68 16.002 m f
115.078 238.568 m 110.66 238.568 107.078 234.986 107.078 230.568 c 107.078
 230.4 l 107.078 225.982 110.66 222.4 115.078 222.4 c 119.496 222.4 123.078
 225.982 123.078 230.4 c 123.078 230.568 l 123.078 234.986 119.496 238.568
 115.078 238.568 c h
115.078 238.568 m f
129.531 262.259 m 142.355 292.474 171.855 312.002 204.68 312.002 c 209.098
 312.002 212.68 315.584 212.68 320.002 c 212.68 324.42 209.098 328.002 204.68
 328.002 c 165.422 328.002 130.141 304.65 114.801 268.509 c 113.074 264.443
 114.973 259.748 119.039 258.021 c 120.059 257.587 121.121 257.38 122.16
 257.38 c 125.273 257.38 128.234 259.212 129.531 262.259 c h
129.531 262.259 m f
299.078 308.623 m 299.078 294.134 l 299.078 289.716 302.66 286.134 307.078
 286.134 c 311.496 286.134 315.078 289.716 315.078 294.134 c 315.078 325.732
 l 315.078 328.97 313.129 331.888 310.141 333.127 c 307.152 334.361 303.711
 333.677 301.422 331.392 c 292.223 322.189 l 289.098 319.068 289.098 314.002
 292.223 310.877 c 294.09 309.009 296.652 308.255 299.078 308.623 c h
299.078 308.623 m f
Q Q
showpage
%%Trailer
end restore
%%EOF
