%!PS-Adobe-3.0 EPSF-3.0
%%Creator: cairo 1.14.2 (http://cairographics.org)
%%CreationDate: Fri Jun 15 11:41:46 2018
%%Pages: 1
%%DocumentData: Clean7Bit
%%LanguageLevel: 2
%%BoundingBox: 0 -1 410 410
%%EndComments
%%BeginProlog
save
50 dict begin
/q { gsave } bind def
/Q { grestore } bind def
/cm { 6 array astore concat } bind def
/w { setlinewidth } bind def
/J { setlinecap } bind def
/j { setlinejoin } bind def
/M { setmiterlimit } bind def
/d { setdash } bind def
/m { moveto } bind def
/l { lineto } bind def
/c { curveto } bind def
/h { closepath } bind def
/re { exch dup neg 3 1 roll 5 3 roll moveto 0 rlineto
      0 exch rlineto 0 rlineto closepath } bind def
/S { stroke } bind def
/f { fill } bind def
/f* { eofill } bind def
/n { newpath } bind def
/W { clip } bind def
/W* { eoclip } bind def
/BT { } bind def
/ET { } bind def
/pdfmark where { pop globaldict /?pdfmark /exec load put }
    { globaldict begin /?pdfmark /pop load def /pdfmark
    /cleartomark load def end } ifelse
/BDC { mark 3 1 roll /BDC pdfmark } bind def
/EMC { mark /EMC pdfmark } bind def
/cairo_store_point { /cairo_point_y exch def /cairo_point_x exch def } def
/Tj { show currentpoint cairo_store_point } bind def
/TJ {
  {
    dup
    type /stringtype eq
    { show } { -0.001 mul 0 cairo_font_matrix dtransform rmoveto } ifelse
  } forall
  currentpoint cairo_store_point
} bind def
/cairo_selectfont { cairo_font_matrix aload pop pop pop 0 0 6 array astore
    cairo_font exch selectfont cairo_point_x cairo_point_y moveto } bind def
/Tf { pop /cairo_font exch def /cairo_font_matrix where
      { pop cairo_selectfont } if } bind def
/Td { matrix translate cairo_font_matrix matrix concatmatrix dup
      /cairo_font_matrix exch def dup 4 get exch 5 get cairo_store_point
      /cairo_font where { pop cairo_selectfont } if } bind def
/Tm { 2 copy 8 2 roll 6 array astore /cairo_font_matrix exch def
      cairo_store_point /cairo_font where { pop cairo_selectfont } if } bind def
/g { setgray } bind def
/rg { setrgbcolor } bind def
/d1 { setcachedevice } bind def
%%EndProlog
%%BeginSetup
%%EndSetup
%%Page: 1 1
%%BeginPageSetup
%%PageBoundingBox: 0 -1 410 410
%%EndPageSetup
q 0 -1 410 411 rectclip q
0.666667 0.901961 1 rg
228 7.998 m 88.801 7.998 l 44.176 7.998 8 44.174 8 88.799 c 8 308.799 l
 308.801 308.799 l 308.801 88.799 l 308.801 44.174 272.625 7.998 228 7.998
 c h
228 7.998 m f
0.980392 0.882353 0.588235 rg
204.801 172.799 70.398 -78.398 re f
0.294118 0.72549 0.960784 rg
354.219 263.491 m 308.801 263.491 l 308.801 231.491 l 353.055 231.491 l
 362.191 231.491 369.602 224.08 369.602 214.944 c 369.602 136.866 l 369.602
 127.729 362.191 120.323 353.055 120.323 c 308.801 120.323 l 308.801 88.323
 l 354.219 88.323 l 380.387 88.323 401.602 109.534 401.602 135.702 c 401.602
 216.108 l 401.602 242.276 380.387 263.491 354.219 263.491 c h
354.219 263.491 m f
0 g
152.617 262.401 m 150.512 262.401 148.449 263.256 146.961 264.745 c 145.473
 266.233 144.617 268.295 144.617 270.401 c 144.617 272.502 145.473 274.569
 146.961 276.057 c 148.449 277.545 150.512 278.401 152.617 278.401 c 154.719
 278.401 156.785 277.545 158.273 276.057 c 159.762 274.569 160.617 272.502
 160.617 270.401 c 160.617 268.295 159.762 266.233 158.273 264.745 c 156.781
 263.256 154.719 262.401 152.617 262.401 c h
152.617 262.401 m f
354.219 271.487 m 316.801 271.487 l 316.801 308.799 l 316.801 313.217 313.219
 316.799 308.801 316.799 c 8 316.799 l 3.582 316.799 0 313.217 0 308.799
 c 0 88.799 l 0 39.834 39.836 -0.002 88.801 -0.002 c 228 -0.002 l 274.105
 -0.002 312.109 35.319 316.395 80.323 c 354.219 80.323 l 384.758 80.323 
409.602 105.166 409.602 135.702 c 409.602 216.108 l 409.602 246.647 384.758
 271.487 354.219 271.487 c h
300.801 88.799 m 300.801 48.659 268.141 15.998 228 15.998 c 88.801 15.998
 l 48.656 15.998 16 48.659 16 88.799 c 16 262.401 l 118.965 262.401 l 123.383
 262.401 126.965 265.983 126.965 270.401 c 126.965 274.819 123.383 278.401
 118.965 278.401 c 16 278.401 l 16 300.799 l 232 300.799 l 232 180.799 l
 204.801 180.799 l 200.383 180.799 196.801 177.217 196.801 172.799 c 196.801
 94.401 l 196.801 89.983 200.383 86.401 204.801 86.401 c 275.199 86.401 
l 279.617 86.401 283.199 89.983 283.199 94.401 c 283.199 172.799 l 283.199
 177.217 279.617 180.799 275.199 180.799 c 248 180.799 l 248 300.799 l 300.801
 300.799 l h
267.199 164.799 m 267.199 102.401 l 212.801 102.401 l 212.801 164.799 l
 h
316.801 223.487 m 353.055 223.487 l 357.766 223.487 361.602 219.655 361.602
 214.944 c 361.602 136.866 l 361.602 132.155 357.766 128.323 353.055 128.323
 c 316.801 128.323 l h
393.602 135.702 m 393.602 113.987 375.934 96.323 354.219 96.323 c 316.801
 96.323 l 316.801 112.323 l 353.055 112.323 l 366.59 112.323 377.602 123.334
 377.602 136.866 c 377.602 214.944 l 377.602 228.479 366.59 239.491 353.055
 239.491 c 316.801 239.491 l 316.801 255.491 l 354.219 255.491 l 375.934
 255.491 393.602 237.823 393.602 216.108 c h
393.602 135.702 m f
209.602 364.534 m 214.02 364.534 217.602 368.116 217.602 372.534 c 217.602
 401.6 l 217.602 406.018 214.02 409.6 209.602 409.6 c 205.184 409.6 201.602
 406.018 201.602 401.6 c 201.602 372.534 l 201.602 368.116 205.184 364.534
 209.602 364.534 c h
209.602 364.534 m f
209.602 336.264 m 211.703 336.264 213.77 337.12 215.254 338.608 c 216.742
 340.104 217.602 342.159 217.602 344.264 c 217.602 346.377 216.742 348.432
 215.254 349.92 c 213.77 351.416 211.703 352.264 209.602 352.264 c 207.496
 352.264 205.434 351.416 203.945 349.92 c 202.457 348.432 201.602 346.373
 201.602 344.264 c 201.602 342.159 202.457 340.104 203.945 338.608 c 205.434
 337.12 207.496 336.264 209.602 336.264 c h
209.602 336.264 m f
158.398 327.998 m 162.816 327.998 166.398 331.58 166.398 335.998 c 166.398
 401.6 l 166.398 406.018 162.816 409.6 158.398 409.6 c 153.98 409.6 150.398
 406.018 150.398 401.6 c 150.398 335.998 l 150.398 331.58 153.98 327.998
 158.398 327.998 c h
158.398 327.998 m f
107.199 350.401 m 111.617 350.401 115.199 353.983 115.199 358.401 c 115.199
 401.6 l 115.199 406.018 111.617 409.6 107.199 409.6 c 102.781 409.6 99.199
 406.018 99.199 401.6 c 99.199 358.401 l 99.199 353.983 102.781 350.401 
107.199 350.401 c h
107.199 350.401 m f
Q Q
showpage
%%Trailer
end restore
%%EOF
