%!PS-Adobe-3.0 EPSF-3.0
%%Creator: cairo 1.14.2 (http://cairographics.org)
%%CreationDate: Fri Jun 15 11:41:46 2018
%%Pages: 1
%%DocumentData: Clean7Bit
%%LanguageLevel: 2
%%BoundingBox: 0 17 410 392
%%EndComments
%%BeginProlog
save
50 dict begin
/q { gsave } bind def
/Q { grestore } bind def
/cm { 6 array astore concat } bind def
/w { setlinewidth } bind def
/J { setlinecap } bind def
/j { setlinejoin } bind def
/M { setmiterlimit } bind def
/d { setdash } bind def
/m { moveto } bind def
/l { lineto } bind def
/c { curveto } bind def
/h { closepath } bind def
/re { exch dup neg 3 1 roll 5 3 roll moveto 0 rlineto
      0 exch rlineto 0 rlineto closepath } bind def
/S { stroke } bind def
/f { fill } bind def
/f* { eofill } bind def
/n { newpath } bind def
/W { clip } bind def
/W* { eoclip } bind def
/BT { } bind def
/ET { } bind def
/pdfmark where { pop globaldict /?pdfmark /exec load put }
    { globaldict begin /?pdfmark /pop load def /pdfmark
    /cleartomark load def end } ifelse
/BDC { mark 3 1 roll /BDC pdfmark } bind def
/EMC { mark /EMC pdfmark } bind def
/cairo_store_point { /cairo_point_y exch def /cairo_point_x exch def } def
/Tj { show currentpoint cairo_store_point } bind def
/TJ {
  {
    dup
    type /stringtype eq
    { show } { -0.001 mul 0 cairo_font_matrix dtransform rmoveto } ifelse
  } forall
  currentpoint cairo_store_point
} bind def
/cairo_selectfont { cairo_font_matrix aload pop pop pop 0 0 6 array astore
    cairo_font exch selectfont cairo_point_x cairo_point_y moveto } bind def
/Tf { pop /cairo_font exch def /cairo_font_matrix where
      { pop cairo_selectfont } if } bind def
/Td { matrix translate cairo_font_matrix matrix concatmatrix dup
      /cairo_font_matrix exch def dup 4 get exch 5 get cairo_store_point
      /cairo_font where { pop cairo_selectfont } if } bind def
/Tm { 2 copy 8 2 roll 6 array astore /cairo_font_matrix exch def
      cairo_store_point /cairo_font where { pop cairo_selectfont } if } bind def
/g { setgray } bind def
/rg { setrgbcolor } bind def
/d1 { setcachedevice } bind def
%%EndProlog
%%BeginSetup
%%EndSetup
%%Page: 1 1
%%BeginPageSetup
%%PageBoundingBox: 0 17 410 392
%%EndPageSetup
q 0 17 410 375 rectclip q
0.784314 0.960784 1 rg
294.59 147.217 m 309.273 147.217 l 337.371 147.217 360.152 169.998 360.152
 198.096 c 360.152 226.198 337.371 248.975 309.273 248.975 c 296.141 248.975
 284.172 243.998 275.145 235.83 c 276.059 241.42 276.539 247.159 276.539
 253.006 c 276.539 311.432 229.18 358.795 170.754 358.795 c 115.078 358.795
 69.449 315.784 65.277 261.174 c 55.367 261.241 45.312 258.729 36.145 253.354
 c 9 237.436 -0.105 202.526 15.812 175.377 c 26.82 156.608 46.902 146.471
 67.227 147.26 c 67.227 147.221 l 94.605 147.221 l f
0.960784 0.784314 0.431373 rg
276.539 253.006 m 276.539 247.155 276.059 241.42 275.145 235.83 c 284.172
 243.998 296.141 248.975 309.273 248.975 c 322.832 248.975 335.141 243.663
 344.258 235.014 c 349.656 244.147 352.762 254.791 352.762 266.163 c 352.762
 300.038 325.301 327.498 291.426 327.498 c 278.105 327.498 265.781 323.237
 255.727 316.022 c 268.801 298.42 276.539 276.616 276.539 253.006 c h
276.539 253.006 m f
0 g
291.43 346.729 m 295.844 346.729 299.43 350.311 299.43 354.729 c 299.43
 383.311 l 299.43 387.729 295.844 391.311 291.43 391.311 c 287.012 391.311
 283.43 387.729 283.43 383.311 c 283.43 354.729 l 283.43 350.311 287.012
 346.729 291.43 346.729 c h
291.43 346.729 m f
354.055 320.791 m 356.102 320.791 358.148 321.573 359.711 323.131 c 392.465
 355.885 l 395.586 359.01 395.586 364.077 392.465 367.202 c 389.34 370.323
 384.273 370.323 381.148 367.202 c 348.395 334.448 l 345.27 331.323 345.27
 326.26 348.395 323.135 c 349.957 321.569 352.004 320.791 354.055 320.791
 c h
354.055 320.791 m f
149.07 141.577 m 145.945 144.702 140.883 144.702 137.754 141.577 c 78.508
 82.33 l 75.387 79.205 75.387 74.139 78.508 71.014 c 80.07 69.455 82.117
 68.674 84.164 68.674 c 86.211 68.674 88.262 69.455 89.824 71.014 c 149.07
 130.26 l 152.195 133.385 152.195 138.452 149.07 141.577 c h
149.07 141.577 m f
255.246 137.62 m 217.25 99.623 l 214.129 96.502 214.129 91.436 217.25 88.311
 c 218.812 86.748 220.859 85.967 222.906 85.967 c 224.957 85.967 227.004
 86.748 228.566 88.311 c 266.559 126.307 l 269.684 129.432 269.684 134.495
 266.559 137.62 c 263.434 140.745 258.371 140.745 255.246 137.62 c h
255.246 137.62 m f
186.461 68.834 m 174.223 56.596 l 171.098 53.471 171.098 48.405 174.223
 45.284 c 175.785 43.721 177.832 42.94 179.879 42.94 c 181.926 42.94 183.973
 43.721 185.535 45.284 c 197.773 57.522 l 200.898 60.643 200.898 65.709 
197.773 68.834 c 194.648 71.959 189.586 71.959 186.461 68.834 c h
186.461 68.834 m f
196.305 141.092 m 143.801 88.584 l 140.676 85.463 140.676 80.397 143.801
 77.272 c 145.363 75.709 147.41 74.928 149.457 74.928 c 151.504 74.928 153.551
 75.709 155.113 77.272 c 207.621 129.78 l 210.742 132.901 210.742 137.967
 207.621 141.092 c 204.496 144.213 199.434 144.217 196.305 141.092 c h
196.305 141.092 m f
113.691 58.475 m 87.16 31.948 l 84.039 28.823 84.039 23.76 87.16 20.635
 c 88.723 19.073 90.77 18.291 92.82 18.291 c 94.867 18.291 96.914 19.073
 98.477 20.635 c 125.004 47.163 l 128.129 50.288 128.129 55.354 125.004 
58.475 c 121.879 61.6 116.816 61.6 113.691 58.475 c h
113.691 58.475 m f
401.602 274.166 m 379.992 274.166 l 375.574 274.166 371.992 270.584 371.992
 266.166 c 371.992 261.745 375.574 258.166 379.992 258.166 c 401.602 258.166
 l 406.02 258.166 409.602 261.745 409.602 266.166 c 409.602 270.584 406.02
 274.166 401.602 274.166 c h
401.602 274.166 m f
115.164 260.565 m 117.367 289.409 141.781 312.006 170.754 312.006 c 175.172
 312.006 178.754 315.588 178.754 320.006 c 178.754 324.424 175.172 328.006
 170.754 328.006 c 152.551 328.006 135.195 321.182 121.879 308.788 c 108.633
 296.459 100.582 279.768 99.207 261.784 c 98.871 257.377 102.168 253.534
 106.574 253.198 c 106.781 253.182 106.988 253.174 107.191 253.174 c 111.336
 253.174 114.844 256.366 115.164 260.565 c h
115.164 260.565 m f
208.844 308.077 m 210.332 309.573 211.191 311.635 211.191 313.741 c 211.191
 315.842 210.332 317.909 208.844 319.397 c 207.359 320.885 205.293 321.741
 203.191 321.741 c 201.086 321.741 199.023 320.885 197.535 319.397 c 196.047
 317.909 195.191 315.842 195.191 313.741 c 195.191 311.627 196.043 309.573
 197.535 308.077 c 199.023 306.588 201.086 305.741 203.191 305.741 c 205.293
 305.741 207.355 306.588 208.844 308.077 c h
208.844 308.077 m f
360.762 266.166 m 360.762 304.397 329.66 335.498 291.426 335.498 c 279.445
 335.498 267.809 332.436 257.461 326.604 c 236.57 351.174 205.453 366.791
 170.754 366.791 c 141.891 366.791 114.367 355.971 93.25 336.319 c 73.98
 318.385 61.645 294.627 58.059 268.811 c 48.934 267.838 40.074 264.928 32.098
 260.252 c 1.191 242.127 -9.211 202.237 8.91 171.33 c 20.625 151.354 41.938
 139.213 64.984 139.213 c 65.543 139.213 66.102 139.221 66.664 139.237 c
 66.848 139.225 67.035 139.217 67.227 139.217 c 94.605 139.217 l 99.023 
139.217 102.605 142.799 102.605 147.217 c 102.605 151.635 99.023 155.217
 94.605 155.217 c 68.039 155.217 l 67.668 155.256 67.293 155.268 66.914 
155.252 c 48.812 154.545 31.871 163.811 22.715 179.424 c 16.098 190.709 
14.27 203.897 17.57 216.557 c 20.871 229.213 28.906 239.83 40.191 246.448
 c 47.703 250.854 56.242 253.174 64.918 253.174 c 65.035 253.174 65.16 253.174
 65.277 253.174 c 69.457 253.174 72.934 256.393 73.254 260.565 c 77.117 
311.159 119.945 350.791 170.754 350.791 c 224.672 350.791 268.539 306.924
 268.539 253.002 c 268.539 247.709 268.105 242.362 267.25 237.116 c 266.699
 233.76 268.332 230.428 271.32 228.799 c 274.305 227.174 277.992 227.612
 280.512 229.897 c 288.406 237.038 298.621 240.971 309.273 240.971 c 332.914
 240.971 352.152 221.737 352.152 198.092 c 352.152 174.448 332.914 155.213
 309.273 155.213 c 294.59 155.213 l 290.172 155.213 286.59 151.635 286.59
 147.213 c 286.59 142.795 290.172 139.213 294.59 139.213 c 309.273 139.213
 l 341.738 139.213 368.152 165.627 368.152 198.092 c 368.152 212.674 362.812
 226.022 354.004 236.319 c 358.43 245.596 360.762 255.838 360.762 266.166
 c h
284.531 251.534 m 284.539 252.026 284.543 252.514 284.543 253.006 c 284.543
 275.256 278.113 296.034 267.027 313.588 c 274.543 317.467 282.871 319.498
 291.43 319.498 c 320.836 319.498 344.762 295.573 344.762 266.166 c 344.762
 259.756 343.594 253.393 341.355 247.428 c 332.121 253.455 321.102 256.975
 309.273 256.975 c 300.641 256.975 292.215 255.092 284.531 251.534 c h
284.531 251.534 m f
Q Q
showpage
%%Trailer
end restore
%%EOF
