%!PS-Adobe-3.0 EPSF-3.0
%%Creator: cairo 1.14.2 (http://cairographics.org)
%%CreationDate: Fri Jun 15 11:41:46 2018
%%Pages: 1
%%DocumentData: Clean7Bit
%%LanguageLevel: 2
%%BoundingBox: 0 -1 410 410
%%EndComments
%%BeginProlog
save
50 dict begin
/q { gsave } bind def
/Q { grestore } bind def
/cm { 6 array astore concat } bind def
/w { setlinewidth } bind def
/J { setlinecap } bind def
/j { setlinejoin } bind def
/M { setmiterlimit } bind def
/d { setdash } bind def
/m { moveto } bind def
/l { lineto } bind def
/c { curveto } bind def
/h { closepath } bind def
/re { exch dup neg 3 1 roll 5 3 roll moveto 0 rlineto
      0 exch rlineto 0 rlineto closepath } bind def
/S { stroke } bind def
/f { fill } bind def
/f* { eofill } bind def
/n { newpath } bind def
/W { clip } bind def
/W* { eoclip } bind def
/BT { } bind def
/ET { } bind def
/pdfmark where { pop globaldict /?pdfmark /exec load put }
    { globaldict begin /?pdfmark /pop load def /pdfmark
    /cleartomark load def end } ifelse
/BDC { mark 3 1 roll /BDC pdfmark } bind def
/EMC { mark /EMC pdfmark } bind def
/cairo_store_point { /cairo_point_y exch def /cairo_point_x exch def } def
/Tj { show currentpoint cairo_store_point } bind def
/TJ {
  {
    dup
    type /stringtype eq
    { show } { -0.001 mul 0 cairo_font_matrix dtransform rmoveto } ifelse
  } forall
  currentpoint cairo_store_point
} bind def
/cairo_selectfont { cairo_font_matrix aload pop pop pop 0 0 6 array astore
    cairo_font exch selectfont cairo_point_x cairo_point_y moveto } bind def
/Tf { pop /cairo_font exch def /cairo_font_matrix where
      { pop cairo_selectfont } if } bind def
/Td { matrix translate cairo_font_matrix matrix concatmatrix dup
      /cairo_font_matrix exch def dup 4 get exch 5 get cairo_store_point
      /cairo_font where { pop cairo_selectfont } if } bind def
/Tm { 2 copy 8 2 roll 6 array astore /cairo_font_matrix exch def
      cairo_store_point /cairo_font where { pop cairo_selectfont } if } bind def
/g { setgray } bind def
/rg { setrgbcolor } bind def
/d1 { setcachedevice } bind def
%%EndProlog
%%BeginSetup
%%EndSetup
%%Page: 1 1
%%BeginPageSetup
%%PageBoundingBox: 0 -1 410 410
%%EndPageSetup
q 0 -1 410 411 rectclip q
1 g
401.602 204.798 m 401.602 96.11 313.488 7.997 204.801 7.997 c 96.109 7.997
 8 96.11 8 204.798 c 8 313.489 96.109 401.598 204.801 401.598 c 313.488 
401.598 401.602 313.489 401.602 204.798 c h
401.602 204.798 m f
1 0.352941 0.352941 rg
262.176 288.802 m 239.578 288.802 219.195 279.063 204.797 263.458 c 190.398
 279.063 170.02 288.802 147.418 288.802 c 103.797 288.802 68.43 252.528 
68.43 207.782 c 68.43 145.106 204.797 58.786 204.797 58.786 c 204.797 58.786
 341.164 145.106 341.164 207.782 c 341.164 252.528 305.801 288.802 262.176
 288.802 c h
262.176 288.802 m f
0 g
204.797 0.001 m 150.094 0.001 98.664 21.302 59.98 59.985 c 25.434 94.532
 4.348 140.352 0.605 189.001 c -3.098 237.118 10.285 285.091 38.281 324.079
 c 40.859 327.669 45.855 328.489 49.445 325.911 c 53.035 323.333 53.855 
318.337 51.277 314.747 c -2.832 239.395 5.586 137.009 71.297 71.298 c 106.957
 35.637 154.367 16.001 204.797 16.001 c 255.23 16.001 302.641 35.637 338.301
 71.298 c 373.961 106.958 393.598 154.368 393.598 204.802 c 393.598 255.231
 373.961 302.641 338.301 338.302 c 272.898 403.704 170.809 412.337 95.559
 358.825 c 91.957 356.266 86.965 357.11 84.402 360.708 c 81.844 364.309 
82.688 369.305 86.285 371.864 c 125.258 399.579 173.121 412.755 221.047 
408.958 c 269.523 405.122 315.184 384.048 349.613 349.614 c 388.297 310.934
 409.598 259.505 409.598 204.798 c 409.598 150.094 388.293 98.665 349.613
 59.985 c 310.934 21.302 259.504 0.001 204.797 0.001 c h
204.797 0.001 m f
65.562 335.88 m 63.508 335.88 61.457 336.669 59.891 338.239 c 56.773 341.372
 56.789 346.438 59.922 349.552 c 60.074 349.704 l 63.203 352.821 68.27 352.809
 71.387 349.677 c 74.504 346.544 74.488 341.477 71.359 338.36 c 71.207 338.212
 l 69.645 336.657 67.602 335.88 65.562 335.88 c h
65.562 335.88 m f
204.797 50.786 m 203.312 50.786 201.824 51.196 200.52 52.024 c 199.105 
52.919 165.535 74.262 131.391 103.723 c 84.305 144.348 60.434 179.36 60.434
 207.782 c 60.434 256.868 99.453 296.802 147.418 296.802 c 168.855 296.802
 188.941 289.009 204.797 274.7 c 220.652 289.009 240.742 296.802 262.18 
296.802 c 310.145 296.802 349.164 256.868 349.164 207.782 c 349.164 179.36
 325.293 144.348 278.207 103.723 c 244.062 74.262 210.492 52.919 209.078
 52.024 c 207.77 51.196 206.285 50.786 204.797 50.786 c h
147.418 280.802 m 108.277 280.802 76.434 248.044 76.434 207.782 c 76.434
 184.555 99.051 152.759 141.84 115.837 c 168.164 93.126 194.723 74.997 204.824
 68.313 c 244.336 94.114 333.164 161.77 333.164 207.782 c 333.164 248.044
 301.32 280.802 262.18 280.802 c 242.516 280.802 224.227 272.716 210.68 
258.032 c 209.164 256.391 207.031 255.458 204.801 255.458 c 202.566 255.458
 200.434 256.391 198.918 258.032 c 185.371 272.712 167.082 280.802 147.418
 280.802 c h
147.418 280.802 m f
307.074 199.782 m 302.656 199.782 299.074 203.364 299.074 207.782 c 299.074
 229.255 282.523 246.723 262.176 246.723 c 260.109 246.723 258.047 246.544
 256.039 246.192 c 251.688 245.434 247.543 248.341 246.777 252.692 c 246.02
 257.044 248.93 261.192 253.281 261.954 c 256.195 262.462 259.188 262.723
 262.176 262.723 c 291.344 262.723 315.074 238.075 315.074 207.782 c 315.074
 203.364 311.492 199.782 307.074 199.782 c h
229.859 232.356 m 227.895 232.356 225.926 233.071 224.379 234.524 c 221.16
 237.552 221.004 242.614 224.031 245.833 c 224.086 245.895 l 227.078 249.145
 232.141 249.352 235.391 246.356 c 238.641 243.364 238.848 238.302 235.852
 235.052 c 235.688 234.876 l 234.113 233.2 231.988 232.356 229.859 232.356
 c h
229.859 232.356 m f
204.797 333.438 m 200.379 333.438 196.797 337.02 196.797 341.438 c 196.797
 362.313 l 196.797 366.731 200.379 370.313 204.797 370.313 c 209.215 370.313
 212.797 366.731 212.797 362.313 c 212.797 341.434 l 212.797 337.02 209.215
 333.438 204.797 333.438 c h
204.797 333.438 m f
126.785 311.559 m 124.734 311.559 122.691 312.341 121.129 313.903 c 106.363
 328.665 l 103.242 331.79 103.242 336.856 106.363 339.981 c 109.488 343.102
 114.555 343.102 117.68 339.981 c 132.441 325.219 l 135.566 322.094 135.566
 317.028 132.441 313.903 c 130.879 312.341 128.832 311.559 126.785 311.559
 c h
126.785 311.559 m f
282.812 311.559 m 280.766 311.559 278.719 312.341 277.156 313.903 c 274.031
 317.028 274.031 322.094 277.156 325.219 c 291.918 339.981 l 295.043 343.102
 300.105 343.102 303.23 339.981 c 306.355 336.856 306.355 331.79 303.23 
328.665 c 288.469 313.903 l 286.906 312.341 284.859 311.559 282.812 311.559
 c h
282.812 311.559 m f
Q Q
showpage
%%Trailer
end restore
%%EOF
