%!PS-Adobe-3.0 EPSF-3.0
%%Creator: cairo 1.14.2 (http://cairographics.org)
%%CreationDate: Fri Jun 15 11:41:46 2018
%%Pages: 1
%%DocumentData: Clean7Bit
%%LanguageLevel: 2
%%BoundingBox: 43 -1 367 410
%%EndComments
%%BeginProlog
save
50 dict begin
/q { gsave } bind def
/Q { grestore } bind def
/cm { 6 array astore concat } bind def
/w { setlinewidth } bind def
/J { setlinecap } bind def
/j { setlinejoin } bind def
/M { setmiterlimit } bind def
/d { setdash } bind def
/m { moveto } bind def
/l { lineto } bind def
/c { curveto } bind def
/h { closepath } bind def
/re { exch dup neg 3 1 roll 5 3 roll moveto 0 rlineto
      0 exch rlineto 0 rlineto closepath } bind def
/S { stroke } bind def
/f { fill } bind def
/f* { eofill } bind def
/n { newpath } bind def
/W { clip } bind def
/W* { eoclip } bind def
/BT { } bind def
/ET { } bind def
/pdfmark where { pop globaldict /?pdfmark /exec load put }
    { globaldict begin /?pdfmark /pop load def /pdfmark
    /cleartomark load def end } ifelse
/BDC { mark 3 1 roll /BDC pdfmark } bind def
/EMC { mark /EMC pdfmark } bind def
/cairo_store_point { /cairo_point_y exch def /cairo_point_x exch def } def
/Tj { show currentpoint cairo_store_point } bind def
/TJ {
  {
    dup
    type /stringtype eq
    { show } { -0.001 mul 0 cairo_font_matrix dtransform rmoveto } ifelse
  } forall
  currentpoint cairo_store_point
} bind def
/cairo_selectfont { cairo_font_matrix aload pop pop pop 0 0 6 array astore
    cairo_font exch selectfont cairo_point_x cairo_point_y moveto } bind def
/Tf { pop /cairo_font exch def /cairo_font_matrix where
      { pop cairo_selectfont } if } bind def
/Td { matrix translate cairo_font_matrix matrix concatmatrix dup
      /cairo_font_matrix exch def dup 4 get exch 5 get cairo_store_point
      /cairo_font where { pop cairo_selectfont } if } bind def
/Tm { 2 copy 8 2 roll 6 array astore /cairo_font_matrix exch def
      cairo_store_point /cairo_font where { pop cairo_selectfont } if } bind def
/g { setgray } bind def
/rg { setrgbcolor } bind def
/d1 { setcachedevice } bind def
%%EndProlog
%%BeginSetup
%%EndSetup
%%Page: 1 1
%%BeginPageSetup
%%PageBoundingBox: 43 -1 367 410
%%EndPageSetup
q 43 -1 324 411 rectclip q
1 g
280 401.6 m 67.207 401.6 l 58.371 401.6 51.207 394.436 51.207 385.6 c 51.207
 23.998 l 51.207 15.163 58.371 7.998 67.207 7.998 c 342.391 7.998 l 351.227
 7.998 358.391 15.163 358.391 23.998 c 358.391 323.209 l h
280 401.6 m f
0.784314 0.960784 1 rg
296 323.209 m 358.391 323.209 l 280 401.6 l 280 339.209 l 280 330.37 287.164
 323.209 296 323.209 c h
296 323.209 m f
0.647059 0.862745 0.411765 rg
294.398 233.6 m 233.598 233.6 l 233.598 294.401 l 176 294.401 l 176 233.6
 l 115.199 233.6 l 115.199 175.998 l 176 175.998 l 176 115.202 l 233.598
 115.202 l 233.598 175.998 l 294.398 175.998 l h
294.398 233.6 m f
0 g
358.391 212.799 m 356.285 212.799 354.223 211.944 352.734 210.455 c 351.246
 208.967 350.391 206.905 350.391 204.799 c 350.391 202.698 351.246 200.631
 352.734 199.143 c 354.223 197.659 356.285 196.799 358.391 196.799 c 360.496
 196.799 362.559 197.655 364.047 199.143 c 365.535 200.631 366.391 202.698
 366.391 204.799 c 366.391 206.905 365.535 208.967 364.047 210.455 c 362.559
 211.944 360.496 212.799 358.391 212.799 c h
358.391 212.799 m f
176 107.202 m 233.598 107.202 l 238.016 107.202 241.598 110.784 241.598
 115.202 c 241.598 167.998 l 294.398 167.998 l 298.816 167.998 302.398 171.58
 302.398 175.998 c 302.398 233.6 l 302.398 238.018 298.816 241.6 294.398
 241.6 c 241.598 241.6 l 241.598 294.401 l 241.598 298.819 238.016 302.401
 233.598 302.401 c 176 302.401 l 171.582 302.401 168 298.819 168 294.401
 c 168 241.6 l 115.199 241.6 l 110.781 241.6 107.199 238.018 107.199 233.6
 c 107.199 175.998 l 107.199 171.58 110.781 167.998 115.199 167.998 c 168
 167.998 l 168 115.202 l 168 110.784 171.582 107.202 176 107.202 c h
123.199 183.998 m 123.199 225.6 l 176 225.6 l 180.418 225.6 184 229.182
 184 233.6 c 184 286.401 l 225.598 286.401 l 225.598 233.6 l 225.598 229.182
 229.18 225.6 233.598 225.6 c 286.398 225.6 l 286.398 183.998 l 233.598 
183.998 l 229.18 183.998 225.598 180.416 225.598 175.998 c 225.598 123.202
 l 184 123.202 l 184 175.998 l 184 180.416 180.418 183.998 176 183.998 c
 h
123.199 183.998 m f
144.645 38.401 m 142.543 38.401 140.477 39.256 138.992 40.745 c 137.496
 42.233 136.645 44.295 136.645 46.401 c 136.645 48.502 137.496 50.569 138.992
 52.057 c 140.477 53.545 142.535 54.401 144.645 54.401 c 146.75 54.401 148.812
 53.545 150.301 52.057 c 151.789 50.569 152.645 48.502 152.645 46.401 c 
152.645 44.295 151.793 42.233 150.301 40.745 c 148.805 39.256 146.75 38.401
 144.645 38.401 c h
144.645 38.401 m f
358.391 237.557 m 362.805 237.557 366.391 241.139 366.391 245.557 c 366.391
 323.209 l 366.383 323.209 366.375 323.209 366.371 323.209 c 366.367 325.291
 365.574 327.334 364.047 328.866 c 285.656 407.256 l 284.305 408.608 282.547
 409.381 280.719 409.549 c 280.648 409.561 280.566 409.573 280.48 409.577
 c 280.449 409.58 280.422 409.584 280.395 409.588 c 280.273 409.596 280.145
 409.6 280 409.6 c 67.207 409.6 l 53.977 409.6 43.207 398.834 43.207 385.6
 c 43.207 23.998 l 43.207 10.768 53.977 -0.002 67.207 -0.002 c 342.391 -0.002
 l 355.621 -0.002 366.391 10.768 366.391 23.998 c 366.391 165.163 l 366.391
 169.58 362.805 173.163 358.391 173.163 c 353.973 173.163 350.391 169.58
 350.391 165.163 c 350.391 23.998 l 350.391 19.588 346.801 15.998 342.391
 15.998 c 67.207 15.998 l 62.797 15.998 59.207 19.588 59.207 23.998 c 59.207
 38.401 l 110.992 38.401 l 115.41 38.401 118.992 41.983 118.992 46.401 c
 118.992 50.819 115.41 54.401 110.992 54.401 c 59.207 54.401 l 59.207 385.6
 l 59.207 390.01 62.797 393.6 67.207 393.6 c 272 393.6 l 272 339.209 l 272
 325.975 282.766 315.209 296 315.209 c 350.387 315.209 l 350.387 245.557
 l 350.391 241.139 353.969 237.557 358.391 237.557 c h
296 331.209 m 291.59 331.209 288 334.795 288 339.209 c 288 382.284 l 339.074
 331.205 l h
296 331.209 m f
Q Q
showpage
%%Trailer
end restore
%%EOF
