%!PS-Adobe-3.0 EPSF-3.0
%%Creator: cairo 1.14.2 (http://cairographics.org)
%%CreationDate: Fri Jun 15 11:41:46 2018
%%Pages: 1
%%DocumentData: Clean7Bit
%%LanguageLevel: 2
%%BoundingBox: 0 -1 410 410
%%EndComments
%%BeginProlog
save
50 dict begin
/q { gsave } bind def
/Q { grestore } bind def
/cm { 6 array astore concat } bind def
/w { setlinewidth } bind def
/J { setlinecap } bind def
/j { setlinejoin } bind def
/M { setmiterlimit } bind def
/d { setdash } bind def
/m { moveto } bind def
/l { lineto } bind def
/c { curveto } bind def
/h { closepath } bind def
/re { exch dup neg 3 1 roll 5 3 roll moveto 0 rlineto
      0 exch rlineto 0 rlineto closepath } bind def
/S { stroke } bind def
/f { fill } bind def
/f* { eofill } bind def
/n { newpath } bind def
/W { clip } bind def
/W* { eoclip } bind def
/BT { } bind def
/ET { } bind def
/pdfmark where { pop globaldict /?pdfmark /exec load put }
    { globaldict begin /?pdfmark /pop load def /pdfmark
    /cleartomark load def end } ifelse
/BDC { mark 3 1 roll /BDC pdfmark } bind def
/EMC { mark /EMC pdfmark } bind def
/cairo_store_point { /cairo_point_y exch def /cairo_point_x exch def } def
/Tj { show currentpoint cairo_store_point } bind def
/TJ {
  {
    dup
    type /stringtype eq
    { show } { -0.001 mul 0 cairo_font_matrix dtransform rmoveto } ifelse
  } forall
  currentpoint cairo_store_point
} bind def
/cairo_selectfont { cairo_font_matrix aload pop pop pop 0 0 6 array astore
    cairo_font exch selectfont cairo_point_x cairo_point_y moveto } bind def
/Tf { pop /cairo_font exch def /cairo_font_matrix where
      { pop cairo_selectfont } if } bind def
/Td { matrix translate cairo_font_matrix matrix concatmatrix dup
      /cairo_font_matrix exch def dup 4 get exch 5 get cairo_store_point
      /cairo_font where { pop cairo_selectfont } if } bind def
/Tm { 2 copy 8 2 roll 6 array astore /cairo_font_matrix exch def
      cairo_store_point /cairo_font where { pop cairo_selectfont } if } bind def
/g { setgray } bind def
/rg { setrgbcolor } bind def
/d1 { setcachedevice } bind def
%%EndProlog
%%BeginSetup
%%EndSetup
%%Page: 1 1
%%BeginPageSetup
%%PageBoundingBox: 0 -1 410 410
%%EndPageSetup
q 0 -1 410 411 rectclip q
0.843137 0.843137 0.901961 rg
379.199 361.6 m 30.402 361.6 l 18.031 361.6 8.004 351.573 8.004 339.202
 c 8.004 326.83 18.031 316.799 30.402 316.799 c 379.199 316.799 l 391.57
 316.799 401.598 326.83 401.598 339.202 c 401.598 351.573 391.57 361.6 379.199
 361.6 c h
379.199 361.6 m f
379.199 227.202 m 30.402 227.202 l 18.031 227.202 8.004 217.174 8.004 204.803
 c 8.004 192.432 18.031 182.405 30.402 182.405 c 379.199 182.405 l 391.57
 182.405 401.598 192.432 401.598 204.803 c 401.598 217.174 391.57 227.202
 379.199 227.202 c h
379.199 227.202 m f
379.199 92.803 m 30.402 92.803 l 18.031 92.803 8.004 82.776 8.004 70.405
 c 8.004 58.034 18.031 48.006 30.402 48.006 c 379.199 48.006 l 391.57 48.006
 401.598 58.034 401.598 70.405 c 401.598 82.776 391.57 92.803 379.199 92.803
 c h
379.199 92.803 m f
1 0.352941 0.352941 rg
358.82 204.803 m 358.82 170.342 330.883 142.405 296.422 142.405 c 261.957
 142.405 234.02 170.342 234.02 204.803 c 234.02 239.264 261.957 267.202 
296.422 267.202 c 330.883 267.202 358.82 239.264 358.82 204.803 c h
358.82 204.803 m f
0.960784 0.784314 0.431373 rg
195.383 339.202 m 195.383 304.741 167.445 276.803 132.98 276.803 c 98.52
 276.803 70.582 304.741 70.582 339.202 c 70.582 373.663 98.52 401.6 132.98
 401.6 c 167.445 401.6 195.383 373.663 195.383 339.202 c h
195.383 339.202 m f
0.647059 0.862745 0.411765 rg
195.383 70.397 m 195.383 35.936 167.445 7.998 132.98 7.998 c 98.52 7.998
 70.582 35.936 70.582 70.397 c 70.582 104.858 98.52 132.795 132.98 132.795
 c 167.445 132.795 195.383 104.858 195.383 70.397 c h
195.383 70.397 m f
0 g
201.031 176.748 m 202.52 178.237 203.375 180.299 203.375 182.405 c 203.375
 184.506 202.52 186.573 201.031 188.061 c 199.543 189.549 197.488 190.405
 195.375 190.405 c 193.273 190.405 191.207 189.549 189.723 188.061 c 188.234
 186.573 187.375 184.506 187.375 182.405 c 187.375 180.299 188.234 178.237
 189.723 176.748 c 191.207 175.26 193.273 174.405 195.375 174.405 c 197.48
 174.405 199.543 175.26 201.031 176.748 c h
201.031 176.748 m f
379.199 235.202 m 359.91 235.202 l 348.543 258.842 324.355 275.202 296.418
 275.202 c 268.48 275.202 244.293 258.842 232.93 235.202 c 30.402 235.202
 l 13.641 235.202 0.004 221.565 0.004 204.803 c 0.004 188.041 13.641 174.405
 30.402 174.405 c 158.668 174.405 l 163.086 174.405 166.668 177.987 166.668
 182.405 c 166.668 186.823 163.086 190.405 158.668 190.405 c 30.402 190.405
 l 22.465 190.405 16.004 196.866 16.004 204.803 c 16.004 212.745 22.465 
219.205 30.402 219.205 c 227.504 219.205 l 226.531 214.553 226.02 209.737
 226.02 204.803 c 226.02 165.987 257.602 134.405 296.418 134.405 c 324.355
 134.405 348.543 150.764 359.91 174.405 c 379.199 174.405 l 395.961 174.405
 409.598 188.041 409.598 204.803 c 409.598 221.565 395.961 235.202 379.199
 235.202 c h
296.418 150.405 m 266.422 150.405 242.02 174.807 242.02 204.803 c 242.02
 234.799 266.422 259.202 296.418 259.202 c 326.414 259.202 350.816 234.799
 350.816 204.803 c 350.816 174.807 326.414 150.405 296.418 150.405 c h
379.199 190.405 m 365.336 190.405 l 366.305 195.053 366.816 199.87 366.816
 204.803 c 366.816 209.737 366.305 214.553 365.336 219.202 c 379.199 219.202
 l 387.137 219.202 393.598 212.745 393.598 204.803 c 393.598 196.862 387.137
 190.405 379.199 190.405 c h
379.199 190.405 m f
379.199 100.705 m 196.516 100.705 l 185.168 124.397 160.953 140.799 132.98
 140.799 c 105.004 140.799 80.793 124.397 69.445 100.705 c 30.402 100.705
 l 13.641 100.705 0.004 87.069 0.004 70.307 c 0.004 53.545 13.641 39.905
 30.402 39.905 c 69.531 39.905 l 80.918 16.315 105.078 -0.002 132.98 -0.002
 c 160.879 -0.002 185.043 16.315 196.426 39.905 c 379.195 39.905 l 395.961
 39.905 409.598 53.541 409.598 70.303 c 409.598 87.065 395.961 100.705 379.199
 100.705 c h
30.402 55.905 m 22.465 55.905 16.004 62.366 16.004 70.307 c 16.004 78.245
 22.465 84.705 30.402 84.705 c 64.043 84.705 l 63.086 80.084 62.582 75.299
 62.582 70.401 c 62.582 65.432 63.102 60.584 64.086 55.905 c h
132.98 15.998 m 102.984 15.998 78.582 40.405 78.582 70.401 c 78.582 100.393
 102.984 124.799 132.98 124.799 c 162.977 124.799 187.379 100.393 187.379
 70.401 c 187.379 40.405 162.977 15.998 132.98 15.998 c h
379.199 55.905 m 201.875 55.905 l 202.859 60.584 203.379 65.432 203.379
 70.401 c 203.379 75.299 202.875 80.084 201.914 84.705 c 379.199 84.705 
l 387.137 84.705 393.598 78.245 393.598 70.307 c 393.598 62.366 387.137 
55.905 379.199 55.905 c h
379.199 55.905 m f
279.199 353.6 m 281.305 353.6 283.367 354.455 284.855 355.944 c 286.344
 357.432 287.199 359.498 287.199 361.6 c 287.199 363.705 286.344 365.768
 284.855 367.256 c 283.367 368.745 281.305 369.6 279.199 369.6 c 277.094
 369.6 275.031 368.745 273.543 367.256 c 272.055 365.768 271.199 363.705
 271.199 361.6 c 271.199 359.498 272.055 357.432 273.543 355.944 c 275.031
 354.455 277.094 353.6 279.199 353.6 c h
279.199 353.6 m f
30.402 308.803 m 69.488 308.803 l 80.855 285.159 105.043 268.803 132.98
 268.803 c 160.918 268.803 185.105 285.163 196.469 308.803 c 379.195 308.803
 l 395.961 308.803 409.598 322.44 409.598 339.202 c 409.598 355.963 395.957
 369.6 379.195 369.6 c 308.398 369.6 l 303.98 369.6 300.398 366.018 300.398
 361.6 c 300.398 357.182 303.98 353.6 308.398 353.6 c 379.195 353.6 l 387.137
 353.6 393.598 347.139 393.598 339.202 c 393.598 331.26 387.137 324.799 
379.195 324.799 c 201.895 324.799 l 202.867 329.452 203.379 334.268 203.379
 339.202 c 203.379 344.135 202.867 348.952 201.895 353.6 c 245.602 353.6
 l 250.02 353.6 253.602 357.182 253.602 361.6 c 253.602 366.018 250.02 369.6
 245.602 369.6 c 196.469 369.6 l 185.105 393.241 160.918 409.6 132.98 409.6
 c 105.043 409.6 80.855 393.241 69.488 369.6 c 30.402 369.6 l 13.641 369.6
 0.004 355.963 0.004 339.202 c 0.004 322.44 13.641 308.803 30.402 308.803
 c h
132.98 393.6 m 162.977 393.6 187.379 369.198 187.379 339.202 c 187.379 
309.205 162.977 284.803 132.98 284.803 c 102.984 284.803 78.582 309.205 
78.582 339.202 c 78.582 369.198 102.984 393.6 132.98 393.6 c h
30.402 353.6 m 64.062 353.6 l 63.094 348.952 62.578 344.135 62.578 339.202
 c 62.578 334.268 63.094 329.452 64.062 324.799 c 30.402 324.799 l 22.465
 324.799 16.004 331.26 16.004 339.202 c 16.004 347.139 22.465 353.6 30.402
 353.6 c h
30.402 353.6 m f
Q Q
showpage
%%Trailer
end restore
%%EOF
