%!PS-Adobe-3.0 EPSF-3.0
%%Creator: cairo 1.14.2 (http://cairographics.org)
%%CreationDate: Fri Jun 15 11:41:46 2018
%%Pages: 1
%%DocumentData: Clean7Bit
%%LanguageLevel: 2
%%BoundingBox: 0 -1 410 410
%%EndComments
%%BeginProlog
save
50 dict begin
/q { gsave } bind def
/Q { grestore } bind def
/cm { 6 array astore concat } bind def
/w { setlinewidth } bind def
/J { setlinecap } bind def
/j { setlinejoin } bind def
/M { setmiterlimit } bind def
/d { setdash } bind def
/m { moveto } bind def
/l { lineto } bind def
/c { curveto } bind def
/h { closepath } bind def
/re { exch dup neg 3 1 roll 5 3 roll moveto 0 rlineto
      0 exch rlineto 0 rlineto closepath } bind def
/S { stroke } bind def
/f { fill } bind def
/f* { eofill } bind def
/n { newpath } bind def
/W { clip } bind def
/W* { eoclip } bind def
/BT { } bind def
/ET { } bind def
/pdfmark where { pop globaldict /?pdfmark /exec load put }
    { globaldict begin /?pdfmark /pop load def /pdfmark
    /cleartomark load def end } ifelse
/BDC { mark 3 1 roll /BDC pdfmark } bind def
/EMC { mark /EMC pdfmark } bind def
/cairo_store_point { /cairo_point_y exch def /cairo_point_x exch def } def
/Tj { show currentpoint cairo_store_point } bind def
/TJ {
  {
    dup
    type /stringtype eq
    { show } { -0.001 mul 0 cairo_font_matrix dtransform rmoveto } ifelse
  } forall
  currentpoint cairo_store_point
} bind def
/cairo_selectfont { cairo_font_matrix aload pop pop pop 0 0 6 array astore
    cairo_font exch selectfont cairo_point_x cairo_point_y moveto } bind def
/Tf { pop /cairo_font exch def /cairo_font_matrix where
      { pop cairo_selectfont } if } bind def
/Td { matrix translate cairo_font_matrix matrix concatmatrix dup
      /cairo_font_matrix exch def dup 4 get exch 5 get cairo_store_point
      /cairo_font where { pop cairo_selectfont } if } bind def
/Tm { 2 copy 8 2 roll 6 array astore /cairo_font_matrix exch def
      cairo_store_point /cairo_font where { pop cairo_selectfont } if } bind def
/g { setgray } bind def
/rg { setrgbcolor } bind def
/d1 { setcachedevice } bind def
%%EndProlog
%%BeginSetup
%%EndSetup
%%Page: 1 1
%%BeginPageSetup
%%PageBoundingBox: 0 -1 410 410
%%EndPageSetup
q 0 -1 410 411 rectclip q
0.980392 0.882353 0.588235 rg
401.602 220.799 m 8 220.799 l 8 289.998 l 8 310.104 24.297 326.401 44.398
 326.401 c 365.199 326.401 l 385.305 326.401 401.602 310.104 401.602 289.998
 c h
401.602 220.799 m f
0.960784 0.784314 0.431373 rg
348.801 7.998 m 60.801 7.998 l 43.129 7.998 28.801 22.327 28.801 39.998
 c 28.801 220.698 l 380.801 220.698 l 380.801 39.998 l 380.801 22.327 366.473
 7.998 348.801 7.998 c h
348.801 7.998 m f
1 0.352941 0.352941 rg
152 326.401 105.602 -105.602 re f
0 g
365.199 334.401 m 306.078 334.401 l 326.727 349.518 340.164 373.928 340.164
 401.424 c 340.164 405.838 336.582 409.424 332.164 409.424 c 327.746 409.424
 324.164 405.838 324.164 401.424 c 324.164 372.604 305.883 347.983 280.309
 338.53 c 285.227 345.807 288.102 354.573 288.102 363.998 c 288.102 389.143
 267.645 409.6 242.5 409.6 c 226.879 409.6 213.07 401.702 204.852 389.69
 c 196.629 401.702 182.82 409.6 167.199 409.6 c 142.055 409.6 121.602 389.143
 121.602 363.998 c 121.602 354.549 124.492 345.764 129.43 338.475 c 103.785
 347.889 85.438 372.553 85.438 401.424 c 85.438 405.838 81.855 409.424 77.438
 409.424 c 73.02 409.424 69.438 405.838 69.438 401.424 c 69.438 373.928 
82.875 349.518 103.523 334.401 c 44.398 334.401 l 19.918 334.401 0 314.483
 0 289.998 c 0 220.799 l 0 216.381 3.582 212.799 8 212.799 c 20.801 212.799
 l 20.801 39.998 l 20.801 17.944 38.742 -0.002 60.801 -0.002 c 348.801 -0.002
 l 370.855 -0.002 388.801 17.944 388.801 39.998 c 388.801 156.799 l 388.801
 161.217 385.219 164.799 380.801 164.799 c 376.383 164.799 372.801 161.217
 372.801 156.799 c 372.801 39.998 l 372.801 26.768 362.035 15.998 348.801
 15.998 c 60.801 15.998 l 47.566 15.998 36.801 26.768 36.801 39.998 c 36.801
 212.698 l 401.602 212.799 l 406.02 212.799 409.602 216.381 409.602 220.799
 c 409.602 289.998 l 409.602 314.483 389.684 334.401 365.199 334.401 c h
160 228.799 m 160 318.401 l 249.602 318.401 l 249.602 228.799 l h
212.902 363.998 m 212.902 380.323 226.18 393.6 242.5 393.6 c 258.824 393.6
 272.102 380.323 272.102 363.998 c 272.102 347.678 258.824 334.401 242.5
 334.401 c 212.902 334.401 l h
167.199 393.6 m 183.523 393.6 196.801 380.323 196.801 363.998 c 196.801
 334.401 l 167.199 334.401 l 150.879 334.401 137.602 347.678 137.602 363.998
 c 137.602 380.323 150.879 393.6 167.199 393.6 c h
16 289.998 m 16 305.659 28.738 318.401 44.398 318.401 c 144 318.401 l 144
 228.799 l 16 228.799 l h
393.602 228.799 m 265.602 228.799 l 265.602 318.401 l 365.199 318.401 l
 380.859 318.401 393.602 305.659 393.602 289.998 c h
393.602 228.799 m f
380.801 199.959 m 378.695 199.959 376.633 199.112 375.145 197.623 c 373.656
 196.127 372.801 194.065 372.801 191.959 c 372.801 189.858 373.656 187.799
 375.145 186.303 c 376.633 184.819 378.695 183.959 380.801 183.959 c 382.902
 183.959 384.969 184.815 386.457 186.303 c 387.941 187.799 388.801 189.858
 388.801 191.959 c 388.801 194.065 387.945 196.127 386.457 197.623 c 384.969
 199.112 382.902 199.959 380.801 199.959 c h
380.801 199.959 m f
Q Q
showpage
%%Trailer
end restore
%%EOF
