%!PS-Adobe-3.0 EPSF-3.0
%%Creator: cairo 1.14.2 (http://cairographics.org)
%%CreationDate: Fri Jun 15 11:41:46 2018
%%Pages: 1
%%DocumentData: Clean7Bit
%%LanguageLevel: 2
%%BoundingBox: 0 38 410 371
%%EndComments
%%BeginProlog
save
50 dict begin
/q { gsave } bind def
/Q { grestore } bind def
/cm { 6 array astore concat } bind def
/w { setlinewidth } bind def
/J { setlinecap } bind def
/j { setlinejoin } bind def
/M { setmiterlimit } bind def
/d { setdash } bind def
/m { moveto } bind def
/l { lineto } bind def
/c { curveto } bind def
/h { closepath } bind def
/re { exch dup neg 3 1 roll 5 3 roll moveto 0 rlineto
      0 exch rlineto 0 rlineto closepath } bind def
/S { stroke } bind def
/f { fill } bind def
/f* { eofill } bind def
/n { newpath } bind def
/W { clip } bind def
/W* { eoclip } bind def
/BT { } bind def
/ET { } bind def
/pdfmark where { pop globaldict /?pdfmark /exec load put }
    { globaldict begin /?pdfmark /pop load def /pdfmark
    /cleartomark load def end } ifelse
/BDC { mark 3 1 roll /BDC pdfmark } bind def
/EMC { mark /EMC pdfmark } bind def
/cairo_store_point { /cairo_point_y exch def /cairo_point_x exch def } def
/Tj { show currentpoint cairo_store_point } bind def
/TJ {
  {
    dup
    type /stringtype eq
    { show } { -0.001 mul 0 cairo_font_matrix dtransform rmoveto } ifelse
  } forall
  currentpoint cairo_store_point
} bind def
/cairo_selectfont { cairo_font_matrix aload pop pop pop 0 0 6 array astore
    cairo_font exch selectfont cairo_point_x cairo_point_y moveto } bind def
/Tf { pop /cairo_font exch def /cairo_font_matrix where
      { pop cairo_selectfont } if } bind def
/Td { matrix translate cairo_font_matrix matrix concatmatrix dup
      /cairo_font_matrix exch def dup 4 get exch 5 get cairo_store_point
      /cairo_font where { pop cairo_selectfont } if } bind def
/Tm { 2 copy 8 2 roll 6 array astore /cairo_font_matrix exch def
      cairo_store_point /cairo_font where { pop cairo_selectfont } if } bind def
/g { setgray } bind def
/rg { setrgbcolor } bind def
/d1 { setcachedevice } bind def
%%EndProlog
%%BeginSetup
%%EndSetup
%%Page: 1 1
%%BeginPageSetup
%%PageBoundingBox: 0 38 410 371
%%EndPageSetup
q 0 38 410 333 rectclip q
0.294118 0.72549 0.960784 rg
336.801 55.135 m 324.871 55.135 315.199 64.803 315.199 76.733 c 315.199
 340.733 l 315.199 352.663 324.871 362.334 336.801 362.334 c 348.73 362.334
 358.398 352.663 358.398 340.733 c 358.398 76.733 l 358.398 64.803 348.73
 55.135 336.801 55.135 c h
336.801 55.135 m f
1 0.568627 0.333333 rg
358.398 251.936 m 382.258 251.936 401.602 232.592 401.602 208.733 c 401.602
 184.877 382.258 165.534 358.398 165.534 c h
358.398 251.936 m f
0.294118 0.72549 0.960784 rg
97.602 144.733 m 47.199 144.733 l 25.551 144.733 8 162.284 8 183.932 c 
8 233.534 l 8 255.182 25.551 272.733 47.199 272.733 c 97.602 272.733 l h
97.602 144.733 m f
1 g
315.199 76.733 m 315.199 340.733 l 315.199 347.237 318.078 353.065 322.625
 357.026 c 97.602 272.733 l 97.602 144.733 l 322.625 60.444 l 318.078 64.405
 315.199 70.229 315.199 76.733 c h
315.199 76.733 m f
0.529412 0.529412 0.568627 rg
88.398 47.268 m 134.801 47.268 l 97.602 144.733 l 51.199 144.733 l h
88.398 47.268 m f
0 g
315.199 199.534 m 319.617 199.534 323.199 203.116 323.199 207.534 c 323.199
 208.733 l 323.199 213.151 319.617 216.733 315.199 216.733 c 310.781 216.733
 307.199 213.151 307.199 208.733 c 307.199 207.534 l 307.199 203.116 310.781
 199.534 315.199 199.534 c h
315.199 199.534 m f
409.602 208.733 m 409.602 234.245 390.844 255.452 366.398 259.303 c 366.398
 340.733 l 366.398 357.057 353.121 370.334 336.801 370.334 c 329.949 370.334
 323.637 367.987 318.617 364.065 c 233.012 331.998 l 228.875 330.448 226.777
 325.838 228.328 321.702 c 229.531 318.487 232.578 316.506 235.82 316.506
 c 236.754 316.506 237.699 316.67 238.625 317.018 c 307.273 342.733 l 307.23
 342.073 307.199 341.405 307.199 340.733 c 307.199 247.936 l 307.199 243.518
 310.781 239.936 315.199 239.936 c 319.617 239.936 323.199 243.518 323.199
 247.936 c 323.199 340.733 l 323.199 348.233 329.301 354.334 336.801 354.334
 c 344.297 354.334 350.398 348.233 350.398 340.733 c 350.398 76.733 l 350.398
 69.237 344.297 63.135 336.801 63.135 c 329.301 63.135 323.199 69.237 323.199
 76.733 c 323.199 173.534 l 323.199 177.952 319.617 181.534 315.199 181.534
 c 310.781 181.534 307.199 177.952 307.199 173.534 c 307.199 76.733 l 307.199
 76.061 307.23 75.397 307.273 74.737 c 105.602 150.28 l 105.602 267.186 
l 186.805 297.604 l 190.941 299.155 193.039 303.764 191.488 307.901 c 189.938
 312.038 185.328 314.139 181.191 312.588 c 96.152 280.733 l 47.199 280.733
 l 21.172 280.733 0 259.561 0 233.534 c 0 183.932 l 0 158.416 20.355 137.58
 45.676 136.772 c 80.926 44.413 l 82.109 41.315 85.082 39.264 88.402 39.264
 c 134.801 39.264 l 137.434 39.264 139.898 40.561 141.391 42.729 c 142.883
 44.897 143.215 47.659 142.273 50.12 c 111.398 131.022 l 318.617 53.401 
l 323.641 49.479 329.949 47.131 336.801 47.131 c 353.121 47.131 366.402 
60.409 366.402 76.733 c 366.402 158.163 l 390.844 162.014 409.602 183.225
 409.602 208.733 c h
16 183.932 m 16 233.534 l 16 250.737 29.996 264.733 47.199 264.733 c 89.602
 264.733 l 89.602 152.733 l 47.199 152.733 l 29.996 152.733 16 166.729 16
 183.932 c h
93.91 55.268 m 62.816 136.733 l 92.09 136.733 l 123.184 55.268 l h
366.398 174.463 m 366.398 243.006 l 381.965 239.373 393.602 225.389 393.602
 208.733 c 393.602 192.077 381.965 178.096 366.398 174.463 c h
366.398 174.463 m f
210.113 306.877 m 212.215 306.877 214.281 307.733 215.77 309.221 c 217.258
 310.709 218.113 312.772 218.113 314.877 c 218.113 316.983 217.258 319.045
 215.77 320.534 c 214.281 322.022 212.215 322.877 210.113 322.877 c 208.008
 322.877 205.945 322.022 204.457 320.534 c 202.969 319.045 202.113 316.983
 202.113 314.877 c 202.113 312.772 202.969 310.709 204.457 309.221 c 205.945
 307.733 208.008 306.877 210.113 306.877 c h
210.113 306.877 m f
52.801 220.198 m 54.902 220.198 56.969 221.053 58.457 222.541 c 59.945 
224.03 60.801 226.092 60.801 228.198 c 60.801 230.311 59.945 232.366 58.457
 233.854 c 56.969 235.35 54.902 236.198 52.801 236.198 c 50.695 236.198 
48.633 235.35 47.145 233.854 c 45.656 232.366 44.801 230.303 44.801 228.198
 c 44.801 226.092 45.656 224.038 47.145 222.541 c 48.633 221.053 50.695 
220.198 52.801 220.198 c h
52.801 220.198 m f
75.199 182.334 m 75.199 186.752 71.617 190.334 67.199 190.334 c 41.602 
190.334 l 37.18 190.334 33.602 186.752 33.602 182.334 c 33.602 177.916 37.18
 174.334 41.602 174.334 c 67.199 174.334 l 71.617 174.334 75.199 177.916
 75.199 182.334 c h
75.199 182.334 m f
Q Q
showpage
%%Trailer
end restore
%%EOF
