%!PS-Adobe-3.0 EPSF-3.0
%%Creator: cairo 1.14.2 (http://cairographics.org)
%%CreationDate: Fri Jun 15 11:41:46 2018
%%Pages: 1
%%DocumentData: Clean7Bit
%%LanguageLevel: 2
%%BoundingBox: 72 -1 338 410
%%EndComments
%%BeginProlog
save
50 dict begin
/q { gsave } bind def
/Q { grestore } bind def
/cm { 6 array astore concat } bind def
/w { setlinewidth } bind def
/J { setlinecap } bind def
/j { setlinejoin } bind def
/M { setmiterlimit } bind def
/d { setdash } bind def
/m { moveto } bind def
/l { lineto } bind def
/c { curveto } bind def
/h { closepath } bind def
/re { exch dup neg 3 1 roll 5 3 roll moveto 0 rlineto
      0 exch rlineto 0 rlineto closepath } bind def
/S { stroke } bind def
/f { fill } bind def
/f* { eofill } bind def
/n { newpath } bind def
/W { clip } bind def
/W* { eoclip } bind def
/BT { } bind def
/ET { } bind def
/pdfmark where { pop globaldict /?pdfmark /exec load put }
    { globaldict begin /?pdfmark /pop load def /pdfmark
    /cleartomark load def end } ifelse
/BDC { mark 3 1 roll /BDC pdfmark } bind def
/EMC { mark /EMC pdfmark } bind def
/cairo_store_point { /cairo_point_y exch def /cairo_point_x exch def } def
/Tj { show currentpoint cairo_store_point } bind def
/TJ {
  {
    dup
    type /stringtype eq
    { show } { -0.001 mul 0 cairo_font_matrix dtransform rmoveto } ifelse
  } forall
  currentpoint cairo_store_point
} bind def
/cairo_selectfont { cairo_font_matrix aload pop pop pop 0 0 6 array astore
    cairo_font exch selectfont cairo_point_x cairo_point_y moveto } bind def
/Tf { pop /cairo_font exch def /cairo_font_matrix where
      { pop cairo_selectfont } if } bind def
/Td { matrix translate cairo_font_matrix matrix concatmatrix dup
      /cairo_font_matrix exch def dup 4 get exch 5 get cairo_store_point
      /cairo_font where { pop cairo_selectfont } if } bind def
/Tm { 2 copy 8 2 roll 6 array astore /cairo_font_matrix exch def
      cairo_store_point /cairo_font where { pop cairo_selectfont } if } bind def
/g { setgray } bind def
/rg { setrgbcolor } bind def
/d1 { setcachedevice } bind def
%%EndProlog
%%BeginSetup
%%EndSetup
%%Page: 1 1
%%BeginPageSetup
%%PageBoundingBox: 72 -1 338 410
%%EndPageSetup
q 72 -1 266 411 rectclip q
0.843137 0.843137 0.901961 rg
96 366.401 m 313.602 366.401 l 322.438 366.401 329.602 359.237 329.602 
350.401 c 329.602 23.998 l 329.602 15.163 322.438 7.998 313.602 7.998 c 
96 7.998 l 87.164 7.998 80 15.163 80 23.998 c 80 350.401 l 80 359.237 87.164
 366.401 96 366.401 c h
96 366.401 m f
0.27451 0.764706 0.45098 rg
250.398 401.6 m 159.199 401.6 l 148.156 401.6 139.199 392.647 139.199 381.6
 c 139.199 366.401 l 270.398 366.401 l 270.398 381.6 l 270.398 392.647 261.445
 401.6 250.398 401.6 c h
250.398 401.6 m f
0.843137 0.980392 0.568627 rg
112 334.401 185.602 -294.402 re f
0.647059 0.862745 0.411765 rg
112 101.6 185.602 -61.602 re f
0.27451 0.764706 0.45098 rg
204.801 284.725 m 204.801 228.495 l 247.988 228.495 l 204.801 131.924 l
 204.801 188.155 l 161.613 188.155 l h
204.801 284.725 m f
0 g
313.602 374.401 m 278.398 374.401 l 278.398 381.6 l 278.398 397.038 265.84
 409.6 250.398 409.6 c 159.199 409.6 l 143.762 409.6 131.199 397.038 131.199
 381.6 c 131.199 374.401 l 96 374.401 l 82.766 374.401 72 363.635 72 350.401
 c 72 264.268 l 72 259.85 75.582 256.268 80 256.268 c 84.418 256.268 88 
259.85 88 264.268 c 88 350.401 l 88 354.811 91.59 358.401 96 358.401 c 313.602
 358.401 l 318.012 358.401 321.602 354.811 321.602 350.401 c 321.602 23.998
 l 321.602 19.588 318.012 15.998 313.602 15.998 c 96 15.998 l 91.59 15.998
 88 19.588 88 23.998 c 88 204.799 l 88 209.217 84.418 212.799 80 212.799
 c 75.582 212.799 72 209.217 72 204.799 c 72 23.998 l 72 10.768 82.766 -0.002
 96 -0.002 c 313.602 -0.002 l 326.832 -0.002 337.602 10.768 337.602 23.998
 c 337.602 350.401 l 337.602 363.635 326.832 374.401 313.602 374.401 c h
147.199 374.401 m 147.199 381.6 l 147.199 388.217 152.582 393.6 159.199
 393.6 c 250.398 393.6 l 257.016 393.6 262.398 388.217 262.398 381.6 c 262.398
 374.401 l h
147.199 374.401 m f
297.602 31.998 m 302.02 31.998 305.602 35.58 305.602 39.998 c 305.602 334.401
 l 305.602 338.819 302.02 342.401 297.602 342.401 c 112 342.401 l 107.582
 342.401 104 338.819 104 334.401 c 104 39.998 l 104 35.58 107.582 31.998
 112 31.998 c h
289.602 326.401 m 289.602 47.998 l 120 47.998 l 120 93.6 l 232.266 93.6
 l 236.684 93.6 240.266 97.182 240.266 101.6 c 240.266 106.018 236.684 109.6
 232.266 109.6 c 120 109.6 l 120 326.401 l h
289.602 326.401 m f
161.613 180.155 m 196.801 180.155 l 196.801 131.924 l 196.801 128.151 199.438
 124.889 203.129 124.1 c 203.691 123.983 204.25 123.924 204.805 123.924 
c 207.902 123.924 210.797 125.737 212.102 128.659 c 255.293 225.229 l 256.398
 227.705 256.176 230.573 254.699 232.846 c 253.227 235.123 250.699 236.495
 247.988 236.495 c 212.801 236.495 l 212.801 284.725 l 212.801 288.498 210.16
 291.76 206.469 292.549 c 202.777 293.334 199.039 291.436 197.496 287.991
 c 154.309 191.42 l 153.203 188.944 153.426 186.077 154.898 183.803 c 156.375
 181.53 158.902 180.155 161.613 180.155 c h
196.801 247.241 m 196.801 228.495 l 196.801 224.077 200.383 220.495 204.801
 220.495 c 235.645 220.495 l 212.801 169.409 l 212.801 188.155 l 212.801
 192.573 209.219 196.155 204.801 196.155 c 173.953 196.155 l h
196.801 247.241 m f
265.602 93.6 m 267.703 93.6 269.77 94.455 271.258 95.944 c 272.742 97.432
 273.602 99.495 273.602 101.6 c 273.602 103.705 272.742 105.768 271.258 
107.256 c 269.77 108.745 267.703 109.6 265.602 109.6 c 263.496 109.6 261.434
 108.745 259.945 107.256 c 258.457 105.768 257.602 103.705 257.602 101.6
 c 257.602 99.495 258.457 97.432 259.945 95.944 c 261.434 94.455 263.496
 93.6 265.602 93.6 c h
265.602 93.6 m f
80 225.866 m 82.105 225.866 84.168 226.721 85.656 228.209 c 87.145 229.705
 88 231.76 88 233.866 c 88 235.967 87.145 238.034 85.656 239.522 c 84.168
 241.014 82.105 241.866 80 241.866 c 77.895 241.866 75.832 241.014 74.344
 239.522 c 72.855 238.034 72 235.967 72 233.866 c 72 231.76 72.855 229.705
 74.344 228.209 c 75.832 226.721 77.895 225.866 80 225.866 c h
80 225.866 m f
Q Q
showpage
%%Trailer
end restore
%%EOF
