%!PS-Adobe-3.0 EPSF-3.0
%%Creator: cairo 1.14.2 (http://cairographics.org)
%%CreationDate: Fri Jun 15 11:41:46 2018
%%Pages: 1
%%DocumentData: Clean7Bit
%%LanguageLevel: 2
%%BoundingBox: 0 -1 410 410
%%EndComments
%%BeginProlog
save
50 dict begin
/q { gsave } bind def
/Q { grestore } bind def
/cm { 6 array astore concat } bind def
/w { setlinewidth } bind def
/J { setlinecap } bind def
/j { setlinejoin } bind def
/M { setmiterlimit } bind def
/d { setdash } bind def
/m { moveto } bind def
/l { lineto } bind def
/c { curveto } bind def
/h { closepath } bind def
/re { exch dup neg 3 1 roll 5 3 roll moveto 0 rlineto
      0 exch rlineto 0 rlineto closepath } bind def
/S { stroke } bind def
/f { fill } bind def
/f* { eofill } bind def
/n { newpath } bind def
/W { clip } bind def
/W* { eoclip } bind def
/BT { } bind def
/ET { } bind def
/pdfmark where { pop globaldict /?pdfmark /exec load put }
    { globaldict begin /?pdfmark /pop load def /pdfmark
    /cleartomark load def end } ifelse
/BDC { mark 3 1 roll /BDC pdfmark } bind def
/EMC { mark /EMC pdfmark } bind def
/cairo_store_point { /cairo_point_y exch def /cairo_point_x exch def } def
/Tj { show currentpoint cairo_store_point } bind def
/TJ {
  {
    dup
    type /stringtype eq
    { show } { -0.001 mul 0 cairo_font_matrix dtransform rmoveto } ifelse
  } forall
  currentpoint cairo_store_point
} bind def
/cairo_selectfont { cairo_font_matrix aload pop pop pop 0 0 6 array astore
    cairo_font exch selectfont cairo_point_x cairo_point_y moveto } bind def
/Tf { pop /cairo_font exch def /cairo_font_matrix where
      { pop cairo_selectfont } if } bind def
/Td { matrix translate cairo_font_matrix matrix concatmatrix dup
      /cairo_font_matrix exch def dup 4 get exch 5 get cairo_store_point
      /cairo_font where { pop cairo_selectfont } if } bind def
/Tm { 2 copy 8 2 roll 6 array astore /cairo_font_matrix exch def
      cairo_store_point /cairo_font where { pop cairo_selectfont } if } bind def
/g { setgray } bind def
/rg { setrgbcolor } bind def
/d1 { setcachedevice } bind def
%%EndProlog
%%BeginSetup
%%EndSetup
%%Page: 1 1
%%BeginPageSetup
%%PageBoundingBox: 0 -1 410 410
%%EndPageSetup
q 0 -1 410 411 rectclip q
0.352941 0.333333 0.882353 rg
401.602 204.799 m 401.602 96.112 313.488 7.998 204.801 7.998 c 96.109 7.998
 8 96.112 8 204.799 c 8 313.491 96.109 401.6 204.801 401.6 c 313.488 401.6
 401.602 313.491 401.602 204.799 c h
401.602 204.799 m f
1 0.54902 0.54902 rg
270.398 204.799 m 270.398 168.569 241.031 139.202 204.801 139.202 c 168.57
 139.202 139.199 168.569 139.199 204.799 c 139.199 241.03 168.57 270.401
 204.801 270.401 c 241.031 270.401 270.398 241.03 270.398 204.799 c h
270.398 204.799 m f
1 g
224 204.799 m 224 194.198 215.402 185.6 204.801 185.6 c 194.195 185.6 185.602
 194.198 185.602 204.799 c 185.602 215.405 194.195 223.998 204.801 223.998
 c 215.402 223.998 224 215.405 224 204.799 c h
224 204.799 m f
0 g
204.801 -0.002 m 150.098 -0.002 98.668 21.303 59.984 59.983 c 21.301 98.666
 0 150.096 0 204.799 c 0 259.502 21.301 310.932 59.984 349.616 c 98.668 
388.295 150.098 409.6 204.801 409.6 c 259.504 409.6 310.934 388.295 349.613
 349.616 c 388.297 310.932 409.602 259.502 409.602 204.799 c 409.602 150.096
 388.297 98.666 349.613 59.983 c 310.934 21.303 259.504 -0.002 204.801 -0.002
 c h
204.801 393.6 m 100.695 393.6 16 308.905 16 204.799 c 16 100.694 100.695
 15.998 204.801 15.998 c 308.906 15.998 393.602 100.694 393.602 204.799 
c 393.602 308.905 308.906 393.6 204.801 393.6 c h
204.801 393.6 m f
204.801 131.202 m 164.219 131.202 131.199 164.217 131.199 204.799 c 131.199
 245.381 164.219 278.401 204.801 278.401 c 245.383 278.401 278.398 245.381
 278.398 204.799 c 278.398 164.217 245.383 131.202 204.801 131.202 c h
204.801 262.401 m 173.039 262.401 147.199 236.561 147.199 204.799 c 147.199
 173.038 173.039 147.202 204.801 147.202 c 236.562 147.202 262.398 173.038
 262.398 204.799 c 262.398 236.561 236.562 262.401 204.801 262.401 c h
204.801 262.401 m f
204.801 177.6 m 189.801 177.6 177.602 189.803 177.602 204.799 c 177.602
 219.799 189.801 231.998 204.801 231.998 c 219.797 231.998 232 219.799 232
 204.799 c 232 189.803 219.797 177.6 204.801 177.6 c h
204.801 215.998 m 198.625 215.998 193.602 210.975 193.602 204.799 c 193.602
 198.623 198.625 193.6 204.801 193.6 c 210.977 193.6 216 198.623 216 204.799
 c 216 210.975 210.977 215.998 204.801 215.998 c h
204.801 215.998 m f
204.801 348.799 m 199.453 348.799 196.547 352.905 196.531 356.764 c 196.512
 360.627 199.379 364.756 204.723 364.807 c 204.82 364.807 l 210.105 364.807
 213.016 360.756 213.066 356.916 c 213.121 353.057 210.293 348.901 204.949
 348.803 c 204.898 348.799 204.848 348.799 204.801 348.799 c h
204.801 348.799 m f
52.801 196.799 m 48.383 196.799 44.801 200.381 44.801 204.799 c 44.801 
243.03 58.5 280.038 83.379 308.998 c 107.988 337.651 141.965 356.737 179.051
 362.737 c 183.406 363.452 187.52 360.479 188.227 356.12 c 188.93 351.756
 185.969 347.651 181.605 346.944 c 111.605 335.616 60.801 275.834 60.801
 204.799 c 60.801 200.381 57.219 196.799 52.801 196.799 c h
52.801 196.799 m f
97.602 196.799 m 93.18 196.799 89.602 200.381 89.602 204.799 c 89.602 268.323
 141.277 319.998 204.801 319.998 c 209.219 319.998 212.801 316.416 212.801
 311.998 c 212.801 307.58 209.219 303.998 204.801 303.998 c 150.102 303.998
 105.602 259.498 105.602 204.799 c 105.602 200.381 102.02 196.799 97.602
 196.799 c h
97.602 196.799 m f
204.801 44.799 m 200.383 44.799 196.801 48.381 196.801 52.799 c 196.801
 57.217 200.383 60.799 204.801 60.799 c 284.203 60.799 348.801 125.397 348.801
 204.799 c 348.801 209.217 352.383 212.799 356.801 212.799 c 361.219 212.799
 364.801 209.217 364.801 204.799 c 364.801 116.577 293.023 44.799 204.801
 44.799 c h
204.801 44.799 m f
204.801 89.6 m 200.383 89.6 196.801 93.182 196.801 97.6 c 196.801 102.018
 200.383 105.6 204.801 105.6 c 205.531 105.604 l 205.602 105.604 l 209.988
 105.604 213.562 102.069 213.602 97.674 c 213.641 93.256 210.09 89.643 205.672
 89.604 c h
204.801 89.6 m f
233.348 93.444 m 229.84 93.444 226.621 95.772 225.641 99.319 c 224.469 
103.577 226.969 107.983 231.227 109.159 c 274.074 120.967 304 160.299 304
 204.799 c 304 209.217 307.582 212.799 312 212.799 c 316.418 212.799 320
 209.217 320 204.799 c 320 153.123 285.242 107.448 235.48 93.733 c 234.77
 93.538 234.055 93.444 233.348 93.444 c h
233.348 93.444 m f
Q Q
showpage
%%Trailer
end restore
%%EOF
