%!PS-Adobe-3.0 EPSF-3.0
%%Creator: cairo 1.14.2 (http://cairographics.org)
%%CreationDate: Fri Jun 15 11:41:46 2018
%%Pages: 1
%%DocumentData: Clean7Bit
%%LanguageLevel: 2
%%BoundingBox: 0 -1 410 410
%%EndComments
%%BeginProlog
save
50 dict begin
/q { gsave } bind def
/Q { grestore } bind def
/cm { 6 array astore concat } bind def
/w { setlinewidth } bind def
/J { setlinecap } bind def
/j { setlinejoin } bind def
/M { setmiterlimit } bind def
/d { setdash } bind def
/m { moveto } bind def
/l { lineto } bind def
/c { curveto } bind def
/h { closepath } bind def
/re { exch dup neg 3 1 roll 5 3 roll moveto 0 rlineto
      0 exch rlineto 0 rlineto closepath } bind def
/S { stroke } bind def
/f { fill } bind def
/f* { eofill } bind def
/n { newpath } bind def
/W { clip } bind def
/W* { eoclip } bind def
/BT { } bind def
/ET { } bind def
/pdfmark where { pop globaldict /?pdfmark /exec load put }
    { globaldict begin /?pdfmark /pop load def /pdfmark
    /cleartomark load def end } ifelse
/BDC { mark 3 1 roll /BDC pdfmark } bind def
/EMC { mark /EMC pdfmark } bind def
/cairo_store_point { /cairo_point_y exch def /cairo_point_x exch def } def
/Tj { show currentpoint cairo_store_point } bind def
/TJ {
  {
    dup
    type /stringtype eq
    { show } { -0.001 mul 0 cairo_font_matrix dtransform rmoveto } ifelse
  } forall
  currentpoint cairo_store_point
} bind def
/cairo_selectfont { cairo_font_matrix aload pop pop pop 0 0 6 array astore
    cairo_font exch selectfont cairo_point_x cairo_point_y moveto } bind def
/Tf { pop /cairo_font exch def /cairo_font_matrix where
      { pop cairo_selectfont } if } bind def
/Td { matrix translate cairo_font_matrix matrix concatmatrix dup
      /cairo_font_matrix exch def dup 4 get exch 5 get cairo_store_point
      /cairo_font where { pop cairo_selectfont } if } bind def
/Tm { 2 copy 8 2 roll 6 array astore /cairo_font_matrix exch def
      cairo_store_point /cairo_font where { pop cairo_selectfont } if } bind def
/g { setgray } bind def
/rg { setrgbcolor } bind def
/d1 { setcachedevice } bind def
%%EndProlog
%%BeginSetup
%%EndSetup
%%Page: 1 1
%%BeginPageSetup
%%PageBoundingBox: 0 -1 410 410
%%EndPageSetup
q 0 -1 410 411 rectclip q
0.470588 0.823529 0.980392 rg
308.809 251.241 m 308.809 168.17 241.469 100.83 158.402 100.83 c 75.332
 100.83 7.992 168.17 7.992 251.241 c 7.992 334.307 75.332 401.647 158.402
 401.647 c 241.469 401.647 308.809 334.307 308.809 251.241 c h
308.809 251.241 m f
0.784314 0.960784 1 rg
270.406 251.241 m 270.406 189.381 220.262 139.233 158.402 139.233 c 96.543
 139.233 46.395 189.381 46.395 251.241 c 46.395 313.1 96.543 363.245 158.402
 363.245 c 220.262 363.245 270.406 313.1 270.406 251.241 c h
270.406 251.241 m f
0.960784 0.72549 0.333333 rg
281.492 162.936 m 394.41 50.022 l 404.016 40.416 404.016 24.838 394.41 
15.233 c 389.605 10.428 383.309 8.026 377.016 8.026 c 370.719 8.026 364.422
 10.428 359.621 15.233 c 246.703 128.147 l h
281.492 162.936 m f
0.941176 0.941176 0.980392 rg
246.699 128.147 m 281.492 162.94 l 311.801 132.627 l 277.012 97.838 l h
246.699 128.147 m f
0 g
158.402 131.233 m 224.574 131.233 278.406 185.069 278.406 251.241 c 278.406
 317.409 224.574 371.245 158.402 371.245 c 92.23 371.245 38.395 317.413 
38.395 251.241 c 38.395 185.069 92.23 131.233 158.402 131.233 c h
158.402 355.245 m 215.75 355.245 262.406 308.588 262.406 251.241 c 262.406
 193.889 215.75 147.233 158.402 147.233 c 101.051 147.233 54.395 193.889
 54.395 251.241 c 54.395 308.588 101.051 355.245 158.402 355.245 c h
158.402 355.245 m f
57.703 150.541 m 54.578 153.666 49.512 153.666 46.387 150.541 c 43.266 
147.416 43.266 142.35 46.387 139.225 c 47.129 138.491 l 48.691 136.948 50.723
 136.178 52.754 136.178 c 54.816 136.178 56.879 136.971 58.441 138.553 c
 61.551 141.698 61.52 146.764 58.379 149.87 c h
57.703 150.541 m f
400.066 55.678 m 291.074 164.67 l 331.16 226.069 324.273 309.389 270.414
 363.252 c 208.648 425.014 108.152 425.014 46.391 363.252 c 20.758 337.62
 4.582 303.682 0.844 267.694 c -2.84 232.225 5.617 196.213 24.652 166.299
 c 27.023 162.569 31.969 161.471 35.699 163.846 c 39.426 166.217 40.523 
171.163 38.152 174.889 c 2.664 230.659 10.887 305.12 57.703 351.94 c 113.23
 407.463 203.574 407.463 259.098 351.94 c 314.625 296.413 314.625 206.069
 259.098 150.541 c 211.203 102.643 135.625 95.151 79.398 132.721 c 75.727
 135.174 70.758 134.19 68.301 130.514 c 65.848 126.842 66.836 121.873 70.508
 119.416 c 97.176 101.596 127.75 92.889 158.188 92.889 c 188.598 92.889 
218.863 101.596 244.949 118.584 c 271.352 92.186 l 271.352 92.182 271.355
 92.182 271.355 92.182 c 271.355 92.178 271.359 92.178 271.359 92.178 c 
353.961 9.577 l 360.121 3.42 368.305 0.026 377.012 0.026 c 385.723 0.026
 393.906 3.416 400.066 9.577 c 412.777 22.288 412.777 42.967 400.066 55.678
 c h
270.414 139.229 m 274.375 143.19 278.082 147.319 281.539 151.58 c 300.496
 132.62 l 300.449 132.577 300.398 132.538 300.352 132.491 c 277.012 109.151
 l 258.055 128.108 l 262.328 131.569 266.457 135.272 270.414 139.229 c h
388.754 20.889 m 385.617 17.752 381.449 16.026 377.016 16.026 c 372.582
 16.026 368.41 17.752 365.277 20.889 c 288.328 97.834 l 311.668 121.174 
l 311.715 121.221 311.754 121.272 311.797 121.319 c 388.754 44.362 l 395.227
 37.893 395.227 27.362 388.754 20.889 c h
388.754 20.889 m f
183.148 311.151 m 207.48 301.088 223.203 277.573 223.203 251.241 c 223.203
 246.823 226.785 243.237 231.207 243.237 c 235.625 243.237 239.207 246.823
 239.207 251.241 c 239.207 284.069 219.605 313.389 189.266 325.936 c 185.18
 327.623 180.504 325.686 178.812 321.604 c 177.125 317.518 179.066 312.842
 183.148 311.151 c h
183.148 311.151 m f
158.402 316.041 m 158.699 316.041 158.996 316.041 159.293 316.038 c 159.328
 316.038 159.367 316.038 159.406 316.038 c 163.77 316.038 167.34 319.545
 167.402 323.924 c 167.465 328.342 163.934 331.975 159.516 332.038 c 159.145
 332.041 158.773 332.045 158.398 332.045 c 153.98 332.045 150.398 328.463
 150.398 324.045 c 150.398 319.627 153.98 316.041 158.402 316.041 c h
158.402 316.041 m f
Q Q
showpage
%%Trailer
end restore
%%EOF
