%!PS-Adobe-3.0 EPSF-3.0
%%Creator: cairo 1.14.2 (http://cairographics.org)
%%CreationDate: Fri Jun 15 11:41:46 2018
%%Pages: 1
%%DocumentData: Clean7Bit
%%LanguageLevel: 2
%%BoundingBox: 0 -1 410 410
%%EndComments
%%BeginProlog
save
50 dict begin
/q { gsave } bind def
/Q { grestore } bind def
/cm { 6 array astore concat } bind def
/w { setlinewidth } bind def
/J { setlinecap } bind def
/j { setlinejoin } bind def
/M { setmiterlimit } bind def
/d { setdash } bind def
/m { moveto } bind def
/l { lineto } bind def
/c { curveto } bind def
/h { closepath } bind def
/re { exch dup neg 3 1 roll 5 3 roll moveto 0 rlineto
      0 exch rlineto 0 rlineto closepath } bind def
/S { stroke } bind def
/f { fill } bind def
/f* { eofill } bind def
/n { newpath } bind def
/W { clip } bind def
/W* { eoclip } bind def
/BT { } bind def
/ET { } bind def
/pdfmark where { pop globaldict /?pdfmark /exec load put }
    { globaldict begin /?pdfmark /pop load def /pdfmark
    /cleartomark load def end } ifelse
/BDC { mark 3 1 roll /BDC pdfmark } bind def
/EMC { mark /EMC pdfmark } bind def
/cairo_store_point { /cairo_point_y exch def /cairo_point_x exch def } def
/Tj { show currentpoint cairo_store_point } bind def
/TJ {
  {
    dup
    type /stringtype eq
    { show } { -0.001 mul 0 cairo_font_matrix dtransform rmoveto } ifelse
  } forall
  currentpoint cairo_store_point
} bind def
/cairo_selectfont { cairo_font_matrix aload pop pop pop 0 0 6 array astore
    cairo_font exch selectfont cairo_point_x cairo_point_y moveto } bind def
/Tf { pop /cairo_font exch def /cairo_font_matrix where
      { pop cairo_selectfont } if } bind def
/Td { matrix translate cairo_font_matrix matrix concatmatrix dup
      /cairo_font_matrix exch def dup 4 get exch 5 get cairo_store_point
      /cairo_font where { pop cairo_selectfont } if } bind def
/Tm { 2 copy 8 2 roll 6 array astore /cairo_font_matrix exch def
      cairo_store_point /cairo_font where { pop cairo_selectfont } if } bind def
/g { setgray } bind def
/rg { setrgbcolor } bind def
/d1 { setcachedevice } bind def
%%EndProlog
%%BeginSetup
%%EndSetup
%%Page: 1 1
%%BeginPageSetup
%%PageBoundingBox: 0 -1 410 410
%%EndPageSetup
q 0 -1 410 411 rectclip q
1 0.568627 0.333333 rg
40.133 315.448 m 337.469 315.448 l 355.215 315.448 369.602 301.061 369.602
 283.315 c 369.602 83.58 l 369.602 65.834 355.215 51.448 337.469 51.448 
c 40.133 51.448 l 22.387 51.448 8 65.834 8 83.58 c 8 283.315 l 8 301.061
 22.387 315.448 40.133 315.448 c h
40.133 315.448 m f
0.27451 0.764706 0.45098 rg
249.836 251.288 m 278.988 280.436 l 158.07 401.354 l 8 251.288 l h
249.836 251.288 m f
1 0.627451 0.411765 rg
328.801 97.846 m 328.801 40.248 l 328.801 22.577 314.473 8.248 296.801 
8.248 c 40 8.248 l 22.328 8.248 8 22.577 8 40.248 c 8 283.448 l 8 265.776
 22.328 251.448 40 251.448 c 296.801 251.448 l 314.473 251.448 328.801 237.12
 328.801 219.448 c h
328.801 97.846 m f
1 0.509804 0.294118 rg
401.602 191.448 m 401.602 129.846 l 401.602 112.174 387.273 97.846 369.602
 97.846 c 224 97.846 l 206.328 97.846 192 112.174 192 129.846 c 192 147.522
 206.328 161.846 224 161.846 c 370.398 161.846 l 387.633 161.846 401.602
 175.819 401.602 193.049 c f
0.843137 0.980392 0.568627 rg
298.344 251.288 m 327.492 280.436 l 206.574 401.354 l 56.508 251.288 l 
h
298.344 251.288 m f
0.27451 0.764706 0.45098 rg
177.426 372.205 m 184.887 364.745 195.191 360.131 206.574 360.131 c 217.961
 360.131 228.266 364.745 235.727 372.205 c 206.574 401.354 l h
177.426 372.205 m f
298.344 251.288 m 327.496 280.436 l 298.344 309.588 l 290.883 302.127 286.27
 291.819 286.27 280.436 c 286.27 269.053 290.883 258.745 298.344 251.288
 c h
298.344 251.288 m f
207.461 251.288 m 204.645 257.702 200.625 263.713 195.371 268.967 c 172.715
 291.623 135.977 291.623 113.32 268.967 c 108.07 263.713 104.051 257.702
 101.234 251.288 c h
207.461 251.288 m f
0 g
163.543 16.248 m 161.434 16.248 159.375 15.393 157.887 13.905 c 156.398
 12.416 155.543 10.354 155.543 8.248 c 155.543 6.143 156.398 4.08 157.887
 2.592 c 159.375 1.104 161.441 0.248 163.543 0.248 c 165.648 0.248 167.711
 1.104 169.199 2.592 c 170.688 4.08 171.543 6.143 171.543 8.248 c 171.543
 10.354 170.688 12.416 169.199 13.905 c 167.711 15.393 165.648 16.248 163.543
 16.248 c h
163.543 16.248 m f
38.398 151.069 m 38.398 76.803 l 38.398 72.385 41.98 68.803 46.398 68.803
 c 50.82 68.803 54.398 72.385 54.398 76.803 c 54.398 151.069 l 54.398 155.487
 50.82 159.069 46.398 159.069 c 41.98 159.069 38.398 155.487 38.398 151.069
 c h
38.398 151.069 m f
52.055 190.057 m 50.566 191.545 48.504 192.401 46.398 192.401 c 44.297 
192.401 42.23 191.545 40.742 190.057 c 39.258 188.569 38.398 186.51 38.398
 184.401 c 38.398 182.295 39.258 180.233 40.742 178.745 c 42.23 177.256 
44.297 176.401 46.398 176.401 c 48.504 176.401 50.566 177.256 52.055 178.745
 c 53.543 180.233 54.398 182.295 54.398 184.401 c 54.398 186.506 53.543 
188.569 52.055 190.057 c h
52.055 190.057 m f
409.602 193.049 m 409.602 212.202 395.785 228.182 377.602 231.573 c 377.602
 283.448 l 377.602 305.502 359.656 323.448 337.602 323.448 c 295.797 323.448
 l 212.23 407.01 l 209.109 410.135 204.043 410.135 200.918 407.01 c 182.32
 388.416 l 163.727 407.01 l 160.602 410.135 155.535 410.135 152.41 407.01
 c 68.352 322.952 l 67.492 323.268 66.57 323.448 65.602 323.448 c 40 323.448
 l 17.945 323.448 0 305.502 0 283.448 c 0 282.866 0.02 282.284 0.043 281.709
 c 0.016 281.432 0 281.155 0 280.873 c 0 40.248 l 0 18.194 17.945 0.248 
40 0.248 c 129.867 0.248 l 134.285 0.248 137.867 3.83 137.867 8.248 c 137.867
 12.666 134.285 16.248 129.867 16.248 c 40 16.248 l 26.766 16.248 16 27.014
 16 40.248 c 16 251.471 l 22.691 246.436 31.004 243.448 40 243.448 c 207.461
 243.288 l 298.344 243.288 l 298.605 243.288 298.867 243.299 299.125 243.323
 c 299.141 243.327 299.156 243.327 299.172 243.33 c 311.297 242.135 320.801
 231.881 320.801 219.448 c 320.801 169.846 l 224 169.846 l 201.945 169.846
 184 151.905 184 129.846 c 184 107.791 201.945 89.846 224 89.846 c 320.801
 89.846 l 320.801 40.248 l 320.801 27.014 310.035 16.248 296.801 16.248 
c 197.066 16.248 l 192.648 16.248 189.066 12.666 189.066 8.248 c 189.066
 3.83 192.648 0.248 197.066 0.248 c 296.801 0.248 l 318.855 0.248 336.801
 18.19 336.801 40.248 c 336.801 43.448 l 337.602 43.448 l 359.656 43.448
 377.602 61.393 377.602 83.448 c 377.602 90.651 l 395.836 94.37 409.602 
110.53 409.602 129.846 c 409.602 191.448 l 409.602 191.616 409.594 191.78
 409.586 191.944 c 409.594 192.311 409.602 192.678 409.602 193.049 c h
177.891 361.358 m 186.43 355.229 196.5 352.151 206.574 352.151 c 216.652
 352.151 226.719 355.225 235.258 361.358 c 287.496 309.12 l 276.996 294.495
 275.484 275.366 282.973 259.448 c 212.352 259.448 l 209.332 265.018 205.543
 270.108 201.031 274.623 c 188.559 287.092 171.98 293.959 154.348 293.959
 c 136.711 293.959 120.133 287.092 107.664 274.623 c 103.148 270.108 99.363
 265.018 96.34 259.448 c 75.98 259.448 l h
193.191 259.448 m 115.504 259.448 l 116.59 260.788 117.746 262.077 118.977
 263.307 c 128.426 272.756 140.988 277.959 154.348 277.959 c 167.707 277.959
 180.27 272.756 189.715 263.307 c 190.945 262.077 192.102 260.788 193.191
 259.448 c h
299.035 297.577 m 316.18 280.436 l 299.035 263.291 l 292.707 273.799 292.707
 287.073 299.035 297.577 c h
206.574 390.041 m 223.719 372.897 l 213.492 366.737 200.645 366.577 190.277
 372.409 c 190.637 373.077 190.891 373.788 191.047 374.51 c h
40 307.448 m 52.848 307.448 l 18.398 272.998 l 16.863 276.159 16 279.705
 16 283.448 c 16 296.682 26.766 307.448 40 307.448 c h
29.77 261.741 m 158.07 390.041 l 171.008 377.1 l 53.355 259.448 l 40 259.448
 l 36.344 259.448 32.875 260.272 29.77 261.741 c h
313.949 255.577 m 333.152 274.776 l 336.273 277.901 336.273 282.967 333.152
 286.092 c 311.797 307.448 l 337.602 307.448 l 350.832 307.448 361.602 296.682
 361.602 283.448 c 361.602 169.846 l 336.801 169.846 l 336.801 219.448 l
 336.801 235.37 327.449 249.143 313.949 255.577 c h
337.602 59.448 m 336.801 59.448 l 336.801 89.846 l 361.602 89.846 l 361.602
 83.448 l 361.602 70.213 350.832 59.448 337.602 59.448 c h
393.602 129.846 m 393.602 116.616 382.832 105.846 369.602 105.846 c 224
 105.846 l 210.766 105.846 200 116.616 200 129.846 c 200 143.08 210.766 
153.846 224 153.846 c 370.398 153.846 l 379.074 153.846 387.102 156.678 
393.602 161.467 c h
377.602 170.998 m 377.602 215.1 l 386.879 212.061 393.602 203.327 393.602
 193.049 c 393.602 182.768 386.879 174.034 377.602 170.998 c h
377.602 170.998 m f
225.602 137.846 m 223.496 137.846 221.434 136.995 219.945 135.502 c 218.457
 134.014 217.602 131.952 217.602 129.846 c 217.602 127.745 218.457 125.678
 219.945 124.194 c 221.434 122.705 223.496 121.846 225.602 121.846 c 227.703
 121.846 229.77 122.705 231.258 124.194 c 232.742 125.678 233.602 127.745
 233.602 129.846 c 233.602 131.952 232.742 134.014 231.258 135.502 c 229.77
 136.991 227.703 137.846 225.602 137.846 c h
225.602 137.846 m f
215.301 281.159 m 217.348 281.159 219.395 281.94 220.957 283.502 c 234.859
 297.409 l 237.984 300.53 237.984 305.596 234.859 308.721 c 231.734 311.842
 226.672 311.846 223.547 308.721 c 209.645 294.819 l 206.52 291.694 206.52
 286.627 209.645 283.502 c 211.203 281.94 213.254 281.159 215.301 281.159
 c h
215.301 281.159 m f
Q Q
showpage
%%Trailer
end restore
%%EOF
