%!PS-Adobe-3.0 EPSF-3.0
%%Creator: cairo 1.14.2 (http://cairographics.org)
%%CreationDate: Fri Jun 15 11:41:46 2018
%%Pages: 1
%%DocumentData: Clean7Bit
%%LanguageLevel: 2
%%BoundingBox: 0 -1 410 410
%%EndComments
%%BeginProlog
save
50 dict begin
/q { gsave } bind def
/Q { grestore } bind def
/cm { 6 array astore concat } bind def
/w { setlinewidth } bind def
/J { setlinecap } bind def
/j { setlinejoin } bind def
/M { setmiterlimit } bind def
/d { setdash } bind def
/m { moveto } bind def
/l { lineto } bind def
/c { curveto } bind def
/h { closepath } bind def
/re { exch dup neg 3 1 roll 5 3 roll moveto 0 rlineto
      0 exch rlineto 0 rlineto closepath } bind def
/S { stroke } bind def
/f { fill } bind def
/f* { eofill } bind def
/n { newpath } bind def
/W { clip } bind def
/W* { eoclip } bind def
/BT { } bind def
/ET { } bind def
/pdfmark where { pop globaldict /?pdfmark /exec load put }
    { globaldict begin /?pdfmark /pop load def /pdfmark
    /cleartomark load def end } ifelse
/BDC { mark 3 1 roll /BDC pdfmark } bind def
/EMC { mark /EMC pdfmark } bind def
/cairo_store_point { /cairo_point_y exch def /cairo_point_x exch def } def
/Tj { show currentpoint cairo_store_point } bind def
/TJ {
  {
    dup
    type /stringtype eq
    { show } { -0.001 mul 0 cairo_font_matrix dtransform rmoveto } ifelse
  } forall
  currentpoint cairo_store_point
} bind def
/cairo_selectfont { cairo_font_matrix aload pop pop pop 0 0 6 array astore
    cairo_font exch selectfont cairo_point_x cairo_point_y moveto } bind def
/Tf { pop /cairo_font exch def /cairo_font_matrix where
      { pop cairo_selectfont } if } bind def
/Td { matrix translate cairo_font_matrix matrix concatmatrix dup
      /cairo_font_matrix exch def dup 4 get exch 5 get cairo_store_point
      /cairo_font where { pop cairo_selectfont } if } bind def
/Tm { 2 copy 8 2 roll 6 array astore /cairo_font_matrix exch def
      cairo_store_point /cairo_font where { pop cairo_selectfont } if } bind def
/g { setgray } bind def
/rg { setrgbcolor } bind def
/d1 { setcachedevice } bind def
%%EndProlog
%%BeginSetup
%%EndSetup
%%Page: 1 1
%%BeginPageSetup
%%PageBoundingBox: 0 -1 410 410
%%EndPageSetup
q 0 -1 410 411 rectclip q
0.960784 0.784314 0.431373 rg
342.398 326.975 m 401.602 268.834 l 401.602 63.6 l 401.602 32.893 376.707
 7.998 346 7.998 c 63.602 7.998 l 32.895 7.998 8 32.893 8 63.6 c 8 268.834
 l 66.781 327.616 l h
342.398 326.975 m f
1 g
271.184 138.416 m 342.398 209.635 l 342.398 377.6 l 342.398 390.854 331.656
 401.6 318.398 401.6 c 91.199 401.6 l 77.945 401.6 67.199 390.854 67.199
 377.6 c 67.199 209.635 l 138.418 138.416 l 204.801 174.514 l h
271.184 138.416 m f
1 0.431373 0.215686 rg
342.398 326.975 m 401.602 268.834 l 342.398 209.635 l h
342.398 326.975 m f
67.199 326.975 m 8 268.834 l 67.199 209.635 l h
67.199 326.975 m f
0 g
299.711 15.998 m 299.609 15.998 l 295.191 15.998 291.609 12.416 291.609
 7.998 c 291.609 3.58 295.191 -0.002 299.609 -0.002 c 299.711 -0.002 l 304.129
 -0.002 307.711 3.58 307.711 7.998 c 307.711 12.416 304.129 15.998 299.711
 15.998 c h
299.711 15.998 m f
407.238 274.51 m 350.398 330.948 l 350.398 377.6 l 350.398 395.245 336.043
 409.6 318.398 409.6 c 91.199 409.6 l 73.555 409.6 59.199 395.245 59.199
 377.6 c 59.199 331.346 l 2.344 274.491 l 0.844 272.991 0 270.955 0 268.834
 c 0 63.6 l 0 28.53 28.531 -0.002 63.602 -0.002 c 263.945 -0.002 l 268.363
 -0.002 271.945 3.58 271.945 7.998 c 271.945 12.416 268.363 15.998 263.945
 15.998 c 63.602 15.998 l 54.234 15.998 45.5 18.729 38.129 23.42 c 53.125
 38.416 l 176 38.416 l 180.414 38.416 184 41.998 184 46.416 c 184 50.834
 180.414 54.416 176 54.416 c 69.125 54.416 l 164.555 149.846 l 186.746 172.038
 222.855 172.038 245.043 149.846 c 371.469 23.42 l 364.102 18.729 355.367
 15.998 346 15.998 c 335.199 15.998 l 330.781 15.998 327.199 12.416 327.199
 7.998 c 327.199 3.58 330.781 -0.002 335.199 -0.002 c 346 -0.002 l 362.297
 -0.002 377.172 6.166 388.438 16.28 c 388.715 16.491 388.984 16.713 389.234
 16.967 c 389.34 17.073 389.434 17.186 389.535 17.299 c 401.871 28.905 409.602
 45.362 409.602 63.6 c 409.602 268.834 l 409.602 270.963 408.75 273.01 407.238
 274.51 c h
390.266 268.815 m 350.398 228.948 l 350.398 308.397 l h
59.199 228.948 m 19.312 268.834 l 59.199 308.721 l h
16 63.6 m 16 249.518 l 128.801 136.717 l 26.238 34.159 l 19.836 42.268 
16 52.491 16 63.6 c h
153.242 161.159 m 140.113 148.034 l 75.199 212.948 l 75.199 377.6 l 75.199
 386.424 82.379 393.6 91.199 393.6 c 318.398 393.6 l 327.223 393.6 334.398
 386.424 334.398 377.6 c 334.398 212.948 l 269.484 148.034 l 256.359 161.159
 l 227.93 189.588 181.672 189.588 153.242 161.159 c h
383.359 34.159 m 280.801 136.717 l 393.602 249.518 l 393.602 63.6 l 393.602
 52.491 389.766 42.264 383.359 34.159 c h
383.359 34.159 m f
129.223 319.998 m 209.602 319.998 l 214.02 319.998 217.602 323.58 217.602
 327.998 c 217.602 332.416 214.02 335.998 209.602 335.998 c 129.223 335.998
 l 124.805 335.998 121.223 332.416 121.223 327.998 c 121.223 323.58 124.805
 319.998 129.223 319.998 c h
129.223 319.998 m f
246.664 319.998 m 248.77 319.998 250.832 320.858 252.328 322.346 c 253.816
 323.83 254.664 325.897 254.664 327.998 c 254.664 330.104 253.816 332.166
 252.328 333.655 c 250.832 335.143 248.77 335.998 246.664 335.998 c 244.559
 335.998 242.496 335.143 241.008 333.655 c 239.52 332.166 238.664 330.104
 238.664 327.998 c 238.664 325.897 239.52 323.83 241.008 322.346 c 242.504
 320.858 244.559 319.998 246.664 319.998 c h
246.664 319.998 m f
129.223 262.401 m 280.375 262.401 l 284.793 262.401 288.375 265.983 288.375
 270.401 c 288.375 274.819 284.793 278.401 280.375 278.401 c 129.223 278.401
 l 124.805 278.401 121.223 274.819 121.223 270.401 c 121.223 265.983 124.805
 262.401 129.223 262.401 c h
129.223 262.401 m f
288.375 212.799 m 288.375 217.217 284.793 220.799 280.375 220.799 c 129.223
 220.799 l 124.805 220.799 121.223 217.217 121.223 212.799 c 121.223 208.381
 124.805 204.799 129.223 204.799 c 280.375 204.799 l 284.793 204.799 288.375
 208.381 288.375 212.799 c h
288.375 212.799 m f
Q Q
showpage
%%Trailer
end restore
%%EOF
