%!PS-Adobe-3.0 EPSF-3.0
%%Creator: cairo 1.14.2 (http://cairographics.org)
%%CreationDate: Fri Jun 15 11:41:46 2018
%%Pages: 1
%%DocumentData: Clean7Bit
%%LanguageLevel: 2
%%BoundingBox: 0 -1 410 410
%%EndComments
%%BeginProlog
save
50 dict begin
/q { gsave } bind def
/Q { grestore } bind def
/cm { 6 array astore concat } bind def
/w { setlinewidth } bind def
/J { setlinecap } bind def
/j { setlinejoin } bind def
/M { setmiterlimit } bind def
/d { setdash } bind def
/m { moveto } bind def
/l { lineto } bind def
/c { curveto } bind def
/h { closepath } bind def
/re { exch dup neg 3 1 roll 5 3 roll moveto 0 rlineto
      0 exch rlineto 0 rlineto closepath } bind def
/S { stroke } bind def
/f { fill } bind def
/f* { eofill } bind def
/n { newpath } bind def
/W { clip } bind def
/W* { eoclip } bind def
/BT { } bind def
/ET { } bind def
/pdfmark where { pop globaldict /?pdfmark /exec load put }
    { globaldict begin /?pdfmark /pop load def /pdfmark
    /cleartomark load def end } ifelse
/BDC { mark 3 1 roll /BDC pdfmark } bind def
/EMC { mark /EMC pdfmark } bind def
/cairo_store_point { /cairo_point_y exch def /cairo_point_x exch def } def
/Tj { show currentpoint cairo_store_point } bind def
/TJ {
  {
    dup
    type /stringtype eq
    { show } { -0.001 mul 0 cairo_font_matrix dtransform rmoveto } ifelse
  } forall
  currentpoint cairo_store_point
} bind def
/cairo_selectfont { cairo_font_matrix aload pop pop pop 0 0 6 array astore
    cairo_font exch selectfont cairo_point_x cairo_point_y moveto } bind def
/Tf { pop /cairo_font exch def /cairo_font_matrix where
      { pop cairo_selectfont } if } bind def
/Td { matrix translate cairo_font_matrix matrix concatmatrix dup
      /cairo_font_matrix exch def dup 4 get exch 5 get cairo_store_point
      /cairo_font where { pop cairo_selectfont } if } bind def
/Tm { 2 copy 8 2 roll 6 array astore /cairo_font_matrix exch def
      cairo_store_point /cairo_font where { pop cairo_selectfont } if } bind def
/g { setgray } bind def
/rg { setrgbcolor } bind def
/d1 { setcachedevice } bind def
%%EndProlog
%%BeginSetup
%%EndSetup
%%Page: 1 1
%%BeginPageSetup
%%PageBoundingBox: 0 -1 410 410
%%EndPageSetup
q 0 -1 410 411 rectclip q
0.960784 0.784314 0.431373 rg
311.949 204.799 m 311.949 145.623 263.977 97.651 204.801 97.651 c 145.625
 97.651 97.656 145.623 97.656 204.799 c 97.656 263.975 145.625 311.944 204.801
 311.944 c 263.977 311.944 311.949 263.975 311.949 204.799 c h
311.949 204.799 m f
0 g
204.801 89.659 m 170.449 89.659 138.148 104.827 116.184 131.276 c 113.359
 134.674 113.828 139.717 117.227 142.538 c 120.621 145.358 125.664 144.893
 128.484 141.495 c 147.402 118.713 175.219 105.647 204.801 105.647 c 259.473
 105.647 303.953 150.127 303.953 204.799 c 303.953 259.471 259.473 303.952
 204.801 303.952 c 150.129 303.952 105.648 259.471 105.648 204.799 c 105.648
 197.979 106.344 191.166 107.715 184.557 c 108.613 180.233 105.832 175.998
 101.508 175.104 c 97.188 174.205 92.953 176.987 92.059 181.307 c 90.465
 188.987 89.656 196.893 89.656 204.799 c 89.656 268.291 141.309 319.944 
204.801 319.944 c 268.289 319.944 319.941 268.291 319.941 204.799 c 319.941
 141.311 268.289 89.659 204.801 89.659 c h
204.801 89.659 m f
204.801 341.498 m 200.383 341.498 196.805 345.08 196.805 349.495 c 196.805
 401.604 l 196.805 406.022 200.383 409.6 204.801 409.6 c 209.215 409.6 212.797
 406.022 212.797 401.604 c 212.797 349.495 l 212.797 345.08 209.215 341.498
 204.801 341.498 c h
204.801 341.498 m f
204.801 -0.002 m 200.383 -0.002 196.805 3.58 196.805 7.995 c 196.805 60.104
 l 196.805 64.522 200.383 68.1 204.801 68.1 c 209.215 68.1 212.797 64.522
 212.797 60.104 c 212.797 7.995 l 212.797 3.58 209.215 -0.002 204.801 -0.002
 c h
204.801 -0.002 m f
401.605 196.803 m 349.496 196.803 l 345.078 196.803 341.5 200.385 341.5
 204.799 c 341.5 209.217 345.078 212.795 349.496 212.795 c 401.605 212.795
 l 406.02 212.795 409.602 209.217 409.602 204.799 c 409.602 200.385 406.02
 196.803 401.605 196.803 c h
401.605 196.803 m f
60.105 196.803 m 7.996 196.803 l 3.578 196.803 0 200.385 0 204.799 c 0 
209.217 3.578 212.795 7.996 212.795 c 60.105 212.795 l 64.52 212.795 68.102
 209.217 68.102 204.799 c 68.102 200.385 64.52 196.803 60.105 196.803 c 
h
60.105 196.803 m f
307.117 299.12 m 305.07 299.12 303.023 299.901 301.461 301.463 c 298.34
 304.584 298.34 309.647 301.461 312.772 c 338.309 349.616 l 341.43 352.737
 346.492 352.737 349.617 349.616 c 352.738 346.495 352.738 341.432 349.617
 338.307 c 312.77 301.463 l 311.207 299.901 309.16 299.12 307.117 299.12
 c h
307.117 299.12 m f
65.637 57.643 m 63.594 57.643 61.547 58.424 59.984 59.987 c 56.863 63.108
 56.863 68.17 59.984 71.295 c 96.832 108.139 l 99.953 111.26 105.016 111.26
 108.141 108.139 c 111.262 105.018 111.262 99.955 108.141 96.83 c 71.293
 59.987 l 69.73 58.424 67.684 57.643 65.637 57.643 c h
65.637 57.643 m f
343.961 57.643 m 341.914 57.643 339.867 58.424 338.309 59.987 c 301.461
 96.83 l 298.34 99.952 298.34 105.014 301.461 108.139 c 304.586 111.26 309.648
 111.26 312.77 108.139 c 349.617 71.295 l 352.738 68.17 352.738 63.108 349.617
 59.987 c 348.055 58.424 346.008 57.643 343.961 57.643 c h
343.961 57.643 m f
102.484 299.12 m 100.438 299.12 98.391 299.901 96.832 301.463 c 59.984 
338.307 l 56.863 341.428 56.863 346.495 59.984 349.616 c 63.105 352.737 
68.172 352.737 71.293 349.616 c 108.141 312.772 l 111.262 309.647 111.262
 304.584 108.141 301.463 c 106.578 299.901 104.531 299.12 102.484 299.12
 c h
102.484 299.12 m f
108.832 149.123 m 106.73 149.123 104.668 149.975 103.18 151.463 c 101.691
 152.952 100.836 155.014 100.836 157.12 c 100.836 159.229 101.691 161.284
 103.18 162.772 c 104.664 164.256 106.73 165.112 108.832 165.112 c 110.934
 165.112 112.996 164.26 114.484 162.772 c 115.973 161.284 116.828 159.221
 116.828 157.12 c 116.828 155.014 115.973 152.952 114.484 151.463 c 112.996
 149.975 110.934 149.123 108.832 149.123 c h
108.832 149.123 m f
274.824 201.69 m 270.66 201.69 267.145 204.92 266.855 209.139 c 265.902
 223.01 260.211 236.33 250.828 246.643 c 247.855 249.909 248.098 254.967
 251.363 257.94 c 254.629 260.913 259.688 260.67 262.656 257.405 c 274.453
 244.44 281.609 227.686 282.812 210.237 c 283.113 205.83 279.789 202.01 
275.383 201.709 c 275.195 201.698 275.008 201.69 274.824 201.69 c h
274.824 201.69 m f
274.996 171.319 m 272.895 171.319 270.832 172.174 269.344 173.663 c 267.855
 175.151 267 177.213 267 179.315 c 267 181.416 267.855 183.479 269.344 184.967
 c 270.832 186.455 272.895 187.311 274.996 187.311 c 277.109 187.311 279.164
 186.455 280.648 184.967 c 282.145 183.479 282.992 181.416 282.992 179.315
 c 282.992 177.213 282.145 175.147 280.648 173.663 c 279.164 172.174 277.109
 171.319 274.996 171.319 c h
274.996 171.319 m f
Q Q
showpage
%%Trailer
end restore
%%EOF
