%!PS-Adobe-3.0 EPSF-3.0
%%Creator: cairo 1.14.2 (http://cairographics.org)
%%CreationDate: Fri Jun 15 11:41:46 2018
%%Pages: 1
%%DocumentData: Clean7Bit
%%LanguageLevel: 2
%%BoundingBox: 0 -1 410 410
%%EndComments
%%BeginProlog
save
50 dict begin
/q { gsave } bind def
/Q { grestore } bind def
/cm { 6 array astore concat } bind def
/w { setlinewidth } bind def
/J { setlinecap } bind def
/j { setlinejoin } bind def
/M { setmiterlimit } bind def
/d { setdash } bind def
/m { moveto } bind def
/l { lineto } bind def
/c { curveto } bind def
/h { closepath } bind def
/re { exch dup neg 3 1 roll 5 3 roll moveto 0 rlineto
      0 exch rlineto 0 rlineto closepath } bind def
/S { stroke } bind def
/f { fill } bind def
/f* { eofill } bind def
/n { newpath } bind def
/W { clip } bind def
/W* { eoclip } bind def
/BT { } bind def
/ET { } bind def
/pdfmark where { pop globaldict /?pdfmark /exec load put }
    { globaldict begin /?pdfmark /pop load def /pdfmark
    /cleartomark load def end } ifelse
/BDC { mark 3 1 roll /BDC pdfmark } bind def
/EMC { mark /EMC pdfmark } bind def
/cairo_store_point { /cairo_point_y exch def /cairo_point_x exch def } def
/Tj { show currentpoint cairo_store_point } bind def
/TJ {
  {
    dup
    type /stringtype eq
    { show } { -0.001 mul 0 cairo_font_matrix dtransform rmoveto } ifelse
  } forall
  currentpoint cairo_store_point
} bind def
/cairo_selectfont { cairo_font_matrix aload pop pop pop 0 0 6 array astore
    cairo_font exch selectfont cairo_point_x cairo_point_y moveto } bind def
/Tf { pop /cairo_font exch def /cairo_font_matrix where
      { pop cairo_selectfont } if } bind def
/Td { matrix translate cairo_font_matrix matrix concatmatrix dup
      /cairo_font_matrix exch def dup 4 get exch 5 get cairo_store_point
      /cairo_font where { pop cairo_selectfont } if } bind def
/Tm { 2 copy 8 2 roll 6 array astore /cairo_font_matrix exch def
      cairo_store_point /cairo_font where { pop cairo_selectfont } if } bind def
/g { setgray } bind def
/rg { setrgbcolor } bind def
/d1 { setcachedevice } bind def
%%EndProlog
%%BeginSetup
%%EndSetup
%%Page: 1 1
%%BeginPageSetup
%%PageBoundingBox: 0 -1 410 410
%%EndPageSetup
q 0 -1 410 411 rectclip q
0.431373 0.529412 0.960784 rg
228.82 276.738 m 228.82 228.812 l 401.602 228.812 l 390.961 319.234 319.242
 390.956 228.82 401.601 c 228.82 331.933 l f
0 g
401.602 220.812 m 228.82 220.812 l 224.402 220.812 220.82 224.394 220.82
 228.812 c 220.82 276.738 l 220.82 281.155 224.402 284.738 228.82 284.738
 c 233.238 284.738 236.82 281.155 236.82 276.738 c 236.82 236.812 l 392.395
 236.812 l 379.16 316.87 316.879 379.155 236.82 392.394 c 236.82 331.933
 l 236.82 327.515 233.238 323.933 228.82 323.933 c 224.402 323.933 220.82
 327.515 220.82 331.933 c 220.82 401.601 l 220.82 403.886 221.797 406.062
 223.504 407.577 c 225.211 409.097 227.484 409.812 229.754 409.546 c 275.266
 404.191 318.25 383.32 350.785 350.78 c 383.324 318.241 404.191 275.257 
409.547 229.745 c 409.812 227.476 409.098 225.202 407.578 223.495 c 406.062
 221.788 403.887 220.812 401.602 220.812 c h
401.602 220.812 m f
228.82 296.566 m 224.402 296.566 220.82 300.148 220.82 304.566 c 220.82
 304.777 l 220.82 309.195 224.402 312.777 228.82 312.777 c 233.238 312.777
 236.82 309.195 236.82 304.777 c 236.82 304.566 l 236.82 300.148 233.238
 296.566 228.82 296.566 c h
228.82 296.566 m f
1 0.352941 0.352941 rg
193.602 193.589 m 193.602 379.202 l 91.098 379.202 8 296.105 8 193.601 
c 8 91.097 91.098 7.999 193.602 7.999 c 296.105 7.999 379.199 91.097 379.199
 193.601 c 379.199 193.589 l h
193.602 193.589 m f
0 g
188.27 39.382 m 188.203 39.382 188.137 39.382 188.07 39.386 c 152.305 40.249
 118.457 52.441 90.188 74.636 c 86.711 77.366 86.105 82.394 88.836 85.87
 c 91.562 89.347 96.59 89.952 100.066 87.222 c 125.605 67.171 156.168 56.159
 188.457 55.378 c 192.875 55.273 196.371 51.605 196.262 47.187 c 196.156
 42.835 192.598 39.382 188.27 39.382 c h
188.27 39.382 m f
210.957 40.468 m 206.961 40.468 203.508 43.452 203.023 47.519 c 202.5 51.905
 205.633 55.886 210.02 56.409 c 210.191 56.429 l 214.574 56.952 218.559 
53.823 219.082 49.433 c 219.605 45.046 216.473 41.066 212.086 40.542 c 211.914
 40.523 l 211.594 40.488 211.273 40.468 210.957 40.468 c h
210.957 40.468 m f
0.647059 0.862745 0.411765 rg
343.914 84.73 m 366.105 115.316 379.199 152.925 379.199 193.601 c 379.199
 193.589 l 193.602 193.589 l h
343.914 84.73 m f
0 g
379.199 201.601 m 379.059 201.601 378.918 201.597 378.777 201.589 c 201.602
 201.589 l 201.602 379.202 l 201.602 383.62 198.02 387.202 193.602 387.202
 c 141.887 387.202 93.27 367.062 56.703 330.495 c 20.137 293.929 0 245.312
 0 193.601 c 0 141.89 20.137 93.273 56.703 56.706 c 93.27 20.14 141.887 
-0.001 193.602 -0.001 c 245.312 -0.001 293.93 20.14 330.496 56.706 c 367.062
 93.273 387.199 141.89 387.199 193.601 c 387.199 198.019 383.617 201.601
 379.199 201.601 c h
193.602 15.999 m 95.672 15.999 16 95.671 16 193.601 c 16 288.847 91.371
 366.82 185.602 371.023 c 185.602 193.589 l 185.602 190.925 186.906 188.57
 188.91 187.116 c 188.91 187.116 188.91 187.113 188.906 187.109 c 332.531
 83.097 l 299.965 42.238 249.793 15.999 193.602 15.999 c h
341.934 96.046 m 218.285 185.589 l 371.023 185.589 l 369.551 152.624 359.043
 121.972 341.934 96.046 c h
341.934 96.046 m f
Q Q
showpage
%%Trailer
end restore
%%EOF
