%!PS-Adobe-3.0 EPSF-3.0
%%Creator: cairo 1.14.2 (http://cairographics.org)
%%CreationDate: Fri Jun 15 11:41:46 2018
%%Pages: 1
%%DocumentData: Clean7Bit
%%LanguageLevel: 2
%%BoundingBox: 24 -1 386 410
%%EndComments
%%BeginProlog
save
50 dict begin
/q { gsave } bind def
/Q { grestore } bind def
/cm { 6 array astore concat } bind def
/w { setlinewidth } bind def
/J { setlinecap } bind def
/j { setlinejoin } bind def
/M { setmiterlimit } bind def
/d { setdash } bind def
/m { moveto } bind def
/l { lineto } bind def
/c { curveto } bind def
/h { closepath } bind def
/re { exch dup neg 3 1 roll 5 3 roll moveto 0 rlineto
      0 exch rlineto 0 rlineto closepath } bind def
/S { stroke } bind def
/f { fill } bind def
/f* { eofill } bind def
/n { newpath } bind def
/W { clip } bind def
/W* { eoclip } bind def
/BT { } bind def
/ET { } bind def
/pdfmark where { pop globaldict /?pdfmark /exec load put }
    { globaldict begin /?pdfmark /pop load def /pdfmark
    /cleartomark load def end } ifelse
/BDC { mark 3 1 roll /BDC pdfmark } bind def
/EMC { mark /EMC pdfmark } bind def
/cairo_store_point { /cairo_point_y exch def /cairo_point_x exch def } def
/Tj { show currentpoint cairo_store_point } bind def
/TJ {
  {
    dup
    type /stringtype eq
    { show } { -0.001 mul 0 cairo_font_matrix dtransform rmoveto } ifelse
  } forall
  currentpoint cairo_store_point
} bind def
/cairo_selectfont { cairo_font_matrix aload pop pop pop 0 0 6 array astore
    cairo_font exch selectfont cairo_point_x cairo_point_y moveto } bind def
/Tf { pop /cairo_font exch def /cairo_font_matrix where
      { pop cairo_selectfont } if } bind def
/Td { matrix translate cairo_font_matrix matrix concatmatrix dup
      /cairo_font_matrix exch def dup 4 get exch 5 get cairo_store_point
      /cairo_font where { pop cairo_selectfont } if } bind def
/Tm { 2 copy 8 2 roll 6 array astore /cairo_font_matrix exch def
      cairo_store_point /cairo_font where { pop cairo_selectfont } if } bind def
/g { setgray } bind def
/rg { setrgbcolor } bind def
/d1 { setcachedevice } bind def
%%EndProlog
%%BeginSetup
%%EndSetup
%%Page: 1 1
%%BeginPageSetup
%%PageBoundingBox: 24 -1 386 410
%%EndPageSetup
q 24 -1 362 411 rectclip q
0.784314 0.960784 1 rg
358.398 305.6 m 358.398 46.401 l 358.398 25.194 341.207 7.998 320 7.998
 c 89.602 7.998 l 68.391 7.998 51.199 25.194 51.199 46.401 c 51.199 305.6
 l h
358.398 305.6 m f
0.470588 0.823529 0.980392 rg
166.23 305.6 m 32 305.6 l 32 347.202 l 32 356.038 39.164 363.202 48 363.202
 c 361.602 363.202 l 370.438 363.202 377.602 356.038 377.602 347.202 c 377.602
 305.6 l h
166.23 305.6 m f
121.602 51.202 m 110.996 51.202 102.398 59.795 102.398 70.401 c 102.398
 243.202 l 102.398 253.803 110.996 262.401 121.602 262.401 c 132.203 262.401
 140.801 253.803 140.801 243.202 c 140.801 70.401 l 140.801 59.795 132.203
 51.202 121.602 51.202 c h
121.602 51.202 m f
204.902 51.202 m 194.297 51.202 185.703 59.795 185.703 70.401 c 185.703
 243.202 l 185.703 253.803 194.297 262.401 204.902 262.401 c 215.504 262.401
 224.102 253.803 224.102 243.202 c 224.102 70.401 l 224.102 59.795 215.504
 51.202 204.902 51.202 c h
204.902 51.202 m f
288.203 51.202 m 277.598 51.202 269.004 59.795 269.004 70.401 c 269.004
 243.202 l 269.004 253.803 277.598 262.401 288.203 262.401 c 298.809 262.401
 307.402 253.803 307.402 243.202 c 307.402 70.401 l 307.402 59.795 298.809
 51.202 288.203 51.202 c h
288.203 51.202 m f
0 g
361.602 371.202 m 260.801 371.202 l 260.801 377.334 l 260.801 395.123 246.324
 409.6 228.535 409.6 c 181.066 409.6 l 163.273 409.6 148.801 395.123 148.801
 377.334 c 148.801 371.202 l 48 371.202 l 34.766 371.202 24 360.432 24 347.202
 c 24 305.6 l 24 301.182 27.582 297.6 32 297.6 c 43.199 297.6 l 43.199 211.467
 l 43.199 207.049 46.781 203.467 51.199 203.467 c 55.617 203.467 59.199 
207.049 59.199 211.467 c 59.199 297.6 l 166.23 297.6 l 170.645 297.6 174.23
 301.182 174.23 305.6 c 174.23 310.018 170.645 313.6 166.23 313.6 c 40 313.6
 l 40 347.202 l 40 351.612 43.59 355.202 48 355.202 c 361.602 355.202 l 
366.012 355.202 369.602 351.612 369.602 347.202 c 369.602 313.6 l 239.898
 313.6 l 235.48 313.6 231.898 310.018 231.898 305.6 c 231.898 301.182 235.48
 297.6 239.898 297.6 c 350.398 297.6 l 350.398 46.401 l 350.398 29.639 336.762
 15.998 320 15.998 c 89.602 15.998 l 72.836 15.998 59.199 29.639 59.199 
46.401 c 59.199 132.534 l 59.199 136.952 55.617 140.534 51.199 140.534 c
 46.781 140.534 43.199 136.952 43.199 132.534 c 43.199 46.401 l 43.199 20.815
 64.016 -0.002 89.602 -0.002 c 320 -0.002 l 345.586 -0.002 366.398 20.815
 366.398 46.401 c 366.398 297.6 l 377.602 297.6 l 382.02 297.6 385.602 301.182
 385.602 305.6 c 385.602 347.202 l 385.602 360.432 374.832 371.202 361.602
 371.202 c h
164.801 371.202 m 164.801 377.334 l 164.801 386.303 172.098 393.6 181.066
 393.6 c 228.535 393.6 l 237.504 393.6 244.801 386.303 244.801 377.334 c
 244.801 371.202 l h
164.801 371.202 m f
210.457 295.143 m 211.945 296.631 212.801 298.698 212.801 300.799 c 212.801
 302.905 211.945 304.967 210.457 306.455 c 208.969 307.944 206.902 308.799
 204.801 308.799 c 202.695 308.799 200.633 307.944 199.145 306.455 c 197.656
 304.967 196.801 302.905 196.801 300.799 c 196.801 298.698 197.656 296.631
 199.145 295.143 c 200.633 293.659 202.695 292.799 204.801 292.799 c 206.902
 292.799 208.969 293.655 210.457 295.143 c h
210.457 295.143 m f
148.801 70.401 m 148.801 243.202 l 148.801 258.198 136.598 270.401 121.602
 270.401 c 106.602 270.401 94.398 258.198 94.398 243.202 c 94.398 70.401
 l 94.398 55.401 106.602 43.202 121.602 43.202 c 136.598 43.202 148.801 
55.401 148.801 70.401 c h
110.398 70.401 m 110.398 243.202 l 110.398 249.377 115.426 254.401 121.602
 254.401 c 127.777 254.401 132.801 249.377 132.801 243.202 c 132.801 70.401
 l 132.801 64.225 127.777 59.202 121.602 59.202 c 115.426 59.202 110.398
 64.225 110.398 70.401 c h
110.398 70.401 m f
177.703 243.202 m 177.703 70.401 l 177.703 55.401 189.902 43.202 204.902
 43.202 c 219.898 43.202 232.102 55.401 232.102 70.401 c 232.102 243.202
 l 232.102 258.198 219.898 270.401 204.902 270.401 c 189.902 270.401 177.703
 258.198 177.703 243.202 c h
193.703 243.202 m 193.703 249.377 198.727 254.401 204.902 254.401 c 211.078
 254.401 216.102 249.377 216.102 243.202 c 216.102 70.401 l 216.102 64.225
 211.078 59.202 204.902 59.202 c 198.727 59.202 193.703 64.225 193.703 70.401
 c h
193.703 243.202 m f
315.402 70.401 m 315.402 243.202 l 315.402 258.198 303.203 270.401 288.203
 270.401 c 273.203 270.401 261.004 258.198 261.004 243.202 c 261.004 70.401
 l 261.004 55.401 273.203 43.202 288.203 43.202 c 303.203 43.202 315.402
 55.401 315.402 70.401 c h
277.004 70.401 m 277.004 243.202 l 277.004 249.377 282.027 254.401 288.203
 254.401 c 294.379 254.401 299.402 249.377 299.402 243.202 c 299.402 70.401
 l 299.402 64.225 294.379 59.202 288.203 59.202 c 282.027 59.202 277.004
 64.225 277.004 70.401 c h
277.004 70.401 m f
51.199 162.936 m 53.305 162.936 55.367 163.784 56.855 165.28 c 58.344 166.768
 59.199 168.83 59.199 170.936 c 59.199 173.041 58.344 175.104 56.855 176.592
 c 55.367 178.08 53.305 178.936 51.199 178.936 c 49.098 178.936 47.031 178.08
 45.543 176.592 c 44.055 175.104 43.199 173.041 43.199 170.936 c 43.199 
168.823 44.055 166.768 45.543 165.28 c 47.031 163.784 49.098 162.936 51.199
 162.936 c h
51.199 162.936 m f
Q Q
showpage
%%Trailer
end restore
%%EOF
