%!PS-Adobe-3.0 EPSF-3.0
%%Creator: cairo 1.14.2 (http://cairographics.org)
%%CreationDate: Fri Jun 15 11:41:46 2018
%%Pages: 1
%%DocumentData: Clean7Bit
%%LanguageLevel: 2
%%BoundingBox: 20 -1 389 410
%%EndComments
%%BeginProlog
save
50 dict begin
/q { gsave } bind def
/Q { grestore } bind def
/cm { 6 array astore concat } bind def
/w { setlinewidth } bind def
/J { setlinecap } bind def
/j { setlinejoin } bind def
/M { setmiterlimit } bind def
/d { setdash } bind def
/m { moveto } bind def
/l { lineto } bind def
/c { curveto } bind def
/h { closepath } bind def
/re { exch dup neg 3 1 roll 5 3 roll moveto 0 rlineto
      0 exch rlineto 0 rlineto closepath } bind def
/S { stroke } bind def
/f { fill } bind def
/f* { eofill } bind def
/n { newpath } bind def
/W { clip } bind def
/W* { eoclip } bind def
/BT { } bind def
/ET { } bind def
/pdfmark where { pop globaldict /?pdfmark /exec load put }
    { globaldict begin /?pdfmark /pop load def /pdfmark
    /cleartomark load def end } ifelse
/BDC { mark 3 1 roll /BDC pdfmark } bind def
/EMC { mark /EMC pdfmark } bind def
/cairo_store_point { /cairo_point_y exch def /cairo_point_x exch def } def
/Tj { show currentpoint cairo_store_point } bind def
/TJ {
  {
    dup
    type /stringtype eq
    { show } { -0.001 mul 0 cairo_font_matrix dtransform rmoveto } ifelse
  } forall
  currentpoint cairo_store_point
} bind def
/cairo_selectfont { cairo_font_matrix aload pop pop pop 0 0 6 array astore
    cairo_font exch selectfont cairo_point_x cairo_point_y moveto } bind def
/Tf { pop /cairo_font exch def /cairo_font_matrix where
      { pop cairo_selectfont } if } bind def
/Td { matrix translate cairo_font_matrix matrix concatmatrix dup
      /cairo_font_matrix exch def dup 4 get exch 5 get cairo_store_point
      /cairo_font where { pop cairo_selectfont } if } bind def
/Tm { 2 copy 8 2 roll 6 array astore /cairo_font_matrix exch def
      cairo_store_point /cairo_font where { pop cairo_selectfont } if } bind def
/g { setgray } bind def
/rg { setrgbcolor } bind def
/d1 { setcachedevice } bind def
%%EndProlog
%%BeginSetup
%%EndSetup
%%Page: 1 1
%%BeginPageSetup
%%PageBoundingBox: 20 -1 389 410
%%EndPageSetup
q 20 -1 369 411 rectclip q
0.745098 g
220.801 375.998 m 220.801 385.6 l 220.801 394.436 213.637 401.6 204.801
 401.6 c 195.965 401.6 188.801 394.436 188.801 385.6 c 188.801 375.998 l
 h
220.801 375.998 m f
1 0.352941 0.352941 rg
28.801 200.045 m 28.824 297.225 107.613 375.998 204.801 375.998 c 301.988
 375.998 380.777 297.225 380.801 200.045 c h
28.801 200.045 m f
0.980392 0.882353 0.588235 rg
263.203 199.998 m 263.203 297.178 237.055 375.955 204.801 375.955 c 172.543
 375.955 146.398 297.178 146.398 199.998 c f
0.745098 g
124.801 66.932 m 124.801 56.729 l 124.801 30.389 145.719 8.409 172.055 
8.006 c 198.863 7.596 220.801 29.284 220.801 55.998 c 220.801 200.045 l 
188.801 200.045 l 188.801 56.393 l 188.801 47.729 182.074 40.338 173.418
 40.01 c 164.312 39.666 156.801 46.971 156.801 55.998 c 156.801 66.932 l
 156.801 75.772 149.637 82.932 140.801 82.932 c 131.965 82.932 124.801 75.768
 124.801 66.932 c h
124.801 66.932 m f
0 g
334.895 330.123 m 305.863 359.143 268.844 377.264 228.801 382.448 c 228.801
 385.6 l 228.801 398.834 218.035 409.6 204.801 409.6 c 191.566 409.6 180.801
 398.834 180.801 385.6 c 180.801 382.432 l 143.113 377.51 107.855 361.065
 79.652 334.885 c 76.414 331.881 76.223 326.819 79.23 323.58 c 82.238 320.342
 87.297 320.155 90.535 323.159 c 114.137 345.065 143.152 359.506 174.324
 365.225 c 167.441 355.85 161.254 343.038 155.91 326.94 c 145.254 294.83
 139.117 252.87 138.461 208.045 c 36.988 208.045 l 37.891 227.393 42.07 
246.194 49.438 264.049 c 51.125 268.135 49.18 272.811 45.094 274.498 c 41.012
 276.186 36.332 274.237 34.648 270.155 c 25.465 247.901 20.805 224.315 20.801
 200.045 c 20.801 197.924 21.641 195.889 23.141 194.389 c 24.645 192.889
 26.68 192.045 28.801 192.045 c 180.801 192.045 l 180.801 56.393 l 180.801
 51.928 177.352 48.166 173.113 48.006 c 170.895 47.924 168.84 48.717 167.258
 50.241 c 165.672 51.768 164.801 53.811 164.801 55.998 c 164.801 66.932 
l 164.801 80.166 154.035 90.932 140.801 90.932 c 127.566 90.932 116.801 
80.166 116.801 66.932 c 116.801 56.729 l 116.801 25.916 141.531 0.471 171.934
 0.006 c 172.227 0.002 172.516 -0.002 172.809 -0.002 c 187.59 -0.002 201.504
 5.702 212.078 16.116 c 222.859 26.737 228.801 40.901 228.801 55.998 c 228.801
 83.998 l 228.801 88.416 225.219 91.998 220.801 91.998 c 216.383 91.998 
212.801 88.416 212.801 83.998 c 212.801 55.998 l 212.801 45.221 208.555 
35.104 200.848 27.514 c 193.145 19.928 182.992 15.83 172.176 16.006 c 150.465
 16.334 132.801 34.604 132.801 56.729 c 132.801 66.932 l 132.801 71.346 
136.391 74.932 140.801 74.932 c 145.211 74.932 148.801 71.346 148.801 66.932
 c 148.801 55.998 l 148.801 49.424 151.414 43.288 156.16 38.717 c 160.902
 34.147 167.133 31.768 173.719 32.018 c 186.66 32.506 196.801 43.213 196.801
 56.393 c 196.801 192.045 l 212.801 192.045 l 212.801 149.998 l 212.801 
145.58 216.383 141.998 220.801 141.998 c 225.219 141.998 228.801 145.58 
228.801 149.998 c 228.801 192.045 l 380.801 192.045 l 382.922 192.045 384.957
 192.889 386.457 194.389 c 387.957 195.889 388.801 197.924 388.801 200.045
 c 388.789 249.186 369.645 295.381 334.895 330.123 c h
196.801 385.6 m 196.801 390.01 200.391 393.6 204.801 393.6 c 209.211 393.6
 212.801 390.01 212.801 385.6 c 212.801 383.819 l 210.141 383.932 207.477
 383.998 204.801 383.998 c 202.125 383.998 199.461 383.936 196.801 383.823
 c h
188.801 208.045 m 154.461 208.045 l 155.109 251.178 160.957 291.35 171.098
 321.901 c 180.668 350.737 193.27 367.955 204.801 367.955 c 216.332 367.955
 228.934 350.737 238.504 321.901 c 248.645 291.35 254.492 251.178 255.141
 208.045 c h
271.141 208.045 m 270.484 252.87 264.348 294.83 253.691 326.94 c 248.348
 343.03 242.164 355.842 235.285 365.217 c 310.848 351.303 368.883 286.663
 372.609 208.045 c h
271.141 208.045 m f
59.375 291.159 m 61.48 291.159 63.543 292.014 65.031 293.502 c 66.52 294.998
 67.375 297.057 67.375 299.159 c 67.375 301.264 66.52 303.327 65.031 304.815
 c 63.543 306.303 61.48 307.159 59.375 307.159 c 57.273 307.159 55.207 306.303
 53.719 304.815 c 52.234 303.327 51.375 301.272 51.375 299.159 c 51.375 
297.057 52.23 294.991 53.719 293.502 c 55.207 292.018 57.273 291.159 59.375
 291.159 c h
59.375 291.159 m f
220.801 126.401 m 218.695 126.401 216.633 125.545 215.145 124.057 c 213.656
 122.569 212.801 120.502 212.801 118.401 c 212.801 116.295 213.656 114.233
 215.145 112.745 c 216.633 111.256 218.695 110.401 220.801 110.401 c 222.902
 110.401 224.969 111.256 226.457 112.745 c 227.945 114.233 228.801 116.295
 228.801 118.401 c 228.801 120.502 227.945 122.569 226.457 124.057 c 224.969
 125.545 222.902 126.401 220.801 126.401 c h
220.801 126.401 m f
Q Q
showpage
%%Trailer
end restore
%%EOF
