%!PS-Adobe-3.0 EPSF-3.0
%%Creator: cairo 1.14.2 (http://cairographics.org)
%%CreationDate: Fri Jun 15 11:41:46 2018
%%Pages: 1
%%DocumentData: Clean7Bit
%%LanguageLevel: 2
%%BoundingBox: 23 -1 386 410
%%EndComments
%%BeginProlog
save
50 dict begin
/q { gsave } bind def
/Q { grestore } bind def
/cm { 6 array astore concat } bind def
/w { setlinewidth } bind def
/J { setlinecap } bind def
/j { setlinejoin } bind def
/M { setmiterlimit } bind def
/d { setdash } bind def
/m { moveto } bind def
/l { lineto } bind def
/c { curveto } bind def
/h { closepath } bind def
/re { exch dup neg 3 1 roll 5 3 roll moveto 0 rlineto
      0 exch rlineto 0 rlineto closepath } bind def
/S { stroke } bind def
/f { fill } bind def
/f* { eofill } bind def
/n { newpath } bind def
/W { clip } bind def
/W* { eoclip } bind def
/BT { } bind def
/ET { } bind def
/pdfmark where { pop globaldict /?pdfmark /exec load put }
    { globaldict begin /?pdfmark /pop load def /pdfmark
    /cleartomark load def end } ifelse
/BDC { mark 3 1 roll /BDC pdfmark } bind def
/EMC { mark /EMC pdfmark } bind def
/cairo_store_point { /cairo_point_y exch def /cairo_point_x exch def } def
/Tj { show currentpoint cairo_store_point } bind def
/TJ {
  {
    dup
    type /stringtype eq
    { show } { -0.001 mul 0 cairo_font_matrix dtransform rmoveto } ifelse
  } forall
  currentpoint cairo_store_point
} bind def
/cairo_selectfont { cairo_font_matrix aload pop pop pop 0 0 6 array astore
    cairo_font exch selectfont cairo_point_x cairo_point_y moveto } bind def
/Tf { pop /cairo_font exch def /cairo_font_matrix where
      { pop cairo_selectfont } if } bind def
/Td { matrix translate cairo_font_matrix matrix concatmatrix dup
      /cairo_font_matrix exch def dup 4 get exch 5 get cairo_store_point
      /cairo_font where { pop cairo_selectfont } if } bind def
/Tm { 2 copy 8 2 roll 6 array astore /cairo_font_matrix exch def
      cairo_store_point /cairo_font where { pop cairo_selectfont } if } bind def
/g { setgray } bind def
/rg { setrgbcolor } bind def
/d1 { setcachedevice } bind def
%%EndProlog
%%BeginSetup
%%EndSetup
%%Page: 1 1
%%BeginPageSetup
%%PageBoundingBox: 23 -1 386 410
%%EndPageSetup
q 23 -1 363 411 rectclip q
0.960784 0.72549 0.333333 rg
311.309 228.784 m 311.309 287.811 263.246 335.616 204.121 335.198 c 147.035
 334.795 100.066 288.815 98.512 231.748 c 97.703 201.944 109.152 174.815
 128.184 155.026 c 146.18 136.315 155.996 111.205 155.996 85.241 c 155.996
 83.998 l 253.785 83.998 l 253.785 85.241 l 253.785 111.538 264.211 136.612
 282.27 155.729 c 300.273 174.791 311.309 200.498 311.309 228.784 c h
311.309 228.784 m f
0.745098 g
228.492 36.799 m 181.289 36.799 l 167.32 36.799 155.996 48.123 155.996 
62.092 c 155.996 83.998 l 253.785 83.998 l 253.785 62.092 l 253.785 48.123
 242.461 36.799 228.492 36.799 c h
228.492 36.799 m f
0.941176 0.941176 0.980392 rg
204.801 7.998 m 194.195 7.998 185.602 16.596 185.602 27.198 c 185.602 36.799
 l 224 36.799 l 224 27.198 l 224 16.596 215.402 7.998 204.801 7.998 c h
204.801 7.998 m f
0 g
204.898 343.202 m 204.621 343.202 204.344 343.202 204.066 343.198 c 171.168
 342.967 139.887 328.44 118.242 303.35 c 115.355 300.002 115.727 294.952
 119.074 292.065 c 122.422 289.178 127.473 289.553 130.355 292.897 c 148.988
 314.498 175.898 326.998 204.18 327.198 c 204.422 327.202 204.656 327.202
 204.895 327.202 c 231.059 327.202 255.66 317.069 274.234 298.623 c 292.984
 280.006 303.309 255.202 303.309 228.784 c 303.309 203.553 293.77 179.557
 276.453 161.225 c 258.27 141.975 247.598 117.608 245.996 91.998 c 230.398
 91.998 l 230.398 176.795 l 235.465 176.795 l 247.082 176.795 256.531 186.245
 256.531 197.862 c 256.531 198.928 l 256.531 210.545 247.082 219.995 235.465
 219.995 c 223.852 219.995 214.398 210.545 214.398 198.928 c 214.398 192.795
 l 195.199 192.795 l 195.199 198.928 l 195.199 210.545 185.75 219.995 174.137
 219.995 c 172.781 219.995 l 161.164 219.995 151.715 210.545 151.715 198.928
 c 151.715 197.862 l 151.715 186.245 161.164 176.795 172.781 176.795 c 179.203
 176.795 l 179.203 91.998 l 163.793 91.998 l 162.242 117.893 151.781 142.034
 133.949 160.573 c 115.531 179.721 105.785 204.924 106.508 231.534 c 106.629
 235.948 103.148 239.627 98.73 239.748 c 94.293 239.897 90.637 236.385 90.516
 231.967 c 89.676 201.038 101.004 171.745 122.414 149.483 c 138.91 132.334
 147.996 109.522 147.996 85.241 c 147.996 62.092 l 147.996 44.983 160.973
 30.85 177.602 29.01 c 177.602 27.202 l 177.602 12.202 189.801 -0.002 204.801
 -0.002 c 219.797 -0.002 232 12.202 232 27.198 c 232 28.987 l 248.715 30.745
 261.785 44.92 261.785 62.092 c 261.785 85.241 l 261.785 109.198 271.125
 132.284 288.082 150.237 c 308.219 171.553 319.305 199.448 319.305 228.784
 c 319.305 259.498 307.301 288.334 285.504 309.975 c 263.91 331.42 235.312
 343.202 204.898 343.202 c h
230.398 198.928 m 230.398 201.721 232.672 203.995 235.465 203.995 c 238.262
 203.995 240.535 201.721 240.535 198.928 c 240.535 197.862 l 240.535 195.069
 238.262 192.795 235.465 192.795 c 230.398 192.795 l h
172.777 192.795 m 169.984 192.795 167.711 195.069 167.711 197.862 c 167.711
 198.928 l 167.711 201.721 169.984 203.995 172.777 203.995 c 174.133 203.995
 l 176.93 203.995 179.199 201.721 179.199 198.928 c 179.199 192.795 l h
195.199 176.795 m 214.398 176.795 l 214.398 91.998 l 195.199 91.998 l h
216 27.198 m 216 21.022 210.977 15.998 204.801 15.998 c 198.625 15.998 
193.602 21.022 193.602 27.198 c 193.602 28.799 l 216 28.799 l h
245.785 62.092 m 245.785 52.557 238.027 44.799 228.492 44.799 c 181.289
 44.799 l 171.754 44.799 163.996 52.557 163.996 62.092 c 163.996 75.998 
l 245.785 75.998 l h
245.785 62.092 m f
204.801 363.725 m 209.219 363.725 212.801 367.307 212.801 371.725 c 212.801
 401.6 l 212.801 406.018 209.219 409.6 204.801 409.6 c 200.383 409.6 196.801
 406.018 196.801 401.6 c 196.801 371.725 l 196.801 367.307 200.383 363.725
 204.801 363.725 c h
204.801 363.725 m f
377.617 236.784 m 347.742 236.784 l 343.324 236.784 339.742 233.202 339.742
 228.784 c 339.742 224.366 343.324 220.784 347.742 220.784 c 377.617 220.784
 l 382.035 220.784 385.617 224.366 385.617 228.784 c 385.617 233.202 382.035
 236.784 377.617 236.784 c h
377.617 236.784 m f
61.859 236.784 m 31.984 236.784 l 27.566 236.784 23.984 233.202 23.984 
228.784 c 23.984 224.366 27.566 220.784 31.984 220.784 c 61.859 220.784 
l 66.277 220.784 69.859 224.366 69.859 228.784 c 69.859 233.202 66.277 236.784
 61.859 236.784 c h
61.859 236.784 m f
103.727 321.858 m 105.773 321.858 107.82 322.639 109.383 324.202 c 112.504
 327.327 112.504 332.393 109.383 335.514 c 88.258 356.639 l 85.133 359.764
 80.07 359.764 76.941 356.639 c 73.82 353.518 73.82 348.452 76.941 345.327
 c 98.066 324.202 l 99.633 322.639 101.676 321.858 103.727 321.858 c h
103.727 321.858 m f
321.344 356.639 m 300.219 335.514 l 297.094 332.393 297.094 327.327 300.219
 324.202 c 301.781 322.639 303.828 321.858 305.875 321.858 c 307.922 321.858
 309.969 322.639 311.531 324.202 c 332.656 345.327 l 335.781 348.452 335.781
 353.514 332.656 356.639 c 329.531 359.764 324.469 359.764 321.344 356.639
 c h
321.344 356.639 m f
250.211 295.612 m 236.746 304.807 221.008 309.659 204.652 309.659 c 204.457
 309.659 204.262 309.659 204.066 309.655 c 199.648 309.623 196.094 306.018
 196.125 301.6 c 196.156 297.202 199.73 293.655 204.121 293.655 c 204.18
 293.655 l 204.34 293.659 204.496 293.659 204.652 293.659 c 231.289 293.659
 254.887 277.745 264.848 253.01 c 266.105 249.893 269.105 247.998 272.273
 247.998 c 273.266 247.998 274.281 248.186 275.258 248.58 c 279.355 250.233
 281.34 254.893 279.691 258.991 c 273.695 273.87 263.504 286.534 250.211
 295.612 c h
250.211 295.612 m f
271.863 234.44 m 270.375 232.952 269.527 230.889 269.527 228.784 c 269.527
 226.678 270.375 224.616 271.863 223.127 c 273.348 221.639 275.414 220.784
 277.527 220.784 c 279.629 220.784 281.695 221.639 283.18 223.127 c 284.668
 224.616 285.52 226.678 285.52 228.784 c 285.52 230.889 284.668 232.952 
283.18 234.44 c 281.695 235.928 279.629 236.784 277.527 236.784 c 275.414
 236.784 273.348 235.928 271.863 234.44 c h
271.863 234.44 m f
101.148 275.655 m 99.66 274.159 98.805 272.104 98.805 269.991 c 98.805 
267.885 99.66 265.83 101.148 264.334 c 102.637 262.846 104.699 261.991 106.805
 261.991 c 108.906 261.991 110.973 262.846 112.457 264.334 c 113.945 265.83
 114.805 267.885 114.805 269.991 c 114.805 272.104 113.945 274.159 112.457
 275.655 c 110.973 277.143 108.906 277.991 106.805 277.991 c 104.699 277.991
 102.633 277.143 101.148 275.655 c h
101.148 275.655 m f
Q Q
showpage
%%Trailer
end restore
%%EOF
