%!PS-Adobe-3.0 EPSF-3.0
%%Creator: cairo 1.14.2 (http://cairographics.org)
%%CreationDate: Fri Jun 15 11:41:46 2018
%%Pages: 1
%%DocumentData: Clean7Bit
%%LanguageLevel: 2
%%BoundingBox: 21 -1 388 410
%%EndComments
%%BeginProlog
save
50 dict begin
/q { gsave } bind def
/Q { grestore } bind def
/cm { 6 array astore concat } bind def
/w { setlinewidth } bind def
/J { setlinecap } bind def
/j { setlinejoin } bind def
/M { setmiterlimit } bind def
/d { setdash } bind def
/m { moveto } bind def
/l { lineto } bind def
/c { curveto } bind def
/h { closepath } bind def
/re { exch dup neg 3 1 roll 5 3 roll moveto 0 rlineto
      0 exch rlineto 0 rlineto closepath } bind def
/S { stroke } bind def
/f { fill } bind def
/f* { eofill } bind def
/n { newpath } bind def
/W { clip } bind def
/W* { eoclip } bind def
/BT { } bind def
/ET { } bind def
/pdfmark where { pop globaldict /?pdfmark /exec load put }
    { globaldict begin /?pdfmark /pop load def /pdfmark
    /cleartomark load def end } ifelse
/BDC { mark 3 1 roll /BDC pdfmark } bind def
/EMC { mark /EMC pdfmark } bind def
/cairo_store_point { /cairo_point_y exch def /cairo_point_x exch def } def
/Tj { show currentpoint cairo_store_point } bind def
/TJ {
  {
    dup
    type /stringtype eq
    { show } { -0.001 mul 0 cairo_font_matrix dtransform rmoveto } ifelse
  } forall
  currentpoint cairo_store_point
} bind def
/cairo_selectfont { cairo_font_matrix aload pop pop pop 0 0 6 array astore
    cairo_font exch selectfont cairo_point_x cairo_point_y moveto } bind def
/Tf { pop /cairo_font exch def /cairo_font_matrix where
      { pop cairo_selectfont } if } bind def
/Td { matrix translate cairo_font_matrix matrix concatmatrix dup
      /cairo_font_matrix exch def dup 4 get exch 5 get cairo_store_point
      /cairo_font where { pop cairo_selectfont } if } bind def
/Tm { 2 copy 8 2 roll 6 array astore /cairo_font_matrix exch def
      cairo_store_point /cairo_font where { pop cairo_selectfont } if } bind def
/g { setgray } bind def
/rg { setrgbcolor } bind def
/d1 { setcachedevice } bind def
%%EndProlog
%%BeginSetup
%%EndSetup
%%Page: 1 1
%%BeginPageSetup
%%PageBoundingBox: 21 -1 388 410
%%EndPageSetup
q 21 -1 367 411 rectclip q
0.647059 0.862745 0.411765 rg
274.547 221.721 m 72.801 221.721 l 72.801 358.401 l 254.473 358.401 l 265.562
 358.401 274.547 349.413 274.547 338.327 c h
274.547 221.721 m f
1 0.352941 0.352941 rg
88.801 385.6 m 88.801 376.764 81.637 369.6 72.801 369.6 c 63.965 369.6 
56.801 376.764 56.801 385.6 c 56.801 394.436 63.965 401.6 72.801 401.6 c
 81.637 401.6 88.801 394.436 88.801 385.6 c h
88.801 385.6 m f
0.27451 0.764706 0.45098 rg
274.547 313.334 m 202.344 313.334 l 192.078 313.334 183.754 305.01 183.754
 294.745 c 183.754 221.721 l 274.547 221.721 l h
274.547 313.334 m f
0.843137 0.980392 0.568627 rg
204.145 267.526 m 348 267.526 l 348 127.998 l 204.145 127.998 l 192.883
 127.998 183.758 137.127 183.758 148.389 c 183.758 247.139 l 183.754 258.401
 192.883 267.526 204.145 267.526 c h
204.145 267.526 m f
0 g
380 15.998 m 80.801 15.998 l 80.801 213.721 l 175.754 213.721 l 175.754
 151.432 l 175.754 134.1 189.855 119.998 207.188 119.998 c 254 119.998 l
 258.418 119.998 262 123.58 262 127.998 c 262 132.416 258.418 135.998 254
 135.998 c 207.188 135.998 l 198.676 135.998 191.754 142.92 191.754 151.432
 c 191.754 260.741 l 196.316 258.159 201.578 256.678 207.188 256.678 c 340
 256.678 l 340 135.998 l 315.801 135.998 l 311.383 135.998 307.801 132.416
 307.801 127.998 c 307.801 123.58 311.383 119.998 315.801 119.998 c 348 
119.998 l 352.418 119.998 356 123.58 356 127.998 c 356 264.678 l 356 269.096
 352.418 272.678 348 272.678 c 282.547 272.678 l 282.547 334.967 l 282.547
 352.299 268.449 366.401 251.117 366.401 c 202 366.401 l 197.582 366.401
 194 362.819 194 358.401 c 194 353.983 197.582 350.401 202 350.401 c 251.117
 350.401 l 259.629 350.401 266.547 343.479 266.547 334.967 c 266.547 326.459
 259.629 319.538 251.117 319.538 c 207.188 319.538 l 189.855 319.538 175.754
 305.44 175.754 288.108 c 175.754 229.721 l 80.801 229.721 l 80.801 350.401
 l 133.477 350.401 l 137.895 350.401 141.477 353.983 141.477 358.401 c 141.477
 362.819 137.895 366.401 133.477 366.401 c 87.184 366.401 l 93.02 370.784
 96.801 377.756 96.801 385.6 c 96.801 398.834 86.035 409.6 72.801 409.6 
c 59.566 409.6 48.801 398.834 48.801 385.6 c 48.801 375.17 55.488 366.28
 64.801 362.975 c 64.801 15.998 l 29.602 15.998 l 25.18 15.998 21.602 12.416
 21.602 7.998 c 21.602 3.58 25.18 -0.002 29.602 -0.002 c 380 -0.002 l 384.418
 -0.002 388 3.58 388 7.998 c 388 12.416 384.418 15.998 380 15.998 c h
207.188 303.538 m 251.117 303.538 l 256.723 303.538 261.988 305.022 266.547
 307.604 c 266.547 272.678 l 207.188 272.678 l 198.676 272.678 191.754 279.6
 191.754 288.108 c 191.754 296.616 198.676 303.538 207.188 303.538 c h
72.801 393.6 m 77.211 393.6 80.801 390.01 80.801 385.6 c 80.801 381.19 
77.211 377.6 72.801 377.6 c 68.391 377.6 64.801 381.19 64.801 385.6 c 64.801
 390.01 68.391 393.6 72.801 393.6 c h
72.801 393.6 m f
167.602 350.401 m 169.703 350.401 171.77 351.256 173.258 352.745 c 174.742
 354.233 175.602 356.295 175.602 358.401 c 175.602 360.502 174.742 362.569
 173.258 364.057 c 171.77 365.545 169.703 366.401 167.602 366.401 c 165.496
 366.401 163.434 365.545 161.945 364.057 c 160.457 362.569 159.602 360.502
 159.602 358.401 c 159.602 356.295 160.457 354.233 161.945 352.745 c 163.434
 351.256 165.496 350.401 167.602 350.401 c h
167.602 350.401 m f
279.145 133.655 m 277.656 132.166 276.801 130.104 276.801 127.998 c 276.801
 125.897 277.656 123.83 279.145 122.346 c 280.633 120.858 282.695 119.998
 284.801 119.998 c 286.902 119.998 288.969 120.858 290.457 122.346 c 291.945
 123.83 292.801 125.897 292.801 127.998 c 292.801 130.104 291.945 132.166
 290.457 133.655 c 288.969 135.143 286.902 135.998 284.801 135.998 c 282.695
 135.998 280.633 135.143 279.145 133.655 c h
279.145 133.655 m f
Q Q
showpage
%%Trailer
end restore
%%EOF
