%!PS-Adobe-3.0 EPSF-3.0
%%Creator: cairo 1.14.2 (http://cairographics.org)
%%CreationDate: Fri Jun 15 11:41:46 2018
%%Pages: 1
%%DocumentData: Clean7Bit
%%LanguageLevel: 2
%%BoundingBox: 59 -1 351 410
%%EndComments
%%BeginProlog
save
50 dict begin
/q { gsave } bind def
/Q { grestore } bind def
/cm { 6 array astore concat } bind def
/w { setlinewidth } bind def
/J { setlinecap } bind def
/j { setlinejoin } bind def
/M { setmiterlimit } bind def
/d { setdash } bind def
/m { moveto } bind def
/l { lineto } bind def
/c { curveto } bind def
/h { closepath } bind def
/re { exch dup neg 3 1 roll 5 3 roll moveto 0 rlineto
      0 exch rlineto 0 rlineto closepath } bind def
/S { stroke } bind def
/f { fill } bind def
/f* { eofill } bind def
/n { newpath } bind def
/W { clip } bind def
/W* { eoclip } bind def
/BT { } bind def
/ET { } bind def
/pdfmark where { pop globaldict /?pdfmark /exec load put }
    { globaldict begin /?pdfmark /pop load def /pdfmark
    /cleartomark load def end } ifelse
/BDC { mark 3 1 roll /BDC pdfmark } bind def
/EMC { mark /EMC pdfmark } bind def
/cairo_store_point { /cairo_point_y exch def /cairo_point_x exch def } def
/Tj { show currentpoint cairo_store_point } bind def
/TJ {
  {
    dup
    type /stringtype eq
    { show } { -0.001 mul 0 cairo_font_matrix dtransform rmoveto } ifelse
  } forall
  currentpoint cairo_store_point
} bind def
/cairo_selectfont { cairo_font_matrix aload pop pop pop 0 0 6 array astore
    cairo_font exch selectfont cairo_point_x cairo_point_y moveto } bind def
/Tf { pop /cairo_font exch def /cairo_font_matrix where
      { pop cairo_selectfont } if } bind def
/Td { matrix translate cairo_font_matrix matrix concatmatrix dup
      /cairo_font_matrix exch def dup 4 get exch 5 get cairo_store_point
      /cairo_font where { pop cairo_selectfont } if } bind def
/Tm { 2 copy 8 2 roll 6 array astore /cairo_font_matrix exch def
      cairo_store_point /cairo_font where { pop cairo_selectfont } if } bind def
/g { setgray } bind def
/rg { setrgbcolor } bind def
/d1 { setcachedevice } bind def
%%EndProlog
%%BeginSetup
%%EndSetup
%%Page: 1 1
%%BeginPageSetup
%%PageBoundingBox: 59 -1 351 410
%%EndPageSetup
q 59 -1 292 411 rectclip q
0.784314 0.960784 1 rg
204.895 283.202 m 128.898 283.202 67.293 221.596 67.293 145.6 c 67.293 
69.604 128.898 7.998 204.895 7.998 c 280.887 7.998 342.492 69.604 342.492
 145.6 c 342.492 221.596 280.887 283.202 204.895 283.202 c h
204.895 283.202 m f
0.352941 0.333333 0.882353 rg
184.805 142.971 m 177.176 149.135 172.434 158.725 172.93 169.405 c 173.703
 186.03 187.352 199.405 203.988 199.866 c 222.074 200.366 236.895 185.854
 236.895 167.877 c 236.895 157.815 232.246 148.838 224.984 142.975 c 223.508
 141.78 222.672 139.971 222.672 138.073 c 222.672 109.1 l 222.672 99.284
 214.711 91.323 204.895 91.323 c 195.074 91.323 187.117 99.284 187.117 109.1
 c 187.117 138.073 l 187.117 139.967 186.281 141.78 184.805 142.971 c h
184.805 142.971 m f
0.470588 0.823529 0.980392 rg
147.293 273.534 m 147.293 305.6 l 147.293 337.413 173.082 363.202 204.895
 363.202 c 236.703 363.202 262.492 337.413 262.492 305.6 c 262.492 273.534
 l 300.895 246.334 l 300.895 305.6 l 300.895 358.62 257.914 401.6 204.895
 401.6 c 151.875 401.6 108.895 358.62 108.895 305.6 c 108.895 246.334 l 
h
147.293 273.534 m f
0 g
164.938 169.78 m 164.359 157.362 169.648 145.288 179.117 137.295 c 179.117
 109.1 l 179.117 94.889 190.68 83.323 204.895 83.323 c 219.105 83.323 230.672
 94.889 230.672 109.1 c 230.672 137.295 l 239.723 144.924 244.895 156.022
 244.895 167.877 c 244.895 178.772 240.594 188.955 232.781 196.553 c 224.973
 204.147 214.66 208.174 203.766 207.862 c 182.961 207.288 165.906 190.557
 164.938 169.78 c h
180.922 169.034 m 181.5 181.495 191.73 191.522 204.207 191.87 c 204.438
 191.873 204.664 191.877 204.895 191.877 c 211.188 191.877 217.105 189.479
 221.625 185.084 c 226.312 180.526 228.895 174.413 228.895 167.877 c 228.895
 160.592 225.637 153.784 219.961 149.198 c 216.598 146.483 214.672 142.428
 214.672 138.073 c 214.672 109.1 l 214.672 103.709 210.285 99.323 204.895
 99.323 c 199.504 99.323 195.117 103.709 195.117 109.1 c 195.117 138.073
 l 195.117 142.428 193.191 146.483 189.832 149.194 c 189.832 149.198 l 183.809
 154.061 180.559 161.291 180.922 169.034 c h
180.922 169.034 m f
308.895 247.385 m 308.895 305.6 l 308.895 362.948 262.238 409.6 204.895
 409.6 c 147.547 409.6 100.895 362.948 100.895 305.6 c 100.895 247.491 l
 81.391 227.557 67.855 202.288 62.258 174.955 c 61.371 170.627 64.16 166.401
 68.488 165.514 c 72.82 164.627 77.043 167.416 77.93 171.745 c 90.207 231.69
 143.602 275.202 204.895 275.202 c 276.355 275.202 334.492 217.061 334.492
 145.6 c 334.492 74.139 276.355 15.998 204.895 15.998 c 143.594 15.998 90.195
 59.518 77.926 119.471 c 77.043 123.799 72.82 126.592 68.484 125.705 c 64.156
 124.823 61.367 120.592 62.254 116.264 c 68.879 83.885 86.641 54.405 112.273
 33.252 c 138.258 11.807 171.148 -0.002 204.895 -0.002 c 285.176 -0.002 
350.492 65.315 350.492 145.6 c 350.492 185.182 334.609 221.116 308.895 247.385
 c h
204.895 393.6 m 253.418 393.6 292.895 354.123 292.895 305.6 c 292.895 261.514
 l 285.895 266.842 278.402 271.553 270.492 275.561 c 270.492 305.6 l 270.492
 341.772 241.066 371.202 204.895 371.202 c 168.723 371.202 139.293 341.772
 139.293 305.6 c 139.293 275.573 l 131.445 271.616 123.941 266.948 116.895
 261.6 c 116.895 305.6 l 116.895 354.123 156.371 393.6 204.895 393.6 c h
155.293 282.475 m 155.293 305.6 l 155.293 332.948 177.543 355.202 204.895
 355.202 c 232.242 355.202 254.492 332.948 254.492 305.6 c 254.492 282.495
 l 239.004 288.123 222.301 291.202 204.895 291.202 c 187.887 291.202 171.094
 288.198 155.293 282.475 c h
155.293 282.475 m f
301.637 151.256 m 300.148 149.768 299.293 147.705 299.293 145.6 c 299.293
 143.495 300.148 141.432 301.637 139.944 c 303.125 138.455 305.191 137.6
 307.293 137.6 c 309.398 137.6 311.461 138.455 312.949 139.944 c 314.438
 141.432 315.293 143.495 315.293 145.6 c 315.293 147.705 314.438 149.768
 312.949 151.256 c 311.461 152.745 309.398 153.6 307.293 153.6 c 305.191
 153.6 303.125 152.745 301.637 151.256 c h
301.637 151.256 m f
273.895 231.788 m 254.414 247.401 229.906 255.998 204.895 255.998 c 200.477
 255.998 196.895 252.416 196.895 247.998 c 196.895 243.58 200.477 239.998
 204.895 239.998 c 248.898 239.998 286.68 210.135 296.773 167.373 c 297.641
 163.69 300.926 161.209 304.551 161.209 c 305.16 161.209 305.777 161.276
 306.395 161.424 c 310.695 162.44 313.359 166.748 312.344 171.045 c 306.73
 194.842 293.074 216.413 273.895 231.788 c h
273.895 231.788 m f
67.48 137.6 m 71.898 137.6 75.48 141.182 75.48 145.6 c 75.48 150.018 71.898
 153.6 67.48 153.6 c 67.105 153.6 l 62.688 153.6 59.105 150.018 59.105 145.6
 c 59.105 141.182 62.688 137.6 67.105 137.6 c h
67.48 137.6 m f
Q Q
showpage
%%Trailer
end restore
%%EOF
