%!PS-Adobe-3.0 EPSF-3.0
%%Creator: cairo 1.14.2 (http://cairographics.org)
%%CreationDate: Fri Jun 15 11:41:46 2018
%%Pages: 1
%%DocumentData: Clean7Bit
%%LanguageLevel: 2
%%BoundingBox: 0 -1 410 410
%%EndComments
%%BeginProlog
save
50 dict begin
/q { gsave } bind def
/Q { grestore } bind def
/cm { 6 array astore concat } bind def
/w { setlinewidth } bind def
/J { setlinecap } bind def
/j { setlinejoin } bind def
/M { setmiterlimit } bind def
/d { setdash } bind def
/m { moveto } bind def
/l { lineto } bind def
/c { curveto } bind def
/h { closepath } bind def
/re { exch dup neg 3 1 roll 5 3 roll moveto 0 rlineto
      0 exch rlineto 0 rlineto closepath } bind def
/S { stroke } bind def
/f { fill } bind def
/f* { eofill } bind def
/n { newpath } bind def
/W { clip } bind def
/W* { eoclip } bind def
/BT { } bind def
/ET { } bind def
/pdfmark where { pop globaldict /?pdfmark /exec load put }
    { globaldict begin /?pdfmark /pop load def /pdfmark
    /cleartomark load def end } ifelse
/BDC { mark 3 1 roll /BDC pdfmark } bind def
/EMC { mark /EMC pdfmark } bind def
/cairo_store_point { /cairo_point_y exch def /cairo_point_x exch def } def
/Tj { show currentpoint cairo_store_point } bind def
/TJ {
  {
    dup
    type /stringtype eq
    { show } { -0.001 mul 0 cairo_font_matrix dtransform rmoveto } ifelse
  } forall
  currentpoint cairo_store_point
} bind def
/cairo_selectfont { cairo_font_matrix aload pop pop pop 0 0 6 array astore
    cairo_font exch selectfont cairo_point_x cairo_point_y moveto } bind def
/Tf { pop /cairo_font exch def /cairo_font_matrix where
      { pop cairo_selectfont } if } bind def
/Td { matrix translate cairo_font_matrix matrix concatmatrix dup
      /cairo_font_matrix exch def dup 4 get exch 5 get cairo_store_point
      /cairo_font where { pop cairo_selectfont } if } bind def
/Tm { 2 copy 8 2 roll 6 array astore /cairo_font_matrix exch def
      cairo_store_point /cairo_font where { pop cairo_selectfont } if } bind def
/g { setgray } bind def
/rg { setrgbcolor } bind def
/d1 { setcachedevice } bind def
%%EndProlog
%%BeginSetup
%%EndSetup
%%Page: 1 1
%%BeginPageSetup
%%PageBoundingBox: 0 -1 410 410
%%EndPageSetup
q 0 -1 410 411 rectclip q
0.843137 0.843137 0.901961 rg
324.801 281.6 m 324.801 46.401 l 324.801 25.194 341.992 7.998 363.199 7.998
 c 384.406 7.998 401.602 25.194 401.602 46.401 c 401.602 281.6 l h
324.801 281.6 m f
1 g
363.199 7.998 m 46.398 7.998 l 25.191 7.998 8 25.194 8 46.401 c 8 401.6
 l 324.801 401.6 l 324.801 46.401 l 324.801 25.194 341.992 7.998 363.199
 7.998 c f
1 0.352941 0.352941 rg
51.199 358.401 117.664 -102.402 re f
0.647059 0.862745 0.411765 rg
159.113 153.592 117.664 -102.398 re f
0 g
401.602 289.6 m 349.668 289.6 l 345.25 289.6 341.668 286.018 341.668 281.6
 c 341.668 277.182 345.25 273.6 349.668 273.6 c 393.602 273.6 l 393.602 
46.401 l 393.602 29.639 379.961 15.998 363.199 15.998 c 346.438 15.998 332.801
 29.639 332.801 46.401 c 332.801 68.799 l 358.398 68.799 l 362.82 68.799
 366.398 72.381 366.398 76.799 c 366.398 81.217 362.82 84.799 358.398 84.799
 c 332.801 84.799 l 332.801 119.998 l 358.398 119.998 l 362.82 119.998 366.398
 123.58 366.398 127.998 c 366.398 132.416 362.82 135.998 358.398 135.998
 c 332.801 135.998 l 332.801 171.202 l 358.398 171.202 l 362.82 171.202 
366.398 174.784 366.398 179.202 c 366.398 183.62 362.82 187.202 358.398 
187.202 c 332.801 187.202 l 332.801 222.401 l 358.398 222.401 l 362.82 222.401
 366.398 225.983 366.398 230.401 c 366.398 234.819 362.82 238.401 358.398
 238.401 c 332.801 238.401 l 332.801 401.6 l 332.801 406.018 329.219 409.6
 324.801 409.6 c 204.801 409.6 l 200.383 409.6 196.801 406.018 196.801 401.6
 c 196.801 397.182 200.383 393.6 204.801 393.6 c 316.801 393.6 l 316.801
 46.401 l 316.801 34.78 321.105 24.151 328.191 15.998 c 46.398 15.998 l 
29.637 15.998 16 29.639 16 46.401 c 16 393.6 l 119.469 393.6 l 123.887 393.6
 127.469 397.182 127.469 401.6 c 127.469 406.018 123.887 409.6 119.469 409.6
 c 8 409.6 l 3.582 409.6 0 406.018 0 401.6 c 0 46.401 l 0 20.815 20.816 
-0.002 46.398 -0.002 c 363.199 -0.002 l 388.785 -0.002 409.602 20.815 409.602
 46.401 c 409.602 281.6 l 409.602 286.018 406.02 289.6 401.602 289.6 c h
401.602 289.6 m f
51.199 366.401 m 46.781 366.401 43.199 362.819 43.199 358.401 c 43.199 
255.998 l 43.199 251.58 46.781 247.998 51.199 247.998 c 168.863 247.998 
l 173.281 247.998 176.863 251.58 176.863 255.998 c 176.863 358.401 l 176.863
 362.819 173.281 366.401 168.863 366.401 c h
160.863 263.998 m 59.199 263.998 l 59.199 350.401 l 160.863 350.401 l h
160.863 263.998 m f
276.781 161.588 m 159.113 161.588 l 154.695 161.588 151.113 158.006 151.113
 153.588 c 151.113 51.19 l 151.113 46.772 154.695 43.19 159.113 43.19 c 
276.781 43.19 l 281.199 43.19 284.781 46.772 284.781 51.19 c 284.781 153.588
 l 284.781 158.006 281.199 161.588 276.781 161.588 c h
268.781 59.19 m 167.113 59.19 l 167.113 145.588 l 268.781 145.588 l h
268.781 59.19 m f
117.066 59.202 m 51.199 59.202 l 46.781 59.202 43.199 55.62 43.199 51.202
 c 43.199 46.784 46.781 43.202 51.199 43.202 c 117.066 43.202 l 121.484 
43.202 125.066 46.784 125.066 51.202 c 125.066 55.62 121.484 59.202 117.066
 59.202 c h
117.066 59.202 m f
117.066 110.401 m 51.199 110.401 l 46.781 110.401 43.199 106.819 43.199
 102.401 c 43.199 97.983 46.781 94.401 51.199 94.401 c 117.066 94.401 l 
121.484 94.401 125.066 97.983 125.066 102.401 c 125.066 106.819 121.484 
110.401 117.066 110.401 c h
117.066 110.401 m f
117.066 161.6 m 51.199 161.6 l 46.781 161.6 43.199 158.018 43.199 153.6
 c 43.199 149.182 46.781 145.6 51.199 145.6 c 117.066 145.6 l 121.484 145.6
 125.066 149.182 125.066 153.6 c 125.066 158.018 121.484 161.6 117.066 161.6
 c h
117.066 161.6 m f
43.199 204.799 m 43.199 200.381 46.781 196.799 51.199 196.799 c 244.426
 196.799 l 248.844 196.799 252.426 200.381 252.426 204.799 c 252.426 209.217
 248.844 212.799 244.426 212.799 c 51.199 212.799 l 46.781 212.799 43.199
 209.217 43.199 204.799 c h
43.199 204.799 m f
212.062 247.998 m 276.789 247.998 l 281.207 247.998 284.789 251.58 284.789
 255.998 c 284.789 260.416 281.207 263.998 276.789 263.998 c 212.062 263.998
 l 207.645 263.998 204.062 260.416 204.062 255.998 c 204.062 251.58 207.645
 247.998 212.062 247.998 c h
212.062 247.998 m f
212.062 299.202 m 276.789 299.202 l 281.207 299.202 284.789 302.784 284.789
 307.202 c 284.789 311.62 281.207 315.202 276.789 315.202 c 212.062 315.202
 l 207.645 315.202 204.062 311.62 204.062 307.202 c 204.062 302.784 207.645
 299.202 212.062 299.202 c h
212.062 299.202 m f
212.062 350.401 m 276.789 350.401 l 281.207 350.401 284.789 353.983 284.789
 358.401 c 284.789 362.819 281.207 366.401 276.789 366.401 c 212.062 366.401
 l 207.645 366.401 204.062 362.819 204.062 358.401 c 204.062 353.983 207.645
 350.401 212.062 350.401 c h
212.062 350.401 m f
282.449 210.455 m 280.961 211.944 278.895 212.799 276.793 212.799 c 274.688
 212.799 272.625 211.944 271.137 210.455 c 269.648 208.967 268.793 206.905
 268.793 204.799 c 268.793 202.698 269.648 200.631 271.137 199.143 c 272.625
 197.659 274.688 196.799 276.793 196.799 c 278.895 196.799 280.961 197.655
 282.449 199.143 c 283.938 200.631 284.793 202.698 284.793 204.799 c 284.793
 206.905 283.938 208.967 282.449 210.455 c h
282.449 210.455 m f
164.801 393.6 m 166.902 393.6 168.969 394.455 170.457 395.944 c 171.945
 397.432 172.801 399.495 172.801 401.6 c 172.801 403.705 171.945 405.768
 170.457 407.256 c 168.969 408.745 166.902 409.6 164.801 409.6 c 162.695
 409.6 160.633 408.745 159.145 407.256 c 157.656 405.768 156.801 403.705
 156.801 401.6 c 156.801 399.495 157.656 397.432 159.145 395.944 c 160.633
 394.455 162.695 393.6 164.801 393.6 c h
164.801 393.6 m f
Q Q
showpage
%%Trailer
end restore
%%EOF
