%!PS-Adobe-3.0 EPSF-3.0
%%Creator: cairo 1.14.2 (http://cairographics.org)
%%CreationDate: Fri Jun 15 11:41:46 2018
%%Pages: 1
%%DocumentData: Clean7Bit
%%LanguageLevel: 2
%%BoundingBox: 0 -1 410 410
%%EndComments
%%BeginProlog
save
50 dict begin
/q { gsave } bind def
/Q { grestore } bind def
/cm { 6 array astore concat } bind def
/w { setlinewidth } bind def
/J { setlinecap } bind def
/j { setlinejoin } bind def
/M { setmiterlimit } bind def
/d { setdash } bind def
/m { moveto } bind def
/l { lineto } bind def
/c { curveto } bind def
/h { closepath } bind def
/re { exch dup neg 3 1 roll 5 3 roll moveto 0 rlineto
      0 exch rlineto 0 rlineto closepath } bind def
/S { stroke } bind def
/f { fill } bind def
/f* { eofill } bind def
/n { newpath } bind def
/W { clip } bind def
/W* { eoclip } bind def
/BT { } bind def
/ET { } bind def
/pdfmark where { pop globaldict /?pdfmark /exec load put }
    { globaldict begin /?pdfmark /pop load def /pdfmark
    /cleartomark load def end } ifelse
/BDC { mark 3 1 roll /BDC pdfmark } bind def
/EMC { mark /EMC pdfmark } bind def
/cairo_store_point { /cairo_point_y exch def /cairo_point_x exch def } def
/Tj { show currentpoint cairo_store_point } bind def
/TJ {
  {
    dup
    type /stringtype eq
    { show } { -0.001 mul 0 cairo_font_matrix dtransform rmoveto } ifelse
  } forall
  currentpoint cairo_store_point
} bind def
/cairo_selectfont { cairo_font_matrix aload pop pop pop 0 0 6 array astore
    cairo_font exch selectfont cairo_point_x cairo_point_y moveto } bind def
/Tf { pop /cairo_font exch def /cairo_font_matrix where
      { pop cairo_selectfont } if } bind def
/Td { matrix translate cairo_font_matrix matrix concatmatrix dup
      /cairo_font_matrix exch def dup 4 get exch 5 get cairo_store_point
      /cairo_font where { pop cairo_selectfont } if } bind def
/Tm { 2 copy 8 2 roll 6 array astore /cairo_font_matrix exch def
      cairo_store_point /cairo_font where { pop cairo_selectfont } if } bind def
/g { setgray } bind def
/rg { setrgbcolor } bind def
/d1 { setcachedevice } bind def
%%EndProlog
%%BeginSetup
%%EndSetup
%%Page: 1 1
%%BeginPageSetup
%%PageBoundingBox: 0 -1 410 410
%%EndPageSetup
q 0 -1 410 411 rectclip q
0.941176 0.941176 0.980392 rg
401.602 204.799 m 401.602 202.405 313.477 76.799 204.801 76.799 c 96.121
 76.799 8 203.205 8 204.799 c 8 207.194 96.121 332.799 204.801 332.799 c
 313.477 332.799 401.602 206.393 401.602 204.799 c h
401.602 204.799 m f
0.784314 0.960784 1 rg
305.602 204.799 m 305.602 149.131 260.469 103.998 204.801 103.998 c 149.129
 103.998 104 149.131 104 204.799 c 104 260.471 149.129 305.6 204.801 305.6
 c 260.469 305.6 305.602 260.471 305.602 204.799 c h
305.602 204.799 m f
0 g
204.801 95.998 m 144.809 95.998 96 144.807 96 204.799 c 96 222.065 100.148
 239.252 107.996 254.506 c 110.016 258.436 114.84 259.983 118.77 257.959
 c 122.695 255.94 124.242 251.116 122.223 247.186 c 115.438 234.002 112 
219.741 112 204.799 c 112 153.631 153.629 111.998 204.801 111.998 c 255.969
 111.998 297.602 153.631 297.602 204.799 c 297.602 255.971 255.969 297.6
 204.801 297.6 c 191.406 297.6 178.488 294.811 166.398 289.311 c 162.379
 287.479 157.637 289.256 155.805 293.276 c 153.973 297.299 155.75 302.041
 159.773 303.873 c 173.953 310.327 189.102 313.6 204.801 313.6 c 264.793
 313.6 313.602 264.791 313.602 204.799 c 313.602 144.807 264.793 95.998 
204.801 95.998 c h
204.801 95.998 m f
0.352941 0.333333 0.882353 rg
256.82 229.549 m 254.312 219.823 245.477 212.635 234.965 212.635 c 222.504
 212.635 212.398 222.737 212.398 235.202 c 212.398 245.651 219.504 254.436
 229.145 257.002 c 221.746 260.459 213.504 262.401 204.801 262.401 c 172.988
 262.401 147.199 236.612 147.199 204.799 c 147.199 172.991 172.988 147.202
 204.801 147.202 c 236.609 147.202 262.398 172.991 262.398 204.799 c 262.398
 213.663 260.395 222.053 256.82 229.549 c h
256.82 229.549 m f
0 g
204.801 68.799 m 178.727 68.799 151.742 75.741 124.598 89.432 c 103.09 
100.284 81.461 115.358 60.316 134.237 c 41.285 151.229 26.418 167.979 17.297
 179.038 c 11.77 185.737 7.848 190.948 5.527 194.139 c 0.723 200.752 0 202.147
 0 204.799 c 0 207.33 0.645 208.87 5.492 215.643 c 7.77 218.823 11.66 224.049
 17.289 230.893 c 26.348 241.909 41.164 258.62 60.328 275.674 c 93.707 305.381
 145.867 340.799 204.801 340.799 c 230.875 340.799 257.859 333.858 285 320.166
 c 306.512 309.319 328.141 294.245 349.281 275.366 c 368.312 258.373 383.184
 241.623 392.305 230.561 c 397.828 223.866 401.754 218.651 404.074 215.459
 c 408.875 208.846 409.602 207.452 409.602 204.799 c 409.602 202.584 409.602
 200.834 398.828 186.881 c 393.531 180.014 384.719 169.213 372.84 156.741
 c 369.793 153.541 364.73 153.42 361.531 156.467 c 358.332 159.514 358.207
 164.577 361.254 167.776 c 376.824 184.123 387.609 198.221 392.125 204.694
 c 385.324 214.256 365.008 240.381 335.844 265.889 c 305.113 292.764 257.434
 324.799 204.801 324.799 c 152.176 324.799 104.617 293.034 73.988 266.381
 c 44.23 240.495 24.062 214.299 17.484 204.893 c 24.293 195.319 44.605 169.205
 73.754 143.713 c 104.484 116.838 152.164 84.799 204.801 84.799 c 241.977
 84.799 280.844 100.233 320.316 130.67 c 323.816 133.37 328.84 132.721 331.535
 129.221 c 334.234 125.721 333.586 120.698 330.086 117.998 c 287.75 85.354
 245.598 68.799 204.801 68.799 c h
204.801 68.799 m f
204.801 139.202 m 168.629 139.202 139.199 168.627 139.199 204.799 c 139.199
 240.971 168.629 270.401 204.801 270.401 c 214.664 270.401 224.156 268.256
 233.016 264.03 c 236.051 262.58 237.859 259.389 237.531 256.038 c 237.207
 252.69 234.824 249.901 231.562 249.065 c 225.207 247.428 220.77 241.694
 220.77 235.116 c 220.77 227.178 227.23 220.717 235.172 220.717 c 241.734
 220.717 247.465 225.143 249.109 231.487 c 249.953 234.745 252.746 237.123
 256.098 237.44 c 259.445 237.76 262.637 235.948 264.078 232.909 c 268.273
 224.077 270.398 214.62 270.398 204.799 c 270.398 168.627 240.973 139.202
 204.801 139.202 c h
204.801 254.401 m 177.449 254.401 155.199 232.151 155.199 204.799 c 155.199
 177.452 177.449 155.202 204.801 155.202 c 232.148 155.202 254.398 177.452
 254.398 204.799 c 254.398 206.971 254.262 209.12 253.988 211.237 c 248.762
 207.12 242.191 204.717 235.172 204.717 c 218.406 204.717 204.77 218.354
 204.77 235.12 c 204.77 242.163 207.188 248.748 211.32 253.979 c 209.176
 254.26 207 254.401 204.801 254.401 c h
204.801 254.401 m f
204.801 350.401 m 200.383 350.401 196.801 353.983 196.801 358.401 c 196.801
 401.6 l 196.801 406.018 200.383 409.6 204.801 409.6 c 209.219 409.6 212.801
 406.018 212.801 401.6 c 212.801 358.401 l 212.801 353.983 209.219 350.401
 204.801 350.401 c h
204.801 350.401 m f
298.309 334.491 m 296.262 334.491 294.211 335.272 292.652 336.834 c 289.527
 339.959 289.527 345.026 292.652 348.151 c 330.555 386.057 l 333.68 389.178
 338.746 389.178 341.871 386.057 c 344.992 382.932 344.992 377.866 341.871
 374.741 c 303.965 336.834 l 302.402 335.272 300.355 334.491 298.309 334.491
 c h
298.309 334.491 m f
111.293 334.491 m 109.246 334.491 107.199 335.272 105.637 336.834 c 67.73
 374.741 l 64.605 377.866 64.605 382.932 67.73 386.057 c 70.855 389.178 
75.918 389.178 79.043 386.057 c 116.949 348.151 l 120.074 345.026 120.074
 339.959 116.949 336.834 c 115.387 335.272 113.34 334.491 111.293 334.491
 c h
111.293 334.491 m f
204.801 -0.002 m 200.383 -0.002 196.801 3.58 196.801 7.998 c 196.801 51.202
 l 196.801 55.62 200.383 59.202 204.801 59.202 c 209.219 59.202 212.801 
55.62 212.801 51.202 c 212.801 7.998 l 212.801 3.58 209.219 -0.002 204.801
 -0.002 c h
204.801 -0.002 m f
73.387 21.202 m 71.34 21.202 69.293 21.983 67.73 23.545 c 64.605 26.67 
64.605 31.733 67.73 34.858 c 105.637 72.764 l 108.758 75.889 113.824 75.889
 116.949 72.764 c 120.074 69.643 120.074 64.577 116.949 61.452 c 79.043 
23.545 l 77.48 21.983 75.434 21.202 73.387 21.202 c h
73.387 21.202 m f
336.215 21.202 m 334.164 21.202 332.121 21.983 330.559 23.545 c 292.652
 61.452 l 289.527 64.577 289.527 69.639 292.652 72.764 c 295.773 75.889 
300.84 75.889 303.965 72.764 c 341.871 34.858 l 344.996 31.737 344.996 26.67
 341.871 23.545 c 340.309 21.983 338.262 21.202 336.215 21.202 c h
336.215 21.202 m f
135.434 269.936 m 133.328 269.936 131.266 270.791 129.777 272.28 c 128.289
 273.768 127.434 275.83 127.434 277.936 c 127.434 280.041 128.289 282.104
 129.777 283.592 c 131.266 285.08 133.328 285.936 135.434 285.936 c 137.535
 285.936 139.602 285.08 141.09 283.592 c 142.574 282.104 143.434 280.041
 143.434 277.936 c 143.434 275.83 142.574 273.768 141.09 272.28 c 139.602
 270.791 137.535 269.936 135.434 269.936 c h
135.434 269.936 m f
347.008 134.647 m 344.902 134.647 342.84 135.502 341.352 136.995 c 339.863
 138.491 339.008 140.545 339.008 142.647 c 339.008 144.76 339.863 146.819
 341.352 148.311 c 342.84 149.799 344.902 150.647 347.008 150.647 c 349.113
 150.647 351.176 149.799 352.664 148.311 c 354.152 146.827 355.008 144.76
 355.008 142.647 c 355.008 140.545 354.152 138.491 352.664 136.995 c 351.176
 135.502 349.113 134.647 347.008 134.647 c h
347.008 134.647 m f
Q Q
showpage
%%Trailer
end restore
%%EOF
