%!PS-Adobe-3.0 EPSF-3.0
%%Creator: cairo 1.14.2 (http://cairographics.org)
%%CreationDate: Fri Jun 15 11:41:46 2018
%%Pages: 1
%%DocumentData: Clean7Bit
%%LanguageLevel: 2
%%BoundingBox: 0 -1 410 410
%%EndComments
%%BeginProlog
save
50 dict begin
/q { gsave } bind def
/Q { grestore } bind def
/cm { 6 array astore concat } bind def
/w { setlinewidth } bind def
/J { setlinecap } bind def
/j { setlinejoin } bind def
/M { setmiterlimit } bind def
/d { setdash } bind def
/m { moveto } bind def
/l { lineto } bind def
/c { curveto } bind def
/h { closepath } bind def
/re { exch dup neg 3 1 roll 5 3 roll moveto 0 rlineto
      0 exch rlineto 0 rlineto closepath } bind def
/S { stroke } bind def
/f { fill } bind def
/f* { eofill } bind def
/n { newpath } bind def
/W { clip } bind def
/W* { eoclip } bind def
/BT { } bind def
/ET { } bind def
/pdfmark where { pop globaldict /?pdfmark /exec load put }
    { globaldict begin /?pdfmark /pop load def /pdfmark
    /cleartomark load def end } ifelse
/BDC { mark 3 1 roll /BDC pdfmark } bind def
/EMC { mark /EMC pdfmark } bind def
/cairo_store_point { /cairo_point_y exch def /cairo_point_x exch def } def
/Tj { show currentpoint cairo_store_point } bind def
/TJ {
  {
    dup
    type /stringtype eq
    { show } { -0.001 mul 0 cairo_font_matrix dtransform rmoveto } ifelse
  } forall
  currentpoint cairo_store_point
} bind def
/cairo_selectfont { cairo_font_matrix aload pop pop pop 0 0 6 array astore
    cairo_font exch selectfont cairo_point_x cairo_point_y moveto } bind def
/Tf { pop /cairo_font exch def /cairo_font_matrix where
      { pop cairo_selectfont } if } bind def
/Td { matrix translate cairo_font_matrix matrix concatmatrix dup
      /cairo_font_matrix exch def dup 4 get exch 5 get cairo_store_point
      /cairo_font where { pop cairo_selectfont } if } bind def
/Tm { 2 copy 8 2 roll 6 array astore /cairo_font_matrix exch def
      cairo_store_point /cairo_font where { pop cairo_selectfont } if } bind def
/g { setgray } bind def
/rg { setrgbcolor } bind def
/d1 { setcachedevice } bind def
%%EndProlog
%%BeginSetup
%%EndSetup
%%Page: 1 1
%%BeginPageSetup
%%PageBoundingBox: 0 -1 410 410
%%EndPageSetup
q 0 -1 410 411 rectclip q
0.784314 0.960784 1 rg
401.602 241.6 m 85.602 241.6 l 132.789 81.6 l 354.41 81.6 l h
401.602 241.6 m f
0.529412 0.529412 0.568627 rg
198.031 29.6 m 198.031 17.67 188.363 7.998 176.434 7.998 c 164.504 7.998
 154.832 17.67 154.832 29.6 c 154.832 41.53 164.504 51.202 176.434 51.202
 c 188.363 51.202 198.031 41.53 198.031 29.6 c h
198.031 29.6 m f
316.07 29.6 m 316.07 17.67 306.402 7.998 294.473 7.998 c 282.543 7.998 
272.871 17.67 272.871 29.6 c 272.871 41.53 282.543 51.202 294.473 51.202
 c 306.402 51.202 316.07 41.53 316.07 29.6 c h
316.07 29.6 m f
0.960784 0.784314 0.431373 rg
123.273 331.998 143.992 -90.398 re f
1 0.352941 0.352941 rg
213.773 401.6 m 213.773 331.998 l 267.262 331.998 l 267.262 241.6 l 360.973
 241.6 l 360.973 401.6 l h
213.773 401.6 m f
0 g
284.648 75.944 m 286.137 77.432 286.992 79.495 286.992 81.6 c 286.992 83.705
 286.137 85.768 284.648 87.256 c 283.16 88.745 281.098 89.6 278.984 89.6
 c 276.879 89.6 274.816 88.745 273.336 87.256 c 271.84 85.768 270.992 83.713
 270.992 81.6 c 270.992 79.495 271.84 77.432 273.336 75.944 c 274.824 74.455
 276.879 73.6 278.984 73.6 c 281.098 73.6 283.152 74.455 284.648 75.944 
c h
284.648 75.944 m f
408.008 246.389 m 406.496 248.409 404.121 249.6 401.602 249.6 c 368.973
 249.6 l 368.973 401.6 l 368.973 406.018 365.391 409.6 360.973 409.6 c 213.773
 409.6 l 209.355 409.6 205.773 406.018 205.773 401.6 c 205.773 339.998 l
 123.27 339.998 l 118.852 339.998 115.27 336.416 115.27 331.998 c 115.27
 249.6 l 85.602 249.6 l 83.078 249.6 80.703 248.409 79.191 246.389 c 77.684
 244.37 77.211 241.756 77.926 239.338 c 125.117 79.338 l 126.121 75.936 
129.242 73.6 132.789 73.6 c 243.602 73.6 l 248.02 73.6 251.602 77.182 251.602
 81.6 c 251.602 86.018 248.02 89.6 243.602 89.6 c 138.77 89.6 l 96.301 233.6
 l 390.898 233.6 l 348.43 89.6 l 319.199 89.6 l 314.781 89.6 311.199 86.018
 311.199 81.6 c 311.199 77.182 314.781 73.6 319.199 73.6 c 354.41 73.6 l
 357.957 73.6 361.078 75.936 362.082 79.338 c 409.273 239.338 l 409.988 
241.756 409.52 244.37 408.008 246.389 c h
131.27 323.998 m 259.262 323.998 l 259.262 249.6 l 131.27 249.6 l h
275.266 249.6 m 275.266 331.998 l 275.266 336.416 271.684 339.998 267.266
 339.998 c 221.773 339.998 l 221.773 393.6 l 352.973 393.6 l 352.973 249.6
 l h
275.266 249.6 m f
363.281 59.202 m 116.441 59.202 l 50.145 283.987 l 49.141 287.389 46.02
 289.725 42.473 289.725 c 8 289.725 l 3.582 289.725 0 286.139 0 281.725 
c 0 277.307 3.582 273.725 8 273.725 c 36.488 273.725 l 102.789 48.936 l 
103.793 45.534 106.914 43.202 110.461 43.202 c 150.152 43.202 l 148.035 
39.123 146.832 34.502 146.832 29.6 c 146.832 13.28 160.109 -0.002 176.43
 -0.002 c 192.754 -0.002 206.031 13.28 206.031 29.6 c 206.031 34.502 204.828
 39.123 202.707 43.202 c 268.195 43.202 l 266.074 39.123 264.871 34.502 
264.871 29.6 c 264.871 13.28 278.148 -0.002 294.473 -0.002 c 310.793 -0.002
 324.07 13.28 324.07 29.6 c 324.07 34.502 322.867 39.123 320.75 43.202 c
 363.281 43.202 l 367.699 43.202 371.281 46.784 371.281 51.202 c 371.281
 55.62 367.699 59.202 363.281 59.202 c h
190.031 29.6 m 190.031 22.1 183.93 15.998 176.43 15.998 c 168.934 15.998
 162.832 22.1 162.832 29.6 c 162.832 37.1 168.934 43.202 176.43 43.202 c
 183.93 43.202 190.031 37.1 190.031 29.6 c h
308.07 29.6 m 308.07 22.1 301.969 15.998 294.469 15.998 c 286.973 15.998
 280.871 22.1 280.871 29.6 c 280.871 37.1 286.973 43.202 294.469 43.202 
c 301.969 43.202 308.07 37.1 308.07 29.6 c h
308.07 29.6 m f
195.266 194.401 m 193.16 194.401 191.105 195.256 189.609 196.745 c 188.121
 198.233 187.273 200.295 187.273 202.401 c 187.273 204.502 188.121 206.569
 189.609 208.057 c 191.098 209.545 193.16 210.401 195.266 210.401 c 197.375
 210.401 199.441 209.545 200.93 208.057 c 202.414 206.569 203.266 204.502
 203.266 202.401 c 203.266 200.295 202.414 198.233 200.93 196.745 c 199.434
 195.256 197.375 194.401 195.266 194.401 c h
195.266 194.401 m f
161.617 194.401 m 103.531 194.401 l 99.113 194.401 95.531 197.983 95.531
 202.401 c 95.531 206.819 99.113 210.401 103.531 210.401 c 161.617 210.401
 l 166.035 210.401 169.617 206.819 169.617 202.401 c 169.617 197.983 166.035
 194.401 161.617 194.401 c h
161.617 194.401 m f
Q Q
showpage
%%Trailer
end restore
%%EOF
