%!PS-Adobe-3.0 EPSF-3.0
%%Creator: cairo 1.14.2 (http://cairographics.org)
%%CreationDate: Fri Jun 15 11:41:46 2018
%%Pages: 1
%%DocumentData: Clean7Bit
%%LanguageLevel: 2
%%BoundingBox: 0 5 410 404
%%EndComments
%%BeginProlog
save
50 dict begin
/q { gsave } bind def
/Q { grestore } bind def
/cm { 6 array astore concat } bind def
/w { setlinewidth } bind def
/J { setlinecap } bind def
/j { setlinejoin } bind def
/M { setmiterlimit } bind def
/d { setdash } bind def
/m { moveto } bind def
/l { lineto } bind def
/c { curveto } bind def
/h { closepath } bind def
/re { exch dup neg 3 1 roll 5 3 roll moveto 0 rlineto
      0 exch rlineto 0 rlineto closepath } bind def
/S { stroke } bind def
/f { fill } bind def
/f* { eofill } bind def
/n { newpath } bind def
/W { clip } bind def
/W* { eoclip } bind def
/BT { } bind def
/ET { } bind def
/pdfmark where { pop globaldict /?pdfmark /exec load put }
    { globaldict begin /?pdfmark /pop load def /pdfmark
    /cleartomark load def end } ifelse
/BDC { mark 3 1 roll /BDC pdfmark } bind def
/EMC { mark /EMC pdfmark } bind def
/cairo_store_point { /cairo_point_y exch def /cairo_point_x exch def } def
/Tj { show currentpoint cairo_store_point } bind def
/TJ {
  {
    dup
    type /stringtype eq
    { show } { -0.001 mul 0 cairo_font_matrix dtransform rmoveto } ifelse
  } forall
  currentpoint cairo_store_point
} bind def
/cairo_selectfont { cairo_font_matrix aload pop pop pop 0 0 6 array astore
    cairo_font exch selectfont cairo_point_x cairo_point_y moveto } bind def
/Tf { pop /cairo_font exch def /cairo_font_matrix where
      { pop cairo_selectfont } if } bind def
/Td { matrix translate cairo_font_matrix matrix concatmatrix dup
      /cairo_font_matrix exch def dup 4 get exch 5 get cairo_store_point
      /cairo_font where { pop cairo_selectfont } if } bind def
/Tm { 2 copy 8 2 roll 6 array astore /cairo_font_matrix exch def
      cairo_store_point /cairo_font where { pop cairo_selectfont } if } bind def
/g { setgray } bind def
/rg { setrgbcolor } bind def
/d1 { setcachedevice } bind def
%%EndProlog
%%BeginSetup
%%EndSetup
%%Page: 1 1
%%BeginPageSetup
%%PageBoundingBox: 0 5 410 404
%%EndPageSetup
q 0 5 410 399 rectclip q
1 0.627451 0.411765 rg
320.41 188.799 m 376.398 188.799 l 390.539 188.799 402 200.26 402 214.401
 c 402 299.202 l 402 308.038 394.836 315.202 386 315.202 c 24.398 315.202
 l 15.562 315.202 8.398 308.038 8.398 299.202 c 8.398 214.401 l 8.398 200.26
 19.863 188.799 34 188.799 c h
320.41 188.799 m f
1 0.509804 0.294118 rg
385.609 187.202 m 385.609 30.401 l 385.609 21.565 378.445 14.401 369.609
 14.401 c 40.012 14.401 l 31.172 14.401 24.012 21.565 24.012 30.401 c 24.012
 187.202 l h
385.609 187.202 m f
0.960784 0.784314 0.431373 rg
144.391 211.202 m 92.469 211.202 l 92.469 183.139 l 92.469 168.799 104.094
 157.178 118.43 157.178 c 132.77 157.178 144.391 168.799 144.391 183.139
 c h
144.391 211.202 m f
317.152 211.202 m 265.23 211.202 l 265.23 183.139 l 265.23 168.799 276.852
 157.178 291.191 157.178 c 305.527 157.178 317.152 168.799 317.152 183.139
 c h
317.152 211.202 m f
1 0.509804 0.294118 rg
166.43 363.202 m 243.191 363.202 l 252.027 363.202 259.191 356.038 259.191
 347.202 c 259.191 315.202 l 291.191 315.202 l 291.191 347.202 l 291.191
 373.709 269.699 395.202 243.191 395.202 c 166.43 395.202 l 139.922 395.202
 118.43 373.709 118.43 347.202 c 118.43 315.202 l 150.43 315.202 l 150.43
 347.202 l 150.43 356.038 157.594 363.202 166.43 363.202 c h
166.43 363.202 m f
0 g
385.602 323.202 m 299.191 323.202 l 299.191 347.202 l 299.191 378.077 274.066
 403.202 243.191 403.202 c 166.43 403.202 l 135.551 403.202 110.43 378.077
 110.43 347.202 c 110.43 323.202 l 24 323.202 l 10.766 323.202 0 312.432
 0 299.202 c 0 214.401 l 0 202.319 6.414 191.709 16.012 185.788 c 16.012
 30.401 l 16.012 17.166 26.777 6.401 40.012 6.401 c 176.008 6.401 l 180.426
 6.401 184.008 9.983 184.008 14.401 c 184.008 18.819 180.426 22.401 176.008
 22.401 c 40.012 22.401 l 35.598 22.401 32.012 25.991 32.012 30.401 c 32.012
 180.838 l 32.539 180.815 33.066 180.799 33.602 180.799 c 84.559 180.799
 l 85.766 163.163 100.492 149.178 118.43 149.178 c 136.367 149.178 151.094
 163.163 152.301 180.799 c 257.32 180.799 l 258.527 163.163 273.25 149.178
 291.191 149.178 c 309.129 149.178 323.855 163.163 325.062 180.799 c 376
 180.799 l 376.539 180.799 377.074 180.815 377.609 180.842 c 377.609 30.401
 l 377.609 25.991 374.023 22.401 369.609 22.401 c 240.012 22.401 l 235.594
 22.401 232.012 18.819 232.012 14.401 c 232.012 9.983 235.594 6.401 240.012
 6.401 c 369.609 6.401 l 382.844 6.401 393.609 17.166 393.609 30.401 c 393.609
 185.799 l 403.195 191.725 409.602 202.327 409.602 214.401 c 409.602 299.202
 l 409.602 312.432 398.832 323.202 385.602 323.202 c h
126.43 347.202 m 126.43 369.256 144.375 387.202 166.43 387.202 c 243.191
 387.202 l 265.246 387.202 283.191 369.256 283.191 347.202 c 283.191 323.202
 l 267.191 323.202 l 267.191 347.202 l 267.191 360.432 256.422 371.202 243.191
 371.202 c 166.43 371.202 l 153.195 371.202 142.43 360.432 142.43 347.202
 c 142.43 323.202 l 126.43 323.202 l h
158.43 323.202 m 158.43 347.202 l 158.43 351.612 162.02 355.202 166.43 
355.202 c 243.191 355.202 l 247.602 355.202 251.191 351.612 251.191 347.202
 c 251.191 323.202 l h
118.43 165.178 m 108.527 165.178 100.469 173.237 100.469 183.139 c 100.469
 203.202 l 136.391 203.202 l 136.391 188.815 l 136.391 188.811 136.391 188.803
 136.391 188.799 c 136.391 188.795 136.391 188.791 136.391 188.784 c 136.391
 183.139 l 136.391 173.237 128.336 165.178 118.43 165.178 c h
309.152 183.139 m 309.152 173.237 301.094 165.178 291.191 165.178 c 281.285
 165.178 273.23 173.237 273.23 183.139 c 273.23 203.202 l 309.152 203.202
 l h
325.152 196.799 m 325.152 211.202 l 325.152 215.62 321.566 219.202 317.152
 219.202 c 265.23 219.202 l 260.812 219.202 257.23 215.62 257.23 211.202
 c 257.23 196.799 l 152.391 196.799 l 152.391 211.202 l 152.391 215.62 148.809
 219.202 144.391 219.202 c 92.469 219.202 l 88.051 219.202 84.469 215.62
 84.469 211.202 c 84.469 196.799 l 33.602 196.799 l 23.895 196.799 16 204.694
 16 214.401 c 16 299.202 l 16 303.612 19.59 307.202 24 307.202 c 385.602
 307.202 l 390.012 307.202 393.602 303.612 393.602 299.202 c 393.602 214.401
 l 393.602 204.694 385.703 196.799 376 196.799 c h
325.152 196.799 m f
208.426 22.401 m 206.32 22.401 204.266 21.545 202.77 20.057 c 201.281 18.569
 200.434 16.502 200.434 14.401 c 200.434 12.295 201.281 10.233 202.77 8.745
 c 204.266 7.256 206.328 6.401 208.426 6.401 c 210.531 6.401 212.594 7.256
 214.09 8.745 c 215.578 10.233 216.426 12.295 216.426 14.401 c 216.426 16.502
 215.578 18.569 214.09 20.057 c 212.594 21.545 210.539 22.401 208.426 22.401
 c h
208.426 22.401 m f
257.609 268.401 m 255.508 268.401 253.441 269.256 251.953 270.745 c 250.465
 272.233 249.609 274.295 249.609 276.401 c 249.609 278.502 250.465 280.569
 251.953 282.057 c 253.441 283.545 255.508 284.401 257.609 284.401 c 259.715
 284.401 261.777 283.545 263.266 282.057 c 264.754 280.569 265.609 278.502
 265.609 276.401 c 265.609 274.295 264.754 272.233 263.266 270.745 c 261.777
 269.256 259.715 268.401 257.609 268.401 c h
257.609 268.401 m f
399.184 268.401 m 291.262 268.401 l 286.844 268.401 283.262 271.983 283.262
 276.401 c 283.262 280.819 286.844 284.401 291.262 284.401 c 399.184 284.401
 l 403.602 284.401 407.184 280.819 407.184 276.401 c 407.184 271.983 403.602
 268.401 399.184 268.401 c h
399.184 268.401 m f
Q Q
showpage
%%Trailer
end restore
%%EOF
