%!PS-Adobe-3.0 EPSF-3.0
%%Creator: cairo 1.14.2 (http://cairographics.org)
%%CreationDate: Fri Jun 15 11:41:46 2018
%%Pages: 1
%%DocumentData: Clean7Bit
%%LanguageLevel: 2
%%BoundingBox: 0 -1 410 410
%%EndComments
%%BeginProlog
save
50 dict begin
/q { gsave } bind def
/Q { grestore } bind def
/cm { 6 array astore concat } bind def
/w { setlinewidth } bind def
/J { setlinecap } bind def
/j { setlinejoin } bind def
/M { setmiterlimit } bind def
/d { setdash } bind def
/m { moveto } bind def
/l { lineto } bind def
/c { curveto } bind def
/h { closepath } bind def
/re { exch dup neg 3 1 roll 5 3 roll moveto 0 rlineto
      0 exch rlineto 0 rlineto closepath } bind def
/S { stroke } bind def
/f { fill } bind def
/f* { eofill } bind def
/n { newpath } bind def
/W { clip } bind def
/W* { eoclip } bind def
/BT { } bind def
/ET { } bind def
/pdfmark where { pop globaldict /?pdfmark /exec load put }
    { globaldict begin /?pdfmark /pop load def /pdfmark
    /cleartomark load def end } ifelse
/BDC { mark 3 1 roll /BDC pdfmark } bind def
/EMC { mark /EMC pdfmark } bind def
/cairo_store_point { /cairo_point_y exch def /cairo_point_x exch def } def
/Tj { show currentpoint cairo_store_point } bind def
/TJ {
  {
    dup
    type /stringtype eq
    { show } { -0.001 mul 0 cairo_font_matrix dtransform rmoveto } ifelse
  } forall
  currentpoint cairo_store_point
} bind def
/cairo_selectfont { cairo_font_matrix aload pop pop pop 0 0 6 array astore
    cairo_font exch selectfont cairo_point_x cairo_point_y moveto } bind def
/Tf { pop /cairo_font exch def /cairo_font_matrix where
      { pop cairo_selectfont } if } bind def
/Td { matrix translate cairo_font_matrix matrix concatmatrix dup
      /cairo_font_matrix exch def dup 4 get exch 5 get cairo_store_point
      /cairo_font where { pop cairo_selectfont } if } bind def
/Tm { 2 copy 8 2 roll 6 array astore /cairo_font_matrix exch def
      cairo_store_point /cairo_font where { pop cairo_selectfont } if } bind def
/g { setgray } bind def
/rg { setrgbcolor } bind def
/d1 { setcachedevice } bind def
%%EndProlog
%%BeginSetup
%%EndSetup
%%Page: 1 1
%%BeginPageSetup
%%PageBoundingBox: 0 -1 410 410
%%EndPageSetup
q 0 -1 410 411 rectclip q
0.784314 0.960784 1 rg
401.602 180.119 m 401.602 229.482 l 363.59 238.951 l 359.41 258.474 351.73
 276.697 341.227 292.924 c 361.402 326.494 l 326.492 361.404 l 292.926 341.228
 l 276.695 351.732 258.473 359.412 238.953 363.591 c 229.484 401.603 l 180.117
 401.603 l 170.648 363.591 l 151.125 359.412 132.902 351.732 116.676 341.228
 c 83.109 361.404 l 48.195 326.494 l 68.375 292.927 l 57.871 276.697 50.188
 258.474 46.008 238.955 c 8 229.486 l 8 180.119 l 46.008 170.65 l 50.188
 151.127 57.871 132.908 68.375 116.677 c 48.195 83.111 l 83.109 48.197 l
 116.676 68.377 l 132.902 57.873 151.125 50.189 170.648 46.009 c 180.117
 8.002 l 229.48 8.002 l 238.953 46.009 l 258.473 50.189 276.695 57.873 292.922
 68.377 c 326.492 48.197 l 361.402 83.111 l 341.227 116.677 l 351.73 132.904
 359.41 151.127 363.59 170.65 c h
401.602 180.119 m f
0.294118 0.72549 0.960784 rg
316.801 204.802 m 316.801 142.947 266.656 92.802 204.801 92.802 c 142.945
 92.802 92.801 142.947 92.801 204.802 c 92.801 266.658 142.945 316.802 204.801
 316.802 c 266.656 316.802 316.801 266.658 316.801 204.802 c h
316.801 204.802 m f
1 g
254.398 204.802 m 254.398 177.408 232.191 155.201 204.801 155.201 c 177.406
 155.201 155.199 177.408 155.199 204.802 c 155.199 232.193 177.406 254.4
 204.801 254.4 c 232.191 254.4 254.398 232.193 254.398 204.802 c h
254.398 204.802 m f
0 g
403.535 237.248 m 370.289 245.529 l 366.18 262.299 359.578 278.228 350.613
 293.013 c 368.262 322.373 l 370.152 325.521 369.66 329.552 367.062 332.15
 c 332.148 367.064 l 329.551 369.662 325.52 370.158 322.371 368.263 c 293.008
 350.615 l 278.227 359.584 262.297 366.185 245.527 370.291 c 237.246 403.537
 l 236.359 407.099 233.156 409.603 229.484 409.603 c 180.117 409.603 l 176.445
 409.603 173.242 407.099 172.355 403.537 c 164.074 370.291 l 147.305 366.181
 131.371 359.58 116.59 350.611 c 87.23 368.263 l 84.082 370.154 80.047 369.662
 77.453 367.064 c 42.539 332.15 l 39.941 329.552 39.445 325.521 41.34 322.373
 c 58.988 293.013 l 50.02 278.228 43.418 262.299 39.309 245.529 c 6.066 
237.248 l 2.5 236.361 0 233.158 0 229.486 c 0 180.119 l 0 176.447 2.5 173.244
 6.066 172.357 c 39.312 164.076 l 43.418 147.306 50.02 131.377 58.988 116.591
 c 41.34 87.232 l 39.445 84.084 39.941 80.049 42.539 77.451 c 77.453 42.541
 l 80.047 39.943 84.082 39.447 87.23 41.341 c 116.59 58.99 l 131.375 50.021
 147.305 43.42 164.074 39.31 c 172.355 6.068 l 173.242 2.502 176.445 0.002
 180.117 0.002 c 229.484 0.002 l 233.156 0.002 236.359 2.502 237.246 6.068
 c 245.531 39.31 l 262.297 43.42 278.227 50.021 293.012 58.99 c 322.371 
41.341 l 325.52 39.447 329.555 39.943 332.152 42.541 c 367.062 77.451 l 
369.66 80.049 370.156 84.084 368.266 87.232 c 350.613 116.591 l 359.582 
131.377 366.184 147.306 370.293 164.076 c 403.535 172.357 l 407.102 173.244
 409.602 176.447 409.602 180.119 c 409.602 229.486 l 409.602 233.158 407.098
 236.361 403.535 237.248 c h
393.602 186.369 m 361.656 178.412 l 358.691 177.674 356.406 175.31 355.77
 172.326 c 351.852 154.025 344.699 136.767 334.508 121.025 c 332.852 118.459
 332.797 115.174 334.367 112.556 c 351.328 84.345 l 325.254 58.275 l 297.043
 75.232 l 294.426 76.806 291.141 76.752 288.578 75.091 c 272.836 64.904 
255.574 57.752 237.277 53.834 c 234.289 53.193 231.926 50.908 231.188 47.943
 c 223.23 16.002 l 186.367 16.002 l 178.41 47.943 l 177.672 50.908 175.309
 53.193 172.324 53.834 c 154.023 57.752 136.766 64.904 121.023 75.091 c 
118.457 76.752 115.172 76.806 112.555 75.232 c 84.344 58.275 l 58.273 84.345
 l 75.23 112.556 l 76.805 115.174 76.75 118.459 75.09 121.025 c 64.902 136.767
 57.746 154.025 53.832 172.326 c 53.191 175.31 50.906 177.674 47.941 178.412
 c 16 186.369 l 16 223.232 l 47.941 231.189 l 50.906 231.927 53.191 234.291
 53.832 237.279 c 57.75 255.576 64.902 272.838 75.09 288.58 c 76.75 291.142
 76.805 294.427 75.23 297.045 c 58.273 325.259 l 84.344 351.33 l 112.555
 334.373 l 115.172 332.799 118.457 332.853 121.023 334.513 c 136.766 344.701
 154.023 351.853 172.324 355.771 c 175.309 356.408 177.672 358.693 178.41
 361.658 c 186.367 393.603 l 223.23 393.603 l 231.188 361.658 l 231.926 
358.693 234.289 356.408 237.277 355.771 c 255.574 351.853 272.836 344.701
 288.578 334.509 c 291.141 332.849 294.426 332.799 297.043 334.369 c 325.254
 351.33 l 351.328 325.256 l 334.367 297.045 l 332.797 294.427 332.852 291.142
 334.508 288.58 c 344.699 272.838 351.852 255.576 355.77 237.279 c 356.406
 234.291 358.691 231.927 361.656 231.189 c 393.602 223.232 l h
393.602 186.369 m f
204.801 324.802 m 186.141 324.802 168.262 320.634 151.652 312.416 c 147.691
 310.459 146.07 305.662 148.027 301.701 c 149.988 297.74 154.785 296.115
 158.746 298.076 c 173.129 305.193 188.625 308.802 204.801 308.802 c 262.145
 308.802 308.801 262.146 308.801 204.802 c 308.801 147.455 262.145 100.802
 204.801 100.802 c 147.453 100.802 100.801 147.455 100.801 204.802 c 100.801
 223.443 105.789 241.728 115.223 257.677 c 117.473 261.478 116.215 266.384
 112.414 268.634 c 108.609 270.884 103.703 269.627 101.453 265.826 c 90.559
 247.412 84.801 226.31 84.801 204.802 c 84.801 138.634 138.633 84.802 204.801
 84.802 c 270.969 84.802 324.801 138.634 324.801 204.802 c 324.801 270.97
 270.969 324.802 204.801 324.802 c h
204.801 324.802 m f
204.801 262.4 m 173.039 262.4 147.199 236.564 147.199 204.802 c 147.199
 173.041 173.039 147.201 204.801 147.201 c 236.562 147.201 262.398 173.041
 262.398 204.802 c 262.398 236.564 236.562 262.4 204.801 262.4 c h
204.801 163.201 m 181.863 163.201 163.199 181.865 163.199 204.802 c 163.199
 227.74 181.863 246.4 204.801 246.4 c 227.738 246.4 246.398 227.74 246.398
 204.802 c 246.398 181.865 227.738 163.201 204.801 163.201 c h
204.801 163.201 m f
128.473 278.756 m 130.574 278.756 132.641 279.611 134.129 281.099 c 135.617
 282.584 136.473 284.65 136.473 286.756 c 136.473 288.857 135.617 290.924
 134.129 292.408 c 132.641 293.896 130.574 294.756 128.473 294.756 c 126.367
 294.756 124.305 293.896 122.816 292.408 c 121.328 290.924 120.473 288.857
 120.473 286.756 c 120.473 284.65 121.328 282.584 122.816 281.099 c 124.305
 279.611 126.367 278.756 128.473 278.756 c h
128.473 278.756 m f
Q Q
showpage
%%Trailer
end restore
%%EOF
