%!PS-Adobe-3.0 EPSF-3.0
%%Creator: cairo 1.14.2 (http://cairographics.org)
%%CreationDate: Fri Jun 15 11:41:46 2018
%%Pages: 1
%%DocumentData: Clean7Bit
%%LanguageLevel: 2
%%BoundingBox: 0 -1 410 410
%%EndComments
%%BeginProlog
save
50 dict begin
/q { gsave } bind def
/Q { grestore } bind def
/cm { 6 array astore concat } bind def
/w { setlinewidth } bind def
/J { setlinecap } bind def
/j { setlinejoin } bind def
/M { setmiterlimit } bind def
/d { setdash } bind def
/m { moveto } bind def
/l { lineto } bind def
/c { curveto } bind def
/h { closepath } bind def
/re { exch dup neg 3 1 roll 5 3 roll moveto 0 rlineto
      0 exch rlineto 0 rlineto closepath } bind def
/S { stroke } bind def
/f { fill } bind def
/f* { eofill } bind def
/n { newpath } bind def
/W { clip } bind def
/W* { eoclip } bind def
/BT { } bind def
/ET { } bind def
/pdfmark where { pop globaldict /?pdfmark /exec load put }
    { globaldict begin /?pdfmark /pop load def /pdfmark
    /cleartomark load def end } ifelse
/BDC { mark 3 1 roll /BDC pdfmark } bind def
/EMC { mark /EMC pdfmark } bind def
/cairo_store_point { /cairo_point_y exch def /cairo_point_x exch def } def
/Tj { show currentpoint cairo_store_point } bind def
/TJ {
  {
    dup
    type /stringtype eq
    { show } { -0.001 mul 0 cairo_font_matrix dtransform rmoveto } ifelse
  } forall
  currentpoint cairo_store_point
} bind def
/cairo_selectfont { cairo_font_matrix aload pop pop pop 0 0 6 array astore
    cairo_font exch selectfont cairo_point_x cairo_point_y moveto } bind def
/Tf { pop /cairo_font exch def /cairo_font_matrix where
      { pop cairo_selectfont } if } bind def
/Td { matrix translate cairo_font_matrix matrix concatmatrix dup
      /cairo_font_matrix exch def dup 4 get exch 5 get cairo_store_point
      /cairo_font where { pop cairo_selectfont } if } bind def
/Tm { 2 copy 8 2 roll 6 array astore /cairo_font_matrix exch def
      cairo_store_point /cairo_font where { pop cairo_selectfont } if } bind def
/g { setgray } bind def
/rg { setrgbcolor } bind def
/d1 { setcachedevice } bind def
%%EndProlog
%%BeginSetup
%%EndSetup
%%Page: 1 1
%%BeginPageSetup
%%PageBoundingBox: 0 -1 410 410
%%EndPageSetup
q 0 -1 410 411 rectclip q
1 g
319.988 8.014 m 52.797 8.014 l 28.055 8.014 8 28.073 8 52.811 c 8 401.584
 l 319.996 401.584 l f
0.960784 0.72549 0.333333 rg
391.91 375.721 m 378.988 388.643 358.035 388.643 345.113 375.721 c 206.84
 237.444 l 253.633 190.651 l 391.91 328.928 l 404.832 341.846 404.832 362.799
 391.91 375.721 c h
391.91 375.721 m f
0.843137 0.843137 0.901961 rg
289.465 228.553 m 247.469 270.549 l 239.5 270.108 l 206.84 237.444 l 253.633
 190.651 l 289.465 226.483 l h
289.465 228.553 m f
0.909804 0.670588 0.509804 rg
253.621 190.663 m 206.852 237.432 l 184.812 243.303 160.332 237.6 143.047
 220.315 c 106.082 183.35 141.113 152.815 117.852 101.663 c 170.125 93.202
 210.695 101.053 236.5 126.862 c 253.789 144.147 259.492 168.627 253.621
 190.663 c h
253.621 190.663 m f
1 0.352941 0.352941 rg
236.5 126.862 m 236.688 127.045 236.863 127.237 237.043 127.424 c 236.113
 127.28 203.812 122.639 186.371 164.323 c 165.234 214.842 129.68 194.018
 129.68 194.018 c 127.031 194.26 l 119.617 167.389 135.492 140.455 117.848
 101.663 c 170.125 93.202 210.695 101.053 236.5 126.862 c h
236.5 126.862 m f
0.607843 0.745098 1 rg
60.129 8.014 m 324.633 8.014 l 349.375 8.014 369.43 28.073 369.43 52.811
 c 97.594 52.811 l 97.594 28.073 77.535 8.014 52.797 8.014 c f
0 g
397.566 381.377 m 381.543 397.397 355.477 397.397 339.457 381.377 c 338.246
 380.166 l 338.246 380.166 338.246 380.166 338.242 380.163 c 338.242 380.163
 338.238 380.159 338.234 380.155 c 302.941 344.862 l 302.938 344.858 302.938
 344.858 302.938 344.858 c 302.934 344.854 302.93 344.85 302.93 344.846 
c 204.309 246.229 l 180.172 251.03 154.906 243.483 137.391 225.971 c 114.547
 203.127 116.16 181.362 117.719 160.315 c 118.961 143.565 120.242 126.241
 110.57 104.975 c 109.535 102.705 109.621 100.084 110.801 97.885 c 111.977
 95.686 114.113 94.163 116.574 93.764 c 130.488 91.514 143.555 90.389 155.754
 90.389 c 192.68 90.389 221.652 100.698 242.156 121.202 c 242.273 121.319
 242.387 121.44 242.5 121.557 c 242.719 121.76 242.922 121.971 243.117 122.194
 c 259.938 139.659 267.129 164.432 262.418 188.12 c 397.566 323.268 l 405.324
 331.03 409.602 341.346 409.602 352.323 c 409.602 363.299 405.324 373.616
 397.566 381.377 c h
344.973 293.307 m 337.105 303.315 332.82 315.573 332.82 328.487 c 332.82
 343.725 338.766 358.061 349.559 368.854 c 350.77 370.065 l 351.336 370.631
 351.922 371.163 352.527 371.663 c 350.379 352.143 356.184 332.561 368.898
 317.233 c h
333.59 281.92 m 309.668 257.998 l 301.797 268.006 297.516 280.264 297.516
 293.178 c 297.516 308.416 303.457 322.748 314.246 333.541 c 317.277 336.573
 l 316.988 333.905 316.824 331.209 316.824 328.487 c 316.824 311.291 322.734
 295.002 333.59 281.92 c h
298.285 246.616 m 290.5 238.83 l 255.02 274.311 l 281.973 301.264 l 281.68
 298.596 281.516 295.901 281.516 293.178 c 281.516 275.983 287.43 259.694
 298.285 246.616 c h
243.707 262.998 m 279.188 227.518 l 253.633 201.963 l 218.152 237.444 l
 h
129.035 108.139 m 136.102 128.725 134.82 146.006 133.676 161.498 c 132.977
 170.948 132.371 179.194 133.617 187.061 c 133.652 187.08 133.688 187.096
 133.723 187.116 c 133.82 187.174 143.727 192.694 154.809 188.995 c 164.504
 185.756 172.641 176.416 178.996 161.237 c 189.238 136.756 204.523 126.674
 215.539 122.53 c 216.207 122.276 216.863 122.049 217.516 121.834 c 195.977
 108.092 166.332 103.495 129.035 108.139 c h
233.34 135.178 m 226.391 135.147 206.156 137.768 193.754 167.409 c 185.539
 187.038 174.141 199.405 159.875 204.17 c 153.102 206.432 146.684 206.596
 141.277 205.893 c 143.277 208.764 145.719 211.67 148.703 214.659 c 162.82
 228.772 183.363 234.635 202.766 230.205 c 246.391 186.58 l 250.547 168.362
 245.637 149.139 233.34 135.178 c h
386.254 334.584 m 380.277 328.608 l 369.445 342.385 365.551 360.268 369.762
 377.381 c 375.996 377.077 381.809 374.506 386.25 370.065 c 390.992 365.327
 393.602 359.026 393.602 352.327 c 393.602 345.623 390.992 339.323 386.254
 334.584 c h
386.254 334.584 m f
319.988 196.799 m 322.09 196.799 324.156 197.659 325.641 199.143 c 327.129
 200.631 327.984 202.698 327.984 204.799 c 327.984 206.905 327.129 208.967
 325.641 210.455 c 324.152 211.944 322.09 212.799 319.988 212.799 c 317.883
 212.799 315.82 211.944 314.332 210.455 c 312.844 208.967 311.988 206.905
 311.988 204.799 c 311.988 202.698 312.844 200.631 314.332 199.143 c 315.82
 197.659 317.883 196.799 319.988 196.799 c h
319.988 196.799 m f
156.613 355.19 m 154.508 355.19 152.445 356.045 150.961 357.534 c 149.473
 359.022 148.613 361.084 148.613 363.19 c 148.613 365.291 149.469 367.358
 150.961 368.842 c 152.445 370.33 154.512 371.186 156.613 371.186 c 158.719
 371.186 160.781 370.33 162.27 368.842 c 163.758 367.354 164.613 365.291
 164.613 363.19 c 164.613 361.084 163.758 359.022 162.27 357.534 c 160.781
 356.045 158.719 355.19 156.613 355.19 c h
156.613 355.19 m f
369.43 60.811 m 327.984 60.811 l 327.984 172.002 l 327.984 176.42 324.402
 180.002 319.984 180.002 c 315.566 180.002 311.988 176.42 311.988 172.002
 c 311.988 60.811 l 97.594 60.811 l 93.176 60.811 89.594 57.229 89.594 52.811
 c 89.594 32.522 73.086 16.014 52.797 16.014 c 32.508 16.014 16 32.522 16
 52.811 c 16 355.19 l 122.969 355.19 l 127.387 355.19 130.969 358.772 130.969
 363.19 c 130.969 367.604 127.387 371.186 122.969 371.186 c 16 371.186 l
 16 393.584 l 311.996 393.584 l 311.996 385.413 l 311.996 380.995 315.578
 377.413 319.992 377.413 c 324.41 377.413 327.992 380.995 327.992 385.413
 c 327.992 401.584 l 327.992 406.002 324.41 409.584 319.992 409.584 c 8 
409.584 l 3.582 409.584 0 406.002 0 401.584 c 0 52.811 l 0 24.6 22.242 1.483
 50.113 0.08 c 50.457 0.038 50.801 0.014 51.156 0.014 c 324.633 0.014 l 
353.746 0.014 377.43 23.698 377.43 52.811 c 377.43 57.229 373.848 60.811
 369.43 60.811 c h
324.633 16.014 m 90.621 16.014 l 98.121 23.721 103.293 33.702 104.988 44.811
 c 360.555 44.811 l 356.891 28.358 342.176 16.014 324.633 16.014 c h
324.633 16.014 m f
Q Q
showpage
%%Trailer
end restore
%%EOF
