%!PS-Adobe-3.0 EPSF-3.0
%%Creator: cairo 1.14.2 (http://cairographics.org)
%%CreationDate: Fri Jun 15 11:41:46 2018
%%Pages: 1
%%DocumentData: Clean7Bit
%%LanguageLevel: 2
%%BoundingBox: 0 -1 410 410
%%EndComments
%%BeginProlog
save
50 dict begin
/q { gsave } bind def
/Q { grestore } bind def
/cm { 6 array astore concat } bind def
/w { setlinewidth } bind def
/J { setlinecap } bind def
/j { setlinejoin } bind def
/M { setmiterlimit } bind def
/d { setdash } bind def
/m { moveto } bind def
/l { lineto } bind def
/c { curveto } bind def
/h { closepath } bind def
/re { exch dup neg 3 1 roll 5 3 roll moveto 0 rlineto
      0 exch rlineto 0 rlineto closepath } bind def
/S { stroke } bind def
/f { fill } bind def
/f* { eofill } bind def
/n { newpath } bind def
/W { clip } bind def
/W* { eoclip } bind def
/BT { } bind def
/ET { } bind def
/pdfmark where { pop globaldict /?pdfmark /exec load put }
    { globaldict begin /?pdfmark /pop load def /pdfmark
    /cleartomark load def end } ifelse
/BDC { mark 3 1 roll /BDC pdfmark } bind def
/EMC { mark /EMC pdfmark } bind def
/cairo_store_point { /cairo_point_y exch def /cairo_point_x exch def } def
/Tj { show currentpoint cairo_store_point } bind def
/TJ {
  {
    dup
    type /stringtype eq
    { show } { -0.001 mul 0 cairo_font_matrix dtransform rmoveto } ifelse
  } forall
  currentpoint cairo_store_point
} bind def
/cairo_selectfont { cairo_font_matrix aload pop pop pop 0 0 6 array astore
    cairo_font exch selectfont cairo_point_x cairo_point_y moveto } bind def
/Tf { pop /cairo_font exch def /cairo_font_matrix where
      { pop cairo_selectfont } if } bind def
/Td { matrix translate cairo_font_matrix matrix concatmatrix dup
      /cairo_font_matrix exch def dup 4 get exch 5 get cairo_store_point
      /cairo_font where { pop cairo_selectfont } if } bind def
/Tm { 2 copy 8 2 roll 6 array astore /cairo_font_matrix exch def
      cairo_store_point /cairo_font where { pop cairo_selectfont } if } bind def
/g { setgray } bind def
/rg { setrgbcolor } bind def
/d1 { setcachedevice } bind def
%%EndProlog
%%BeginSetup
%%EndSetup
%%Page: 1 1
%%BeginPageSetup
%%PageBoundingBox: 0 -1 410 410
%%EndPageSetup
q 0 -1 410 411 rectclip q
0.784314 0.960784 1 rg
331.395 363.202 m 78.207 363.202 l 60.641 363.202 46.398 348.959 46.398
 331.393 c 46.398 78.205 l 46.398 60.639 60.641 46.401 78.207 46.401 c 331.395
 46.401 l 348.961 46.401 363.199 60.639 363.199 78.205 c 363.199 331.393
 l 363.199 348.959 348.961 363.202 331.395 363.202 c h
331.395 363.202 m f
0.647059 0.862745 0.411765 rg
363.199 78.205 m 363.199 95.827 l 299.516 186.979 l 291.008 199.155 272.98
 199.155 264.473 186.979 c 229.961 137.584 l 229.961 137.588 l 174.34 233.924
 l 166.113 248.174 145.547 248.174 137.32 233.924 c 46.445 76.518 l 47.324
 59.737 61.207 46.401 78.207 46.401 c 331.395 46.401 l 348.961 46.401 363.199
 60.639 363.199 78.205 c h
363.199 78.205 m f
0 g
124.68 316.799 m 122.566 316.799 120.512 317.655 119.023 319.143 c 117.527
 320.631 116.68 322.698 116.68 324.799 c 116.68 326.905 117.527 328.967 
119.023 330.455 c 120.512 331.944 122.574 332.799 124.68 332.799 c 126.785
 332.799 128.84 331.944 130.336 330.455 c 131.824 328.967 132.68 326.905
 132.68 324.799 c 132.68 322.698 131.824 320.631 130.336 319.143 c 128.848
 317.655 126.781 316.799 124.68 316.799 c h
124.68 316.799 m f
0.960784 0.72549 0.333333 rg
294.762 279.967 m 294.762 263.502 281.41 250.151 264.945 250.151 c 248.477
 250.151 235.129 263.502 235.129 279.967 c 235.129 296.436 248.477 309.784
 264.945 309.784 c 281.41 309.784 294.762 296.436 294.762 279.967 c h
294.762 279.967 m f
0 g
8 301.819 m 12.418 301.819 16 305.401 16 309.819 c 16 393.6 l 99.781 393.6
 l 104.199 393.6 107.781 397.182 107.781 401.6 c 107.781 406.018 104.199
 409.6 99.781 409.6 c 8 409.6 l 3.582 409.6 0 406.018 0 401.6 c 0 309.819
 l 0 305.401 3.582 301.819 8 301.819 c h
8 301.819 m f
401.602 409.6 m 309.82 409.6 l 305.402 409.6 301.82 406.018 301.82 401.6
 c 301.82 397.182 305.402 393.6 309.82 393.6 c 393.602 393.6 l 393.602 309.819
 l 393.602 305.401 397.184 301.819 401.602 301.819 c 406.02 301.819 409.602
 305.401 409.602 309.819 c 409.602 401.6 l 409.602 406.018 406.02 409.6 
401.602 409.6 c h
401.602 409.6 m f
401.602 107.78 m 397.184 107.78 393.602 104.202 393.602 99.78 c 393.602
 15.998 l 309.82 15.998 l 305.402 15.998 301.82 12.42 301.82 7.998 c 301.82
 3.58 305.402 -0.002 309.82 -0.002 c 401.602 -0.002 l 406.02 -0.002 409.602
 3.58 409.602 7.998 c 409.602 99.78 l 409.602 104.202 406.02 107.78 401.602
 107.78 c h
401.602 107.78 m f
99.781 15.998 m 16 15.998 l 16 99.78 l 16 104.202 12.418 107.78 8 107.78
 c 3.582 107.78 0 104.202 0 99.78 c 0 7.998 l 0 3.58 3.582 -0.002 8 -0.002
 c 99.781 -0.002 l 104.199 -0.002 107.781 3.58 107.781 7.998 c 107.781 12.42
 104.199 15.998 99.781 15.998 c h
99.781 15.998 m f
331.395 371.202 m 78.207 371.202 l 56.258 371.202 38.398 353.342 38.398
 331.393 c 38.398 78.205 l 38.398 77.811 38.418 77.424 38.43 77.034 c 38.379
 76.338 38.414 75.639 38.543 74.959 c 40.203 54.526 57.352 38.401 78.207
 38.401 c 165.602 38.401 l 170.02 38.401 173.602 41.983 173.602 46.401 c
 173.602 50.819 170.02 54.401 165.602 54.401 c 78.207 54.401 l 66.258 54.401
 56.34 63.248 54.656 74.737 c 144.25 229.924 l 146.668 234.112 150.996 236.612
 155.832 236.612 c 160.664 236.612 164.996 234.112 167.414 229.924 c 243.348
 98.401 l 245.559 94.573 250.449 93.26 254.277 95.471 c 258.102 97.682 259.414
 102.573 257.203 106.401 c 239.438 137.174 l 271.031 182.397 l 273.57 186.03
 277.566 188.112 281.992 188.112 c 286.422 188.112 290.418 186.03 292.957
 182.397 c 355.199 93.311 l 355.199 78.205 l 355.199 65.08 344.52 54.401
 331.395 54.401 c 241.602 54.401 l 237.184 54.401 233.602 50.819 233.602
 46.401 c 233.602 41.983 237.184 38.401 241.602 38.401 c 331.395 38.401 
l 353.344 38.401 371.199 56.256 371.199 78.205 c 371.199 331.393 l 371.199
 353.342 353.344 371.202 331.395 371.202 c h
355.199 121.245 m 306.07 191.561 l 300.582 199.42 291.582 204.112 281.992
 204.112 c 272.406 204.112 263.406 199.42 257.914 191.561 c 230.605 152.471
 l 181.266 237.924 l 175.957 247.123 166.449 252.612 155.828 252.612 c 145.211
 252.612 135.699 247.123 130.391 237.924 c 54.398 106.295 l 54.398 316.799
 l 91.027 316.799 l 95.445 316.799 99.027 320.381 99.027 324.799 c 99.027
 329.217 95.445 332.799 91.027 332.799 c 54.445 332.799 l 55.176 345.276
 65.551 355.202 78.207 355.202 c 331.395 355.202 l 344.52 355.202 355.199
 344.522 355.199 331.393 c h
355.199 121.245 m f
264.941 317.788 m 244.086 317.788 227.121 300.819 227.121 279.967 c 227.121
 259.116 244.086 242.147 264.941 242.147 c 285.793 242.147 302.758 259.116
 302.758 279.967 c 302.758 300.819 285.793 317.788 264.941 317.788 c h
264.941 258.147 m 252.91 258.147 243.121 267.936 243.121 279.967 c 243.121
 291.998 252.91 301.788 264.941 301.788 c 276.973 301.788 286.758 291.998
 286.758 279.967 c 286.758 267.936 276.973 258.147 264.941 258.147 c h
264.941 258.147 m f
204.801 54.401 m 202.695 54.401 200.633 53.545 199.145 52.057 c 197.656
 50.569 196.801 48.502 196.801 46.401 c 196.801 44.295 197.656 42.233 199.145
 40.745 c 200.633 39.256 202.695 38.401 204.801 38.401 c 206.902 38.401 
208.969 39.256 210.457 40.745 c 211.941 42.233 212.801 44.295 212.801 46.401
 c 212.801 48.502 211.945 50.569 210.457 52.057 c 208.969 53.545 206.902
 54.401 204.801 54.401 c h
204.801 54.401 m f
Q Q
showpage
%%Trailer
end restore
%%EOF
