%!PS-Adobe-3.0 EPSF-3.0
%%Creator: cairo 1.14.2 (http://cairographics.org)
%%CreationDate: Fri Jun 15 11:41:46 2018
%%Pages: 1
%%DocumentData: Clean7Bit
%%LanguageLevel: 2
%%BoundingBox: 0 15 410 394
%%EndComments
%%BeginProlog
save
50 dict begin
/q { gsave } bind def
/Q { grestore } bind def
/cm { 6 array astore concat } bind def
/w { setlinewidth } bind def
/J { setlinecap } bind def
/j { setlinejoin } bind def
/M { setmiterlimit } bind def
/d { setdash } bind def
/m { moveto } bind def
/l { lineto } bind def
/c { curveto } bind def
/h { closepath } bind def
/re { exch dup neg 3 1 roll 5 3 roll moveto 0 rlineto
      0 exch rlineto 0 rlineto closepath } bind def
/S { stroke } bind def
/f { fill } bind def
/f* { eofill } bind def
/n { newpath } bind def
/W { clip } bind def
/W* { eoclip } bind def
/BT { } bind def
/ET { } bind def
/pdfmark where { pop globaldict /?pdfmark /exec load put }
    { globaldict begin /?pdfmark /pop load def /pdfmark
    /cleartomark load def end } ifelse
/BDC { mark 3 1 roll /BDC pdfmark } bind def
/EMC { mark /EMC pdfmark } bind def
/cairo_store_point { /cairo_point_y exch def /cairo_point_x exch def } def
/Tj { show currentpoint cairo_store_point } bind def
/TJ {
  {
    dup
    type /stringtype eq
    { show } { -0.001 mul 0 cairo_font_matrix dtransform rmoveto } ifelse
  } forall
  currentpoint cairo_store_point
} bind def
/cairo_selectfont { cairo_font_matrix aload pop pop pop 0 0 6 array astore
    cairo_font exch selectfont cairo_point_x cairo_point_y moveto } bind def
/Tf { pop /cairo_font exch def /cairo_font_matrix where
      { pop cairo_selectfont } if } bind def
/Td { matrix translate cairo_font_matrix matrix concatmatrix dup
      /cairo_font_matrix exch def dup 4 get exch 5 get cairo_store_point
      /cairo_font where { pop cairo_selectfont } if } bind def
/Tm { 2 copy 8 2 roll 6 array astore /cairo_font_matrix exch def
      cairo_store_point /cairo_font where { pop cairo_selectfont } if } bind def
/g { setgray } bind def
/rg { setrgbcolor } bind def
/d1 { setcachedevice } bind def
%%EndProlog
%%BeginSetup
%%EndSetup
%%Page: 1 1
%%BeginPageSetup
%%PageBoundingBox: 0 15 410 394
%%EndPageSetup
q 0 15 410 379 rectclip q
0.941176 0.941176 0.980392 rg
312.141 203.202 m 97.457 203.202 l 48.043 203.202 7.988 163.143 7.988 113.733
 c 7.988 64.323 48.043 24.264 97.457 24.264 c 131.875 24.264 161.746 43.702
 176.711 72.194 c 232.891 72.194 l 247.855 43.702 277.727 24.264 312.145
 24.264 c 361.555 24.264 401.613 64.323 401.613 113.733 c 401.613 163.143
 361.555 203.202 312.141 203.202 c h
312.141 203.202 m f
0.529412 0.529412 0.568627 rg
126.219 129.608 m 113.438 129.608 l 113.438 142.389 l 113.438 151.213 106.285
 158.366 97.461 158.366 c 88.637 158.366 81.484 151.213 81.484 142.389 c
 81.484 129.608 l 68.703 129.608 l 59.879 129.608 52.727 122.455 52.727 
113.631 c 52.727 104.807 59.879 97.655 68.703 97.655 c 81.484 97.655 l 81.484
 84.873 l 81.484 76.049 88.637 68.897 97.461 68.897 c 106.285 68.897 113.438
 76.049 113.438 84.873 c 113.438 97.655 l 126.219 97.655 l 135.043 97.655
 142.195 104.807 142.195 113.631 c 142.195 122.455 135.043 129.608 126.219
 129.608 c h
126.219 129.608 m f
1 0.431373 0.215686 rg
326.73 149.596 m 326.73 140.776 319.578 133.62 310.754 133.62 c 301.93 
133.62 294.777 140.776 294.777 149.596 c 294.777 158.42 301.93 165.573 310.754
 165.573 c 319.578 165.573 326.73 158.42 326.73 149.596 c h
326.73 149.596 m f
0.647059 0.862745 0.411765 rg
326.73 77.663 m 326.73 68.838 319.578 61.686 310.754 61.686 c 301.93 61.686
 294.777 68.838 294.777 77.663 c 294.777 86.487 301.93 93.639 310.754 93.639
 c 319.578 93.639 326.73 86.487 326.73 77.663 c h
326.73 77.663 m f
0.431373 0.529412 0.960784 rg
290.758 113.635 m 290.758 104.811 283.605 97.659 274.781 97.659 c 265.957
 97.659 258.805 104.811 258.805 113.635 c 258.805 122.459 265.957 129.612
 274.781 129.612 c 283.605 129.612 290.758 122.459 290.758 113.635 c h
290.758 113.635 m f
0.862745 0.294118 0.294118 rg
362.691 113.635 m 362.691 104.811 355.539 97.659 346.715 97.659 c 337.891
 97.659 330.738 104.811 330.738 113.635 c 330.738 122.459 337.891 129.612
 346.715 129.612 c 355.539 129.612 362.691 122.459 362.691 113.635 c h
362.691 113.635 m f
0.607843 0.745098 1 rg
202.508 235.155 m 186.625 235.155 173.75 222.28 173.75 206.397 c 173.75
 203.202 l 231.266 203.202 l 231.266 206.397 l 231.266 222.28 218.391 235.155
 202.508 235.155 c h
202.508 235.155 m f
0 g
312.141 211.19 m 305.691 211.19 l 301.277 211.19 297.703 207.612 297.703
 203.202 c 297.703 198.791 301.277 195.213 305.691 195.213 c 312.141 195.213
 l 357.07 195.213 393.625 158.663 393.625 113.733 c 393.625 68.803 357.07
 32.252 312.141 32.252 c 281.762 32.252 254.102 48.979 239.961 75.909 c 
238.578 78.538 235.855 80.182 232.887 80.182 c 176.711 80.182 l 173.742 
80.182 171.02 78.534 169.637 75.909 c 155.496 48.979 127.836 32.252 97.457
 32.252 c 52.527 32.252 15.977 68.803 15.977 113.733 c 15.977 158.663 52.527
 195.213 97.457 195.213 c 248.039 195.213 l 252.453 195.213 256.027 198.791
 256.027 203.202 c 256.027 207.612 252.453 211.19 248.039 211.19 c 238.93
 211.19 l 237.012 225.85 226.422 237.811 212.492 241.752 c 212.492 284.092
 l 212.492 296.315 202.547 306.256 190.328 306.256 c 161.164 306.256 l 157.754
 306.256 154.977 309.034 154.977 312.448 c 154.977 353.655 l 154.977 358.065
 151.398 361.643 146.988 361.643 c 142.578 361.643 139 358.065 139 353.655
 c 139 312.444 l 139 300.225 148.941 290.28 161.164 290.28 c 190.328 290.28
 l 193.738 290.28 196.516 287.502 196.516 284.092 c 196.516 242.643 l 180.648
 240.03 168.184 227.221 166.086 211.19 c 97.457 211.19 l 43.719 211.19 0
 167.467 0 113.733 c 0 59.995 43.719 16.272 97.457 16.272 c 132.156 16.272
 163.887 34.518 181.402 64.202 c 228.199 64.202 l 245.715 34.518 277.441
 16.272 312.141 16.272 c 365.879 16.272 409.602 59.995 409.602 113.733 c
 409.602 167.471 365.879 211.19 312.141 211.19 c h
202.508 227.166 m 212.309 227.166 220.551 220.338 222.719 211.19 c 182.297
 211.19 l 184.465 220.338 192.703 227.166 202.508 227.166 c h
202.508 227.166 m f
275.602 195.209 m 277.699 195.209 279.762 196.065 281.246 197.557 c 282.734
 199.041 283.59 201.096 283.59 203.198 c 283.59 205.307 282.734 207.358 
281.246 208.854 c 279.762 210.338 277.703 211.186 275.602 211.186 c 273.5
 211.186 271.438 210.338 269.953 208.854 c 268.465 207.362 267.609 205.307
 267.609 203.198 c 267.609 201.096 268.465 199.045 269.953 197.557 c 271.438
 196.065 273.5 195.209 275.602 195.209 c h
275.602 195.209 m f
97.461 60.909 m 110.676 60.909 121.426 71.659 121.426 84.873 c 121.426 
89.666 l 126.219 89.666 l 139.434 89.666 150.184 100.416 150.184 113.631
 c 150.184 126.846 139.434 137.596 126.219 137.596 c 121.426 137.596 l 121.426
 142.389 l 121.426 155.604 110.676 166.354 97.461 166.354 c 84.246 166.354
 73.496 155.604 73.496 142.389 c 73.496 137.596 l 68.703 137.596 l 55.488
 137.596 44.738 126.846 44.738 113.631 c 44.738 100.416 55.488 89.666 68.703
 89.666 c 73.496 89.666 l 73.496 84.873 l 73.496 71.659 84.246 60.909 97.461
 60.909 c h
68.703 105.643 m 64.297 105.643 60.715 109.225 60.715 113.631 c 60.715 
118.038 64.297 121.62 68.703 121.62 c 81.484 121.62 l 85.895 121.62 89.473
 125.194 89.473 129.608 c 89.473 142.389 l 89.473 146.795 93.055 150.377
 97.461 150.377 c 101.867 150.377 105.449 146.795 105.449 142.389 c 105.449
 129.608 l 105.449 125.194 109.027 121.62 113.438 121.62 c 126.219 121.62
 l 130.625 121.62 134.207 118.038 134.207 113.631 c 134.207 109.225 130.625
 105.643 126.219 105.643 c 113.438 105.643 l 109.027 105.643 105.449 102.069
 105.449 97.655 c 105.449 84.873 l 105.449 80.467 101.867 76.885 97.461 
76.885 c 93.055 76.885 89.473 80.467 89.473 84.873 c 89.473 97.655 l 89.473
 102.069 85.895 105.643 81.484 105.643 c h
68.703 105.643 m f
310.75 125.635 m 323.965 125.635 334.715 136.385 334.715 149.6 c 334.715
 162.815 323.965 173.565 310.75 173.565 c 297.535 173.565 286.785 162.815
 286.785 149.6 c 286.785 136.385 297.535 125.635 310.75 125.635 c h
310.75 157.588 m 315.156 157.588 318.738 154.006 318.738 149.6 c 318.738
 145.198 315.156 141.612 310.75 141.612 c 306.344 141.612 302.762 145.198
 302.762 149.6 c 302.762 154.006 306.344 157.588 310.75 157.588 c h
310.75 157.588 m f
310.75 101.627 m 297.535 101.627 286.785 90.877 286.785 77.663 c 286.785
 64.448 297.535 53.698 310.75 53.698 c 323.965 53.698 334.715 64.448 334.715
 77.663 c 334.715 90.877 323.965 101.627 310.75 101.627 c h
310.75 69.674 m 306.344 69.674 302.762 73.256 302.762 77.663 c 302.762 
82.065 306.344 85.647 310.75 85.647 c 315.156 85.647 318.738 82.065 318.738
 77.663 c 318.738 73.256 315.156 69.674 310.75 69.674 c h
310.75 69.674 m f
370.684 113.631 m 370.684 126.846 359.934 137.596 346.719 137.596 c 333.504
 137.596 322.754 126.846 322.754 113.631 c 322.754 100.416 333.504 89.666
 346.719 89.666 c 359.934 89.666 370.684 100.416 370.684 113.631 c h
338.73 113.631 m 338.73 118.038 342.312 121.62 346.719 121.62 c 351.125
 121.62 354.707 118.038 354.707 113.631 c 354.707 109.225 351.125 105.643
 346.719 105.643 c 342.312 105.643 338.73 109.225 338.73 113.631 c h
338.73 113.631 m f
274.781 89.666 m 287.996 89.666 298.746 100.416 298.746 113.631 c 298.746
 126.846 287.996 137.596 274.781 137.596 c 261.566 137.596 250.816 126.846
 250.816 113.631 c 250.816 100.416 261.566 89.666 274.781 89.666 c h
274.781 121.62 m 279.184 121.62 282.77 118.038 282.77 113.631 c 282.77 
109.225 279.184 105.643 274.781 105.643 c 270.375 105.643 266.793 109.225
 266.793 113.631 c 266.793 118.038 270.375 121.62 274.781 121.62 c h
274.781 121.62 m f
146.988 377.35 m 149.09 377.35 151.152 378.205 152.637 379.69 c 154.121
 381.186 154.977 383.237 154.977 385.338 c 154.977 387.448 154.125 389.498
 152.637 390.987 c 151.152 392.479 149.09 393.327 146.988 393.327 c 144.887
 393.327 142.828 392.479 141.34 390.987 c 139.855 389.502 139 387.448 139
 385.338 c 139 383.237 139.855 381.186 141.34 379.69 c 142.828 378.205 144.887
 377.35 146.988 377.35 c h
146.988 377.35 m f
Q Q
showpage
%%Trailer
end restore
%%EOF
