%!PS-Adobe-3.0 EPSF-3.0
%%Creator: cairo 1.14.2 (http://cairographics.org)
%%CreationDate: Fri Jun 15 11:41:46 2018
%%Pages: 1
%%DocumentData: Clean7Bit
%%LanguageLevel: 2
%%BoundingBox: 0 -1 410 410
%%EndComments
%%BeginProlog
save
50 dict begin
/q { gsave } bind def
/Q { grestore } bind def
/cm { 6 array astore concat } bind def
/w { setlinewidth } bind def
/J { setlinecap } bind def
/j { setlinejoin } bind def
/M { setmiterlimit } bind def
/d { setdash } bind def
/m { moveto } bind def
/l { lineto } bind def
/c { curveto } bind def
/h { closepath } bind def
/re { exch dup neg 3 1 roll 5 3 roll moveto 0 rlineto
      0 exch rlineto 0 rlineto closepath } bind def
/S { stroke } bind def
/f { fill } bind def
/f* { eofill } bind def
/n { newpath } bind def
/W { clip } bind def
/W* { eoclip } bind def
/BT { } bind def
/ET { } bind def
/pdfmark where { pop globaldict /?pdfmark /exec load put }
    { globaldict begin /?pdfmark /pop load def /pdfmark
    /cleartomark load def end } ifelse
/BDC { mark 3 1 roll /BDC pdfmark } bind def
/EMC { mark /EMC pdfmark } bind def
/cairo_store_point { /cairo_point_y exch def /cairo_point_x exch def } def
/Tj { show currentpoint cairo_store_point } bind def
/TJ {
  {
    dup
    type /stringtype eq
    { show } { -0.001 mul 0 cairo_font_matrix dtransform rmoveto } ifelse
  } forall
  currentpoint cairo_store_point
} bind def
/cairo_selectfont { cairo_font_matrix aload pop pop pop 0 0 6 array astore
    cairo_font exch selectfont cairo_point_x cairo_point_y moveto } bind def
/Tf { pop /cairo_font exch def /cairo_font_matrix where
      { pop cairo_selectfont } if } bind def
/Td { matrix translate cairo_font_matrix matrix concatmatrix dup
      /cairo_font_matrix exch def dup 4 get exch 5 get cairo_store_point
      /cairo_font where { pop cairo_selectfont } if } bind def
/Tm { 2 copy 8 2 roll 6 array astore /cairo_font_matrix exch def
      cairo_store_point /cairo_font where { pop cairo_selectfont } if } bind def
/g { setgray } bind def
/rg { setrgbcolor } bind def
/d1 { setcachedevice } bind def
%%EndProlog
%%BeginSetup
%%EndSetup
%%Page: 1 1
%%BeginPageSetup
%%PageBoundingBox: 0 -1 410 410
%%EndPageSetup
q 0 -1 410 411 rectclip q
0.960784 0.784314 0.431373 rg
398.668 394.401 m 240.113 165.518 l 223.59 141.659 l 223.59 61.549 l 283.836
 120.428 l 253.066 177.866 l f
0.980392 0.882353 0.588235 rg
167.605 158.788 m 51.199 194.401 l 401.602 401.6 l 401.602 87.202 l 226.398
 140.799 l f
0.960784 0.72549 0.333333 rg
223.59 61.549 m 170.684 157.846 l 398.668 394.401 l 228.504 148.76 l h
223.59 61.549 m f
0 g
405.562 408.549 m 403.07 409.971 400 409.948 397.527 408.487 c 250.926 
321.795 l 247.121 319.545 245.863 314.639 248.109 310.838 c 250.359 307.034
 255.266 305.776 259.066 308.022 c 364.254 370.221 l 168.328 166.932 l 70.883
 196.745 l 198.055 271.944 l 201.859 274.194 203.117 279.1 200.867 282.905
 c 198.621 286.705 193.715 287.967 189.91 285.717 c 47.129 201.288 l 44.398
 199.674 42.879 196.6 43.258 193.455 c 43.633 190.307 45.828 187.678 48.859
 186.748 c 165.234 151.147 l 216.574 57.698 l 216.629 57.6 216.684 57.518
 216.742 57.444 c 217.598 56.014 218.883 54.85 220.484 54.174 c 221.488 
53.752 222.539 53.549 223.586 53.549 c 225.637 53.549 227.656 54.338 229.18
 55.827 c 288.215 113.522 l 399.258 79.549 l 400.027 79.315 400.816 79.202
 401.598 79.202 c 403.293 79.202 404.965 79.737 406.359 80.768 c 408.398
 82.276 409.602 84.663 409.602 87.202 c 409.602 401.6 l 409.602 404.471 
408.059 407.127 405.562 408.549 c h
335.668 317.502 m 217.012 146.217 l 216.086 144.877 215.59 143.288 215.59
 141.663 c 215.59 92.725 l 180.531 156.538 l h
231.59 80.553 m 231.59 130.846 l 270.781 118.858 l h
236.402 146.108 m 393.602 373.038 l 393.602 98.014 l h
236.402 146.108 m f
131.539 131.538 m 128.414 134.663 123.348 134.663 120.223 131.538 c 45.543
 56.858 l 42.418 53.733 42.418 48.666 45.543 45.541 c 47.105 43.979 49.152
 43.202 51.199 43.202 c 53.246 43.202 55.293 43.979 56.855 45.541 c 131.539
 120.225 l 134.664 123.346 134.664 128.413 131.539 131.538 c h
131.539 131.538 m f
20.742 32.057 m 2.344 13.659 l -0.781 10.534 -0.781 5.467 2.344 2.342 c
 3.906 0.78 5.953 -0.002 8 -0.002 c 10.047 -0.002 12.094 0.78 13.656 2.342
 c 32.059 20.745 l 35.18 23.866 35.18 28.932 32.059 32.057 c 28.934 35.178
 23.867 35.178 20.742 32.057 c h
20.742 32.057 m f
108.465 16.471 m 106.352 16.471 104.297 15.616 102.809 14.127 c 101.32 
12.639 100.465 10.584 100.465 8.471 c 100.465 6.37 101.32 4.303 102.809 
2.815 c 104.297 1.327 106.359 0.471 108.465 0.471 c 110.566 0.471 112.633
 1.327 114.121 2.815 c 115.605 4.303 116.465 6.37 116.465 8.471 c 116.465
 10.584 115.609 12.639 114.121 14.127 c 112.633 15.616 110.566 16.471 108.465
 16.471 c h
108.465 16.471 m f
162.328 73.651 m 122.77 34.096 l 119.645 30.971 119.645 25.905 122.77 22.784
 c 124.332 21.221 126.379 20.44 128.426 20.44 c 130.473 20.44 132.523 21.221
 134.086 22.784 c 173.641 62.338 l 176.766 65.463 176.766 70.53 173.641 
73.651 c 170.52 76.776 165.453 76.776 162.328 73.651 c h
162.328 73.651 m f
298.848 76.69 m 259.188 37.026 l 256.062 33.901 256.062 28.834 259.188 
25.709 c 260.746 24.147 262.797 23.366 264.844 23.366 c 266.891 23.366 268.938
 24.147 270.5 25.709 c 310.164 65.373 l 313.289 68.498 313.289 73.565 310.164
 76.69 c 307.039 79.811 301.973 79.811 298.848 76.69 c h
298.848 76.69 m f
221.145 286.897 m 223.246 286.897 225.312 287.745 226.801 289.241 c 228.289
 290.729 229.145 292.784 229.145 294.889 c 229.145 296.998 228.289 299.065
 226.801 300.553 c 225.312 302.041 223.246 302.897 221.145 302.897 c 219.039
 302.897 216.977 302.041 215.488 300.553 c 214 299.065 213.145 296.998 213.145
 294.889 c 213.145 292.784 214 290.729 215.488 289.241 c 216.977 287.745
 219.039 286.897 221.145 286.897 c h
221.145 286.897 m f
Q Q
showpage
%%Trailer
end restore
%%EOF
