%!PS-Adobe-3.0 EPSF-3.0
%%Creator: cairo 1.14.2 (http://cairographics.org)
%%CreationDate: Fri Jun 15 11:41:46 2018
%%Pages: 1
%%DocumentData: Clean7Bit
%%LanguageLevel: 2
%%BoundingBox: 0 -1 410 410
%%EndComments
%%BeginProlog
save
50 dict begin
/q { gsave } bind def
/Q { grestore } bind def
/cm { 6 array astore concat } bind def
/w { setlinewidth } bind def
/J { setlinecap } bind def
/j { setlinejoin } bind def
/M { setmiterlimit } bind def
/d { setdash } bind def
/m { moveto } bind def
/l { lineto } bind def
/c { curveto } bind def
/h { closepath } bind def
/re { exch dup neg 3 1 roll 5 3 roll moveto 0 rlineto
      0 exch rlineto 0 rlineto closepath } bind def
/S { stroke } bind def
/f { fill } bind def
/f* { eofill } bind def
/n { newpath } bind def
/W { clip } bind def
/W* { eoclip } bind def
/BT { } bind def
/ET { } bind def
/pdfmark where { pop globaldict /?pdfmark /exec load put }
    { globaldict begin /?pdfmark /pop load def /pdfmark
    /cleartomark load def end } ifelse
/BDC { mark 3 1 roll /BDC pdfmark } bind def
/EMC { mark /EMC pdfmark } bind def
/cairo_store_point { /cairo_point_y exch def /cairo_point_x exch def } def
/Tj { show currentpoint cairo_store_point } bind def
/TJ {
  {
    dup
    type /stringtype eq
    { show } { -0.001 mul 0 cairo_font_matrix dtransform rmoveto } ifelse
  } forall
  currentpoint cairo_store_point
} bind def
/cairo_selectfont { cairo_font_matrix aload pop pop pop 0 0 6 array astore
    cairo_font exch selectfont cairo_point_x cairo_point_y moveto } bind def
/Tf { pop /cairo_font exch def /cairo_font_matrix where
      { pop cairo_selectfont } if } bind def
/Td { matrix translate cairo_font_matrix matrix concatmatrix dup
      /cairo_font_matrix exch def dup 4 get exch 5 get cairo_store_point
      /cairo_font where { pop cairo_selectfont } if } bind def
/Tm { 2 copy 8 2 roll 6 array astore /cairo_font_matrix exch def
      cairo_store_point /cairo_font where { pop cairo_selectfont } if } bind def
/g { setgray } bind def
/rg { setrgbcolor } bind def
/d1 { setcachedevice } bind def
%%EndProlog
%%BeginSetup
%%EndSetup
%%Page: 1 1
%%BeginPageSetup
%%PageBoundingBox: 0 -1 410 410
%%EndPageSetup
q 0 -1 410 411 rectclip q
0.941176 0.941176 0.980392 rg
377.602 102.334 m 32 102.334 l 18.746 102.334 8 113.077 8 126.334 c 8 377.6
 l 8 390.854 18.746 401.6 32 401.6 c 377.602 401.6 l 390.855 401.6 401.602
 390.854 401.602 377.6 c 401.602 126.334 l 401.602 113.077 390.855 102.334
 377.602 102.334 c h
377.602 102.334 m f
0.745098 g
165.602 101.534 76.797 -55.133 re f
0.941176 0.941176 0.980392 rg
247.465 46.401 m 162.133 46.401 l 140.926 46.401 123.734 29.209 123.734
 7.998 c 285.867 7.998 l 285.867 29.209 268.676 46.401 247.465 46.401 c 
h
247.465 46.401 m f
0.784314 0.960784 1 rg
40 369.534 329.602 -216 re f
0 g
320 110.334 m 317.895 110.334 315.832 109.479 314.344 107.991 c 312.855
 106.502 312 104.44 312 102.334 c 312 100.233 312.855 98.166 314.344 96.678
 c 315.832 95.182 317.895 94.334 320 94.334 c 322.105 94.334 324.168 95.182
 325.656 96.678 c 327.145 98.166 328 100.233 328 102.334 c 328 104.44 327.145
 106.502 325.656 107.991 c 324.168 109.479 322.105 110.334 320 110.334 c
 h
320 110.334 m f
377.602 409.6 m 32 409.6 l 14.355 409.6 0 395.245 0 377.6 c 0 126.334 l
 0 108.69 14.355 94.334 32 94.334 c 157.602 94.334 l 157.602 54.174 l 134.133
 51.889 115.734 32.057 115.734 7.998 c 115.734 3.58 119.316 -0.002 123.734
 -0.002 c 285.867 -0.002 l 290.285 -0.002 293.867 3.58 293.867 7.998 c 293.867
 32.6 274.625 52.776 250.402 54.299 c 250.402 94.334 l 287.734 94.334 l 
292.152 94.334 295.734 97.913 295.734 102.334 c 295.734 106.752 292.152 
110.334 287.734 110.334 c 32 110.334 l 23.176 110.334 16 117.51 16 126.334
 c 16 377.6 l 16 386.42 23.176 393.6 32 393.6 c 377.602 393.6 l 386.422 
393.6 393.602 386.42 393.602 377.6 c 393.602 126.334 l 393.602 117.51 386.422
 110.334 377.602 110.334 c 347.734 110.334 l 343.316 110.334 339.734 106.752
 339.734 102.334 c 339.734 97.913 343.316 94.334 347.734 94.334 c 377.602
 94.334 l 395.246 94.334 409.602 108.69 409.602 126.334 c 409.602 377.6 
l 409.602 395.245 395.246 409.6 377.602 409.6 c h
276.801 15.998 m 132.801 15.998 l 136.32 28.893 148.137 38.401 162.133 
38.401 c 247.465 38.401 l 261.461 38.401 273.277 28.893 276.801 15.998 c
 h
234.398 54.401 m 173.602 54.401 l 173.602 94.334 l 234.398 94.334 l h
234.398 54.401 m f
198.344 133.592 m 196.855 132.104 196 130.041 196 127.936 c 196 125.823
 196.855 123.768 198.344 122.28 c 199.832 120.784 201.895 119.936 204 119.936
 c 206.105 119.936 208.168 120.784 209.656 122.28 c 211.145 123.768 212 
125.823 212 127.936 c 212 130.041 211.145 132.104 209.656 133.592 c 208.168
 135.08 206.105 135.936 204 135.936 c 201.895 135.936 199.832 135.08 198.344
 133.592 c h
198.344 133.592 m f
156.156 313.459 m 153.031 316.58 147.965 316.58 144.84 313.459 c 99.988
 268.604 l 96.863 265.483 96.863 260.416 99.988 257.291 c 144.84 212.44 
l 146.402 210.877 148.449 210.096 150.496 210.096 c 152.543 210.096 154.594
 210.877 156.152 212.44 c 159.277 215.561 159.277 220.627 156.152 223.752
 c 116.957 262.948 l 156.152 302.143 l 159.277 305.268 159.277 310.334 156.156
 313.459 c h
156.156 313.459 m f
253.445 212.44 m 255.008 210.877 257.055 210.096 259.102 210.096 c 261.148
 210.096 263.199 210.877 264.758 212.44 c 309.613 257.291 l 312.734 260.416
 312.734 265.479 309.613 268.604 c 264.758 313.459 l 261.637 316.58 256.57
 316.58 253.445 313.459 c 250.32 310.334 250.32 305.268 253.445 302.143 
c 292.641 262.948 l 253.445 223.752 l 250.32 220.627 250.32 215.561 253.445
 212.44 c h
253.445 212.44 m f
190.754 207.538 m 191.445 207.35 192.145 207.264 192.828 207.264 c 196.363
 207.264 199.594 209.62 200.551 213.194 c 224.504 302.577 l 225.645 306.846
 223.113 311.233 218.844 312.377 c 214.578 313.522 210.191 310.987 209.047
 306.721 c 185.098 217.334 l 183.953 213.065 186.488 208.678 190.754 207.538
 c h
190.754 207.538 m f
377.602 153.534 m 377.602 369.534 l 377.602 373.952 374.02 377.534 369.602
 377.534 c 242.398 377.534 l 237.98 377.534 234.398 373.952 234.398 369.534
 c 234.398 365.116 237.98 361.534 242.398 361.534 c 361.602 361.534 l 361.602
 161.534 l 48 161.534 l 48 361.534 l 170.801 361.534 l 175.219 361.534 178.801
 365.116 178.801 369.534 c 178.801 373.952 175.219 377.534 170.801 377.534
 c 40 377.534 l 35.582 377.534 32 373.952 32 369.534 c 32 153.534 l 32 149.116
 35.582 145.534 40 145.534 c 369.602 145.534 l 374.02 145.534 377.602 149.116
 377.602 153.534 c h
377.602 153.534 m f
212.055 363.87 m 213.543 365.366 214.398 367.424 214.398 369.534 c 214.398
 371.639 213.543 373.702 212.055 375.19 c 210.566 376.678 208.504 377.534
 206.398 377.534 c 204.297 377.534 202.23 376.678 200.742 375.19 c 199.258
 373.702 198.398 371.639 198.398 369.534 c 198.398 367.432 199.258 365.366
 200.742 363.87 c 202.23 362.381 204.297 361.534 206.398 361.534 c 208.504
 361.534 210.566 362.381 212.055 363.87 c h
212.055 363.87 m f
Q Q
showpage
%%Trailer
end restore
%%EOF
