%!PS-Adobe-3.0 EPSF-3.0
%%Creator: cairo 1.14.2 (http://cairographics.org)
%%CreationDate: Fri Jun 15 11:41:46 2018
%%Pages: 1
%%DocumentData: Clean7Bit
%%LanguageLevel: 2
%%BoundingBox: 68 -1 341 410
%%EndComments
%%BeginProlog
save
50 dict begin
/q { gsave } bind def
/Q { grestore } bind def
/cm { 6 array astore concat } bind def
/w { setlinewidth } bind def
/J { setlinecap } bind def
/j { setlinejoin } bind def
/M { setmiterlimit } bind def
/d { setdash } bind def
/m { moveto } bind def
/l { lineto } bind def
/c { curveto } bind def
/h { closepath } bind def
/re { exch dup neg 3 1 roll 5 3 roll moveto 0 rlineto
      0 exch rlineto 0 rlineto closepath } bind def
/S { stroke } bind def
/f { fill } bind def
/f* { eofill } bind def
/n { newpath } bind def
/W { clip } bind def
/W* { eoclip } bind def
/BT { } bind def
/ET { } bind def
/pdfmark where { pop globaldict /?pdfmark /exec load put }
    { globaldict begin /?pdfmark /pop load def /pdfmark
    /cleartomark load def end } ifelse
/BDC { mark 3 1 roll /BDC pdfmark } bind def
/EMC { mark /EMC pdfmark } bind def
/cairo_store_point { /cairo_point_y exch def /cairo_point_x exch def } def
/Tj { show currentpoint cairo_store_point } bind def
/TJ {
  {
    dup
    type /stringtype eq
    { show } { -0.001 mul 0 cairo_font_matrix dtransform rmoveto } ifelse
  } forall
  currentpoint cairo_store_point
} bind def
/cairo_selectfont { cairo_font_matrix aload pop pop pop 0 0 6 array astore
    cairo_font exch selectfont cairo_point_x cairo_point_y moveto } bind def
/Tf { pop /cairo_font exch def /cairo_font_matrix where
      { pop cairo_selectfont } if } bind def
/Td { matrix translate cairo_font_matrix matrix concatmatrix dup
      /cairo_font_matrix exch def dup 4 get exch 5 get cairo_store_point
      /cairo_font where { pop cairo_selectfont } if } bind def
/Tm { 2 copy 8 2 roll 6 array astore /cairo_font_matrix exch def
      cairo_store_point /cairo_font where { pop cairo_selectfont } if } bind def
/g { setgray } bind def
/rg { setrgbcolor } bind def
/d1 { setcachedevice } bind def
%%EndProlog
%%BeginSetup
%%EndSetup
%%Page: 1 1
%%BeginPageSetup
%%PageBoundingBox: 68 -1 341 410
%%EndPageSetup
q 68 -1 273 411 rectclip q
1 0.803922 0.67451 rg
311.305 219.436 m 299.375 219.436 289.707 209.764 289.707 197.834 c 289.707
 215.014 l 289.707 226.944 280.035 236.616 268.105 236.616 c 256.176 236.616
 246.508 226.944 246.508 215.014 c 246.508 226.944 236.836 236.616 224.906
 236.616 c 212.977 236.616 203.305 226.944 203.305 215.014 c 203.305 296.6
 l 203.305 308.53 193.637 318.198 181.707 318.198 c 169.777 318.198 160.105
 308.53 160.105 296.6 c 160.105 123.202 l 134.043 165.963 l 127.637 176.475
 114.012 179.955 103.348 173.799 c 93.066 167.862 89.105 154.998 94.27 144.303
 c 131.117 68.002 l 148.836 31.315 185.988 7.998 226.73 7.998 c 285.367 
7.998 332.906 55.538 332.906 114.178 c 332.906 197.834 l 332.906 209.764
 323.234 219.436 311.305 219.436 c h
311.305 219.436 m f
0 g
181.707 344.268 m 186.125 344.268 189.707 347.846 189.707 352.268 c 189.707
 401.6 l 189.707 406.018 186.125 409.6 181.707 409.6 c 177.289 409.6 173.707
 406.018 173.707 401.6 c 173.707 352.268 l 173.707 347.85 177.289 344.268
 181.707 344.268 c h
181.707 344.268 m f
229.363 296.588 m 229.363 292.17 232.945 288.588 237.363 288.588 c 286.699
 288.588 l 291.117 288.588 294.699 292.17 294.699 296.588 c 294.699 301.006
 291.117 304.588 286.699 304.588 c 237.363 304.588 l 232.945 304.588 229.363
 301.006 229.363 296.588 c h
229.363 296.588 m f
134.027 296.608 m 134.027 301.026 130.445 304.608 126.027 304.608 c 76.695
 304.608 l 72.273 304.608 68.695 301.026 68.695 296.608 c 68.695 292.19 
72.273 288.608 76.695 288.608 c 126.027 288.608 l 130.445 288.608 134.027
 292.19 134.027 296.608 c h
134.027 296.608 m f
130.816 336.178 m 132.379 334.616 134.426 333.834 136.473 333.834 c 138.52
 333.834 140.566 334.616 142.129 336.178 c 145.254 339.303 145.254 344.37
 142.129 347.495 c 118.836 370.788 l 115.715 373.909 110.648 373.909 107.523
 370.788 c 104.398 367.663 104.398 362.596 107.523 359.471 c h
130.816 336.178 m f
226.934 333.823 m 228.98 333.823 231.027 334.6 232.59 336.163 c 255.883
 359.455 l 259.008 362.58 259.008 367.647 255.883 370.772 c 252.758 373.893
 247.691 373.893 244.566 370.772 c 221.277 347.479 l 218.152 344.354 218.152
 339.288 221.277 336.163 c 222.84 334.6 224.887 333.823 226.934 333.823 
c h
226.934 333.823 m f
311.305 227.436 m 305.906 227.436 300.844 225.975 296.48 223.436 c 292.844
 235.666 281.504 244.616 268.105 244.616 c 259.594 244.616 251.91 240.998
 246.508 235.225 c 241.102 240.998 233.422 244.616 224.906 244.616 c 220.004
 244.616 215.383 243.413 211.305 241.295 c 211.305 296.6 l 211.305 312.92
 198.027 326.198 181.707 326.198 c 165.387 326.198 152.105 312.92 152.105
 296.6 c 152.105 254.416 l 152.105 249.998 155.688 246.416 160.105 246.416
 c 164.523 246.416 168.105 249.998 168.105 254.416 c 168.105 296.6 l 168.105
 304.096 174.207 310.198 181.707 310.198 c 189.207 310.198 195.305 304.096
 195.305 296.6 c 195.305 162.67 l 195.305 158.252 198.887 154.67 203.305
 154.67 c 207.727 154.67 211.305 158.252 211.305 162.67 c 211.305 215.014
 l 211.305 222.514 217.406 228.616 224.906 228.616 c 232.406 228.616 238.508
 222.514 238.508 215.014 c 238.508 162.67 l 238.508 158.252 242.09 154.67
 246.508 154.67 c 250.926 154.67 254.508 158.252 254.508 162.67 c 254.508
 215.014 l 254.508 222.514 260.605 228.616 268.105 228.616 c 275.605 228.616
 281.707 222.514 281.707 215.014 c 281.707 162.67 l 281.707 158.252 285.289
 154.67 289.707 154.67 c 294.125 154.67 297.707 158.252 297.707 162.67 c
 297.707 197.834 l 297.707 205.334 303.809 211.436 311.305 211.436 c 318.805
 211.436 324.906 205.334 324.906 197.834 c 324.906 114.178 l 324.906 108.217
 324.371 102.252 323.309 96.444 c 322.516 92.096 325.398 87.932 329.742 
87.139 c 330.23 87.049 330.711 87.006 331.188 87.006 c 334.98 87.006 338.344
 89.709 339.051 93.573 c 340.281 100.327 340.906 107.256 340.906 114.178
 c 340.906 197.834 l 340.906 214.159 327.629 227.436 311.305 227.436 c h
311.305 227.436 m f
293.688 42.373 m 275.457 25.366 251.676 15.998 226.73 15.998 c 189.301 
15.998 154.598 37.776 138.324 71.483 c 101.473 147.784 l 98.148 154.666 
100.73 163.049 107.348 166.87 c 114.191 170.823 123.102 168.545 127.211 
161.799 c 153.277 119.038 l 155.141 115.975 158.816 114.53 162.27 115.498
 c 165.723 116.467 168.105 119.616 168.105 123.202 c 168.105 201.6 l 168.105
 206.018 164.527 209.6 160.105 209.6 c 155.688 209.6 152.105 206.018 152.105
 201.6 c 152.105 151.698 l 140.875 170.127 l 132.133 184.471 113.895 189.127
 99.348 180.729 c 85.512 172.741 80.117 155.213 87.066 140.827 c 123.914
 64.522 l 133.266 45.166 147.828 28.893 166.039 17.467 c 184.246 6.041 205.234
 -0.002 226.73 -0.002 c 255.742 -0.002 283.398 10.893 304.602 30.674 c 307.832
 33.69 308.008 38.752 304.992 41.983 c 301.977 45.213 296.914 45.389 293.688
 42.373 c h
293.688 42.373 m f
320.035 71.463 m 317.93 71.463 315.867 70.608 314.379 69.12 c 312.891 67.631
 312.035 65.569 312.035 63.463 c 312.035 61.354 312.891 59.295 314.379 57.807
 c 315.867 56.319 317.93 55.463 320.035 55.463 c 322.137 55.463 324.203 
56.319 325.691 57.807 c 327.176 59.295 328.035 61.354 328.035 63.463 c 328.035
 65.569 327.176 67.631 325.691 69.12 c 324.203 70.608 322.137 71.463 320.035
 71.463 c h
320.035 71.463 m f
160.105 219.202 m 162.211 219.202 164.273 220.057 165.762 221.545 c 167.25
 223.034 168.105 225.096 168.105 227.202 c 168.105 229.303 167.25 231.37
 165.762 232.858 c 164.273 234.342 162.211 235.202 160.105 235.202 c 158
 235.202 155.938 234.342 154.449 232.858 c 152.961 231.37 152.105 229.303
 152.105 227.202 c 152.105 225.096 152.961 223.034 154.449 221.545 c 155.938
 220.057 158 219.202 160.105 219.202 c h
160.105 219.202 m f
Q Q
showpage
%%Trailer
end restore
%%EOF
