%!PS-Adobe-3.0 EPSF-3.0
%%Creator: cairo 1.14.2 (http://cairographics.org)
%%CreationDate: Fri Jun 15 11:41:46 2018
%%Pages: 1
%%DocumentData: Clean7Bit
%%LanguageLevel: 2
%%BoundingBox: 0 -1 410 410
%%EndComments
%%BeginProlog
save
50 dict begin
/q { gsave } bind def
/Q { grestore } bind def
/cm { 6 array astore concat } bind def
/w { setlinewidth } bind def
/J { setlinecap } bind def
/j { setlinejoin } bind def
/M { setmiterlimit } bind def
/d { setdash } bind def
/m { moveto } bind def
/l { lineto } bind def
/c { curveto } bind def
/h { closepath } bind def
/re { exch dup neg 3 1 roll 5 3 roll moveto 0 rlineto
      0 exch rlineto 0 rlineto closepath } bind def
/S { stroke } bind def
/f { fill } bind def
/f* { eofill } bind def
/n { newpath } bind def
/W { clip } bind def
/W* { eoclip } bind def
/BT { } bind def
/ET { } bind def
/pdfmark where { pop globaldict /?pdfmark /exec load put }
    { globaldict begin /?pdfmark /pop load def /pdfmark
    /cleartomark load def end } ifelse
/BDC { mark 3 1 roll /BDC pdfmark } bind def
/EMC { mark /EMC pdfmark } bind def
/cairo_store_point { /cairo_point_y exch def /cairo_point_x exch def } def
/Tj { show currentpoint cairo_store_point } bind def
/TJ {
  {
    dup
    type /stringtype eq
    { show } { -0.001 mul 0 cairo_font_matrix dtransform rmoveto } ifelse
  } forall
  currentpoint cairo_store_point
} bind def
/cairo_selectfont { cairo_font_matrix aload pop pop pop 0 0 6 array astore
    cairo_font exch selectfont cairo_point_x cairo_point_y moveto } bind def
/Tf { pop /cairo_font exch def /cairo_font_matrix where
      { pop cairo_selectfont } if } bind def
/Td { matrix translate cairo_font_matrix matrix concatmatrix dup
      /cairo_font_matrix exch def dup 4 get exch 5 get cairo_store_point
      /cairo_font where { pop cairo_selectfont } if } bind def
/Tm { 2 copy 8 2 roll 6 array astore /cairo_font_matrix exch def
      cairo_store_point /cairo_font where { pop cairo_selectfont } if } bind def
/g { setgray } bind def
/rg { setrgbcolor } bind def
/d1 { setcachedevice } bind def
%%EndProlog
%%BeginSetup
%%EndSetup
%%Page: 1 1
%%BeginPageSetup
%%PageBoundingBox: 0 -1 410 410
%%EndPageSetup
q 0 -1 410 411 rectclip q
0.980392 0.882353 0.588235 rg
230.938 150.034 m 105.664 24.761 l 83.32 2.421 47.098 2.421 24.758 24.761
 c 2.414 47.105 2.414 83.327 24.758 105.667 c 150.031 230.945 l h
230.938 150.034 m f
1 0.431373 0.215686 rg
24.758 24.765 m 47.098 2.421 83.32 2.421 105.664 24.765 c 24.758 105.671
 l 2.414 83.327 2.414 47.105 24.758 24.765 c h
24.758 24.765 m f
0.960784 0.784314 0.431373 rg
185.164 185.159 m 135.789 234.53 135.789 314.581 185.164 363.952 c 222.805
 401.597 l 401.602 222.804 l 363.957 185.159 l 314.586 135.788 234.535 135.788
 185.164 185.159 c h
185.164 185.159 m f
1 0.431373 0.215686 rg
401.594 222.8 m 367.797 189.003 l 189.008 367.796 l 222.805 401.589 l h
401.594 222.8 m f
129.262 48.363 m 198.539 117.64 l 182.059 134.116 l 172.922 143.257 158.102
 143.257 148.965 134.116 c 112.785 97.937 l 103.645 88.8 103.645 73.98 112.785
 64.843 c h
129.262 48.363 m f
1 0.352941 0.352941 rg
95.547 176.46 m 80.359 191.644 l 77.082 194.921 77.082 200.238 80.359 203.515
 c 94.789 217.941 l 98.066 221.218 103.379 221.218 106.66 217.941 c 121.844
 202.757 l h
95.547 176.46 m f
0 g
407.258 228.46 m 228.465 407.253 l 225.34 410.374 220.273 410.374 217.148
 407.253 c 179.508 369.609 l 168.793 358.898 160.047 346.609 153.508 333.089
 c 151.586 329.113 153.25 324.327 157.227 322.405 c 161.203 320.48 165.988
 322.144 167.914 326.124 c 173.301 337.265 180.398 347.464 189.031 356.468
 c 356.469 189.027 l 334.324 167.796 305.34 156.128 274.562 156.128 c 242.93
 156.128 213.191 168.448 190.82 190.816 c 167.711 213.925 155.406 244.655
 156.168 277.339 c 156.273 281.757 152.773 285.421 148.359 285.523 c 143.934
 285.644 140.277 282.128 140.172 277.71 c 139.848 263.843 141.602 250.284
 145.289 237.37 c 144.973 237.136 144.664 236.886 144.375 236.597 c 121.844
 214.066 l 112.316 223.593 l 109.223 226.691 105.105 228.398 100.727 228.398
 c 96.348 228.398 92.23 226.691 89.133 223.597 c 74.707 209.167 l 68.312
 202.777 68.312 192.374 74.707 185.984 c 84.234 176.456 l 19.102 111.323
 l 6.781 99.011 0 82.636 0 65.214 c 0 47.796 6.781 31.421 19.102 19.105 
c 31.418 6.788 47.793 0.007 65.211 0.007 c 82.629 0.007 99.004 6.788 111.32
 19.105 c 134.918 42.702 l 134.918 42.702 134.922 42.702 134.922 42.706 
c 236.594 144.378 l 236.891 144.675 237.148 144.991 237.387 145.32 c 249.324
 141.905 261.805 140.132 274.562 140.132 c 310.469 140.132 344.227 154.113
 369.613 179.503 c 407.258 217.144 l 408.758 218.644 409.602 220.679 409.602
 222.804 c 409.602 224.925 408.758 226.96 407.258 228.46 c h
86.02 197.3 m 85.984 197.335 85.902 197.413 85.902 197.577 c 85.902 197.741
 85.984 197.823 86.02 197.855 c 100.445 212.284 l 100.48 212.32 100.562 
212.398 100.723 212.398 c 100.887 212.398 100.969 212.32 101.004 212.284
 c 110.531 202.757 l 95.547 187.773 l h
30.414 30.421 m 13.152 47.679 11.43 74.671 25.223 93.89 c 93.887 25.226
 l 85.578 19.245 75.645 16.007 65.207 16.007 c 52.066 16.007 39.707 21.124
 30.414 30.421 c h
118.441 70.499 m 112.434 76.503 112.434 86.277 118.441 92.28 c 154.621 
128.46 l 157.527 131.37 161.398 132.972 165.512 132.972 c 169.625 132.972
 173.492 131.37 176.402 128.46 c 187.227 117.64 l 129.262 59.675 l h
198.539 128.952 m 187.715 139.773 l 181.785 145.706 173.898 148.972 165.512
 148.972 c 157.121 148.972 149.234 145.706 143.305 139.777 c 107.125 103.597
 l 94.879 91.351 94.879 71.429 107.125 59.187 c 117.945 48.363 l 105.66 
36.077 l 36.07 105.671 l 151.23 220.831 l 157.863 205.628 167.367 191.64
 179.504 179.503 c 191.605 167.402 205.613 157.898 220.844 151.257 c h
307.746 260.378 m 330.23 282.863 l 354.746 258.343 l 332.266 235.859 l 
h
271.914 296.21 m 294.398 318.695 l 318.914 294.175 l 296.434 271.691 l 
h
236.082 332.042 m 258.562 354.527 l 283.082 330.007 l 260.598 307.523 l
 h
222.809 390.28 m 247.25 365.839 l 224.766 343.355 l 200.324 367.8 l h
367.805 200.32 m 343.578 224.546 l 366.062 247.03 l 390.289 222.804 l h
367.805 200.32 m f
297.527 369.335 m 301.945 369.335 305.527 372.917 305.527 377.335 c 305.527
 400.39 l 305.527 404.808 301.945 408.39 297.527 408.39 c 293.109 408.39
 289.527 404.808 289.527 400.39 c 289.527 377.335 l 289.527 372.917 293.109
 369.335 297.527 369.335 c h
297.527 369.335 m f
360.148 352.159 m 362.199 352.159 364.246 352.941 365.809 354.503 c 407.227
 395.921 l 410.348 399.042 410.348 404.109 407.227 407.234 c 404.102 410.359
 399.035 410.359 395.91 407.234 c 354.492 365.816 l 351.367 362.695 351.367
 357.628 354.492 354.503 c 356.055 352.941 358.102 352.159 360.148 352.159
 c h
360.148 352.159 m f
401.594 305.538 m 378.395 305.538 l 373.977 305.538 370.395 301.956 370.395
 297.538 c 370.395 293.12 373.977 289.538 378.395 289.538 c 401.594 289.538
 l 406.012 289.538 409.594 293.12 409.594 297.538 c 409.594 301.956 406.012
 305.538 401.594 305.538 c h
401.594 305.538 m f
340.121 347.941 m 338.016 347.941 335.953 347.093 334.465 345.597 c 332.977
 344.109 332.121 342.042 332.121 339.941 c 332.121 337.835 332.977 335.773
 334.465 334.284 c 335.953 332.796 338.016 331.941 340.121 331.941 c 342.227
 331.941 344.289 332.796 345.777 334.284 c 347.273 335.773 348.121 337.835
 348.121 339.941 c 348.121 342.042 347.273 344.109 345.777 345.597 c 344.289
 347.093 342.223 347.941 340.121 347.941 c h
340.121 347.941 m f
151.75 296.663 m 153.855 296.663 155.918 297.519 157.414 299.007 c 158.902
 300.495 159.75 302.558 159.75 304.663 c 159.75 306.769 158.902 308.831 
157.414 310.32 c 155.918 311.808 153.863 312.663 151.75 312.663 c 149.645
 312.663 147.582 311.808 146.094 310.32 c 144.605 308.831 143.75 306.777
 143.75 304.663 c 143.75 302.558 144.605 300.495 146.094 299.007 c 147.582
 297.519 149.645 296.663 151.75 296.663 c h
151.75 296.663 m f
Q Q
showpage
%%Trailer
end restore
%%EOF
