%!PS-Adobe-3.0 EPSF-3.0
%%Creator: cairo 1.14.2 (http://cairographics.org)
%%CreationDate: Fri Jun 15 11:41:46 2018
%%Pages: 1
%%DocumentData: Clean7Bit
%%LanguageLevel: 2
%%BoundingBox: 0 -1 410 410
%%EndComments
%%BeginProlog
save
50 dict begin
/q { gsave } bind def
/Q { grestore } bind def
/cm { 6 array astore concat } bind def
/w { setlinewidth } bind def
/J { setlinecap } bind def
/j { setlinejoin } bind def
/M { setmiterlimit } bind def
/d { setdash } bind def
/m { moveto } bind def
/l { lineto } bind def
/c { curveto } bind def
/h { closepath } bind def
/re { exch dup neg 3 1 roll 5 3 roll moveto 0 rlineto
      0 exch rlineto 0 rlineto closepath } bind def
/S { stroke } bind def
/f { fill } bind def
/f* { eofill } bind def
/n { newpath } bind def
/W { clip } bind def
/W* { eoclip } bind def
/BT { } bind def
/ET { } bind def
/pdfmark where { pop globaldict /?pdfmark /exec load put }
    { globaldict begin /?pdfmark /pop load def /pdfmark
    /cleartomark load def end } ifelse
/BDC { mark 3 1 roll /BDC pdfmark } bind def
/EMC { mark /EMC pdfmark } bind def
/cairo_store_point { /cairo_point_y exch def /cairo_point_x exch def } def
/Tj { show currentpoint cairo_store_point } bind def
/TJ {
  {
    dup
    type /stringtype eq
    { show } { -0.001 mul 0 cairo_font_matrix dtransform rmoveto } ifelse
  } forall
  currentpoint cairo_store_point
} bind def
/cairo_selectfont { cairo_font_matrix aload pop pop pop 0 0 6 array astore
    cairo_font exch selectfont cairo_point_x cairo_point_y moveto } bind def
/Tf { pop /cairo_font exch def /cairo_font_matrix where
      { pop cairo_selectfont } if } bind def
/Td { matrix translate cairo_font_matrix matrix concatmatrix dup
      /cairo_font_matrix exch def dup 4 get exch 5 get cairo_store_point
      /cairo_font where { pop cairo_selectfont } if } bind def
/Tm { 2 copy 8 2 roll 6 array astore /cairo_font_matrix exch def
      cairo_store_point /cairo_font where { pop cairo_selectfont } if } bind def
/g { setgray } bind def
/rg { setrgbcolor } bind def
/d1 { setcachedevice } bind def
%%EndProlog
%%BeginSetup
%%EndSetup
%%Page: 1 1
%%BeginPageSetup
%%PageBoundingBox: 0 -1 410 410
%%EndPageSetup
q 0 -1 410 411 rectclip q
0.960784 0.784314 0.431373 rg
378.375 185.17 m 377.914 184.705 l 392.867 206.897 401.602 233.627 401.602
 262.401 c 401.602 339.28 339.277 401.6 262.402 401.6 c 185.523 401.6 123.203
 339.28 123.203 262.401 c 123.203 185.526 185.523 123.202 262.402 123.202
 c 292.445 123.202 320.266 132.721 343.012 148.905 c 391.582 135.889 l h
378.375 185.17 m f
0.647059 0.862745 0.411765 rg
110.402 212.799 m 53.848 212.799 8 166.952 8 110.401 c 8 88.252 15.035 
67.748 26.988 50.995 c 17.469 15.475 l 53.637 25.166 l 69.887 14.327 89.402
 7.998 110.402 7.998 c 166.953 8.002 212.801 53.846 212.801 110.401 c 212.801
 166.952 166.953 212.799 110.402 212.799 c h
110.402 212.799 m f
1 g
222.156 237.366 m 222.156 214.862 240.398 196.623 262.898 196.623 c 285.398
 196.623 303.641 214.862 303.641 237.366 c h
222.156 237.366 m f
1 0.862745 0.862745 rg
317.344 284.909 m 317.691 285.123 318.035 285.334 318.379 285.549 c f
207.418 284.909 m 207.762 285.123 208.105 285.334 208.453 285.549 c f
0 g
386.98 183.967 m 401.793 207.44 409.598 234.459 409.598 262.401 c 409.598
 343.565 343.566 409.6 262.398 409.6 c 235.211 409.6 208.648 402.127 185.586
 387.991 c 181.816 385.682 180.633 380.756 182.945 376.991 c 185.254 373.221
 190.176 372.038 193.945 374.35 c 214.492 386.944 238.164 393.6 262.402 
393.6 c 334.742 393.6 393.602 334.745 393.602 262.401 c 393.602 236.163 
385.883 210.842 371.281 189.178 c 369.344 186.303 369.508 182.588 371.5 
179.92 c 380.27 147.202 l 345.082 156.631 l 342.777 157.248 340.316 156.807
 338.371 155.424 c 316.102 139.577 289.832 131.202 262.402 131.202 c 246.773
 131.202 231.492 133.932 216.953 139.303 c 206.723 176.987 176.988 206.721
 139.305 216.952 c 133.934 231.487 131.203 246.768 131.203 262.401 c 131.203
 286.905 137.996 310.803 150.855 331.51 c 153.188 335.264 152.031 340.194
 148.277 342.526 c 144.527 344.858 139.594 343.702 137.262 339.948 c 122.828
 316.705 115.199 289.889 115.199 262.401 c 115.199 248.01 117.266 233.881
 121.34 220.256 c 117.738 220.612 114.09 220.799 110.402 220.799 c 49.527
 220.799 0 171.272 0 110.401 c 0 88.553 6.32 67.58 18.305 49.502 c 9.742
 17.545 l 9.004 14.788 9.793 11.838 11.812 9.819 c 13.832 7.799 16.777 7.01
 19.539 7.748 c 52.289 16.522 l 69.727 5.702 89.742 -0.002 110.402 -0.002
 c 131.43 -0.002 151.883 5.936 169.551 17.166 c 173.277 19.538 174.379 24.479
 172.012 28.209 c 169.641 31.94 164.695 33.038 160.969 30.67 c 145.867 21.073
 128.383 15.998 110.402 15.998 c 91.68 15.998 73.586 21.471 58.078 31.823
 c 56.164 33.1 53.793 33.491 51.566 32.893 c 28.781 26.788 l 34.715 48.924
 l 35.332 51.233 34.887 53.698 33.5 55.639 c 22.051 71.686 16 90.62 16 110.401
 c 16 162.452 58.348 204.799 110.398 204.799 c 162.453 204.799 204.801 162.452
 204.801 110.401 c 204.801 99.284 202.891 88.405 199.121 78.065 c 197.605
 73.913 199.742 69.323 203.895 67.807 c 208.047 66.295 212.637 68.432 214.152
 72.584 c 218.562 84.686 220.801 97.409 220.801 110.401 c 220.801 114.088
 220.613 117.737 220.258 121.334 c 233.887 117.264 248.016 115.202 262.402
 115.202 c 291.902 115.202 320.207 123.838 344.52 140.217 c 389.512 128.163
 l 392.273 127.424 395.219 128.213 397.238 130.233 c 399.262 132.252 400.051
 135.198 399.309 137.959 c h
386.98 183.967 m f
303.641 245.366 m 222.156 245.366 l 217.738 245.366 214.156 241.784 214.156
 237.366 c 214.156 210.487 236.023 188.623 262.898 188.623 c 289.773 188.623
 311.641 210.487 311.641 237.366 c 311.641 241.784 308.059 245.366 303.641
 245.366 c h
262.898 204.623 m 247.605 204.623 234.727 215.166 231.145 229.366 c 294.652
 229.366 l 291.07 215.166 278.191 204.623 262.898 204.623 c h
262.898 204.623 m f
317.352 276.909 m 318.785 276.909 320.238 277.295 321.551 278.104 c 322.574
 278.737 l 326.336 281.057 327.508 285.983 325.191 289.745 c 322.871 293.506
 317.941 294.678 314.184 292.362 c 313.141 291.717 l 309.379 289.393 308.215
 284.463 310.539 280.705 c 312.051 278.256 314.672 276.909 317.352 276.909
 c h
317.352 276.909 m f
204.258 292.362 m 203.215 291.717 l 199.453 289.393 198.289 284.463 200.613
 280.705 c 202.125 278.256 204.746 276.909 207.426 276.909 c 208.859 276.909
 210.312 277.295 211.625 278.104 c 212.648 278.737 l 216.41 281.057 217.582
 285.983 215.266 289.745 c 212.945 293.506 208.016 294.678 204.258 292.362
 c h
204.258 292.362 m f
60.746 116.057 m 59.258 114.569 58.402 112.506 58.402 110.401 c 58.402 
108.295 59.258 106.233 60.746 104.745 c 62.234 103.256 64.297 102.401 66.402
 102.401 c 68.504 102.401 70.57 103.256 72.059 104.745 c 73.543 106.233 
74.402 108.295 74.402 110.401 c 74.402 112.506 73.543 114.569 72.059 116.057
 c 70.57 117.545 68.504 118.401 66.402 118.401 c 64.297 118.401 62.234 117.545
 60.746 116.057 c h
60.746 116.057 m f
104.746 116.057 m 103.258 114.569 102.402 112.506 102.402 110.401 c 102.402
 108.295 103.258 106.233 104.746 104.745 c 106.234 103.256 108.297 102.401
 110.402 102.401 c 112.504 102.401 114.57 103.256 116.059 104.745 c 117.543
 106.233 118.402 108.295 118.402 110.401 c 118.402 112.506 117.543 114.569
 116.059 116.057 c 114.57 117.545 112.504 118.401 110.402 118.401 c 108.297
 118.401 106.234 117.545 104.746 116.057 c h
104.746 116.057 m f
148.742 116.057 m 147.258 114.569 146.398 112.506 146.398 110.401 c 146.398
 108.295 147.258 106.233 148.742 104.745 c 150.23 103.256 152.297 102.401
 154.398 102.401 c 156.504 102.401 158.566 103.256 160.055 104.745 c 161.543
 106.233 162.398 108.295 162.398 110.401 c 162.398 112.506 161.543 114.569
 160.055 116.057 c 158.566 117.545 156.504 118.401 154.398 118.401 c 152.297
 118.401 150.234 117.545 148.742 116.057 c h
148.742 116.057 m f
190.207 54.241 m 188.098 54.241 186.039 53.385 184.551 51.897 c 183.062
 50.409 182.207 48.346 182.207 46.241 c 182.207 44.139 183.062 42.073 184.551
 40.584 c 186.039 39.096 188.098 38.241 190.207 38.241 c 192.312 38.241 
194.375 39.096 195.863 40.584 c 197.352 42.073 198.207 44.139 198.207 46.241
 c 198.207 48.346 197.352 50.409 195.863 51.897 c 194.375 53.385 192.312
 54.241 190.207 54.241 c h
190.207 54.241 m f
164.242 353.096 m 166.344 353.096 168.41 353.944 169.898 355.432 c 171.387
 356.92 172.242 358.983 172.242 361.088 c 172.242 363.198 171.387 365.256
 169.898 366.752 c 168.41 368.241 166.344 369.088 164.242 369.088 c 162.129
 369.088 160.074 368.241 158.586 366.752 c 157.09 365.256 156.242 363.198
 156.242 361.088 c 156.242 358.983 157.09 356.92 158.586 355.432 c 160.074
 353.944 162.129 353.096 164.242 353.096 c h
164.242 353.096 m f
Q Q
showpage
%%Trailer
end restore
%%EOF
