%!PS-Adobe-3.0 EPSF-3.0
%%Creator: cairo 1.14.2 (http://cairographics.org)
%%CreationDate: Fri Jun 15 11:41:46 2018
%%Pages: 1
%%DocumentData: Clean7Bit
%%LanguageLevel: 2
%%BoundingBox: 35 -1 375 410
%%EndComments
%%BeginProlog
save
50 dict begin
/q { gsave } bind def
/Q { grestore } bind def
/cm { 6 array astore concat } bind def
/w { setlinewidth } bind def
/J { setlinecap } bind def
/j { setlinejoin } bind def
/M { setmiterlimit } bind def
/d { setdash } bind def
/m { moveto } bind def
/l { lineto } bind def
/c { curveto } bind def
/h { closepath } bind def
/re { exch dup neg 3 1 roll 5 3 roll moveto 0 rlineto
      0 exch rlineto 0 rlineto closepath } bind def
/S { stroke } bind def
/f { fill } bind def
/f* { eofill } bind def
/n { newpath } bind def
/W { clip } bind def
/W* { eoclip } bind def
/BT { } bind def
/ET { } bind def
/pdfmark where { pop globaldict /?pdfmark /exec load put }
    { globaldict begin /?pdfmark /pop load def /pdfmark
    /cleartomark load def end } ifelse
/BDC { mark 3 1 roll /BDC pdfmark } bind def
/EMC { mark /EMC pdfmark } bind def
/cairo_store_point { /cairo_point_y exch def /cairo_point_x exch def } def
/Tj { show currentpoint cairo_store_point } bind def
/TJ {
  {
    dup
    type /stringtype eq
    { show } { -0.001 mul 0 cairo_font_matrix dtransform rmoveto } ifelse
  } forall
  currentpoint cairo_store_point
} bind def
/cairo_selectfont { cairo_font_matrix aload pop pop pop 0 0 6 array astore
    cairo_font exch selectfont cairo_point_x cairo_point_y moveto } bind def
/Tf { pop /cairo_font exch def /cairo_font_matrix where
      { pop cairo_selectfont } if } bind def
/Td { matrix translate cairo_font_matrix matrix concatmatrix dup
      /cairo_font_matrix exch def dup 4 get exch 5 get cairo_store_point
      /cairo_font where { pop cairo_selectfont } if } bind def
/Tm { 2 copy 8 2 roll 6 array astore /cairo_font_matrix exch def
      cairo_store_point /cairo_font where { pop cairo_selectfont } if } bind def
/g { setgray } bind def
/rg { setrgbcolor } bind def
/d1 { setcachedevice } bind def
%%EndProlog
%%BeginSetup
%%EndSetup
%%Page: 1 1
%%BeginPageSetup
%%PageBoundingBox: 35 -1 375 410
%%EndPageSetup
q 35 -1 340 411 rectclip q
1 g
136 370.402 m 74.207 370.402 l 57.082 370.402 43.199 356.519 43.199 339.394
 c 43.199 39.007 l 43.199 21.882 57.082 7.999 74.207 7.999 c 335.395 7.999
 l 352.52 7.999 366.398 21.882 366.398 39.007 c 366.398 339.394 l 366.398
 356.519 352.52 370.402 335.395 370.402 c h
136 370.402 m f
0 g
320.004 271.999 m 204.801 271.999 l 200.383 271.999 196.801 275.581 196.801
 279.999 c 196.801 284.421 200.383 287.999 204.801 287.999 c 320.004 287.999
 l 324.422 287.999 328.004 284.421 328.004 279.999 c 328.004 275.581 324.422
 271.999 320.004 271.999 c h
320.004 271.999 m f
0.607843 0.745098 1 rg
240.383 383.999 m 227.93 383.999 l 225.129 394.148 215.84 401.601 204.801
 401.601 c 193.762 401.601 184.473 394.148 181.672 383.999 c 169.199 383.999
 l 146.445 383.999 128 365.554 128 342.8 c 128 337.601 l 281.586 337.601
 l 281.586 342.8 l 281.586 365.554 263.137 383.999 240.383 383.999 c h
240.383 383.999 m f
0 g
286.352 233.601 m 284.25 233.601 282.184 234.456 280.695 235.945 c 279.207
 237.433 278.352 239.495 278.352 241.601 c 278.352 243.702 279.207 245.769
 280.695 247.257 c 282.184 248.745 284.25 249.601 286.352 249.601 c 288.457
 249.601 290.52 248.745 292.008 247.257 c 293.496 245.769 294.352 243.702
 294.352 241.601 c 294.352 239.495 293.496 237.433 292.008 235.945 c 290.52
 234.456 288.457 233.601 286.352 233.601 c h
286.352 233.601 m f
204.793 359.198 m 202.688 359.198 200.625 360.058 199.137 361.542 c 197.648
 363.03 196.793 365.097 196.793 367.198 c 196.793 369.304 197.648 371.366
 199.137 372.855 c 200.625 374.343 202.688 375.198 204.793 375.198 c 206.898
 375.198 208.961 374.343 210.449 372.855 c 211.938 371.366 212.793 369.304
 212.793 367.198 c 212.793 365.097 211.938 363.03 210.449 361.542 c 208.961
 360.058 206.898 359.198 204.793 359.198 c h
204.793 359.198 m f
252.703 233.601 m 204.801 233.601 l 200.383 233.601 196.801 237.183 196.801
 241.601 c 196.801 246.019 200.383 249.601 204.801 249.601 c 252.703 249.601
 l 257.121 249.601 260.703 246.019 260.703 241.601 c 260.703 237.183 257.121
 233.601 252.703 233.601 c h
252.703 233.601 m f
320.004 185.601 m 204.801 185.601 l 200.383 185.601 196.801 189.183 196.801
 193.601 c 196.801 198.019 200.383 201.601 204.801 201.601 c 320.004 201.601
 l 324.422 201.601 328.004 198.019 328.004 193.601 c 328.004 189.183 324.422
 185.601 320.004 185.601 c h
320.004 185.601 m f
286.352 147.198 m 284.25 147.198 282.184 148.058 280.695 149.542 c 279.207
 151.03 278.352 153.097 278.352 155.198 c 278.352 157.304 279.207 159.366
 280.695 160.855 c 282.184 162.343 284.25 163.198 286.352 163.198 c 288.457
 163.198 290.52 162.343 292.008 160.855 c 293.496 159.366 294.352 157.304
 294.352 155.198 c 294.352 153.097 293.496 151.03 292.008 149.542 c 290.52
 148.058 288.457 147.198 286.352 147.198 c h
286.352 147.198 m f
252.703 147.202 m 204.801 147.202 l 200.383 147.202 196.801 150.78 196.801
 155.202 c 196.801 159.62 200.383 163.202 204.801 163.202 c 252.703 163.202
 l 257.121 163.202 260.703 159.62 260.703 155.202 c 260.703 150.78 257.121
 147.202 252.703 147.202 c h
252.703 147.202 m f
320.004 99.202 m 204.801 99.202 l 200.383 99.202 196.801 102.78 196.801
 107.202 c 196.801 111.62 200.383 115.202 204.801 115.202 c 320.004 115.202
 l 324.422 115.202 328.004 111.62 328.004 107.202 c 328.004 102.78 324.422
 99.202 320.004 99.202 c h
320.004 99.202 m f
286.352 60.8 m 284.25 60.8 282.184 61.655 280.695 63.144 c 279.207 64.632
 278.352 66.695 278.352 68.8 c 278.352 70.905 279.207 72.968 280.695 74.456
 c 282.184 75.945 284.25 76.8 286.352 76.8 c 288.457 76.8 290.52 75.945 
292.008 74.456 c 293.496 72.968 294.352 70.905 294.352 68.8 c 294.352 66.695
 293.496 64.632 292.008 63.144 c 290.52 61.655 288.457 60.8 286.352 60.8
 c h
286.352 60.8 m f
252.703 60.8 m 204.801 60.8 l 200.383 60.8 196.801 64.382 196.801 68.8 
c 196.801 73.218 200.383 76.8 204.801 76.8 c 252.703 76.8 l 257.121 76.8
 260.703 73.218 260.703 68.8 c 260.703 64.382 257.121 60.8 252.703 60.8 
c h
252.703 60.8 m f
0.960784 0.784314 0.431373 rg
96 107.202 38.398 -38.402 re f
96 193.601 38.398 -38.398 re f
0 g
335.395 378.402 m 274.293 378.402 l 265.457 386.816 253.52 391.999 240.383
 391.999 c 233.375 391.999 l 228.02 402.609 217.012 409.601 204.801 409.601
 c 192.59 409.601 181.582 402.609 176.227 391.999 c 169.199 391.999 l 156.066
 391.999 144.125 386.816 135.293 378.402 c 74.207 378.402 l 52.699 378.402
 35.199 360.902 35.199 339.394 c 35.199 39.007 l 35.199 17.499 52.699 -0.001
 74.207 -0.001 c 335.395 -0.001 l 356.902 -0.001 374.398 17.499 374.398 
39.007 c 374.398 339.394 l 374.402 360.902 356.902 378.402 335.395 378.402
 c h
169.199 375.999 m 181.668 375.999 l 185.27 375.999 188.422 378.402 189.379
 381.87 c 191.289 388.777 197.629 393.601 204.801 393.601 c 211.973 393.601
 218.312 388.777 220.219 381.87 c 221.176 378.402 224.332 375.999 227.93
 375.999 c 240.383 375.999 l 257.746 375.999 272.039 362.601 273.465 345.601
 c 136.117 345.601 l 137.543 362.601 151.836 375.999 169.199 375.999 c h
358.402 39.007 m 358.402 26.32 348.078 15.999 335.395 15.999 c 74.207 15.999
 l 61.523 15.999 51.199 26.32 51.199 39.007 c 51.199 339.394 l 51.199 352.077
 61.523 362.402 74.207 362.402 c 124.086 362.402 l 121.465 356.39 120 349.765
 120 342.8 c 120 337.601 l 120 333.183 123.582 329.601 128 329.601 c 281.586
 329.601 l 286.004 329.601 289.586 333.183 289.586 337.601 c 289.586 342.8
 l 289.586 349.765 288.121 356.39 285.5 362.402 c 335.395 362.402 l 348.078
 362.402 358.402 352.077 358.402 339.394 c h
358.402 39.007 m f
142.613 289.925 m 108.406 255.714 l 97.867 266.253 l 94.742 269.378 89.676
 269.378 86.551 266.253 c 83.43 263.128 83.43 258.066 86.551 254.941 c 102.746
 238.741 l 104.309 237.179 106.359 236.402 108.406 236.402 c 110.453 236.402
 112.5 237.179 114.062 238.741 c 153.93 278.609 l 157.051 281.734 157.051
 286.8 153.93 289.925 c 150.805 293.046 145.738 293.046 142.613 289.925 
c h
142.613 289.925 m f
134.402 115.202 m 96 115.202 l 91.582 115.202 88 111.62 88 107.202 c 88
 68.8 l 88 64.382 91.582 60.8 96 60.8 c 134.402 60.8 l 138.82 60.8 142.402
 64.382 142.402 68.8 c 142.402 107.202 l 142.402 111.62 138.82 115.202 134.402
 115.202 c h
126.402 76.8 m 104 76.8 l 104 99.202 l 126.402 99.202 l h
126.402 76.8 m f
134.402 201.601 m 96 201.601 l 91.582 201.601 88 198.019 88 193.601 c 88
 155.202 l 88 150.78 91.582 147.202 96 147.202 c 134.402 147.202 l 138.82
 147.202 142.402 150.78 142.402 155.202 c 142.402 193.601 l 142.402 198.019
 138.82 201.601 134.402 201.601 c h
126.402 163.202 m 104 163.202 l 104 185.601 l 126.402 185.601 l h
126.402 163.202 m f
Q Q
showpage
%%Trailer
end restore
%%EOF
