%!PS-Adobe-3.0 EPSF-3.0
%%Creator: cairo 1.14.2 (http://cairographics.org)
%%CreationDate: Fri Jun 15 11:41:46 2018
%%Pages: 1
%%DocumentData: Clean7Bit
%%LanguageLevel: 2
%%BoundingBox: 0 -1 410 410
%%EndComments
%%BeginProlog
save
50 dict begin
/q { gsave } bind def
/Q { grestore } bind def
/cm { 6 array astore concat } bind def
/w { setlinewidth } bind def
/J { setlinecap } bind def
/j { setlinejoin } bind def
/M { setmiterlimit } bind def
/d { setdash } bind def
/m { moveto } bind def
/l { lineto } bind def
/c { curveto } bind def
/h { closepath } bind def
/re { exch dup neg 3 1 roll 5 3 roll moveto 0 rlineto
      0 exch rlineto 0 rlineto closepath } bind def
/S { stroke } bind def
/f { fill } bind def
/f* { eofill } bind def
/n { newpath } bind def
/W { clip } bind def
/W* { eoclip } bind def
/BT { } bind def
/ET { } bind def
/pdfmark where { pop globaldict /?pdfmark /exec load put }
    { globaldict begin /?pdfmark /pop load def /pdfmark
    /cleartomark load def end } ifelse
/BDC { mark 3 1 roll /BDC pdfmark } bind def
/EMC { mark /EMC pdfmark } bind def
/cairo_store_point { /cairo_point_y exch def /cairo_point_x exch def } def
/Tj { show currentpoint cairo_store_point } bind def
/TJ {
  {
    dup
    type /stringtype eq
    { show } { -0.001 mul 0 cairo_font_matrix dtransform rmoveto } ifelse
  } forall
  currentpoint cairo_store_point
} bind def
/cairo_selectfont { cairo_font_matrix aload pop pop pop 0 0 6 array astore
    cairo_font exch selectfont cairo_point_x cairo_point_y moveto } bind def
/Tf { pop /cairo_font exch def /cairo_font_matrix where
      { pop cairo_selectfont } if } bind def
/Td { matrix translate cairo_font_matrix matrix concatmatrix dup
      /cairo_font_matrix exch def dup 4 get exch 5 get cairo_store_point
      /cairo_font where { pop cairo_selectfont } if } bind def
/Tm { 2 copy 8 2 roll 6 array astore /cairo_font_matrix exch def
      cairo_store_point /cairo_font where { pop cairo_selectfont } if } bind def
/g { setgray } bind def
/rg { setrgbcolor } bind def
/d1 { setcachedevice } bind def
%%EndProlog
%%BeginSetup
%%EndSetup
%%Page: 1 1
%%BeginPageSetup
%%PageBoundingBox: 0 -1 410 410
%%EndPageSetup
q 0 -1 410 411 rectclip q
0.980392 0.882353 0.588235 rg
359.98 183.975 m 359.98 86.788 281.195 8.002 184.008 8.002 c 86.816 8.002
 8.031 86.788 8.031 183.975 c 8.031 281.163 86.816 359.952 184.008 359.952
 c 281.195 359.952 359.98 281.163 359.98 183.975 c h
359.98 183.975 m f
1 0.352941 0.352941 rg
318.387 183.975 m 318.387 109.76 258.223 49.596 184.008 49.596 c 109.789
 49.596 49.625 109.76 49.625 183.975 c 49.625 258.194 109.789 318.358 184.008
 318.358 c 258.223 318.358 318.387 258.194 318.387 183.975 c h
318.387 183.975 m f
0.980392 0.882353 0.588235 rg
273.594 183.975 m 273.594 134.498 233.484 94.389 184.008 94.389 c 134.527
 94.389 94.418 134.498 94.418 183.975 c 94.418 233.455 134.527 273.565 184.008
 273.565 c 233.484 273.565 273.594 233.455 273.594 183.975 c h
273.594 183.975 m f
1 0.352941 0.352941 rg
232 183.975 m 232 157.471 210.512 135.983 184.008 135.983 c 157.5 135.983
 136.012 157.471 136.012 183.975 c 136.012 210.483 157.5 231.971 184.008
 231.971 c 210.512 231.971 232 210.483 232 183.975 c h
232 183.975 m f
0.784314 0.960784 1 rg
331.059 269.69 m 269.66 269.69 l 269.66 331.084 l 340.176 401.6 l 340.176
 340.202 l 401.574 340.202 l h
331.059 269.69 m f
0 g
283.824 82.444 m 287.488 85.998 286.863 91.041 284.145 93.862 c 281.426
 96.686 276.41 97.495 272.723 93.967 c 272.699 93.94 272.672 93.916 272.645
 93.889 c 269.008 90.311 269.664 85.276 272.402 82.471 c 273.855 80.979 
275.957 80.065 278.152 80.065 c 280.094 80.065 282.109 80.776 283.824 82.444
 c h
283.824 82.444 m f
346.297 252.596 m 342.152 251.061 340.039 246.459 341.574 242.315 c 348.48
 223.67 351.98 204.041 351.98 183.975 c 351.98 91.35 276.625 15.998 184.004
 15.998 c 149.633 15.998 116.594 26.303 88.457 45.799 c 84.824 48.319 79.84
 47.413 77.324 43.78 c 74.809 40.151 75.711 35.166 79.344 32.651 c 110.172
 11.291 146.363 -0.002 184.004 -0.002 c 233.145 -0.002 279.344 19.135 314.094
 53.885 c 348.84 88.631 367.977 134.834 367.977 183.975 c 367.977 205.944
 364.141 227.444 356.578 247.87 c 355.039 252.014 350.441 254.127 346.297
 252.596 c h
346.297 252.596 m f
16.027 183.975 m 16.027 276.596 91.379 351.952 184.004 351.952 c 203.426
 351.952 222.457 348.666 240.566 342.19 c 244.727 340.702 249.305 342.87
 250.793 347.03 c 252.277 351.19 250.113 355.768 245.953 357.256 c 226.105
 364.35 205.266 367.948 184.004 367.948 c 134.859 367.948 88.66 348.811 
53.914 314.065 c 19.164 279.315 0.027 233.116 0.027 183.975 c 0.027 145.866
 11.578 109.303 33.43 78.241 c 34.984 76.03 37.461 74.846 39.977 74.846 
c 41.566 74.846 43.172 75.319 44.574 76.303 c 48.188 78.846 49.055 83.834
 46.512 87.448 c 26.57 115.799 16.027 149.178 16.027 183.975 c h
16.027 183.975 m f
408.961 343.264 m 407.723 346.252 404.809 348.202 401.57 348.202 c 359.543
 348.202 l 364.062 352.721 l 367.188 355.846 367.188 360.909 364.062 364.034
 c 360.938 367.159 355.875 367.159 352.75 364.034 c 348.172 359.455 l 348.172
 401.6 l 348.172 404.834 346.223 407.752 343.234 408.991 c 340.246 410.229
 336.805 409.545 334.52 407.256 c 264.004 336.741 l 262.504 335.241 261.66
 333.209 261.66 331.088 c 261.66 303.338 l 238.586 318.432 211.988 326.354
 184 326.354 c 105.492 326.354 41.621 262.483 41.621 183.975 c 41.621 105.467
 105.492 41.596 184 41.596 c 210.059 41.596 235.551 48.702 257.723 62.143
 c 261.5 64.436 262.707 69.354 260.418 73.131 c 258.129 76.909 253.207 78.116
 249.43 75.823 c 229.758 63.897 207.133 57.592 184.004 57.592 c 114.316 
57.592 57.621 114.288 57.621 183.975 c 57.621 253.663 114.316 310.358 184.004
 310.358 c 212.457 310.358 239.297 301.135 261.66 283.686 c 261.66 272.944
 l 247.082 258.37 l 230.059 272.827 208.035 281.561 184.004 281.561 c 130.191
 281.561 86.414 237.788 86.414 183.975 c 86.414 130.166 130.191 86.389 184.004
 86.389 c 237.812 86.389 281.59 130.166 281.59 183.975 c 281.59 208.006 
272.852 230.034 258.395 247.057 c 273.031 261.69 l 283.672 261.69 l 300.914
 239.592 310.383 212.1 310.383 183.975 c 310.383 160.393 303.848 137.393
 291.484 117.463 c 289.156 113.709 290.312 108.776 294.066 106.448 c 295.379
 105.635 296.836 105.245 298.277 105.245 c 300.953 105.245 303.566 106.588
 305.082 109.03 c 319.02 131.495 326.383 157.413 326.383 183.975 c 326.383
 211.604 318.266 238.698 303.305 261.69 c 331.055 261.69 l 333.176 261.69
 335.211 262.534 336.711 264.034 c 407.227 334.549 l 409.516 336.834 410.199
 340.276 408.961 343.264 c h
332.176 382.291 m 332.176 343.459 l 277.66 288.944 l 277.66 327.772 l h
265.594 183.975 m 265.594 138.987 228.992 102.385 184.004 102.385 c 139.016
 102.385 102.414 138.987 102.414 183.975 c 102.414 228.963 139.016 265.565
 184.004 265.565 c 203.625 265.565 221.645 258.6 235.734 247.018 c 217.52
 228.799 l 208.168 235.811 196.562 239.967 184.004 239.967 c 153.129 239.967
 128.012 214.846 128.012 183.975 c 128.012 153.1 153.129 127.983 184.004
 127.983 c 214.879 127.983 239.996 153.1 239.996 183.975 c 239.996 196.534
 235.84 208.139 228.832 217.491 c 247.047 235.705 l 258.629 221.62 265.594
 203.596 265.594 183.975 c h
223.996 183.975 m 223.996 161.92 206.055 143.979 184.004 143.979 c 161.949
 143.979 144.008 161.92 144.008 183.975 c 144.008 206.026 161.949 223.967
 184.004 223.967 c 192.145 223.967 199.719 221.518 206.043 217.327 c 178.348
 189.631 l 175.223 186.506 175.223 181.44 178.348 178.319 c 179.91 176.756
 181.957 175.975 184.004 175.975 c 186.051 175.975 188.098 176.756 189.66
 178.319 c 217.355 206.014 l 221.547 199.69 223.996 192.116 223.996 183.975
 c h
327.742 277.686 m 289.027 277.686 l 343.547 332.205 l 382.262 332.205 l
 h
327.742 277.686 m f
59.414 67.705 m 57.301 67.705 55.238 66.85 53.758 65.362 c 52.262 63.873
 51.414 61.811 51.414 59.705 c 51.414 57.6 52.262 55.538 53.758 54.049 c
 55.246 52.561 57.301 51.705 59.414 51.705 c 61.516 51.705 63.578 52.561
 65.066 54.049 c 66.555 55.538 67.41 57.6 67.41 59.705 c 67.41 61.811 66.555
 63.866 65.066 65.362 c 63.578 66.846 61.516 67.705 59.414 67.705 c h
59.414 67.705 m f
Q Q
showpage
%%Trailer
end restore
%%EOF
