%!PS-Adobe-3.0 EPSF-3.0
%%Creator: cairo 1.14.2 (http://cairographics.org)
%%CreationDate: Fri Jun 15 11:41:46 2018
%%Pages: 1
%%DocumentData: Clean7Bit
%%LanguageLevel: 2
%%BoundingBox: 0 -1 410 410
%%EndComments
%%BeginProlog
save
50 dict begin
/q { gsave } bind def
/Q { grestore } bind def
/cm { 6 array astore concat } bind def
/w { setlinewidth } bind def
/J { setlinecap } bind def
/j { setlinejoin } bind def
/M { setmiterlimit } bind def
/d { setdash } bind def
/m { moveto } bind def
/l { lineto } bind def
/c { curveto } bind def
/h { closepath } bind def
/re { exch dup neg 3 1 roll 5 3 roll moveto 0 rlineto
      0 exch rlineto 0 rlineto closepath } bind def
/S { stroke } bind def
/f { fill } bind def
/f* { eofill } bind def
/n { newpath } bind def
/W { clip } bind def
/W* { eoclip } bind def
/BT { } bind def
/ET { } bind def
/pdfmark where { pop globaldict /?pdfmark /exec load put }
    { globaldict begin /?pdfmark /pop load def /pdfmark
    /cleartomark load def end } ifelse
/BDC { mark 3 1 roll /BDC pdfmark } bind def
/EMC { mark /EMC pdfmark } bind def
/cairo_store_point { /cairo_point_y exch def /cairo_point_x exch def } def
/Tj { show currentpoint cairo_store_point } bind def
/TJ {
  {
    dup
    type /stringtype eq
    { show } { -0.001 mul 0 cairo_font_matrix dtransform rmoveto } ifelse
  } forall
  currentpoint cairo_store_point
} bind def
/cairo_selectfont { cairo_font_matrix aload pop pop pop 0 0 6 array astore
    cairo_font exch selectfont cairo_point_x cairo_point_y moveto } bind def
/Tf { pop /cairo_font exch def /cairo_font_matrix where
      { pop cairo_selectfont } if } bind def
/Td { matrix translate cairo_font_matrix matrix concatmatrix dup
      /cairo_font_matrix exch def dup 4 get exch 5 get cairo_store_point
      /cairo_font where { pop cairo_selectfont } if } bind def
/Tm { 2 copy 8 2 roll 6 array astore /cairo_font_matrix exch def
      cairo_store_point /cairo_font where { pop cairo_selectfont } if } bind def
/g { setgray } bind def
/rg { setrgbcolor } bind def
/d1 { setcachedevice } bind def
%%EndProlog
%%BeginSetup
%%EndSetup
%%Page: 1 1
%%BeginPageSetup
%%PageBoundingBox: 0 -1 410 410
%%EndPageSetup
q 0 -1 410 411 rectclip q
1 0.352941 0.352941 rg
101.547 44.097 m 70.938 8.054 l 70.938 8.054 43.211 7.933 43.211 8.054 
c 43.211 8.175 78.492 66.417 78.492 66.417 c h
101.547 44.097 m f
308.809 43.241 m 338.691 8.054 l 338.691 8.054 366.414 7.933 366.414 8.054
 c 366.414 8.179 331.133 66.417 331.133 66.417 c h
308.809 43.241 m f
0.941176 0.941176 0.980392 rg
308.016 307.999 m 329.742 329.726 l 352.273 307.198 l 330.543 285.468 l
 h
308.016 307.999 m f
79.891 329.73 m 101.617 308.003 l 79.09 285.476 l 57.363 307.202 l h
79.891 329.73 m f
1 0.352941 0.352941 rg
370.625 173.823 m 370.625 82.253 296.391 8.019 204.816 8.019 c 113.242 
8.019 39.008 82.253 39.008 173.823 c 39.008 265.398 113.242 339.632 204.816
 339.632 c 296.391 339.632 370.625 265.398 370.625 173.823 c h
370.625 173.823 m f
1 g
335.398 173.823 m 335.398 101.706 276.934 43.241 204.816 43.241 c 132.695
 43.241 74.23 101.706 74.23 173.823 c 74.23 245.945 132.695 304.409 204.816
 304.409 c 276.934 304.409 335.398 245.945 335.398 173.823 c h
335.398 173.823 m f
1 0.431373 0.215686 rg
224.574 173.823 m 224.574 162.913 215.73 154.066 204.816 154.066 c 193.902
 154.066 185.059 162.913 185.059 173.823 c 185.059 184.738 193.902 193.585
 204.816 193.585 c 215.73 193.585 224.574 184.738 224.574 173.823 c h
224.574 173.823 m f
0.666667 0.901961 1 rg
23.887 273.734 m 2.723 294.898 2.723 329.214 23.887 350.382 c 37.145 363.64
 l 58.312 384.804 92.629 384.804 113.793 363.64 c h
23.887 273.734 m f
0.960784 0.72549 0.333333 rg
229.824 369.601 m 179.801 369.601 l 170.965 369.601 163.801 376.765 163.801
 385.601 c 163.801 394.437 170.965 401.601 179.801 401.601 c 229.824 401.601
 l 238.664 401.601 245.824 394.437 245.824 385.601 c 245.824 376.765 238.664
 369.601 229.824 369.601 c h
229.824 369.601 m f
0.666667 0.901961 1 rg
385.742 273.734 m 406.91 294.898 406.91 329.214 385.742 350.382 c 372.484
 363.64 l 351.32 384.804 317.004 384.804 295.836 363.64 c h
385.742 273.734 m f
0 g
204.812 312.405 m 173.125 312.405 143.301 301.995 118.562 282.3 c 94.559
 263.191 77.367 236.339 70.152 206.691 c 69.109 202.398 71.742 198.073 76.035
 197.027 c 80.328 195.984 84.656 198.616 85.699 202.909 c 99.094 257.96 
148.074 296.405 204.812 296.405 c 272.406 296.405 327.398 241.417 327.398
 173.823 c 327.398 106.23 272.406 51.241 204.812 51.241 c 147.539 51.241
 98.453 90.132 85.441 145.82 c 84.438 150.124 80.133 152.796 75.832 151.792
 c 71.531 150.784 68.855 146.484 69.863 142.179 c 76.855 112.241 93.98 85.089
 118.086 65.73 c 142.559 46.066 173.359 35.241 204.812 35.241 c 281.23 35.241
 343.398 97.409 343.398 173.823 c 343.398 250.238 281.23 312.405 204.812
 312.405 c h
204.812 312.405 m f
391.398 356.038 m 378.141 369.296 l 366.395 381.042 350.773 387.511 334.16
 387.511 c 317.547 387.511 301.926 381.042 290.18 369.296 c 287.055 366.171
 287.055 361.105 290.18 357.98 c 318.43 329.73 l 304.766 316.066 l 277.852
 335.066 246.184 345.941 212.812 347.445 c 212.812 361.601 l 229.824 361.601
 l 243.059 361.601 253.824 372.366 253.824 385.601 c 253.824 398.835 243.059
 409.601 229.824 409.601 c 179.801 409.601 l 166.566 409.601 155.801 398.835
 155.801 385.601 c 155.801 372.366 166.566 361.601 179.801 361.601 c 196.812
 361.601 l 196.812 347.445 l 163.445 345.941 131.773 335.066 104.859 316.066
 c 91.199 329.73 l 119.453 357.98 l 122.574 361.105 122.574 366.171 119.453
 369.296 c 107.703 381.042 92.086 387.511 75.469 387.511 c 58.855 387.511
 43.234 381.042 31.488 369.296 c 18.23 356.038 l 6.484 344.292 0.012 328.671
 0.012 312.058 c 0.012 295.445 6.484 279.823 18.23 268.073 c 19.73 266.573
 21.766 265.73 23.887 265.73 c 26.008 265.73 28.043 266.573 29.543 268.073
 c 57.355 295.886 l 69.863 283.378 l 44.695 252.491 31.004 214.21 31.004
 173.823 c 31.004 134.058 44.277 96.343 68.711 65.706 c 65.391 60.222 59.699
 50.827 54.008 41.425 c 49.598 34.132 45.188 26.839 41.875 21.363 c 40.219
 18.616 38.84 16.327 37.871 14.722 c 35.672 11.058 35.211 10.296 35.211 
8.054 c 35.211 5.925 36.062 3.886 37.57 2.386 c 39.945 0.019 41.562 0.015
 47.578 0.003 c 48.438 -0.001 49.391 -0.001 50.402 -0.001 c 52.473 -0.001
 54.809 0.003 57.137 0.007 c 64.062 0.027 70.973 0.054 70.973 0.054 c 73.309
 0.066 75.523 1.097 77.035 2.878 c 102.723 33.128 l 132.215 11.632 167.621
 0.019 204.812 0.019 c 242.008 0.019 277.41 11.632 306.902 33.128 c 332.594
 2.878 l 334.105 1.097 336.32 0.066 338.656 0.054 c 338.656 0.054 345.562
 0.027 352.488 0.007 c 354.82 0.003 357.152 -0.001 359.227 -0.001 c 360.238
 -0.001 361.188 -0.001 362.047 0.003 c 368.062 0.015 369.68 0.019 372.059
 2.386 c 373.566 3.886 374.414 5.925 374.414 8.054 c 374.414 10.296 373.957
 11.058 371.754 14.722 c 370.789 16.327 369.406 18.616 367.75 21.363 c 364.441
 26.839 360.031 34.132 355.617 41.425 c 349.926 50.827 344.238 60.222 340.914
 65.706 c 365.348 96.343 378.621 134.058 378.621 173.823 c 378.621 214.21
 364.934 252.488 339.762 283.374 c 352.273 295.886 l 380.086 268.073 l 381.586
 266.573 383.621 265.73 385.742 265.73 c 387.863 265.73 389.898 266.573 
391.398 268.073 c 415.648 292.327 415.648 331.788 391.398 356.038 c h
171.801 385.601 m 171.801 390.011 175.391 393.601 179.801 393.601 c 229.824
 393.601 l 234.238 393.601 237.824 390.011 237.824 385.601 c 237.824 381.191
 234.238 377.601 229.824 377.601 c 179.801 377.601 l 175.391 377.601 171.801
 381.191 171.801 385.601 c h
24.371 285.53 m 18.941 293.245 16.012 302.425 16.012 312.058 c 16.012 324.398
 20.82 335.999 29.543 344.726 c 42.801 357.98 l 51.809 366.988 63.637 371.491
 75.469 371.491 c 84.766 371.491 94.062 368.71 101.992 363.148 c 74.23 335.39
 l 74.227 335.386 l 74.227 335.382 l 51.699 312.859 l 51.699 312.855 l h
68.672 307.202 m 79.887 318.413 l 92.137 306.163 l 88.629 303.167 85.211
 300.023 81.914 296.722 c 81.453 296.261 81.004 295.792 80.547 295.323 c
 h
67.223 16.038 m 64.082 16.027 60.621 16.015 57.336 16.007 c 63.297 25.874
 72.02 40.28 79.785 53.105 c 80.492 52.374 81.195 51.644 81.914 50.925 c
 84.613 48.226 87.395 45.636 90.234 43.136 c h
352.289 16.007 m 349.008 16.015 345.543 16.027 342.402 16.038 c 319.395
 43.136 l 322.234 45.636 325.012 48.226 327.715 50.925 c 328.434 51.644 
329.137 52.374 329.844 53.105 c 337.605 40.28 346.328 25.874 352.289 16.007
 c h
204.812 16.019 m 117.797 16.019 47.008 86.808 47.008 173.823 c 47.008 260.839
 117.801 331.632 204.812 331.632 c 291.828 331.632 362.621 260.839 362.621
 173.823 c 362.621 86.808 291.828 16.019 204.812 16.019 c h
329.082 295.323 m 328.625 295.788 328.176 296.261 327.715 296.722 c 324.414
 300.023 321 303.163 317.492 306.163 c 329.746 318.413 l 340.961 307.202
 l h
385.254 285.534 m 307.633 363.155 l 315.348 368.585 324.531 371.515 334.16
 371.515 c 346.5 371.515 358.102 366.706 366.828 357.98 c 380.086 344.726
 l 396.172 328.64 397.895 303.55 385.254 285.534 c h
385.254 285.534 m f
204.812 63.734 m 209.23 63.734 212.812 67.316 212.812 71.734 c 212.812 
147.245 l 224.23 150.687 232.574 161.296 232.574 173.823 c 232.574 189.128
 220.121 201.581 204.812 201.581 c 200.066 201.581 195.594 200.382 191.68
 198.273 c 159.133 230.82 l 156.008 233.941 150.945 233.941 147.82 230.82
 c 144.695 227.695 144.695 222.628 147.82 219.503 c 180.363 186.956 l 178.254
 183.046 177.055 178.573 177.055 173.823 c 177.055 161.296 185.395 150.687
 196.812 147.245 c 196.812 71.734 l 196.812 67.316 200.395 63.734 204.812
 63.734 c h
193.055 173.823 m 193.055 180.308 198.328 185.581 204.812 185.581 c 211.297
 185.581 216.57 180.308 216.57 173.823 c 216.57 167.339 211.297 162.066 
204.812 162.066 c 198.328 162.066 193.055 167.339 193.055 173.823 c h
193.055 173.823 m f
285.531 229.726 m 283.012 233.359 278.027 234.257 274.398 231.738 c 270.766
 229.222 269.867 224.238 272.387 220.605 c 281.941 206.831 286.992 190.655
 286.992 173.823 c 286.992 169.405 290.574 165.823 294.992 165.823 c 299.41
 165.823 302.992 169.405 302.992 173.823 c 302.992 193.933 296.953 213.261
 285.531 229.726 c h
285.531 229.726 m f
294.988 151.999 m 292.887 151.999 290.82 151.144 289.332 149.655 c 287.844
 148.167 286.988 146.105 286.988 143.999 c 286.988 141.898 287.844 139.831
 289.332 138.343 c 290.82 136.859 292.887 135.999 294.988 135.999 c 297.094
 135.999 299.156 136.859 300.645 138.343 c 302.133 139.831 302.988 141.898
 302.988 143.999 c 302.988 146.105 302.133 148.167 300.645 149.655 c 299.156
 151.144 297.094 151.999 294.988 151.999 c h
294.988 151.999 m f
79.887 168.167 m 81.371 169.655 82.23 171.722 82.23 173.823 c 82.23 175.929
 81.371 177.991 79.887 179.48 c 78.398 180.968 76.332 181.823 74.23 181.823
 c 72.125 181.823 70.062 180.968 68.574 179.48 c 67.086 177.991 66.23 175.929
 66.23 173.823 c 66.23 171.722 67.086 169.655 68.574 168.167 c 70.062 166.679
 72.125 165.823 74.23 165.823 c 76.332 165.823 78.398 166.679 79.887 168.167
 c h
79.887 168.167 m f
Q Q
showpage
%%Trailer
end restore
%%EOF
