%!PS-Adobe-3.0 EPSF-3.0
%%Creator: cairo 1.14.2 (http://cairographics.org)
%%CreationDate: Fri Jun 15 11:41:46 2018
%%Pages: 1
%%DocumentData: Clean7Bit
%%LanguageLevel: 2
%%BoundingBox: 0 21 410 389
%%EndComments
%%BeginProlog
save
50 dict begin
/q { gsave } bind def
/Q { grestore } bind def
/cm { 6 array astore concat } bind def
/w { setlinewidth } bind def
/J { setlinecap } bind def
/j { setlinejoin } bind def
/M { setmiterlimit } bind def
/d { setdash } bind def
/m { moveto } bind def
/l { lineto } bind def
/c { curveto } bind def
/h { closepath } bind def
/re { exch dup neg 3 1 roll 5 3 roll moveto 0 rlineto
      0 exch rlineto 0 rlineto closepath } bind def
/S { stroke } bind def
/f { fill } bind def
/f* { eofill } bind def
/n { newpath } bind def
/W { clip } bind def
/W* { eoclip } bind def
/BT { } bind def
/ET { } bind def
/pdfmark where { pop globaldict /?pdfmark /exec load put }
    { globaldict begin /?pdfmark /pop load def /pdfmark
    /cleartomark load def end } ifelse
/BDC { mark 3 1 roll /BDC pdfmark } bind def
/EMC { mark /EMC pdfmark } bind def
/cairo_store_point { /cairo_point_y exch def /cairo_point_x exch def } def
/Tj { show currentpoint cairo_store_point } bind def
/TJ {
  {
    dup
    type /stringtype eq
    { show } { -0.001 mul 0 cairo_font_matrix dtransform rmoveto } ifelse
  } forall
  currentpoint cairo_store_point
} bind def
/cairo_selectfont { cairo_font_matrix aload pop pop pop 0 0 6 array astore
    cairo_font exch selectfont cairo_point_x cairo_point_y moveto } bind def
/Tf { pop /cairo_font exch def /cairo_font_matrix where
      { pop cairo_selectfont } if } bind def
/Td { matrix translate cairo_font_matrix matrix concatmatrix dup
      /cairo_font_matrix exch def dup 4 get exch 5 get cairo_store_point
      /cairo_font where { pop cairo_selectfont } if } bind def
/Tm { 2 copy 8 2 roll 6 array astore /cairo_font_matrix exch def
      cairo_store_point /cairo_font where { pop cairo_selectfont } if } bind def
/g { setgray } bind def
/rg { setrgbcolor } bind def
/d1 { setcachedevice } bind def
%%EndProlog
%%BeginSetup
%%EndSetup
%%Page: 1 1
%%BeginPageSetup
%%PageBoundingBox: 0 21 410 389
%%EndPageSetup
q 0 21 410 368 rectclip q
0.607843 0.745098 1 rg
401.5 296.778 m 7.996 296.778 l 47.348 379.958 l 362.672 379.958 l h
401.5 296.778 m f
1 0.54902 0.54902 rg
86.801 379.958 78.703 -83.18 re f
244.203 379.958 78.699 -83.18 re f
0.784314 0.960784 1 rg
29.594 296.778 m 29.594 29.641 l 379.906 29.641 l 379.906 296.778 l f
0.666667 0.901961 1 rg
29.594 296.778 130.367 -267.133 re f
0.490196 0.607843 1 rg
401.602 296.778 m 401.602 275.044 383.984 257.427 362.25 257.427 c 340.52
 257.427 322.902 275.044 322.902 296.778 c 322.902 275.044 305.281 257.427
 283.551 257.427 c 261.82 257.427 244.199 275.044 244.199 296.778 c 244.199
 275.044 226.582 257.427 204.848 257.427 c 183.117 257.427 165.5 275.044
 165.5 296.778 c 165.5 275.044 147.879 257.427 126.148 257.427 c 104.418
 257.427 86.801 275.044 86.801 296.778 c 86.801 275.044 69.18 257.427 47.449
 257.427 c 25.719 257.427 8.098 275.044 8.098 296.778 c f
1 0.352941 0.352941 rg
165.5 296.778 m 165.5 275.044 147.883 257.427 126.148 257.427 c 104.418
 257.427 86.801 275.044 86.801 296.778 c f
322.902 296.778 m 322.902 275.044 305.281 257.427 283.551 257.427 c 261.82
 257.427 244.199 275.044 244.199 296.778 c f
0.960784 0.784314 0.431373 rg
159.961 98.427 219.945 -68.781 re f
0 g
400.883 37.641 m 387.902 37.641 l 387.902 148.102 l 387.902 152.52 384.32
 156.102 379.906 156.102 c 375.488 156.102 371.906 152.52 371.906 148.102
 c 371.906 106.423 l 167.957 106.423 l 167.957 231.173 l 167.957 235.591
 164.375 239.169 159.961 239.169 c 155.543 239.169 151.961 235.591 151.961
 231.173 c 151.961 37.641 l 37.59 37.641 l 37.59 250.469 l 40.773 249.79
 44.07 249.427 47.449 249.427 c 63.832 249.427 78.297 257.79 86.801 270.469
 c 95.305 257.79 109.77 249.427 126.148 249.427 c 142.531 249.427 156.996
 257.79 165.5 270.469 c 174.004 257.79 188.469 249.427 204.852 249.427 c
 221.23 249.427 235.695 257.79 244.199 270.469 c 252.703 257.79 267.172 
249.427 283.551 249.427 c 299.934 249.427 314.395 257.79 322.902 270.469
 c 331.406 257.79 345.871 249.427 362.25 249.427 c 365.559 249.427 368.789
 249.77 371.906 250.423 c 371.906 199.735 l 371.906 195.317 375.488 191.735
 379.906 191.735 c 384.324 191.735 387.902 195.317 387.902 199.735 c 387.902
 257.009 l 400.945 265.454 409.602 280.118 409.602 296.778 c 409.602 298.415
 409.105 299.938 408.258 301.208 c 369.918 383.341 l 368.602 386.153 365.777
 387.954 362.668 387.954 c 47.348 387.954 l 44.258 387.954 41.441 386.173
 40.117 383.376 c 0.77 300.196 l 0.035 298.645 -0.172 296.927 0.137 295.294
 c 0.633 279.337 9.055 265.348 21.594 257.141 c 21.594 37.641 l 8.613 37.641
 l 4.199 37.641 0.617 34.059 0.617 29.641 c 0.617 25.227 4.199 21.645 8.613
 21.645 c 400.883 21.645 l 405.301 21.645 408.879 25.227 408.879 29.641 
c 408.883 34.059 405.301 37.641 400.883 37.641 c h
47.449 265.423 m 32.926 265.423 20.68 275.352 17.133 288.778 c 77.766 288.778
 l 74.219 275.352 61.973 265.423 47.449 265.423 c h
315.078 304.774 m 252.312 304.774 l 252.312 371.958 l 315.078 371.958 l
 h
236.32 304.774 m 173.555 304.774 l 173.555 371.958 l 236.32 371.958 l h
157.562 304.774 m 94.797 304.774 l 94.797 371.958 l 157.562 371.958 l h
126.148 265.423 m 111.625 265.423 99.379 275.352 95.836 288.778 c 156.465
 288.778 l 152.918 275.352 140.672 265.423 126.148 265.423 c h
204.852 265.423 m 190.324 265.423 178.082 275.352 174.535 288.778 c 235.164
 288.778 l 231.621 275.352 219.375 265.423 204.852 265.423 c h
283.551 265.423 m 269.027 265.423 256.781 275.352 253.234 288.778 c 313.863
 288.778 l 310.32 275.352 298.074 265.423 283.551 265.423 c h
331.938 288.778 m 392.566 288.778 l 389.02 275.352 376.777 265.423 362.25
 265.423 c 347.727 265.423 335.48 275.352 331.938 288.778 c h
388.941 304.774 m 331.074 304.774 l 331.074 371.958 l 357.578 371.958 l
 h
52.41 371.958 m 78.801 371.958 l 78.801 304.774 l 20.629 304.774 l h
167.957 37.641 m 167.957 90.427 l 371.906 90.427 l 371.906 37.641 l h
167.957 37.641 m f
120.801 153.755 m 119.312 152.266 118.457 150.212 118.457 148.102 c 118.457
 145.997 119.312 143.934 120.801 142.446 c 122.289 140.958 124.352 140.102
 126.457 140.102 c 128.559 140.102 130.621 140.962 132.109 142.446 c 133.598
 143.934 134.453 145.997 134.453 148.102 c 134.453 150.212 133.598 152.27
 132.109 153.755 c 130.621 155.243 128.566 156.098 126.457 156.098 c 124.352
 156.098 122.289 155.243 120.801 153.755 c h
120.801 153.755 m f
277.004 216.219 m 273.879 219.341 268.82 219.341 265.695 216.219 c 211.516
 162.04 l 208.395 158.919 208.395 153.856 211.516 150.731 c 213.078 149.169
 215.125 148.387 217.172 148.387 c 219.219 148.387 221.266 149.169 222.828
 150.731 c 277.004 204.907 l 280.129 208.032 280.129 213.094 277.004 216.219
 c h
277.004 216.219 m f
198.512 145.719 m 196.406 145.719 194.344 144.872 192.855 143.384 c 191.367
 141.887 190.512 139.833 190.512 137.727 c 190.512 135.618 191.367 133.563
 192.855 132.075 c 194.344 130.579 196.406 129.731 198.512 129.731 c 200.613
 129.731 202.676 130.579 204.164 132.075 c 205.652 133.563 206.508 135.618
 206.508 137.727 c 206.508 139.833 205.652 141.895 204.164 143.384 c 202.676
 144.872 200.613 145.719 198.512 145.719 c h
198.512 145.719 m f
283.316 155.219 m 285.363 155.219 287.41 156.001 288.973 157.563 c 343.57
 212.161 l 346.695 215.282 346.695 220.348 343.57 223.469 c 340.445 226.594
 335.387 226.594 332.262 223.469 c 277.66 168.872 l 274.539 165.751 274.539
 160.684 277.66 157.563 c 279.223 156.001 281.27 155.219 283.316 155.219
 c h
283.316 155.219 m f
379.906 182.141 m 377.801 182.141 375.738 181.286 374.25 179.798 c 372.766
 178.309 371.906 176.255 371.906 174.141 c 371.906 172.04 372.762 169.977
 374.25 168.489 c 375.738 167.001 377.801 166.145 379.906 166.145 c 382.008
 166.145 384.074 167.001 385.559 168.489 c 387.047 169.977 387.902 172.04
 387.902 174.141 c 387.902 176.247 387.047 178.309 385.559 179.798 c 384.07
 181.286 382.008 182.141 379.906 182.141 c h
379.906 182.141 m f
Q Q
showpage
%%Trailer
end restore
%%EOF
