%!PS-Adobe-3.0 EPSF-3.0
%%Creator: cairo 1.14.2 (http://cairographics.org)
%%CreationDate: Fri Jun 15 11:41:46 2018
%%Pages: 1
%%DocumentData: Clean7Bit
%%LanguageLevel: 2
%%BoundingBox: 32 -1 377 410
%%EndComments
%%BeginProlog
save
50 dict begin
/q { gsave } bind def
/Q { grestore } bind def
/cm { 6 array astore concat } bind def
/w { setlinewidth } bind def
/J { setlinecap } bind def
/j { setlinejoin } bind def
/M { setmiterlimit } bind def
/d { setdash } bind def
/m { moveto } bind def
/l { lineto } bind def
/c { curveto } bind def
/h { closepath } bind def
/re { exch dup neg 3 1 roll 5 3 roll moveto 0 rlineto
      0 exch rlineto 0 rlineto closepath } bind def
/S { stroke } bind def
/f { fill } bind def
/f* { eofill } bind def
/n { newpath } bind def
/W { clip } bind def
/W* { eoclip } bind def
/BT { } bind def
/ET { } bind def
/pdfmark where { pop globaldict /?pdfmark /exec load put }
    { globaldict begin /?pdfmark /pop load def /pdfmark
    /cleartomark load def end } ifelse
/BDC { mark 3 1 roll /BDC pdfmark } bind def
/EMC { mark /EMC pdfmark } bind def
/cairo_store_point { /cairo_point_y exch def /cairo_point_x exch def } def
/Tj { show currentpoint cairo_store_point } bind def
/TJ {
  {
    dup
    type /stringtype eq
    { show } { -0.001 mul 0 cairo_font_matrix dtransform rmoveto } ifelse
  } forall
  currentpoint cairo_store_point
} bind def
/cairo_selectfont { cairo_font_matrix aload pop pop pop 0 0 6 array astore
    cairo_font exch selectfont cairo_point_x cairo_point_y moveto } bind def
/Tf { pop /cairo_font exch def /cairo_font_matrix where
      { pop cairo_selectfont } if } bind def
/Td { matrix translate cairo_font_matrix matrix concatmatrix dup
      /cairo_font_matrix exch def dup 4 get exch 5 get cairo_store_point
      /cairo_font where { pop cairo_selectfont } if } bind def
/Tm { 2 copy 8 2 roll 6 array astore /cairo_font_matrix exch def
      cairo_store_point /cairo_font where { pop cairo_selectfont } if } bind def
/g { setgray } bind def
/rg { setrgbcolor } bind def
/d1 { setcachedevice } bind def
%%EndProlog
%%BeginSetup
%%EndSetup
%%Page: 1 1
%%BeginPageSetup
%%PageBoundingBox: 32 -1 377 410
%%EndPageSetup
q 32 -1 345 411 rectclip q
0.470588 0.823529 0.980392 rg
40.66 318.724 m 40.66 168.888 l 40.66 109.302 79.949 79.173 122.703 54.15
 c 164.008 29.97 204.746 7.998 204.746 7.998 c 204.855 7.998 l 204.855 7.998
 245.59 29.97 286.895 54.15 c 329.648 79.177 368.938 109.302 368.938 168.892
 c 368.938 318.724 l 204.855 401.599 l 204.746 401.599 l 204.855 401.599
 l 204.746 401.599 l h
40.66 318.724 m f
1 g
72.66 299.037 m 72.66 168.888 l 72.66 128.435 96.938 106.31 138.867 81.763
 c 164.098 66.998 189.34 52.939 204.801 44.431 c 220.258 52.939 245.5 66.998
 270.73 81.763 c 312.664 106.31 336.938 128.435 336.938 168.888 c 336.938
 299.037 l 204.801 365.775 l h
72.66 299.037 m f
0.666667 0.901961 1 rg
187.777 213.99 m 187.777 206.466 182.539 199.951 175.188 198.337 c 162.227
 195.498 l 144.109 191.521 131.199 175.474 131.199 156.923 c 131.199 132.798
 l 278.398 132.798 l 278.398 156.9 l 278.398 175.462 265.477 191.513 247.344
 195.478 c 234.234 198.345 l 226.879 199.955 221.633 206.47 221.633 213.998
 c 221.633 214.045 l h
187.777 213.99 m f
1 0.901961 0.764706 rg
178.258 194.185 m 192.914 179.529 216.684 179.529 231.34 194.185 c 234.992
 198.181 l 234.234 198.345 l 226.879 199.955 221.633 206.47 221.633 214.002
 c 221.633 214.045 l 187.777 213.99 l 187.777 206.462 182.539 199.951 175.188
 198.337 c 175.094 198.318 l h
178.258 194.185 m f
204.801 211.677 m 184.477 211.677 168 228.154 168 248.478 c 168 277.92 
l 168 298.24 184.477 314.716 204.801 314.716 c 225.125 314.716 241.598 298.24
 241.598 277.92 c 241.598 248.478 l 241.598 228.154 225.125 211.677 204.801
 211.677 c h
204.801 211.677 m f
1 0.509804 0.294118 rg
204.801 314.716 m 184.477 314.716 168 298.24 168 277.92 c 168 263.388 l
 168.453 263.287 l 191.98 263.287 l 208.809 263.287 224.945 269.97 236.844
 281.869 c 239.242 284.267 l 240.766 285.705 l 237.191 302.287 222.453 314.716
 204.801 314.716 c h
204.801 314.716 m f
0 g
372.547 325.869 m 208.602 408.67 l 207.492 409.259 206.227 409.595 204.883
 409.599 c 204.875 409.599 204.875 409.599 204.871 409.599 c 204.715 409.599
 l 203.371 409.595 202.105 409.259 200.996 408.67 c 37.055 325.869 l 34.359
 324.505 32.66 321.744 32.66 318.728 c 32.66 168.892 l 32.66 139.685 41.445
 115.002 59.516 93.423 c 76.246 73.447 98.805 58.869 118.66 47.248 c 159.613
 23.271 200.539 1.177 200.949 0.959 c 202.113 0.33 203.422 0.002 204.746
 0.002 c 204.855 0.002 l 206.18 0.002 207.484 0.33 208.652 0.959 c 209.059
 1.177 249.984 23.271 290.938 47.248 c 294.75 49.478 296.031 54.38 293.801
 58.193 c 291.57 62.005 286.668 63.287 282.855 61.056 c 249.32 41.423 215.797
 23.056 204.801 17.072 c 193.805 23.056 160.285 41.42 126.742 61.052 c 88.965
 83.17 48.66 111.564 48.66 168.888 c 48.66 313.802 l 204.801 392.666 l 360.938
 313.802 l 360.938 168.888 l 360.938 139.47 351.07 116.029 329.887 95.111
 c 326.742 92.009 326.707 86.943 329.812 83.798 c 332.918 80.654 337.984
 80.623 341.125 83.724 c 365.227 107.517 376.941 135.377 376.941 168.888
 c 376.941 318.724 l 376.938 321.744 375.238 324.505 372.547 325.869 c h
372.547 325.869 m f
344.938 299.037 m 344.938 302.056 343.238 304.818 340.547 306.177 c 208.406
 372.92 l 206.137 374.064 203.461 374.064 201.191 372.92 c 69.055 306.181
 l 66.359 304.818 64.66 302.056 64.66 299.041 c 64.66 168.888 l 64.66 147.744
 70.945 129.873 83.879 114.259 c 94.668 101.232 109.906 89.451 134.828 74.861
 c 159.703 60.298 184.512 46.466 200.941 37.423 c 202.145 36.763 203.473
 36.431 204.801 36.431 c 206.129 36.431 207.457 36.763 208.656 37.423 c 
225.086 46.466 249.895 60.298 274.773 74.861 c 299.695 89.451 314.934 101.232
 325.723 114.259 c 338.652 129.873 344.941 147.744 344.941 168.888 c 344.941
 299.037 l h
328.938 168.888 m 328.938 132.087 307.062 112.302 266.688 88.67 c 243.836
 75.295 221.027 62.525 204.801 53.568 c 188.57 62.525 165.758 75.295 142.91
 88.67 c 102.539 112.302 80.66 132.087 80.66 168.888 c 80.66 294.119 l 204.801
 356.814 l 328.938 294.119 l h
328.938 168.888 m f
160 277.92 m 160 248.478 l 160 233.201 167.691 219.689 179.402 211.599 
c 178.551 208.92 176.32 206.779 173.473 206.154 c 160.512 203.31 l 149.973
 200.998 140.445 195.095 133.688 186.689 c 126.926 178.283 123.199 167.712
 123.199 156.923 c 123.199 132.798 l 123.199 128.38 126.781 124.798 131.199
 124.798 c 278.398 124.798 l 282.816 124.798 286.398 128.38 286.398 132.798
 c 286.398 156.9 l 286.398 179.052 270.691 198.564 249.055 203.295 c 235.941
 206.162 l 233.141 206.775 230.934 208.853 230.051 211.498 c 241.844 219.576
 249.598 233.134 249.598 248.478 c 249.598 277.92 l 249.598 302.619 229.504
 322.716 204.801 322.716 c 180.098 322.716 160 302.619 160 277.92 c h
270.398 156.9 m 270.398 140.798 l 139.199 140.798 l 139.199 156.923 l 139.199
 171.603 149.605 184.537 163.941 187.681 c 171.848 189.416 l 172.074 189.107
 172.32 188.81 172.602 188.529 c 181.477 179.654 193.141 175.212 204.801
 175.212 c 216.461 175.212 228.121 179.654 237 188.529 c 237.27 188.802 
237.512 189.091 237.734 189.392 c 245.637 187.666 l 259.984 184.525 270.398
 171.591 270.398 156.9 c h
221.438 196.334 m 211.406 189.486 198.066 189.509 188.059 196.404 c 190.629
 198.798 192.672 201.732 194.008 205.002 c 197.465 204.142 201.078 203.677
 204.801 203.677 c 208.461 203.677 212.016 204.13 215.426 204.962 c 216.777
 201.677 218.84 198.728 221.438 196.334 c h
204.801 219.677 m 188.918 219.677 176 232.595 176 248.478 c 176 255.287
 l 191.98 255.287 l 207.129 255.287 221.547 259.982 233.598 268.658 c 233.598
 248.478 l 233.598 232.595 220.68 219.677 204.801 219.677 c h
231.742 288.08 m 231.188 287.525 l 220.715 277.052 206.793 271.287 191.98
 271.287 c 176 271.287 l 176 277.92 l 176 293.798 188.918 306.716 204.801
 306.716 c 217.105 306.716 227.625 298.959 231.742 288.08 c h
231.742 288.08 m f
312.566 78.486 m 310.465 78.486 308.406 77.63 306.91 76.142 c 305.422 74.654
 304.574 72.591 304.574 70.486 c 304.574 68.384 305.422 66.318 306.91 64.83
 c 308.406 63.341 310.465 62.486 312.566 62.486 c 314.68 62.486 316.734 
63.341 318.223 64.83 c 319.719 66.318 320.574 68.384 320.574 70.486 c 320.574
 72.591 319.719 74.654 318.223 76.142 c 316.734 77.63 314.68 78.486 312.566
 78.486 c h
312.566 78.486 m f
104.656 266.431 m 102.551 266.431 100.496 267.287 99 268.775 c 97.512 270.263
 96.664 272.326 96.664 274.431 c 96.664 276.537 97.512 278.599 99 280.087
 c 100.496 281.576 102.551 282.431 104.656 282.431 c 106.77 282.431 108.832
 281.576 110.32 280.087 c 111.809 278.599 112.664 276.537 112.664 274.431
 c 112.664 272.326 111.809 270.263 110.32 268.775 c 108.824 267.287 106.766
 266.431 104.656 266.431 c h
104.656 266.431 m f
104.66 196.798 m 100.242 196.798 96.66 200.38 96.66 204.798 c 96.66 247.685
 l 96.66 252.103 100.242 255.685 104.66 255.685 c 109.078 255.685 112.66
 252.103 112.66 247.685 c 112.66 204.798 l 112.66 200.38 109.078 196.798
 104.66 196.798 c h
104.66 196.798 m f
Q Q
showpage
%%Trailer
end restore
%%EOF
