%!PS-Adobe-3.0 EPSF-3.0
%%Creator: cairo 1.14.2 (http://cairographics.org)
%%CreationDate: Fri Jun 15 11:41:46 2018
%%Pages: 1
%%DocumentData: Clean7Bit
%%LanguageLevel: 2
%%BoundingBox: 23 -1 386 410
%%EndComments
%%BeginProlog
save
50 dict begin
/q { gsave } bind def
/Q { grestore } bind def
/cm { 6 array astore concat } bind def
/w { setlinewidth } bind def
/J { setlinecap } bind def
/j { setlinejoin } bind def
/M { setmiterlimit } bind def
/d { setdash } bind def
/m { moveto } bind def
/l { lineto } bind def
/c { curveto } bind def
/h { closepath } bind def
/re { exch dup neg 3 1 roll 5 3 roll moveto 0 rlineto
      0 exch rlineto 0 rlineto closepath } bind def
/S { stroke } bind def
/f { fill } bind def
/f* { eofill } bind def
/n { newpath } bind def
/W { clip } bind def
/W* { eoclip } bind def
/BT { } bind def
/ET { } bind def
/pdfmark where { pop globaldict /?pdfmark /exec load put }
    { globaldict begin /?pdfmark /pop load def /pdfmark
    /cleartomark load def end } ifelse
/BDC { mark 3 1 roll /BDC pdfmark } bind def
/EMC { mark /EMC pdfmark } bind def
/cairo_store_point { /cairo_point_y exch def /cairo_point_x exch def } def
/Tj { show currentpoint cairo_store_point } bind def
/TJ {
  {
    dup
    type /stringtype eq
    { show } { -0.001 mul 0 cairo_font_matrix dtransform rmoveto } ifelse
  } forall
  currentpoint cairo_store_point
} bind def
/cairo_selectfont { cairo_font_matrix aload pop pop pop 0 0 6 array astore
    cairo_font exch selectfont cairo_point_x cairo_point_y moveto } bind def
/Tf { pop /cairo_font exch def /cairo_font_matrix where
      { pop cairo_selectfont } if } bind def
/Td { matrix translate cairo_font_matrix matrix concatmatrix dup
      /cairo_font_matrix exch def dup 4 get exch 5 get cairo_store_point
      /cairo_font where { pop cairo_selectfont } if } bind def
/Tm { 2 copy 8 2 roll 6 array astore /cairo_font_matrix exch def
      cairo_store_point /cairo_font where { pop cairo_selectfont } if } bind def
/g { setgray } bind def
/rg { setrgbcolor } bind def
/d1 { setcachedevice } bind def
%%EndProlog
%%BeginSetup
%%EndSetup
%%Page: 1 1
%%BeginPageSetup
%%PageBoundingBox: 23 -1 386 410
%%EndPageSetup
q 23 -1 363 411 rectclip q
0.843137 0.843137 0.901961 rg
363.457 173.816 m 363.457 82.238 289.219 7.999 197.641 7.999 c 106.062 
7.999 31.828 82.238 31.828 173.816 c 31.828 265.394 106.062 339.628 197.641
 339.628 c 289.219 339.628 363.457 265.394 363.457 173.816 c h
363.457 173.816 m f
0.529412 0.529412 0.568627 rg
174.441 339.628 m 174.441 366.398 l 220.844 366.398 l 220.844 339.628 l
 f
298.484 307.468 m 317.418 326.398 l 350.227 293.585 l 331.297 274.655 l
 f
0.490196 0.607843 1 rg
148.84 401.601 97.602 -35.203 re f
359.668 284.148 m 307.977 335.839 l 321.301 349.163 l 327.688 355.55 338.047
 355.55 344.434 349.163 c 372.992 320.605 l 379.379 314.214 379.379 303.859
 372.992 297.472 c h
359.668 284.148 m f
1 g
328.23 173.816 m 328.23 101.695 269.762 43.226 197.641 43.226 c 125.52 
43.226 67.051 101.695 67.051 173.816 c 67.051 245.937 125.52 304.405 197.641
 304.405 c 269.762 304.405 328.23 245.937 328.23 173.816 c h
328.23 173.816 m f
0.960784 0.72549 0.333333 rg
216.84 173.816 m 216.84 163.21 208.246 154.613 197.641 154.613 c 187.035
 154.613 178.441 163.21 178.441 173.816 c 178.441 184.421 187.035 193.015
 197.641 193.015 c 208.246 193.015 216.84 184.421 216.84 173.816 c h
216.84 173.816 m f
186.832 189.687 m 254.449 230.62 l 213.516 163.003 l f
0 g
283.66 41.48 m 258.07 24.812 228.324 16.003 197.645 16.003 c 110.625 16.003
 39.828 86.796 39.828 173.816 c 39.828 205.413 49.133 235.902 66.734 261.98
 c 69.207 265.644 68.242 270.616 64.578 273.089 c 60.918 275.562 55.945 
274.597 53.473 270.933 c 34.078 242.198 23.828 208.613 23.828 173.812 c 
23.828 127.386 41.91 83.738 74.738 50.909 c 107.566 18.077 151.215 -0.001
 197.641 -0.001 c 231.434 -0.001 264.195 9.706 292.391 28.073 c 296.094 
30.484 297.141 35.441 294.73 39.144 c 292.316 42.843 287.359 43.894 283.66
 41.48 c h
283.66 41.48 m f
310.289 63.292 m 310.023 63.023 l 306.914 59.886 306.934 54.82 310.07 51.706
 c 311.629 50.159 313.668 49.386 315.703 49.386 c 317.762 49.386 319.82 
50.175 321.383 51.753 c 321.715 52.089 l 324.809 55.241 324.758 60.308 321.605
 63.402 c 318.449 66.495 313.383 66.445 310.289 63.292 c h
310.289 63.292 m f
354.008 278.491 m 355.57 276.929 357.621 276.148 359.668 276.148 c 361.715
 276.148 363.762 276.929 365.324 278.491 c 378.648 291.816 l 388.145 301.312
 388.145 316.765 378.648 326.261 c 350.09 354.823 l 345.488 359.421 339.371
 361.956 332.867 361.956 c 326.359 361.956 320.246 359.421 315.645 354.823
 c 302.32 341.495 l 300.82 339.995 299.977 337.96 299.977 335.839 c 299.977
 333.718 300.82 331.683 302.32 330.183 c 306.102 326.398 l 296.516 316.812
 l 276.188 330.933 253.203 340.452 228.844 344.843 c 228.844 358.398 l 246.445
 358.398 l 250.863 358.398 254.445 361.98 254.445 366.398 c 254.445 401.601
 l 254.445 406.019 250.863 409.601 246.445 409.601 c 148.844 409.601 l 144.426
 409.601 140.844 406.019 140.844 401.601 c 140.844 366.398 l 140.844 361.98
 144.426 358.398 148.844 358.398 c 166.441 358.398 l 166.441 344.827 l 143.547
 340.675 121.695 331.956 102.074 319.019 c 98.387 316.585 97.367 311.624
 99.801 307.933 c 102.234 304.245 107.195 303.226 110.883 305.659 c 136.645
 322.648 166.648 331.628 197.645 331.628 c 284.664 331.628 355.457 260.831
 355.457 173.812 c 355.457 144.304 347.266 115.527 331.762 90.601 c 329.43
 86.847 330.578 81.913 334.332 79.581 c 335.648 78.761 337.105 78.374 338.551
 78.374 c 341.223 78.374 343.836 79.71 345.352 82.148 c 362.434 109.616 
371.461 141.312 371.461 173.812 c 371.461 209.663 360.668 243.851 340.641
 272.687 c 350.227 282.269 l h
326.961 343.507 m 328.539 345.085 330.637 345.952 332.867 345.952 c 335.098
 345.952 337.195 345.085 338.773 343.507 c 367.336 314.945 l 370.594 311.691
 370.594 306.386 367.336 303.128 c 359.668 295.46 l 355.895 299.234 l 355.891
 299.238 355.887 299.241 355.883 299.245 c 323.07 332.054 l 323.07 332.058
 323.07 332.058 323.066 332.058 c 319.289 335.839 l h
156.844 393.601 m 238.445 393.601 l 238.445 374.398 l 156.844 374.398 l
 h
182.441 346.964 m 182.441 358.398 l 212.844 358.398 l 212.844 346.964 l
 207.816 347.394 202.75 347.628 197.645 347.628 c 192.547 347.628 187.477
 347.402 182.441 346.964 c h
330.828 285.499 m 327.578 289.363 324.156 293.109 320.547 296.718 c 316.938
 300.331 313.191 303.749 309.328 306.999 c 317.414 315.085 l 338.91 293.589
 l h
330.828 285.499 m f
197.645 253.605 m 202.062 253.605 205.645 257.187 205.645 261.605 c 205.645
 279.206 l 205.645 283.624 202.062 287.206 197.645 287.206 c 193.227 287.206
 189.645 283.624 189.645 279.206 c 189.645 261.605 l 189.645 257.187 193.227
 253.605 197.645 253.605 c h
197.645 253.605 m f
272.164 240.339 m 274.27 240.339 276.332 241.195 277.82 242.683 c 279.309
 244.171 280.164 246.234 280.164 248.339 c 280.164 250.441 279.309 252.507
 277.82 253.995 c 276.332 255.484 274.27 256.339 272.164 256.339 c 270.062
 256.339 267.996 255.484 266.512 253.995 c 265.023 252.507 264.164 250.441
 264.164 248.339 c 264.164 246.226 265.023 244.171 266.512 242.683 c 267.996
 241.195 270.062 240.339 272.164 240.339 c h
272.164 240.339 m f
277.434 173.812 m 277.434 169.394 281.02 165.812 285.434 165.812 c 303.035
 165.812 l 307.453 165.812 311.035 169.394 311.035 173.812 c 311.035 178.234
 307.453 181.812 303.035 181.812 c 285.434 181.812 l 281.02 181.816 277.434
 178.234 277.434 173.812 c h
277.434 173.812 m f
272.164 91.292 m 274.27 91.292 276.332 92.14 277.82 93.636 c 279.309 95.124
 280.164 97.179 280.164 99.292 c 280.164 101.398 279.309 103.452 277.82 
104.948 c 276.332 106.437 274.27 107.292 272.164 107.292 c 270.062 107.292
 267.996 106.437 266.512 104.948 c 265.023 103.46 264.164 101.398 264.164
 99.292 c 264.164 97.179 265.023 95.116 266.512 93.636 c 267.996 92.14 270.062
 91.292 272.164 91.292 c h
272.164 91.292 m f
197.645 94.023 m 193.227 94.023 189.645 90.441 189.645 86.023 c 189.645
 68.421 l 189.645 64.003 193.227 60.421 197.645 60.421 c 202.062 60.421 
205.645 64.003 205.645 68.421 c 205.645 86.023 l 205.645 90.441 202.062 
94.023 197.645 94.023 c h
197.645 94.023 m f
123.121 107.292 m 121.016 107.292 118.953 106.437 117.465 104.948 c 115.977
 103.46 115.121 101.398 115.121 99.292 c 115.121 97.179 115.977 95.124 117.465
 93.636 c 118.953 92.14 121.016 91.292 123.121 91.292 c 125.223 91.292 127.289
 92.14 128.777 93.636 c 130.266 95.124 131.121 97.179 131.121 99.292 c 131.121
 101.398 130.266 103.46 128.777 104.948 c 127.289 106.437 125.223 107.292
 123.121 107.292 c h
123.121 107.292 m f
92.25 165.812 m 109.852 165.812 l 114.27 165.812 117.852 169.394 117.852
 173.812 c 117.852 178.234 114.27 181.812 109.852 181.812 c 92.25 181.812
 l 87.832 181.812 84.25 178.234 84.25 173.812 c 84.25 169.394 87.832 165.812
 92.25 165.812 c h
92.25 165.812 m f
123.121 240.339 m 125.223 240.339 127.289 241.195 128.777 242.683 c 130.266
 244.171 131.121 246.234 131.121 248.339 c 131.121 250.441 130.266 252.507
 128.777 253.995 c 127.289 255.484 125.223 256.339 123.121 256.339 c 121.016
 256.339 118.953 255.484 117.465 253.995 c 115.977 252.507 115.121 250.441
 115.121 248.339 c 115.121 246.234 115.977 244.171 117.465 242.683 c 118.953
 241.195 121.016 240.339 123.121 240.339 c h
123.121 240.339 m f
197.645 146.613 m 206.73 146.613 214.789 151.097 219.73 157.968 c 220.32
 158.698 220.871 159.659 221.32 160.452 c 261.293 226.476 l 263.199 229.628
 262.711 233.671 260.105 236.277 c 257.5 238.882 253.457 239.37 250.305 
237.464 c 184.27 197.484 l 183.555 197.077 182.555 196.491 181.875 195.956
 c 174.965 191.023 170.441 182.937 170.441 173.816 c 170.441 158.816 182.645
 146.613 197.645 146.613 c h
186.441 173.812 m 186.441 177.644 188.379 181.03 191.32 183.05 c 192.406
 183.706 l 193.969 184.538 195.75 185.015 197.641 185.015 c 203.82 185.015
 208.844 179.991 208.844 173.812 c 208.844 171.921 208.367 170.14 207.539
 168.577 c 206.875 167.488 l 204.855 164.546 201.473 162.613 197.645 162.613
 c 191.469 162.613 186.441 167.636 186.441 173.812 c h
220.039 189.23 m 218.156 191.956 215.789 194.323 213.059 196.21 c 230.75
 206.921 l h
220.039 189.23 m f
197.645 35.226 m 274.062 35.226 336.234 97.394 336.234 173.812 c 336.234
 250.234 274.062 312.402 197.645 312.402 c 121.227 312.402 59.055 250.234
 59.055 173.812 c 59.055 97.394 121.227 35.226 197.645 35.226 c h
197.645 296.402 m 265.238 296.402 320.23 241.409 320.23 173.812 c 320.23
 106.218 265.238 51.226 197.645 51.226 c 130.047 51.226 75.055 106.218 75.055
 173.812 c 75.055 241.409 130.047 296.402 197.645 296.402 c h
197.645 296.402 m f
80.887 283.546 m 82.992 283.546 85.055 284.405 86.543 285.894 c 88.031 
287.378 88.887 289.445 88.887 291.546 c 88.887 293.652 88.031 295.714 86.543
 297.202 c 85.055 298.691 82.992 299.546 80.887 299.546 c 78.781 299.546
 76.719 298.691 75.23 297.202 c 73.742 295.714 72.887 293.652 72.887 291.546
 c 72.887 289.437 73.742 287.378 75.23 285.894 c 76.719 284.405 78.781 283.546
 80.887 283.546 c h
80.887 283.546 m f
Q Q
showpage
%%Trailer
end restore
%%EOF
