%!PS-Adobe-3.0 EPSF-3.0
%%Creator: cairo 1.14.2 (http://cairographics.org)
%%CreationDate: Fri Jun 15 11:41:46 2018
%%Pages: 1
%%DocumentData: Clean7Bit
%%LanguageLevel: 2
%%BoundingBox: 0 -1 410 410
%%EndComments
%%BeginProlog
save
50 dict begin
/q { gsave } bind def
/Q { grestore } bind def
/cm { 6 array astore concat } bind def
/w { setlinewidth } bind def
/J { setlinecap } bind def
/j { setlinejoin } bind def
/M { setmiterlimit } bind def
/d { setdash } bind def
/m { moveto } bind def
/l { lineto } bind def
/c { curveto } bind def
/h { closepath } bind def
/re { exch dup neg 3 1 roll 5 3 roll moveto 0 rlineto
      0 exch rlineto 0 rlineto closepath } bind def
/S { stroke } bind def
/f { fill } bind def
/f* { eofill } bind def
/n { newpath } bind def
/W { clip } bind def
/W* { eoclip } bind def
/BT { } bind def
/ET { } bind def
/pdfmark where { pop globaldict /?pdfmark /exec load put }
    { globaldict begin /?pdfmark /pop load def /pdfmark
    /cleartomark load def end } ifelse
/BDC { mark 3 1 roll /BDC pdfmark } bind def
/EMC { mark /EMC pdfmark } bind def
/cairo_store_point { /cairo_point_y exch def /cairo_point_x exch def } def
/Tj { show currentpoint cairo_store_point } bind def
/TJ {
  {
    dup
    type /stringtype eq
    { show } { -0.001 mul 0 cairo_font_matrix dtransform rmoveto } ifelse
  } forall
  currentpoint cairo_store_point
} bind def
/cairo_selectfont { cairo_font_matrix aload pop pop pop 0 0 6 array astore
    cairo_font exch selectfont cairo_point_x cairo_point_y moveto } bind def
/Tf { pop /cairo_font exch def /cairo_font_matrix where
      { pop cairo_selectfont } if } bind def
/Td { matrix translate cairo_font_matrix matrix concatmatrix dup
      /cairo_font_matrix exch def dup 4 get exch 5 get cairo_store_point
      /cairo_font where { pop cairo_selectfont } if } bind def
/Tm { 2 copy 8 2 roll 6 array astore /cairo_font_matrix exch def
      cairo_store_point /cairo_font where { pop cairo_selectfont } if } bind def
/g { setgray } bind def
/rg { setrgbcolor } bind def
/d1 { setcachedevice } bind def
%%EndProlog
%%BeginSetup
%%EndSetup
%%Page: 1 1
%%BeginPageSetup
%%PageBoundingBox: 0 -1 410 410
%%EndPageSetup
q 0 -1 410 411 rectclip q
1 0.431373 0.215686 rg
62.277 204.801 m 204.801 347.324 l 347.324 204.801 l 401.602 204.801 l 
204.801 401.602 l 8 204.801 l h
62.277 204.801 m f
1 g
51.199 204.066 m 51.199 8 l 358.402 8 l 358.402 204.066 l 204.801 347.324
 l h
51.199 204.066 m f
0.607843 0.745098 1 rg
163.199 168 83.199 -160 re f
0.960784 0.784314 0.431373 rg
280 168 44.801 -80 re f
84.801 168 44.801 -80 re f
233.602 241.344 m 233.602 225.438 220.707 212.543 204.801 212.543 c 188.895
 212.543 176 225.438 176 241.344 c 176 257.25 188.895 270.145 204.801 270.145
 c 220.707 270.145 233.602 257.25 233.602 241.344 c h
233.602 241.344 m f
0 g
401.602 16 m 366.402 16 l 366.402 79.199 l 366.402 83.617 362.82 87.199
 358.402 87.199 c 353.984 87.199 350.402 83.617 350.402 79.199 c 350.402
 16 l 254.402 16 l 254.402 168 l 254.402 172.418 250.82 176 246.402 176 
c 163.199 176 l 158.785 176 155.199 172.418 155.199 168 c 155.199 16 l 59.199
 16 l 59.199 196.801 l 62.277 196.801 l 64.402 196.801 66.434 197.645 67.938
 199.145 c 204.801 336.008 l 341.664 199.145 l 343.168 197.645 345.199 196.801
 347.324 196.801 c 350.402 196.801 l 350.402 136.801 l 350.402 132.383 353.984
 128.801 358.402 128.801 c 362.82 128.801 366.402 132.383 366.402 136.801
 c 366.402 196.801 l 401.602 196.801 l 404.836 196.801 407.754 198.75 408.992
 201.738 c 410.23 204.727 409.543 208.168 407.258 210.457 c 210.457 407.258
 l 207.332 410.383 202.27 410.383 199.145 407.258 c 123.941 332.059 l 120.82
 328.934 120.82 323.867 123.941 320.742 c 127.066 317.621 132.133 317.621
 135.258 320.742 c 204.801 390.289 l 382.285 212.801 l 350.637 212.801 l
 210.457 352.98 l 207.332 356.102 202.27 356.102 199.145 352.98 c 58.965
 212.801 l 27.312 212.801 l 90.457 275.941 l 93.582 279.066 93.582 284.133
 90.457 287.258 c 87.332 290.379 82.27 290.383 79.145 287.258 c 2.344 210.457
 l 0.055 208.168 -0.629 204.73 0.609 201.738 c 1.848 198.75 4.766 196.801
 8 196.801 c 43.199 196.801 l 43.199 16 l 8 16 l 3.582 16 0 12.418 0 8 c
 0 3.582 3.582 0 8 0 c 401.602 0 l 406.02 0 409.602 3.582 409.602 8 c 409.602
 12.418 406.02 16 401.602 16 c h
171.199 16 m 171.199 160 l 238.402 160 l 238.402 16 l h
171.199 16 m f
280 176 m 275.582 176 272 172.418 272 168 c 272 88 l 272 83.582 275.582
 80 280 80 c 324.801 80 l 329.219 80 332.801 83.582 332.801 88 c 332.801
 168 l 332.801 172.418 329.219 176 324.801 176 c h
316.801 96 m 288 96 l 288 160 l 316.801 160 l h
316.801 96 m f
84.801 176 m 80.383 176 76.801 172.418 76.801 168 c 76.801 88 l 76.801 
83.582 80.383 80 84.801 80 c 129.602 80 l 134.02 80 137.602 83.582 137.602
 88 c 137.602 168 l 137.602 172.418 134.02 176 129.602 176 c h
121.602 96 m 92.801 96 l 92.801 160 l 121.602 160 l h
121.602 96 m f
168 241.344 m 168 221.055 184.508 204.543 204.801 204.543 c 225.094 204.543
 241.602 221.055 241.602 241.344 c 241.602 261.637 225.094 278.145 204.801
 278.145 c 184.508 278.145 168 261.637 168 241.344 c h
225.602 241.344 m 225.602 229.875 216.27 220.543 204.801 220.543 c 193.332
 220.543 184 229.875 184 241.344 c 184 252.813 193.332 262.145 204.801 262.145
 c 216.27 262.145 225.602 252.813 225.602 241.344 c h
225.602 241.344 m f
189.602 96 m 187.496 96 185.434 95.145 183.945 93.656 c 182.457 92.168 
181.602 90.105 181.602 88 c 181.602 85.895 182.457 83.832 183.945 82.344
 c 185.434 80.855 187.496 80 189.602 80 c 191.703 80 193.77 80.855 195.258
 82.344 c 196.742 83.832 197.602 85.895 197.602 88 c 197.602 90.105 196.746
 92.168 195.258 93.656 c 193.77 95.145 191.703 96 189.602 96 c h
189.602 96 m f
106.402 295.199 m 108.504 295.199 110.57 296.055 112.055 297.543 c 113.543
 299.031 114.402 301.098 114.402 303.199 c 114.402 305.305 113.543 307.367
 112.055 308.855 c 110.57 310.344 108.504 311.199 106.402 311.199 c 104.297
 311.199 102.234 310.344 100.746 308.855 c 99.258 307.367 98.402 305.305
 98.402 303.199 c 98.402 301.098 99.258 299.031 100.746 297.543 c 102.234
 296.055 104.297 295.199 106.402 295.199 c h
106.402 295.199 m f
358.402 118.137 m 356.297 118.137 354.234 117.281 352.746 115.793 c 351.258
 114.297 350.402 112.242 350.402 110.137 c 350.402 108.031 351.258 105.969
 352.746 104.473 c 354.234 102.984 356.297 102.137 358.402 102.137 c 360.504
 102.137 362.57 102.984 364.055 104.473 c 365.543 105.969 366.402 108.023
 366.402 110.137 c 366.402 112.242 365.543 114.305 364.055 115.793 c 362.57
 117.281 360.504 118.137 358.402 118.137 c h
358.402 118.137 m f
Q Q
showpage
%%Trailer
end restore
%%EOF
