%!PS-Adobe-3.0 EPSF-3.0
%%Creator: cairo 1.14.2 (http://cairographics.org)
%%CreationDate: Fri Jun 15 11:41:46 2018
%%Pages: 1
%%DocumentData: Clean7Bit
%%LanguageLevel: 2
%%BoundingBox: 0 35 410 374
%%EndComments
%%BeginProlog
save
50 dict begin
/q { gsave } bind def
/Q { grestore } bind def
/cm { 6 array astore concat } bind def
/w { setlinewidth } bind def
/J { setlinecap } bind def
/j { setlinejoin } bind def
/M { setmiterlimit } bind def
/d { setdash } bind def
/m { moveto } bind def
/l { lineto } bind def
/c { curveto } bind def
/h { closepath } bind def
/re { exch dup neg 3 1 roll 5 3 roll moveto 0 rlineto
      0 exch rlineto 0 rlineto closepath } bind def
/S { stroke } bind def
/f { fill } bind def
/f* { eofill } bind def
/n { newpath } bind def
/W { clip } bind def
/W* { eoclip } bind def
/BT { } bind def
/ET { } bind def
/pdfmark where { pop globaldict /?pdfmark /exec load put }
    { globaldict begin /?pdfmark /pop load def /pdfmark
    /cleartomark load def end } ifelse
/BDC { mark 3 1 roll /BDC pdfmark } bind def
/EMC { mark /EMC pdfmark } bind def
/cairo_store_point { /cairo_point_y exch def /cairo_point_x exch def } def
/Tj { show currentpoint cairo_store_point } bind def
/TJ {
  {
    dup
    type /stringtype eq
    { show } { -0.001 mul 0 cairo_font_matrix dtransform rmoveto } ifelse
  } forall
  currentpoint cairo_store_point
} bind def
/cairo_selectfont { cairo_font_matrix aload pop pop pop 0 0 6 array astore
    cairo_font exch selectfont cairo_point_x cairo_point_y moveto } bind def
/Tf { pop /cairo_font exch def /cairo_font_matrix where
      { pop cairo_selectfont } if } bind def
/Td { matrix translate cairo_font_matrix matrix concatmatrix dup
      /cairo_font_matrix exch def dup 4 get exch 5 get cairo_store_point
      /cairo_font where { pop cairo_selectfont } if } bind def
/Tm { 2 copy 8 2 roll 6 array astore /cairo_font_matrix exch def
      cairo_store_point /cairo_font where { pop cairo_selectfont } if } bind def
/g { setgray } bind def
/rg { setrgbcolor } bind def
/d1 { setcachedevice } bind def
%%EndProlog
%%BeginSetup
%%EndSetup
%%Page: 1 1
%%BeginPageSetup
%%PageBoundingBox: 0 35 410 374
%%EndPageSetup
q 0 35 410 339 rectclip q
0.784314 0.960784 1 rg
319.738 129.291 m 332.672 129.291 l 370.738 129.291 401.602 160.15 401.602
 198.22 c 401.602 236.291 370.738 267.15 332.672 267.15 c 323.609 267.15
 314.965 265.384 307.039 262.205 c 299.77 320.486 250.059 365.584 189.809
 365.584 c 127.633 365.584 76.672 317.548 72.012 256.56 c 60.945 256.634
 49.719 253.826 39.477 247.822 c 9.16 230.045 -1.008 191.056 16.77 160.74
 c 29.062 139.779 51.492 128.459 74.188 129.337 c 74.188 129.291 l h
319.738 129.291 m f
0 g
110.777 248.56 m 110.57 248.56 110.367 248.568 110.16 248.584 c 105.754
 248.92 102.457 252.763 102.793 257.17 c 104.461 279.041 114.254 299.345
 130.367 314.337 c 146.562 329.412 167.672 337.712 189.812 337.712 c 194.23
 337.712 197.809 334.13 197.809 329.712 c 197.809 325.298 194.23 321.716
 189.812 321.716 c 152.777 321.716 121.562 292.83 118.746 255.951 c 118.422
 251.755 114.918 248.56 110.777 248.56 c h
110.777 248.56 m f
71.688 121.291 m 46.277 121.291 22.781 134.67 9.871 156.693 c 0.191 173.201
 -2.48 192.486 2.348 211.002 c 7.176 229.517 18.926 245.045 35.43 254.724
 c 44.434 260.005 54.461 263.24 64.777 264.232 c 68.625 293.134 82.348 319.748
 103.891 339.798 c 127.301 361.584 157.812 373.58 189.809 373.58 c 250.078
 373.58 301.609 330.849 313.418 272.709 c 319.684 274.33 326.129 275.15 
332.672 275.15 c 375.09 275.15 409.598 240.638 409.598 198.22 c 409.598 
155.802 375.09 121.291 332.672 121.291 c 319.738 121.291 l 315.32 121.291
 311.738 124.873 311.738 129.291 c 311.738 133.709 315.32 137.291 319.738
 137.291 c 332.672 137.291 l 366.266 137.291 393.602 164.623 393.602 198.22
 c 393.602 231.818 366.266 259.15 332.672 259.15 c 324.867 259.15 317.246
 257.677 310.016 254.779 c 307.715 253.857 305.113 254.056 302.977 255.314
 c 300.84 256.572 299.406 258.752 299.102 261.212 c 292.25 316.154 245.266
 357.58 189.809 357.58 c 132.578 357.58 84.34 312.939 79.988 255.951 c 79.668
 251.779 76.191 248.56 72.012 248.56 c 71.879 248.56 71.742 248.564 71.605
 248.564 c 61.758 248.564 52.055 245.923 43.523 240.923 c 30.703 233.404
 21.578 221.345 17.828 206.966 c 14.078 192.587 16.152 177.607 23.672 164.787
 c 34.07 147.052 53.309 136.525 73.879 137.33 c 74.273 137.345 74.664 137.334
 75.051 137.291 c 91.488 137.291 l 95.906 137.291 99.484 133.709 99.484 
129.291 c 99.484 124.873 95.902 121.291 91.488 121.291 c 74.188 121.291 
l 73.984 121.291 73.781 121.298 73.582 121.314 c 72.949 121.298 72.316 121.291
 71.688 121.291 c h
71.688 121.291 m f
216.41 318.795 m 214.309 318.795 212.242 319.65 210.758 321.138 c 209.27
 322.627 208.41 324.689 208.41 326.795 c 208.41 328.896 209.27 330.962 210.758
 332.447 c 212.242 333.935 214.309 334.795 216.41 334.795 c 218.516 334.795
 220.578 333.935 222.066 332.447 c 223.555 330.962 224.41 328.896 224.41
 326.795 c 224.41 324.689 223.555 322.627 222.066 321.138 c 220.578 319.646
 218.516 318.795 216.41 318.795 c h
216.41 318.795 m f
0.647059 0.862745 0.411765 rg
276.402 146.412 m 204.812 270.404 l 133.227 146.412 l 172.816 146.412 l
 172.816 44.017 l 236.812 44.017 l 236.812 146.412 l h
276.402 146.412 m f
0 g
236.812 92.408 m 234.707 92.408 232.645 93.263 231.156 94.752 c 229.668
 96.24 228.812 98.302 228.812 100.408 c 228.812 102.509 229.668 104.576 
231.156 106.064 c 232.645 107.552 234.707 108.408 236.812 108.408 c 238.914
 108.408 240.98 107.552 242.469 106.064 c 243.957 104.576 244.812 102.509
 244.812 100.408 c 244.812 98.302 243.957 96.24 242.469 94.752 c 240.98 
93.263 238.914 92.408 236.812 92.408 c h
236.812 92.408 m f
236.812 36.017 m 172.816 36.017 l 168.398 36.017 164.816 39.599 164.816
 44.017 c 164.816 138.412 l 133.227 138.412 l 130.367 138.412 127.727 139.935
 126.297 142.412 c 124.867 144.884 124.867 147.935 126.297 150.408 c 197.887
 274.404 l 199.316 276.877 201.957 278.404 204.812 278.404 c 207.672 278.404
 210.312 276.877 211.742 274.404 c 283.328 150.408 l 284.758 147.935 284.758
 144.884 283.328 142.412 c 281.898 139.935 279.258 138.412 276.402 138.412
 c 244.812 138.412 l 244.812 132.404 l 244.812 127.986 241.23 124.404 236.812
 124.404 c 232.395 124.404 228.812 127.986 228.812 132.404 c 228.812 146.408
 l 228.812 150.83 232.395 154.408 236.812 154.408 c 262.547 154.408 l 204.812
 254.404 l 147.082 154.408 l 172.816 154.408 l 177.234 154.408 180.812 150.826
 180.812 146.408 c 180.812 52.017 l 228.812 52.017 l 228.812 68.806 l 228.812
 73.224 232.395 76.806 236.809 76.806 c 241.23 76.806 244.809 73.224 244.809
 68.806 c 244.809 44.017 l 244.809 39.599 241.23 36.017 236.812 36.017 c
 h
236.812 36.017 m f
Q Q
showpage
%%Trailer
end restore
%%EOF
