%!PS-Adobe-3.0 EPSF-3.0
%%Creator: cairo 1.14.2 (http://cairographics.org)
%%CreationDate: Fri Jun 15 11:41:46 2018
%%Pages: 1
%%DocumentData: Clean7Bit
%%LanguageLevel: 2
%%BoundingBox: 0 -1 410 410
%%EndComments
%%BeginProlog
save
50 dict begin
/q { gsave } bind def
/Q { grestore } bind def
/cm { 6 array astore concat } bind def
/w { setlinewidth } bind def
/J { setlinecap } bind def
/j { setlinejoin } bind def
/M { setmiterlimit } bind def
/d { setdash } bind def
/m { moveto } bind def
/l { lineto } bind def
/c { curveto } bind def
/h { closepath } bind def
/re { exch dup neg 3 1 roll 5 3 roll moveto 0 rlineto
      0 exch rlineto 0 rlineto closepath } bind def
/S { stroke } bind def
/f { fill } bind def
/f* { eofill } bind def
/n { newpath } bind def
/W { clip } bind def
/W* { eoclip } bind def
/BT { } bind def
/ET { } bind def
/pdfmark where { pop globaldict /?pdfmark /exec load put }
    { globaldict begin /?pdfmark /pop load def /pdfmark
    /cleartomark load def end } ifelse
/BDC { mark 3 1 roll /BDC pdfmark } bind def
/EMC { mark /EMC pdfmark } bind def
/cairo_store_point { /cairo_point_y exch def /cairo_point_x exch def } def
/Tj { show currentpoint cairo_store_point } bind def
/TJ {
  {
    dup
    type /stringtype eq
    { show } { -0.001 mul 0 cairo_font_matrix dtransform rmoveto } ifelse
  } forall
  currentpoint cairo_store_point
} bind def
/cairo_selectfont { cairo_font_matrix aload pop pop pop 0 0 6 array astore
    cairo_font exch selectfont cairo_point_x cairo_point_y moveto } bind def
/Tf { pop /cairo_font exch def /cairo_font_matrix where
      { pop cairo_selectfont } if } bind def
/Td { matrix translate cairo_font_matrix matrix concatmatrix dup
      /cairo_font_matrix exch def dup 4 get exch 5 get cairo_store_point
      /cairo_font where { pop cairo_selectfont } if } bind def
/Tm { 2 copy 8 2 roll 6 array astore /cairo_font_matrix exch def
      cairo_store_point /cairo_font where { pop cairo_selectfont } if } bind def
/g { setgray } bind def
/rg { setrgbcolor } bind def
/d1 { setcachedevice } bind def
%%EndProlog
%%BeginSetup
%%EndSetup
%%Page: 1 1
%%BeginPageSetup
%%PageBoundingBox: 0 -1 410 410
%%EndPageSetup
q 0 -1 410 411 rectclip q
1 g
401.602 204.799 m 401.602 96.112 313.488 7.998 204.801 7.998 c 96.109 7.998
 8 96.112 8 204.799 c 8 313.491 96.109 401.6 204.801 401.6 c 313.488 401.6
 401.602 313.491 401.602 204.799 c h
401.602 204.799 m f
1 0.352941 0.352941 rg
211.457 122.342 m 211.457 93.702 188.234 70.479 159.594 70.479 c 130.949
 70.479 107.727 93.702 107.727 122.342 c 107.727 150.987 130.949 174.209
 159.594 174.209 c 188.234 174.209 211.457 150.987 211.457 122.342 c h
211.457 122.342 m f
0 g
211.453 219.33 m 207.035 219.33 203.453 215.748 203.453 211.33 c 203.453
 163.026 l 192.512 174.815 176.902 182.209 159.59 182.209 c 126.582 182.209
 99.727 155.354 99.727 122.346 c 99.727 89.334 126.582 62.483 159.59 62.483
 c 192.598 62.483 219.453 89.334 219.453 122.346 c 219.453 211.33 l 219.453
 215.748 215.871 219.33 211.453 219.33 c h
159.59 78.483 m 135.402 78.483 115.727 98.163 115.727 122.346 c 115.727
 146.534 135.402 166.209 159.59 166.209 c 183.777 166.209 203.453 146.534
 203.453 122.346 c 203.453 98.163 183.777 78.483 159.59 78.483 c h
159.59 78.483 m f
204.801 -0.002 m 150.098 -0.002 98.668 21.303 59.984 59.987 c 21.301 98.666
 0 150.096 0 204.799 c 0 259.502 21.301 310.932 59.984 349.616 c 98.668 
388.299 150.098 409.6 204.801 409.6 c 259.504 409.6 310.934 388.299 349.613
 349.616 c 388.297 310.932 409.602 259.502 409.602 204.799 c 409.602 150.096
 388.297 98.666 349.613 59.987 c 310.934 21.303 259.504 -0.002 204.801 -0.002
 c h
204.801 393.6 m 100.695 393.6 16 308.905 16 204.799 c 16 100.694 100.695
 15.998 204.801 15.998 c 308.906 15.998 393.602 100.694 393.602 204.799 
c 393.602 308.905 308.906 393.6 204.801 393.6 c h
204.801 393.6 m f
211.453 232.127 m 209.348 232.127 207.285 232.987 205.797 234.471 c 204.309
 235.959 203.453 238.026 203.453 240.127 c 203.453 242.241 204.309 244.295
 205.797 245.784 c 207.285 247.28 209.34 248.127 211.453 248.127 c 213.559
 248.127 215.621 247.28 217.109 245.784 c 218.598 244.295 219.453 242.241
 219.453 240.127 c 219.453 238.026 218.598 235.959 217.109 234.471 c 215.621
 232.987 213.559 232.127 211.453 232.127 c h
211.453 232.127 m f
1 0.352941 0.352941 rg
302.793 230.737 m 292.371 241.159 l 282.621 250.909 269.395 256.389 255.602
 256.389 c 248.23 256.389 l 234.438 256.389 221.211 261.87 211.457 271.62
 c 211.457 323.33 l 221.211 313.577 234.438 308.096 248.23 308.096 c 255.602
 308.096 l 269.395 308.096 282.621 302.62 292.371 292.866 c 299.047 286.194
 302.793 270.327 302.793 260.889 c h
302.793 230.737 m f
0 g
302.797 222.737 m 300.715 222.737 298.668 223.549 297.137 225.077 c 286.715
 235.498 l 278.406 243.811 267.355 248.389 255.602 248.389 c 248.23 248.389
 l 232.203 248.389 217.137 254.631 205.801 265.963 c 204.301 267.463 203.461
 269.498 203.461 271.62 c 203.461 323.327 l 203.461 326.565 205.41 329.479
 208.398 330.721 c 211.387 331.959 214.828 331.272 217.117 328.987 c 225.43
 320.674 236.477 316.096 248.234 316.096 c 255.602 316.096 l 271.629 316.096
 286.699 309.854 298.031 298.522 c 306.836 289.717 310.797 271.213 310.797
 260.889 c 310.797 230.733 l 310.797 227.498 308.848 224.58 305.859 223.342
 c 304.867 222.936 303.828 222.737 302.797 222.737 c h
219.457 275.096 m 227.449 268.17 237.551 264.389 248.23 264.389 c 255.598
 264.389 l 270.145 264.389 283.902 259.248 294.793 249.827 c 294.793 260.893
 l 294.793 269.327 291.266 282.659 286.715 287.209 c 278.402 295.522 267.352
 300.096 255.598 300.096 c 248.23 300.096 l 238.012 300.096 228.18 302.635
 219.457 307.413 c h
219.457 275.096 m f
Q Q
showpage
%%Trailer
end restore
%%EOF
