%!PS-Adobe-3.0 EPSF-3.0
%%Creator: cairo 1.14.2 (http://cairographics.org)
%%CreationDate: Fri Jun 15 11:41:46 2018
%%Pages: 1
%%DocumentData: Clean7Bit
%%LanguageLevel: 2
%%BoundingBox: 34 -1 376 410
%%EndComments
%%BeginProlog
save
50 dict begin
/q { gsave } bind def
/Q { grestore } bind def
/cm { 6 array astore concat } bind def
/w { setlinewidth } bind def
/J { setlinecap } bind def
/j { setlinejoin } bind def
/M { setmiterlimit } bind def
/d { setdash } bind def
/m { moveto } bind def
/l { lineto } bind def
/c { curveto } bind def
/h { closepath } bind def
/re { exch dup neg 3 1 roll 5 3 roll moveto 0 rlineto
      0 exch rlineto 0 rlineto closepath } bind def
/S { stroke } bind def
/f { fill } bind def
/f* { eofill } bind def
/n { newpath } bind def
/W { clip } bind def
/W* { eoclip } bind def
/BT { } bind def
/ET { } bind def
/pdfmark where { pop globaldict /?pdfmark /exec load put }
    { globaldict begin /?pdfmark /pop load def /pdfmark
    /cleartomark load def end } ifelse
/BDC { mark 3 1 roll /BDC pdfmark } bind def
/EMC { mark /EMC pdfmark } bind def
/cairo_store_point { /cairo_point_y exch def /cairo_point_x exch def } def
/Tj { show currentpoint cairo_store_point } bind def
/TJ {
  {
    dup
    type /stringtype eq
    { show } { -0.001 mul 0 cairo_font_matrix dtransform rmoveto } ifelse
  } forall
  currentpoint cairo_store_point
} bind def
/cairo_selectfont { cairo_font_matrix aload pop pop pop 0 0 6 array astore
    cairo_font exch selectfont cairo_point_x cairo_point_y moveto } bind def
/Tf { pop /cairo_font exch def /cairo_font_matrix where
      { pop cairo_selectfont } if } bind def
/Td { matrix translate cairo_font_matrix matrix concatmatrix dup
      /cairo_font_matrix exch def dup 4 get exch 5 get cairo_store_point
      /cairo_font where { pop cairo_selectfont } if } bind def
/Tm { 2 copy 8 2 roll 6 array astore /cairo_font_matrix exch def
      cairo_store_point /cairo_font where { pop cairo_selectfont } if } bind def
/g { setgray } bind def
/rg { setrgbcolor } bind def
/d1 { setcachedevice } bind def
%%EndProlog
%%BeginSetup
%%EndSetup
%%Page: 1 1
%%BeginPageSetup
%%PageBoundingBox: 34 -1 376 410
%%EndPageSetup
q 34 -1 342 411 rectclip q
0.666667 0.901961 1 rg
294.91 132.553 m 225.957 92.741 137.781 116.366 97.973 185.323 c 58.16 
254.276 81.785 342.448 150.742 382.26 c 219.695 422.073 307.867 398.448 
347.68 329.491 c 387.492 260.538 363.867 172.366 294.91 132.553 c h
294.91 132.553 m f
0.647059 0.862745 0.411765 rg
233 294.151 m 231.965 293.905 229.953 293.397 229.082 292.698 c 227.996
 291.827 229.691 290.698 229.074 290.202 c 228.004 289.342 227.23 287.791
 224.938 287.94 c 220.152 288.245 212.801 294.432 208.43 296.772 c 215.477
 304.026 204.324 305.112 199.98 304.748 c 194.352 304.276 184.613 304.788
 179.527 301.924 c 176 299.936 171.258 291.69 168.414 288.416 c 164.457 
283.858 160.477 279.901 157.898 274.444 c 148.438 254.424 162.996 231.44
 185.875 234.127 c 192.23 234.873 198.895 238.866 204.523 233.596 c 208.672
 229.713 206.477 226.057 207.574 221.53 c 208.527 217.608 212.867 215.198
 214.367 211.6 c 217.246 204.698 215.426 200.381 213.371 194.022 c 210.672
 185.67 217.648 175.756 220.363 167.698 c 221.73 163.639 225.715 152.276
 229.625 150.498 c 235.777 147.702 245.418 156.088 249.09 160.596 c 251.961
 164.123 251.023 167.705 252.953 171.006 c 255.039 174.58 257.68 175.655
 259.145 180.26 c 260.719 185.225 262.355 186.459 265.688 190.08 c 271.047
 195.913 270.215 199.323 268.07 206.237 c 263.621 220.604 279.793 227.319
 287.074 237.866 c 294.68 248.877 279.977 245.205 274.215 248.971 c 268.293
 252.846 265.703 260.205 262.848 266.307 c 259.992 272.409 257.629 281.577
 252.898 286.588 c 249.258 290.448 238.176 292.241 233 294.151 c h
233 294.151 m f
347.68 329.491 m 322.848 372.502 279.203 397.873 233.141 401.217 c 214.285
 377.569 l 173.879 363.401 l 163.039 337.123 l 179.762 313.698 l 181.539
 318.651 l 184.504 326.92 192.344 332.432 201.129 332.432 c 228.688 332.432
 l 260.367 321.303 l 271.277 310.885 l 271.277 304.268 l 286.445 275.213
 l 290.863 276.842 l 300.402 280.362 309.066 285.905 316.254 293.092 c 312.59
 298.584 l 311.426 300.334 312.68 302.67 314.777 302.67 c 323.617 302.67
 l 326.207 302.67 328.664 301.538 330.348 299.569 c 337.566 291.116 l 338.258
 290.311 338.793 289.389 339.156 288.393 c 347.125 266.479 l 350.918 270.272
 l 353.309 272.666 354.523 275.924 354.578 279.307 c 354.625 282.026 355.801
 284.604 357.836 286.42 c 360.742 289.01 l 361.473 289.659 362.285 290.19
 363.152 290.588 c 359.996 303.92 354.879 317.022 347.68 329.491 c h
347.68 329.491 m f
146.02 180.209 m 152.52 182.319 156.078 189.299 153.965 195.799 c 152.109
 201.514 l 151.297 204.01 151.301 206.702 152.121 209.194 c 154.441 216.264
 150.039 223.768 142.734 225.198 c 128.168 228.041 l 101.555 248.276 l 79.555
 241.131 l 81.715 222.022 87.742 203.038 97.973 185.323 c 107.434 168.936
 119.625 155.116 133.641 144.092 c 140.195 178.315 l h
146.02 180.209 m f
0.529412 0.529412 0.568627 rg
259.625 39.998 m 186.027 39.998 l 168.352 39.998 154.027 25.674 154.027
 7.998 c 291.625 7.998 l 291.625 25.674 277.301 39.998 259.625 39.998 c 
h
259.625 39.998 m f
0 g
345.012 134.791 m 344.93 134.709 344.848 134.631 344.766 134.545 c 330.598
 148.717 l 358.363 176.389 375.57 214.647 375.57 256.854 c 375.57 341.08
 307.051 409.6 222.824 409.6 c 180.754 409.6 142.605 392.502 114.953 364.893
 c 100.656 379.19 l 103.762 382.315 103.754 387.362 100.637 390.479 c 97.512
 393.604 92.445 393.604 89.324 390.479 c 57.797 358.955 38.395 317.163 34.688
 272.795 c 31.02 228.955 42.781 185.049 67.805 149.159 c 69.359 146.928 
71.844 145.733 74.375 145.733 c 75.953 145.733 77.547 146.198 78.941 147.17
 c 82.566 149.698 83.457 154.686 80.93 158.307 c 36.121 222.577 40.512 308.049
 89.863 367.354 c 104.227 352.995 l 82.887 326.721 70.078 293.26 70.078 
256.854 c 70.078 172.631 138.602 104.108 222.824 104.108 c 259.094 104.108
 292.441 116.823 318.668 138.014 c 332.902 123.78 l 274.332 75.334 189.812
 70.53 125.973 113.83 c 122.316 116.315 117.34 115.358 114.859 111.702 c
 112.379 108.045 113.336 103.069 116.992 100.592 c 146.805 80.37 180.738
 69.752 214.824 68.346 c 214.824 47.998 l 186.027 47.998 l 163.969 47.998
 146.027 30.057 146.027 7.998 c 146.027 3.58 149.605 -0.002 154.027 -0.002
 c 291.625 -0.002 l 296.043 -0.002 299.625 3.58 299.625 7.998 c 299.625 
30.057 281.68 47.998 259.625 47.998 c 230.824 47.998 l 230.824 68.366 l 
276.781 70.354 321.883 89.03 356.328 123.475 c 359.453 126.6 359.453 131.666
 356.328 134.791 c 353.203 137.913 348.137 137.913 345.012 134.791 c h
354.418 294.092 m 352.508 292.389 l 350.715 290.791 349.285 288.854 348.273
 286.717 c 346.672 291.127 l 345.98 293.03 344.961 294.772 343.648 296.311
 c 336.426 304.768 l 333.223 308.522 328.551 310.674 323.613 310.674 c 314.777
 310.674 l 310.848 310.674 307.258 308.522 305.406 305.057 c 303.602 301.686
 303.746 297.635 305.766 294.405 c 301.078 290.616 295.824 287.491 290.258
 285.194 c 279.277 306.233 l 279.277 310.885 l 279.277 313.069 278.383 315.163
 276.801 316.67 c 265.891 327.088 l 265.066 327.873 264.09 328.471 263.016
 328.85 c 231.34 339.979 l 230.488 340.28 229.59 340.432 228.688 340.432
 c 201.129 340.432 l 192.121 340.432 183.789 336.202 178.422 329.342 c 172.121
 338.166 l 179.906 357.038 l 216.934 370.018 l 218.352 370.514 219.602 371.405
 220.543 372.58 c 236.738 392.897 l 293.059 387.182 339.383 347.143 354.418
 294.092 c h
260.43 203.87 m 262.211 198.123 262.211 198.123 259.797 195.495 c 259.371
 195.034 258.977 194.612 258.605 194.217 c 255.828 191.264 253.434 188.713
 251.52 182.678 c 251.141 181.495 250.715 181.014 249.57 179.725 c 248.539
 178.569 247.262 177.123 246.043 175.041 c 244.535 172.459 244.035 169.971
 243.672 168.155 c 243.344 166.522 243.219 166.057 242.887 165.651 c 240.055
 162.174 235.504 158.862 233.172 158.104 c 232.254 159.498 230.438 162.85
 227.945 170.252 c 227.066 172.862 225.871 175.491 224.719 178.03 c 222.496
 182.92 219.98 188.463 220.98 191.561 c 221.418 192.897 l 223.457 199.112
 225.566 205.541 221.754 214.678 c 220.543 217.58 218.629 219.686 217.094
 221.377 c 216.48 222.053 215.566 223.057 215.328 223.51 c 215.207 224.096
 215.211 224.881 215.219 225.866 c 215.238 229.092 215.273 234.491 209.988
 239.436 c 202.656 246.303 194.078 244.182 188.957 242.916 c 187.484 242.553
 186.098 242.209 184.941 242.073 c 177.508 241.202 170.875 243.991 166.754
 249.725 c 162.402 255.776 161.781 263.94 165.129 271.026 c 166.781 274.518
 169.375 277.44 172.383 280.823 c 173.07 281.596 173.762 282.373 174.453
 283.174 c 175.668 284.573 176.957 286.401 178.32 288.338 c 179.738 290.35
 182.355 294.065 183.559 295.014 c 185.812 296.178 191.922 296.393 195.594
 296.526 c 197.309 296.584 198.938 296.643 200.426 296.76 c 200.426 296.358
 200.457 295.952 200.523 295.545 c 200.906 293.061 202.438 290.905 204.652
 289.721 c 205.66 289.182 207.152 288.19 208.727 287.135 c 213.531 283.936
 218.977 280.303 224.426 279.955 c 229.836 279.612 232.898 282.733 234.051
 283.909 c 234.102 283.963 234.152 284.014 234.203 284.065 c 234.566 284.37
 234.918 284.717 235.246 285.104 c 235.73 284.971 236.223 284.838 236.719
 284.705 c 239.617 283.92 245.637 282.291 247.125 281.053 c 249.352 278.651
 251.23 273.78 252.895 269.479 c 253.75 267.268 254.633 264.979 255.598 
262.916 c 255.996 262.069 256.383 261.198 256.781 260.315 c 259.465 254.327
 262.809 246.87 269.836 242.276 c 272.375 240.616 275.312 239.862 277.996
 239.377 c 276.551 237.83 274.875 236.268 273.141 234.655 c 265.855 227.866
 255.871 218.569 260.43 203.87 c h
87.77 235.389 m 100.043 239.377 l 123.324 221.674 l 124.301 220.936 125.434
 220.428 126.633 220.194 c 141.203 217.346 l 142.887 217.014 143.766 215.901
 144.137 215.264 c 144.508 214.631 145.055 213.319 144.52 211.69 c 143.164
 207.553 143.156 203.182 144.504 199.041 c 146.359 193.33 l 147.105 191.034
 145.844 188.561 143.551 187.819 c 137.727 185.924 l 134.953 185.026 132.891
 182.686 132.34 179.823 c 128.203 158.229 l 107.152 178.436 92.535 205.295
 87.77 235.389 c h
142.238 146.452 m 147.164 172.17 l 148.492 172.6 l 159.176 176.073 165.047
 187.588 161.574 198.272 c 159.719 203.987 l 159.43 204.877 159.43 205.815
 159.723 206.702 c 161.543 212.252 160.891 218.323 157.938 223.358 c 154.984
 228.397 150.004 231.928 144.27 233.049 c 131.527 235.538 l 106.395 254.647
 l 104.309 256.233 101.578 256.698 99.082 255.889 c 86.188 251.698 l 86.125
 253.409 86.078 255.127 86.078 256.854 c 86.078 330.209 144.141 390.252 
216.723 393.459 c 209.465 384.358 l 171.23 370.952 l 169.082 370.198 167.352
 368.561 166.484 366.452 c 155.645 340.174 l 154.594 337.627 154.926 334.717
 156.527 332.475 c 173.25 309.049 l 173.531 308.659 173.852 308.307 174.191
 307.975 c 171.164 305.768 168.512 302.19 165.242 297.549 c 164.168 296.026
 163.055 294.448 162.371 293.659 c 161.719 292.909 161.066 292.174 160.422
 291.448 c 156.918 287.506 153.293 283.428 150.664 277.858 c 144.832 265.514
 146.016 251.155 153.758 240.385 c 161.266 229.94 173.617 224.631 186.809
 226.178 c 188.961 226.432 191 226.936 192.797 227.381 c 197.406 228.522
 198.273 228.487 199.055 227.752 c 199.109 227.702 199.152 227.659 199.184
 227.623 c 199.223 227.264 199.219 226.526 199.215 225.967 c 199.203 224.354
 199.191 222.143 199.801 219.639 c 200.801 215.506 203.371 212.678 205.25
 210.612 c 205.863 209.936 206.793 208.913 206.984 208.514 c 208.441 205.026
 207.992 203.307 206.215 197.881 c 205.754 196.475 l 202.852 187.487 206.895
 178.573 210.148 171.413 c 211.184 169.135 212.16 166.979 212.781 165.139
 c 218.309 148.725 222.727 144.842 226.312 143.213 c 228.34 142.291 230.387
 141.897 232.406 141.897 c 244.023 141.901 254.766 154.897 255.293 155.545
 c 258.168 159.077 258.883 162.647 259.359 165.006 c 259.516 165.795 259.695
 166.69 259.859 166.971 c 260.273 167.686 260.805 168.28 261.535 169.1 c
 263.148 170.92 265.363 173.413 266.766 177.838 c 267.582 180.405 267.992
 180.842 270.266 183.264 c 270.672 183.698 271.109 184.159 271.574 184.666
 c 280.219 194.069 277.926 201.459 275.711 208.604 c 274.336 213.038 276.363
 215.788 284.047 222.944 c 287.414 226.08 290.898 229.323 293.656 233.315
 c 294.973 235.221 298.973 241.014 296.344 247.12 c 293.754 253.123 287.461
 254.088 282.863 254.795 c 281.512 255.002 279.262 255.346 278.543 255.698
 c 275.469 257.745 273.391 262.377 271.383 266.858 c 270.949 267.823 270.523
 268.772 270.09 269.694 c 269.359 271.256 268.613 273.194 267.82 275.245
 c 265.617 280.948 263.121 287.413 258.719 292.077 c 254.605 296.436 247.324
 298.409 240.902 300.147 c 238.879 300.694 236.969 301.209 235.773 301.655
 c 234.301 302.198 232.703 302.295 231.172 301.936 c 227.848 301.159 225.727
 300.26 224.078 298.94 c 223.523 298.495 222.988 297.948 222.516 297.319
 c 221.234 298.061 219.832 298.971 218.668 299.741 c 218.914 302.092 218.32
 304.018 217.711 305.299 c 213.836 313.502 201.707 312.92 199.312 312.721
 c 198.145 312.623 196.633 312.569 195.027 312.51 c 192.727 312.428 190.219
 312.338 187.688 312.1 c 189.066 315.948 l 190.891 321.022 195.738 324.432
 201.129 324.432 c 227.324 324.432 l 256.09 314.323 l 263.277 307.459 l 
263.277 304.268 l 263.277 302.979 263.59 301.709 264.188 300.565 c 279.355
 271.51 l 281.219 267.944 285.438 266.315 289.215 267.705 c 293.633 269.334
 l 304.18 273.225 313.957 279.483 321.91 287.436 c 323.809 289.334 324.578
 291.987 324.129 294.502 c 324.176 294.463 324.223 294.42 324.262 294.373
 c 331.48 285.92 l 331.547 285.842 331.602 285.756 331.637 285.659 c 339.605
 263.745 l 340.539 261.174 342.723 259.26 345.391 258.67 c 345.965 258.541
 346.547 258.479 347.121 258.479 c 349.223 258.479 351.262 259.307 352.777
 260.823 c 356.574 264.62 l 357.535 265.58 358.391 266.635 359.133 267.768
 c 359.422 264.166 359.57 260.53 359.57 256.854 c 359.57 181.455 298.227
 120.108 222.824 120.108 c 192.715 120.108 164.852 129.901 142.238 146.452
 c h
282.254 15.998 m 163.398 15.998 l 166.699 25.311 175.598 31.998 186.027
 31.998 c 259.625 31.998 l 270.055 31.998 278.953 25.311 282.254 15.998 
c h
282.254 15.998 m f
94.98 138.409 m 90.562 138.409 86.98 134.827 86.98 130.409 c 86.98 129.135
 l 86.98 124.713 90.562 121.135 94.98 121.135 c 99.398 121.135 102.98 124.713
 102.98 129.135 c 102.98 130.409 l 102.98 134.827 99.398 138.409 94.98 138.409
 c h
94.98 138.409 m f
Q Q
showpage
%%Trailer
end restore
%%EOF
