%!PS-Adobe-3.0 EPSF-3.0
%%Creator: cairo 1.14.2 (http://cairographics.org)
%%CreationDate: Fri Jun 15 11:41:46 2018
%%Pages: 1
%%DocumentData: Clean7Bit
%%LanguageLevel: 2
%%BoundingBox: 0 -1 410 410
%%EndComments
%%BeginProlog
save
50 dict begin
/q { gsave } bind def
/Q { grestore } bind def
/cm { 6 array astore concat } bind def
/w { setlinewidth } bind def
/J { setlinecap } bind def
/j { setlinejoin } bind def
/M { setmiterlimit } bind def
/d { setdash } bind def
/m { moveto } bind def
/l { lineto } bind def
/c { curveto } bind def
/h { closepath } bind def
/re { exch dup neg 3 1 roll 5 3 roll moveto 0 rlineto
      0 exch rlineto 0 rlineto closepath } bind def
/S { stroke } bind def
/f { fill } bind def
/f* { eofill } bind def
/n { newpath } bind def
/W { clip } bind def
/W* { eoclip } bind def
/BT { } bind def
/ET { } bind def
/pdfmark where { pop globaldict /?pdfmark /exec load put }
    { globaldict begin /?pdfmark /pop load def /pdfmark
    /cleartomark load def end } ifelse
/BDC { mark 3 1 roll /BDC pdfmark } bind def
/EMC { mark /EMC pdfmark } bind def
/cairo_store_point { /cairo_point_y exch def /cairo_point_x exch def } def
/Tj { show currentpoint cairo_store_point } bind def
/TJ {
  {
    dup
    type /stringtype eq
    { show } { -0.001 mul 0 cairo_font_matrix dtransform rmoveto } ifelse
  } forall
  currentpoint cairo_store_point
} bind def
/cairo_selectfont { cairo_font_matrix aload pop pop pop 0 0 6 array astore
    cairo_font exch selectfont cairo_point_x cairo_point_y moveto } bind def
/Tf { pop /cairo_font exch def /cairo_font_matrix where
      { pop cairo_selectfont } if } bind def
/Td { matrix translate cairo_font_matrix matrix concatmatrix dup
      /cairo_font_matrix exch def dup 4 get exch 5 get cairo_store_point
      /cairo_font where { pop cairo_selectfont } if } bind def
/Tm { 2 copy 8 2 roll 6 array astore /cairo_font_matrix exch def
      cairo_store_point /cairo_font where { pop cairo_selectfont } if } bind def
/g { setgray } bind def
/rg { setrgbcolor } bind def
/d1 { setcachedevice } bind def
%%EndProlog
%%BeginSetup
%%EndSetup
%%Page: 1 1
%%BeginPageSetup
%%PageBoundingBox: 0 -1 410 410
%%EndPageSetup
q 0 -1 410 411 rectclip q
0.352941 0.333333 0.882353 rg
260.801 77.885 m 260.801 46.401 l 260.801 25.194 243.609 7.998 222.398 
7.998 c 46.398 7.998 l 25.191 7.998 8 25.194 8 46.401 c 8 363.202 l 8 384.409
 25.191 401.6 46.398 401.6 c 222.398 401.6 l 243.609 401.6 260.801 384.409
 260.801 363.202 c h
260.801 77.885 m f
0.784314 0.960784 1 rg
9.641 349.393 251.16 -290.191 re f
0 g
45.602 51.202 m 43.496 51.202 41.434 52.057 39.945 53.545 c 38.457 55.034
 37.602 57.096 37.602 59.202 c 37.602 61.303 38.457 63.37 39.945 64.858 
c 41.434 66.342 43.496 67.202 45.602 67.202 c 47.703 67.202 49.77 66.342
 51.258 64.858 c 52.742 63.37 53.602 61.303 53.602 59.202 c 53.602 57.096
 52.742 55.034 51.258 53.545 c 49.77 52.057 47.703 51.202 45.602 51.202 
c h
45.602 51.202 m f
260.801 230.135 m 265.219 230.135 268.801 233.713 268.801 238.135 c 268.801
 363.202 l 268.801 388.784 247.984 409.6 222.398 409.6 c 46.398 409.6 l 
20.816 409.6 0 388.784 0 363.202 c 0 46.401 l 0 20.815 20.816 -0.002 46.398
 -0.002 c 222.398 -0.002 l 247.984 -0.002 268.801 20.815 268.801 46.401 
c 268.801 77.885 l 268.801 82.303 265.219 85.885 260.801 85.885 c 256.383
 85.885 252.801 82.303 252.801 77.885 c 252.801 67.202 l 82.934 67.202 l
 78.516 67.202 74.934 63.62 74.934 59.202 c 74.934 54.78 78.516 51.202 82.934
 51.202 c 252.801 51.202 l 252.801 46.401 l 252.801 29.639 239.164 15.998
 222.398 15.998 c 46.398 15.998 l 29.637 15.998 16 29.639 16 46.401 c 16
 341.393 l 252.801 341.393 l 252.801 238.131 l 252.801 233.713 256.383 230.135
 260.801 230.135 c h
16 357.393 m 16 363.202 l 16 379.963 29.637 393.6 46.398 393.6 c 222.398
 393.6 l 239.164 393.6 252.801 379.963 252.801 363.202 c 252.801 357.393
 l h
16 357.393 m f
134.457 25.6 m 134.383 25.6 l 129.965 25.6 126.383 29.182 126.383 33.6 
c 126.383 38.018 129.965 41.6 134.383 41.6 c 138.801 41.6 142.422 38.018
 142.422 33.6 c 142.422 29.182 138.875 25.6 134.457 25.6 c h
134.457 25.6 m f
170.418 367.998 m 100.02 367.998 l 95.602 367.998 92.02 371.58 92.02 375.998
 c 92.02 380.42 95.602 383.998 100.02 383.998 c 170.418 383.998 l 174.836
 383.998 178.418 380.42 178.418 375.998 c 178.418 371.58 174.836 367.998
 170.418 367.998 c h
170.418 367.998 m f
48.82 222.264 m 46.773 222.264 44.723 223.045 43.164 224.608 c 40.039 227.733
 40.039 232.799 43.164 235.924 c 67.754 260.51 100.445 274.053 135.219 274.053
 c 169.992 274.053 202.688 260.51 227.277 235.924 c 230.398 232.799 230.398
 227.733 227.277 224.608 c 224.152 221.483 219.086 221.483 215.961 224.608
 c 194.395 246.174 165.719 258.053 135.219 258.053 c 104.719 258.053 76.043
 246.174 54.477 224.608 c 52.914 223.045 50.867 222.264 48.82 222.264 c 
h
48.82 222.264 m f
193.695 194.342 m 191.648 194.342 189.602 195.123 188.039 196.686 c 158.914
 225.811 111.523 225.811 82.398 196.686 c 79.277 193.561 74.211 193.561 
71.086 196.686 c 67.961 199.807 67.961 204.873 71.086 207.998 c 106.449 
243.362 163.988 243.362 199.352 207.998 c 202.477 204.873 202.477 199.807
 199.352 196.686 c 197.793 195.123 195.742 194.342 193.695 194.342 c h
193.695 194.342 m f
166.699 167.342 m 164.652 167.342 162.605 168.123 161.043 169.686 c 154.145
 176.584 144.973 180.381 135.219 180.381 c 125.465 180.381 116.297 176.584
 109.398 169.686 c 106.273 166.561 101.207 166.561 98.086 169.686 c 94.961
 172.811 94.961 177.877 98.086 181.002 c 108.004 190.92 121.191 196.381 
135.219 196.381 c 149.246 196.381 162.438 190.92 172.355 181.002 c 175.48
 177.877 175.48 172.811 172.355 169.686 c 170.793 168.123 168.746 167.342
 166.699 167.342 c h
166.699 167.342 m f
135.215 135.545 m 133.113 135.545 131.047 136.401 129.559 137.889 c 128.07
 139.377 127.215 141.44 127.215 143.545 c 127.215 145.655 128.07 147.713
 129.559 149.202 c 131.047 150.698 133.113 151.545 135.215 151.545 c 137.328
 151.545 139.383 150.698 140.879 149.202 c 142.367 147.713 143.223 145.655
 143.223 143.545 c 143.223 141.44 142.367 139.377 140.879 137.889 c 139.383
 136.401 137.328 135.545 135.215 135.545 c h
135.215 135.545 m f
0.647059 0.862745 0.411765 rg
401.602 151.487 m 401.602 110.838 368.648 77.889 328 77.889 c 287.352 77.889
 254.398 110.838 254.398 151.487 c 254.398 192.135 287.352 225.088 328 225.088
 c 368.648 225.088 401.602 192.135 401.602 151.487 c h
401.602 151.487 m f
0 g
328 69.885 m 283.004 69.885 246.398 106.491 246.398 151.483 c 246.398 196.479
 283.004 233.084 328 233.084 c 372.996 233.084 409.602 196.479 409.602 151.483
 c 409.602 106.491 372.996 69.885 328 69.885 c h
328 217.084 m 291.828 217.084 262.398 187.655 262.398 151.483 c 262.398
 115.311 291.828 85.885 328 85.885 c 364.172 85.885 393.602 115.311 393.602
 151.483 c 393.602 187.655 364.172 217.084 328 217.084 c h
328 217.084 m f
321.117 130.139 m 319.07 130.139 317.023 130.92 315.461 132.483 c 300.363
 147.58 l 297.238 150.705 297.238 155.772 300.363 158.897 c 303.488 162.018
 308.555 162.018 311.676 158.897 c 321.117 149.455 l 347.453 175.791 l 350.578
 178.916 355.645 178.916 358.77 175.791 c 361.895 172.666 361.895 167.604
 358.77 164.479 c 326.773 132.483 l 325.211 130.92 323.164 130.139 321.117
 130.139 c h
321.117 130.139 m f
Q Q
showpage
%%Trailer
end restore
%%EOF
