%!PS-Adobe-3.0 EPSF-3.0
%%Creator: cairo 1.14.2 (http://cairographics.org)
%%CreationDate: Fri Jun 15 11:41:46 2018
%%Pages: 1
%%DocumentData: Clean7Bit
%%LanguageLevel: 2
%%BoundingBox: 0 -1 410 410
%%EndComments
%%BeginProlog
save
50 dict begin
/q { gsave } bind def
/Q { grestore } bind def
/cm { 6 array astore concat } bind def
/w { setlinewidth } bind def
/J { setlinecap } bind def
/j { setlinejoin } bind def
/M { setmiterlimit } bind def
/d { setdash } bind def
/m { moveto } bind def
/l { lineto } bind def
/c { curveto } bind def
/h { closepath } bind def
/re { exch dup neg 3 1 roll 5 3 roll moveto 0 rlineto
      0 exch rlineto 0 rlineto closepath } bind def
/S { stroke } bind def
/f { fill } bind def
/f* { eofill } bind def
/n { newpath } bind def
/W { clip } bind def
/W* { eoclip } bind def
/BT { } bind def
/ET { } bind def
/pdfmark where { pop globaldict /?pdfmark /exec load put }
    { globaldict begin /?pdfmark /pop load def /pdfmark
    /cleartomark load def end } ifelse
/BDC { mark 3 1 roll /BDC pdfmark } bind def
/EMC { mark /EMC pdfmark } bind def
/cairo_store_point { /cairo_point_y exch def /cairo_point_x exch def } def
/Tj { show currentpoint cairo_store_point } bind def
/TJ {
  {
    dup
    type /stringtype eq
    { show } { -0.001 mul 0 cairo_font_matrix dtransform rmoveto } ifelse
  } forall
  currentpoint cairo_store_point
} bind def
/cairo_selectfont { cairo_font_matrix aload pop pop pop 0 0 6 array astore
    cairo_font exch selectfont cairo_point_x cairo_point_y moveto } bind def
/Tf { pop /cairo_font exch def /cairo_font_matrix where
      { pop cairo_selectfont } if } bind def
/Td { matrix translate cairo_font_matrix matrix concatmatrix dup
      /cairo_font_matrix exch def dup 4 get exch 5 get cairo_store_point
      /cairo_font where { pop cairo_selectfont } if } bind def
/Tm { 2 copy 8 2 roll 6 array astore /cairo_font_matrix exch def
      cairo_store_point /cairo_font where { pop cairo_selectfont } if } bind def
/g { setgray } bind def
/rg { setrgbcolor } bind def
/d1 { setcachedevice } bind def
%%EndProlog
%%BeginSetup
%%EndSetup
%%Page: 1 1
%%BeginPageSetup
%%PageBoundingBox: 0 -1 410 410
%%EndPageSetup
q 0 -1 410 411 rectclip q
1 g
373.602 401.6 m 36 401.6 l 20.535 401.6 8 389.065 8 373.6 c 8 7.998 l 401.602
 7.998 l 401.602 373.6 l 401.602 389.065 389.062 401.6 373.602 401.6 c h
373.602 401.6 m f
0.784314 0.960784 1 rg
373.602 401.6 m 36 401.6 l 20.535 401.6 8 389.065 8 373.6 c 8 324.799 l
 401.602 324.799 l 401.602 373.6 l 401.602 389.065 389.062 401.6 373.602
 401.6 c h
373.602 401.6 m f
0.431373 0.529412 0.960784 rg
83.199 363.202 m 83.199 354.362 76.035 347.202 67.199 347.202 c 58.363 
347.202 51.199 354.362 51.199 363.202 c 51.199 372.038 58.363 379.202 67.199
 379.202 c 76.035 379.202 83.199 372.038 83.199 363.202 c h
83.199 363.202 m f
144.633 363.202 m 144.633 354.362 137.469 347.202 128.633 347.202 c 119.797
 347.202 112.633 354.362 112.633 363.202 c 112.633 372.038 119.797 379.202
 128.633 379.202 c 137.469 379.202 144.633 372.038 144.633 363.202 c h
144.633 363.202 m f
1 0.352941 0.352941 rg
206.062 363.202 m 206.062 354.362 198.902 347.202 190.062 347.202 c 181.227
 347.202 174.062 354.362 174.062 363.202 c 174.062 372.038 181.227 379.202
 190.062 379.202 c 198.902 379.202 206.062 372.038 206.062 363.202 c h
206.062 363.202 m f
0.647059 0.862745 0.411765 rg
51.199 287.538 307.199 -108.801 re f
0.470588 0.823529 0.980392 rg
51.199 134.401 83.199 -83.199 re f
163.199 134.401 83.199 -83.199 re f
275.199 134.401 83.199 -83.199 re f
0 g
373.602 409.6 m 36 409.6 l 16.148 409.6 0 393.452 0 373.6 c 0 7.998 l 0
 3.58 3.582 -0.002 8 -0.002 c 401.602 -0.002 l 406.02 -0.002 409.602 3.58
 409.602 7.998 c 409.602 373.6 l 409.602 393.452 393.449 409.6 373.602 409.6
 c h
393.602 15.998 m 16 15.998 l 16 316.799 l 322.398 316.799 l 326.82 316.799
 330.398 320.381 330.398 324.799 c 330.398 329.217 326.82 332.799 322.398
 332.799 c 16 332.799 l 16 373.6 l 16 384.627 24.973 393.6 36 393.6 c 373.602
 393.6 l 384.629 393.6 393.602 384.627 393.602 373.6 c h
393.602 15.998 m f
67.199 387.202 m 53.965 387.202 43.199 376.432 43.199 363.202 c 43.199 
349.967 53.965 339.202 67.199 339.202 c 80.434 339.202 91.199 349.967 91.199
 363.202 c 91.199 376.432 80.434 387.202 67.199 387.202 c h
67.199 355.202 m 62.789 355.202 59.199 358.788 59.199 363.202 c 59.199 
367.612 62.789 371.202 67.199 371.202 c 71.609 371.202 75.199 367.612 75.199
 363.202 c 75.199 358.788 71.609 355.202 67.199 355.202 c h
67.199 355.202 m f
128.633 387.202 m 115.398 387.202 104.633 376.432 104.633 363.202 c 104.633
 349.967 115.398 339.202 128.633 339.202 c 141.867 339.202 152.633 349.967
 152.633 363.202 c 152.633 376.432 141.867 387.202 128.633 387.202 c h
128.633 355.202 m 124.223 355.202 120.633 358.788 120.633 363.202 c 120.633
 367.612 124.223 371.202 128.633 371.202 c 133.043 371.202 136.633 367.612
 136.633 363.202 c 136.633 358.788 133.043 355.202 128.633 355.202 c h
128.633 355.202 m f
190.066 387.202 m 176.832 387.202 166.066 376.432 166.066 363.202 c 166.066
 349.967 176.832 339.202 190.066 339.202 c 203.301 339.202 214.066 349.967
 214.066 363.202 c 214.066 376.432 203.301 387.202 190.066 387.202 c h
190.066 355.202 m 185.656 355.202 182.066 358.788 182.066 363.202 c 182.066
 367.612 185.656 371.202 190.066 371.202 c 194.477 371.202 198.066 367.612
 198.066 363.202 c 198.066 358.788 194.477 355.202 190.066 355.202 c h
190.066 355.202 m f
358.398 295.534 m 242.398 295.534 l 237.98 295.534 234.398 291.952 234.398
 287.534 c 234.398 283.116 237.98 279.534 242.398 279.534 c 350.398 279.534
 l 350.398 186.733 l 59.199 186.733 l 59.199 279.534 l 168 279.534 l 172.418
 279.534 176 283.116 176 287.534 c 176 291.952 172.418 295.534 168 295.534
 c 51.199 295.534 l 46.781 295.534 43.199 291.952 43.199 287.534 c 43.199
 178.733 l 43.199 174.315 46.781 170.733 51.199 170.733 c 358.398 170.733
 l 362.82 170.733 366.398 174.315 366.398 178.733 c 366.398 287.534 l 366.398
 291.952 362.82 295.534 358.398 295.534 c h
358.398 295.534 m f
134.398 142.401 m 51.199 142.401 l 46.781 142.401 43.199 138.819 43.199
 134.401 c 43.199 51.202 l 43.199 46.78 46.781 43.202 51.199 43.202 c 134.398
 43.202 l 138.82 43.202 142.398 46.78 142.398 51.202 c 142.398 134.401 l
 142.398 138.819 138.82 142.401 134.398 142.401 c h
126.398 59.202 m 59.199 59.202 l 59.199 126.401 l 126.398 126.401 l h
126.398 59.202 m f
246.398 142.401 m 163.199 142.401 l 158.781 142.401 155.199 138.819 155.199
 134.401 c 155.199 51.202 l 155.199 46.78 158.781 43.202 163.199 43.202 
c 246.398 43.202 l 250.82 43.202 254.398 46.78 254.398 51.202 c 254.398 
134.401 l 254.398 138.819 250.82 142.401 246.398 142.401 c h
238.398 59.202 m 171.199 59.202 l 171.199 126.401 l 238.398 126.401 l h
238.398 59.202 m f
358.398 142.401 m 275.199 142.401 l 270.781 142.401 267.199 138.819 267.199
 134.401 c 267.199 51.202 l 267.199 46.78 270.781 43.202 275.199 43.202 
c 358.398 43.202 l 362.82 43.202 366.398 46.78 366.398 51.202 c 366.398 
134.401 l 366.398 138.819 362.82 142.401 358.398 142.401 c h
350.398 59.202 m 283.199 59.202 l 283.199 126.401 l 350.398 126.401 l h
350.398 59.202 m f
358.398 332.799 m 356.297 332.799 354.23 331.944 352.742 330.455 c 351.258
 328.967 350.398 326.905 350.398 324.799 c 350.398 322.698 351.258 320.631
 352.742 319.143 c 354.23 317.655 356.297 316.799 358.398 316.799 c 360.504
 316.799 362.566 317.655 364.055 319.143 c 365.543 320.631 366.398 322.698
 366.398 324.799 c 366.398 326.905 365.543 328.967 364.055 330.455 c 362.566
 331.944 360.504 332.799 358.398 332.799 c h
358.398 332.799 m f
206.062 279.538 m 208.168 279.538 210.23 280.385 211.719 281.881 c 213.207
 283.37 214.062 285.424 214.062 287.538 c 214.062 289.639 213.207 291.705
 211.719 293.194 c 210.23 294.678 208.176 295.538 206.062 295.538 c 203.961
 295.538 201.895 294.678 200.406 293.194 c 198.922 291.705 198.062 289.639
 198.062 287.538 c 198.062 285.424 198.922 283.37 200.406 281.881 c 201.895
 280.385 203.961 279.538 206.062 279.538 c h
206.062 279.538 m f
Q Q
showpage
%%Trailer
end restore
%%EOF
