%!PS-Adobe-3.0 EPSF-3.0
%%Creator: cairo 1.14.2 (http://cairographics.org)
%%CreationDate: Fri Jun 15 11:41:46 2018
%%Pages: 1
%%DocumentData: Clean7Bit
%%LanguageLevel: 2
%%BoundingBox: 43 -1 367 410
%%EndComments
%%BeginProlog
save
50 dict begin
/q { gsave } bind def
/Q { grestore } bind def
/cm { 6 array astore concat } bind def
/w { setlinewidth } bind def
/J { setlinecap } bind def
/j { setlinejoin } bind def
/M { setmiterlimit } bind def
/d { setdash } bind def
/m { moveto } bind def
/l { lineto } bind def
/c { curveto } bind def
/h { closepath } bind def
/re { exch dup neg 3 1 roll 5 3 roll moveto 0 rlineto
      0 exch rlineto 0 rlineto closepath } bind def
/S { stroke } bind def
/f { fill } bind def
/f* { eofill } bind def
/n { newpath } bind def
/W { clip } bind def
/W* { eoclip } bind def
/BT { } bind def
/ET { } bind def
/pdfmark where { pop globaldict /?pdfmark /exec load put }
    { globaldict begin /?pdfmark /pop load def /pdfmark
    /cleartomark load def end } ifelse
/BDC { mark 3 1 roll /BDC pdfmark } bind def
/EMC { mark /EMC pdfmark } bind def
/cairo_store_point { /cairo_point_y exch def /cairo_point_x exch def } def
/Tj { show currentpoint cairo_store_point } bind def
/TJ {
  {
    dup
    type /stringtype eq
    { show } { -0.001 mul 0 cairo_font_matrix dtransform rmoveto } ifelse
  } forall
  currentpoint cairo_store_point
} bind def
/cairo_selectfont { cairo_font_matrix aload pop pop pop 0 0 6 array astore
    cairo_font exch selectfont cairo_point_x cairo_point_y moveto } bind def
/Tf { pop /cairo_font exch def /cairo_font_matrix where
      { pop cairo_selectfont } if } bind def
/Td { matrix translate cairo_font_matrix matrix concatmatrix dup
      /cairo_font_matrix exch def dup 4 get exch 5 get cairo_store_point
      /cairo_font where { pop cairo_selectfont } if } bind def
/Tm { 2 copy 8 2 roll 6 array astore /cairo_font_matrix exch def
      cairo_store_point /cairo_font where { pop cairo_selectfont } if } bind def
/g { setgray } bind def
/rg { setrgbcolor } bind def
/d1 { setcachedevice } bind def
%%EndProlog
%%BeginSetup
%%EndSetup
%%Page: 1 1
%%BeginPageSetup
%%PageBoundingBox: 43 -1 367 410
%%EndPageSetup
q 43 -1 324 411 rectclip q
1 0.352941 0.352941 rg
326.797 7.998 m 82.805 7.998 l 65.352 7.998 51.203 22.147 51.203 39.6 c
 51.203 369.998 l 51.203 387.452 65.352 401.6 82.805 401.6 c 326.797 401.6
 l 344.246 401.6 358.395 387.452 358.395 369.998 c 358.395 39.6 l 358.395
 22.147 344.246 7.998 326.797 7.998 c h
326.797 7.998 m f
0.490196 0.607843 1 rg
141.594 332.979 m 135.168 324.791 l 113.848 297.635 116.176 258.83 140.59
 234.416 c 192.938 182.065 l 217.355 157.651 256.16 155.323 283.316 176.643
 c 291.504 183.069 l 298.895 188.87 299.551 199.827 292.906 206.471 c 262.961
 236.42 l 256.84 242.538 246.918 242.538 240.801 236.42 c 231.059 226.674
 l 226.457 222.077 218.996 222.077 214.398 226.674 c 185.176 255.897 l 180.574
 260.498 180.574 267.955 185.176 272.557 c 194.922 282.299 l 201.039 288.42
 201.039 298.338 194.922 304.459 c 164.996 334.381 l 158.352 341.026 147.395
 340.37 141.594 332.979 c h
141.594 332.979 m f
1 g
326.328 7.998 m 83.27 7.998 l 65.562 7.998 51.203 22.358 51.203 40.065 
c 51.203 57.776 65.562 72.131 83.27 72.131 c 358.395 72.131 l 358.395 40.065
 l 358.395 22.358 344.039 7.998 326.328 7.998 c h
326.328 7.998 m f
0 g
51.203 223.284 m 55.621 223.284 59.203 226.866 59.203 231.284 c 59.203 
231.319 l 59.203 235.737 55.621 239.303 51.203 239.303 c 46.789 239.303 
43.203 235.702 43.203 231.284 c 43.203 226.866 46.785 223.284 51.203 223.284
 c h
51.203 223.284 m f
326.395 409.6 m 83.203 409.6 l 61.148 409.6 43.203 391.655 43.203 369.6
 c 43.203 263.073 l 43.203 258.655 46.789 255.073 51.203 255.073 c 55.621
 255.073 59.203 258.655 59.203 263.073 c 59.203 369.6 l 59.203 382.834 69.973
 393.6 83.203 393.6 c 326.395 393.6 l 339.629 393.6 350.395 382.834 350.395
 369.6 c 350.395 103.998 l 350.395 90.768 339.629 79.998 326.395 79.998 
c 83.203 79.998 l 74.207 79.998 65.895 77.01 59.203 71.979 c 59.203 200.233
 l 59.203 204.651 55.621 208.233 51.203 208.233 c 46.789 208.233 43.203 
204.651 43.203 200.233 c 43.203 39.998 l 43.203 17.944 61.148 -0.002 83.203
 -0.002 c 326.395 -0.002 l 348.453 -0.002 366.395 17.944 366.395 39.998 
c 366.395 369.6 l 366.395 391.655 348.453 409.6 326.395 409.6 c h
326.395 15.998 m 83.203 15.998 l 69.973 15.998 59.203 26.768 59.203 39.998
 c 59.203 53.233 69.973 63.998 83.203 63.998 c 326.395 63.998 l 335.391 
63.998 343.703 66.987 350.391 72.018 c 350.328 58.838 339.59 48.135 326.395
 48.135 c 123.473 48.135 l 119.055 48.135 115.473 44.553 115.473 40.135 
c 115.473 35.713 119.055 32.135 123.473 32.135 c 326.395 32.135 l 335.395
 32.135 343.707 35.123 350.395 40.155 c 350.395 39.998 l 350.395 26.768 
339.629 15.998 326.395 15.998 c h
326.395 15.998 m f
96.57 47.913 m 98.672 47.913 100.738 47.057 102.227 45.569 c 103.711 44.08
 104.57 42.026 104.57 39.913 c 104.57 37.811 103.715 35.745 102.227 34.256
 c 100.738 32.768 98.672 31.913 96.57 31.913 c 94.465 31.913 92.402 32.768
 90.914 34.256 c 89.426 35.745 88.57 37.811 88.57 39.913 c 88.57 42.018 
89.426 44.08 90.914 45.569 c 92.402 47.057 94.465 47.913 96.57 47.913 c 
h
96.57 47.913 m f
241.215 154.1 m 221.594 154.1 202.062 161.627 187.281 176.409 c 134.934
 228.76 l 107.68 256.01 105.078 299.42 128.875 329.733 c 135.301 337.92 
l 139.477 343.241 145.746 346.526 152.5 346.932 c 159.262 347.334 165.871
 344.823 170.652 340.041 c 200.578 310.12 l 209.805 300.889 209.805 285.873
 200.578 276.643 c 190.832 266.901 l 189.359 265.428 189.359 263.03 190.832
 261.557 c 220.055 232.334 l 221.016 231.373 222.141 231.229 222.727 231.229
 c 223.312 231.229 224.438 231.373 225.402 232.334 c 235.145 242.077 l 239.613
 246.549 245.559 249.01 251.879 249.01 c 258.203 249.01 264.145 246.549 
268.617 242.077 c 298.562 212.131 l 303.348 207.346 305.859 200.729 305.453
 193.979 c 305.047 187.225 301.766 180.955 296.441 176.776 c 288.258 170.35
 l 274.387 159.463 257.766 154.1 241.215 154.1 c h
147.887 328.038 m 141.461 319.854 l 122.656 295.901 124.715 261.604 146.246
 240.073 c 198.594 187.721 l 220.125 166.19 254.426 164.131 278.375 182.936
 c 286.562 189.362 l 288.312 190.733 289.348 192.713 289.48 194.932 c 289.613
 197.155 288.82 199.245 287.246 200.815 c 257.301 230.764 l 255.852 232.213
 253.926 233.01 251.879 233.01 c 249.828 233.01 247.902 232.213 246.457 
230.764 c 236.711 221.022 l 232.977 217.284 228.008 215.225 222.727 215.225
 c 217.441 215.225 212.477 217.284 208.738 221.022 c 179.52 250.241 l 171.805
 257.952 171.805 270.502 179.52 278.213 c 189.262 287.959 l 192.254 290.948
 192.254 295.811 189.262 298.803 c 159.34 328.725 l 157.766 330.299 155.684
 331.092 153.457 330.959 c 151.238 330.827 149.258 329.788 147.887 328.038
 c h
147.887 328.038 m f
Q Q
showpage
%%Trailer
end restore
%%EOF
