%!PS-Adobe-3.0 EPSF-3.0
%%Creator: cairo 1.14.2 (http://cairographics.org)
%%CreationDate: Fri Jun 15 11:41:46 2018
%%Pages: 1
%%DocumentData: Clean7Bit
%%LanguageLevel: 2
%%BoundingBox: 0 -1 410 410
%%EndComments
%%BeginProlog
save
50 dict begin
/q { gsave } bind def
/Q { grestore } bind def
/cm { 6 array astore concat } bind def
/w { setlinewidth } bind def
/J { setlinecap } bind def
/j { setlinejoin } bind def
/M { setmiterlimit } bind def
/d { setdash } bind def
/m { moveto } bind def
/l { lineto } bind def
/c { curveto } bind def
/h { closepath } bind def
/re { exch dup neg 3 1 roll 5 3 roll moveto 0 rlineto
      0 exch rlineto 0 rlineto closepath } bind def
/S { stroke } bind def
/f { fill } bind def
/f* { eofill } bind def
/n { newpath } bind def
/W { clip } bind def
/W* { eoclip } bind def
/BT { } bind def
/ET { } bind def
/pdfmark where { pop globaldict /?pdfmark /exec load put }
    { globaldict begin /?pdfmark /pop load def /pdfmark
    /cleartomark load def end } ifelse
/BDC { mark 3 1 roll /BDC pdfmark } bind def
/EMC { mark /EMC pdfmark } bind def
/cairo_store_point { /cairo_point_y exch def /cairo_point_x exch def } def
/Tj { show currentpoint cairo_store_point } bind def
/TJ {
  {
    dup
    type /stringtype eq
    { show } { -0.001 mul 0 cairo_font_matrix dtransform rmoveto } ifelse
  } forall
  currentpoint cairo_store_point
} bind def
/cairo_selectfont { cairo_font_matrix aload pop pop pop 0 0 6 array astore
    cairo_font exch selectfont cairo_point_x cairo_point_y moveto } bind def
/Tf { pop /cairo_font exch def /cairo_font_matrix where
      { pop cairo_selectfont } if } bind def
/Td { matrix translate cairo_font_matrix matrix concatmatrix dup
      /cairo_font_matrix exch def dup 4 get exch 5 get cairo_store_point
      /cairo_font where { pop cairo_selectfont } if } bind def
/Tm { 2 copy 8 2 roll 6 array astore /cairo_font_matrix exch def
      cairo_store_point /cairo_font where { pop cairo_selectfont } if } bind def
/g { setgray } bind def
/rg { setrgbcolor } bind def
/d1 { setcachedevice } bind def
%%EndProlog
%%BeginSetup
%%EndSetup
%%Page: 1 1
%%BeginPageSetup
%%PageBoundingBox: 0 -1 410 410
%%EndPageSetup
q 0 -1 410 411 rectclip q
1 0.352941 0.352941 rg
148.801 102.401 m 97.531 102.401 l 8 7.998 l 401.602 7.998 l 311.523 102.401
 l 260.457 102.401 l f
0.960784 0.784314 0.431373 rg
345.578 260.823 m 345.578 338.573 282.551 401.6 204.801 401.6 c 127.051
 401.6 64.023 338.573 64.023 260.823 c 64.023 227.116 75.871 196.186 95.625
 171.948 c 95.613 171.948 l 204.801 31.998 l 313.465 171.213 l 313.383 171.213
 l 333.496 195.557 345.578 226.78 345.578 260.823 c h
345.578 260.823 m f
1 g
148.801 282.151 112 -85.352 re f
1 0.431373 0.215686 rg
280.621 282.444 m 204.801 346.401 l 128.98 282.444 l h
280.621 282.444 m f
183.984 197.6 m 183.984 224.768 l 183.984 236.264 193.305 245.584 204.801
 245.584 c 216.297 245.584 225.617 236.264 225.617 224.768 c 225.617 197.6
 l h
183.984 197.6 m f
0 g
407.387 13.522 m 317.312 107.924 l 315.801 109.506 313.711 110.401 311.523
 110.401 c 276.145 110.401 l 319.77 166.291 l 319.941 166.51 320.098 166.733
 320.242 166.963 c 341.746 193.389 353.578 226.678 353.578 260.823 c 353.578
 342.858 286.836 409.6 204.801 409.6 c 180.168 409.6 155.762 403.452 134.219
 391.823 c 130.332 389.725 128.879 384.87 130.98 380.983 c 133.078 377.096
 137.93 375.647 141.82 377.745 c 161.035 388.116 182.812 393.6 204.801 393.6
 c 278.016 393.6 337.578 334.034 337.578 260.823 c 337.578 230.022 326.797
 200.01 307.215 176.311 c 306.949 175.987 306.711 175.647 306.5 175.295 
c 204.801 45.002 l 102.145 176.588 l 102.043 176.729 101.938 176.866 101.828
 177.002 c 82.605 200.584 72.023 230.35 72.023 260.823 c 72.023 288.698 
80.562 315.377 96.723 337.971 c 99.293 341.565 98.465 346.561 94.871 349.131
 c 91.277 351.702 86.277 350.873 83.707 347.28 c 65.598 321.955 56.023 292.057
 56.023 260.823 c 56.023 226.799 67.797 193.561 89.195 167.178 c 89.23 167.127
 89.27 167.077 89.309 167.026 c 133.488 110.401 l 97.531 110.401 l 95.336
 110.401 93.238 109.498 91.727 107.905 c 2.195 13.506 l -0.004 11.186 -0.613
 7.78 0.652 4.842 c 1.914 1.905 4.805 -0.002 8 -0.002 c 271.465 -0.002 l
 275.887 -0.002 279.465 3.58 279.465 7.998 c 279.465 12.42 275.887 15.998
 271.465 15.998 c 26.613 15.998 l 100.969 94.401 l 145.969 94.401 l 198.492
 27.08 l 200.008 25.135 202.336 24.002 204.801 23.998 c 207.266 23.998 209.59
 25.135 211.105 27.077 c 263.656 94.401 l 308.098 94.401 l 382.91 15.998
 l 333.867 15.998 l 329.449 15.998 325.867 12.42 325.867 7.998 c 325.867
 3.58 329.449 -0.002 333.867 -0.002 c 401.602 -0.002 l 404.801 -0.002 407.695
 1.909 408.953 4.854 c 410.215 7.795 409.598 11.205 407.387 13.522 c h
407.387 13.522 m f
128.98 274.44 m 140.801 274.44 l 140.801 204.799 l 139.285 204.799 l 134.867
 204.799 131.285 201.217 131.285 196.799 c 131.285 192.381 134.867 188.799
 139.285 188.799 c 273.086 188.799 l 277.504 188.799 281.086 192.381 281.086
 196.799 c 281.086 201.217 277.504 204.799 273.086 204.799 c 268.801 204.799
 l 268.801 274.444 l 280.621 274.444 l 283.977 274.444 286.98 276.541 288.133
 279.698 c 289.285 282.85 288.344 286.393 285.777 288.557 c 209.957 352.514
 l 206.977 355.03 202.621 355.03 199.641 352.514 c 123.824 288.557 l 121.254
 286.389 120.312 282.85 121.469 279.698 c 122.621 276.541 125.621 274.44
 128.98 274.44 c h
217.617 204.799 m 191.984 204.799 l 191.984 224.768 l 191.984 231.834 197.734
 237.584 204.801 237.584 c 211.867 237.584 217.617 231.834 217.617 224.768
 c h
252.801 204.799 m 233.617 204.799 l 233.617 224.768 l 233.617 240.655 220.691
 253.584 204.801 253.584 c 188.91 253.584 175.984 240.655 175.984 224.768
 c 175.984 204.799 l 156.801 204.799 l 156.801 274.444 l 252.801 274.444
 l h
204.801 335.932 m 258.73 290.44 l 150.871 290.44 l h
204.801 335.932 m f
110.863 357.67 m 112.977 357.67 115.031 358.53 116.52 360.014 c 118.016
 361.502 118.863 363.569 118.863 365.67 c 118.863 367.776 118.016 369.838
 116.52 371.327 c 115.031 372.815 112.977 373.67 110.863 373.67 c 108.762
 373.67 106.695 372.815 105.207 371.327 c 103.719 369.838 102.863 367.776
 102.863 365.67 c 102.863 363.569 103.719 361.502 105.207 360.014 c 106.695
 358.53 108.762 357.67 110.863 357.67 c h
110.863 357.67 m f
303.465 15.998 m 301.359 15.998 299.297 15.143 297.809 13.655 c 296.32 
12.166 295.465 10.104 295.465 7.998 c 295.465 5.897 296.32 3.83 297.809 
2.342 c 299.297 0.858 301.359 -0.002 303.465 -0.002 c 305.574 -0.002 307.633
 0.858 309.121 2.342 c 310.617 3.83 311.465 5.897 311.465 7.998 c 311.465
 10.104 310.617 12.166 309.121 13.655 c 307.633 15.143 305.574 15.998 303.465
 15.998 c h
303.465 15.998 m f
Q Q
showpage
%%Trailer
end restore
%%EOF
