%!PS-Adobe-3.0 EPSF-3.0
%%Creator: cairo 1.14.2 (http://cairographics.org)
%%CreationDate: Fri Jun 15 11:41:46 2018
%%Pages: 1
%%DocumentData: Clean7Bit
%%LanguageLevel: 2
%%BoundingBox: 0 -1 410 410
%%EndComments
%%BeginProlog
save
50 dict begin
/q { gsave } bind def
/Q { grestore } bind def
/cm { 6 array astore concat } bind def
/w { setlinewidth } bind def
/J { setlinecap } bind def
/j { setlinejoin } bind def
/M { setmiterlimit } bind def
/d { setdash } bind def
/m { moveto } bind def
/l { lineto } bind def
/c { curveto } bind def
/h { closepath } bind def
/re { exch dup neg 3 1 roll 5 3 roll moveto 0 rlineto
      0 exch rlineto 0 rlineto closepath } bind def
/S { stroke } bind def
/f { fill } bind def
/f* { eofill } bind def
/n { newpath } bind def
/W { clip } bind def
/W* { eoclip } bind def
/BT { } bind def
/ET { } bind def
/pdfmark where { pop globaldict /?pdfmark /exec load put }
    { globaldict begin /?pdfmark /pop load def /pdfmark
    /cleartomark load def end } ifelse
/BDC { mark 3 1 roll /BDC pdfmark } bind def
/EMC { mark /EMC pdfmark } bind def
/cairo_store_point { /cairo_point_y exch def /cairo_point_x exch def } def
/Tj { show currentpoint cairo_store_point } bind def
/TJ {
  {
    dup
    type /stringtype eq
    { show } { -0.001 mul 0 cairo_font_matrix dtransform rmoveto } ifelse
  } forall
  currentpoint cairo_store_point
} bind def
/cairo_selectfont { cairo_font_matrix aload pop pop pop 0 0 6 array astore
    cairo_font exch selectfont cairo_point_x cairo_point_y moveto } bind def
/Tf { pop /cairo_font exch def /cairo_font_matrix where
      { pop cairo_selectfont } if } bind def
/Td { matrix translate cairo_font_matrix matrix concatmatrix dup
      /cairo_font_matrix exch def dup 4 get exch 5 get cairo_store_point
      /cairo_font where { pop cairo_selectfont } if } bind def
/Tm { 2 copy 8 2 roll 6 array astore /cairo_font_matrix exch def
      cairo_store_point /cairo_font where { pop cairo_selectfont } if } bind def
/g { setgray } bind def
/rg { setrgbcolor } bind def
/d1 { setcachedevice } bind def
%%EndProlog
%%BeginSetup
%%EndSetup
%%Page: 1 1
%%BeginPageSetup
%%PageBoundingBox: 0 -1 410 410
%%EndPageSetup
q 0 -1 410 411 rectclip q
1 g
358.391 361.863 m 358.391 375.995 l 358.391 390.136 346.93 401.597 332.793
 401.597 c 76.797 401.597 l 62.66 401.597 51.199 390.136 51.199 375.995 
c 51.199 33.605 l 51.199 19.464 62.66 8.003 76.797 8.003 c 332.793 8.003
 l 346.93 8.003 358.391 19.468 358.391 33.605 c h
358.391 361.863 m f
0 g
358.391 155.437 m 353.973 155.437 350.391 151.859 350.391 147.437 c 350.391
 33.605 l 350.391 23.902 342.496 16.003 332.793 16.003 c 76.797 16.003 l
 67.094 16.003 59.199 23.902 59.199 33.605 c 59.199 51.206 l 78.531 51.206
 l 93.531 51.206 105.73 63.405 105.73 78.405 c 105.73 93.402 93.531 105.605
 78.531 105.605 c 77.73 105.605 l 73.312 105.605 69.73 102.023 69.73 97.605
 c 69.73 93.187 73.312 89.605 77.73 89.605 c 78.531 89.605 l 84.707 89.605
 89.73 84.577 89.73 78.402 c 89.73 72.226 84.707 67.202 78.531 67.202 c 
59.199 67.202 l 59.199 177.499 l 78.531 177.499 l 93.531 177.499 105.73 
189.702 105.73 204.698 c 105.73 219.695 93.531 231.898 78.531 231.898 c 
77.73 231.898 l 73.312 231.898 69.73 228.316 69.73 223.898 c 69.73 219.48
 73.312 215.898 77.73 215.898 c 78.531 215.898 l 84.707 215.898 89.73 210.874
 89.73 204.698 c 89.73 198.523 84.707 193.499 78.531 193.499 c 59.199 193.499
 l 59.199 303.792 l 78.531 303.792 l 93.531 303.792 105.73 315.995 105.73
 330.991 c 105.73 345.991 93.531 358.191 78.531 358.191 c 77.73 358.191 
l 73.312 358.191 69.73 354.609 69.73 350.191 c 69.73 345.773 73.312 342.191
 77.73 342.191 c 78.531 342.191 l 84.707 342.191 89.73 337.167 89.73 330.991
 c 89.73 324.816 84.707 319.792 78.531 319.792 c 59.199 319.792 l 59.199
 375.995 l 59.199 385.702 67.094 393.597 76.797 393.597 c 332.793 393.597
 l 342.496 393.597 350.395 385.702 350.395 375.995 c 350.395 361.863 l 350.395
 357.445 353.977 353.863 358.395 353.863 c 362.809 353.863 366.395 357.445
 366.395 361.863 c 366.395 375.995 l 366.395 394.523 351.32 409.597 332.793
 409.597 c 76.797 409.597 l 58.27 409.597 43.199 394.523 43.199 375.995 
c 43.199 319.796 l 27.199 319.796 l 21.023 319.796 16 324.82 16 330.995 
c 16 337.171 21.023 342.195 27.199 342.195 c 31.617 342.195 35.199 345.777
 35.199 350.195 c 35.199 354.613 31.617 358.195 27.199 358.195 c 12.203 
358.195 0 345.991 0 330.995 c 0 315.995 12.203 303.796 27.199 303.796 c 
43.199 303.796 l 43.199 193.499 l 27.199 193.499 l 21.023 193.499 16 198.523
 16 204.698 c 16 210.874 21.023 215.898 27.199 215.898 c 31.617 215.898 
35.199 219.48 35.199 223.898 c 35.199 228.32 31.617 231.898 27.199 231.898
 c 12.203 231.898 0 219.698 0 204.698 c 0 189.702 12.203 177.499 27.199 
177.499 c 43.199 177.499 l 43.199 67.202 l 27.199 67.202 l 21.023 67.202
 16 72.23 16 78.405 c 16 84.581 21.023 89.605 27.199 89.605 c 31.617 89.605
 35.199 93.187 35.199 97.605 c 35.199 102.023 31.617 105.605 27.199 105.605
 c 12.203 105.601 0 93.402 0 78.402 c 0 63.405 12.203 51.202 27.199 51.202
 c 43.199 51.202 l 43.199 33.605 l 43.199 15.077 58.273 0.003 76.797 0.003
 c 332.793 0.003 l 351.32 0.003 366.391 15.077 366.391 33.605 c 366.391 
147.437 l 366.391 151.859 362.809 155.437 358.391 155.437 c h
358.391 155.437 m f
183.941 106.261 m 182.453 104.765 181.598 102.706 181.598 100.605 c 181.598
 98.491 182.453 96.437 183.941 94.941 c 185.43 93.452 187.492 92.605 189.598
 92.605 c 191.699 92.605 193.766 93.452 195.25 94.941 c 196.738 96.437 197.598
 98.491 197.598 100.605 c 197.598 102.706 196.738 104.765 195.25 106.261
 c 193.766 107.745 191.699 108.605 189.598 108.605 c 187.484 108.601 185.43
 107.745 183.941 106.261 c h
183.941 106.261 m f
127.359 108.601 m 122.941 108.601 119.359 105.019 119.359 100.601 c 119.359
 96.179 122.941 92.601 127.359 92.601 c 159.195 92.601 l 163.613 92.601 
167.195 96.179 167.195 100.601 c 167.195 105.019 163.613 108.601 159.195
 108.601 c h
127.359 108.601 m f
212.797 170.999 m 212.797 175.417 209.211 178.999 204.797 178.999 c 127.359
 178.999 l 122.941 178.999 119.359 175.417 119.359 170.999 c 119.359 166.581
 122.941 162.999 127.359 162.999 c 204.797 162.999 l 209.211 162.999 212.797
 166.581 212.797 170.999 c h
212.797 170.999 m f
243.215 241.398 m 243.215 245.816 239.633 249.398 235.215 249.398 c 127.359
 249.398 l 122.941 249.398 119.359 245.816 119.359 241.398 c 119.359 236.98
 122.941 233.398 127.359 233.398 c 235.215 233.398 l 239.633 233.398 243.215
 236.98 243.215 241.398 c h
243.215 241.398 m f
271.234 311.796 m 271.234 316.214 267.652 319.796 263.234 319.796 c 127.359
 319.796 l 122.941 319.796 119.359 316.214 119.359 311.796 c 119.359 307.378
 122.941 303.796 127.359 303.796 c 263.234 303.796 l 267.652 303.796 271.234
 307.378 271.234 311.796 c h
271.234 311.796 m f
0.960784 0.784314 0.431373 rg
225.531 126.198 m 225.531 51.202 l 290.477 88.702 l 398.898 276.488 l 404.445
 286.097 401.152 298.378 391.543 303.929 c 361.391 321.335 l 351.781 326.886
 339.496 323.593 333.949 313.984 c h
225.531 126.198 m f
1 0.352941 0.352941 rg
391.543 303.929 m 361.391 321.335 l 351.781 326.886 339.5 323.593 333.953
 313.984 c 318.043 286.433 l 320.742 284.05 l 378.477 250.718 l 382.73 248.488
 l 398.898 276.488 l 404.445 286.097 401.152 298.382 391.543 303.929 c h
391.543 303.929 m f
0.980392 0.882353 0.588235 rg
290.477 88.702 m 225.531 126.198 l 225.531 51.202 l h
290.477 88.702 m f
0 g
408.633 293.8 m 406.691 301.046 402.043 307.105 395.543 310.855 c 365.391
 328.265 l 351.977 336.011 334.766 331.398 327.023 317.984 c 218.605 130.198
 l 217.902 128.98 217.531 127.601 217.531 126.198 c 217.531 51.202 l 217.531
 48.347 219.059 45.706 221.531 44.277 c 222.77 43.562 224.152 43.202 225.531
 43.202 c 226.914 43.202 228.297 43.562 229.531 44.277 c 294.48 81.773 l
 295.695 82.476 296.703 83.484 297.406 84.702 c 405.824 272.488 l 409.574
 278.984 410.574 286.554 408.633 293.8 c h
264.84 83.136 m 233.531 101.073 l 233.531 112.343 l 274.48 88.702 l h
233.531 82.632 m 248.809 73.878 l 233.531 65.058 l h
287.551 99.628 m 236.461 129.124 l 320.617 274.89 l 371.707 245.39 l h
391.969 280.488 m 379.707 259.249 l 328.613 288.745 l 340.879 309.984 l
 344.211 315.757 351.621 317.741 357.391 314.409 c 387.543 296.999 l 390.34
 295.386 392.34 292.777 393.176 289.659 c 394.012 286.538 393.582 283.284
 391.969 280.488 c h
391.969 280.488 m f
Q Q
showpage
%%Trailer
end restore
%%EOF
