%!PS-Adobe-3.0 EPSF-3.0
%%Creator: cairo 1.14.2 (http://cairographics.org)
%%CreationDate: Fri Jun 15 11:41:46 2018
%%Pages: 1
%%DocumentData: Clean7Bit
%%LanguageLevel: 2
%%BoundingBox: 43 -1 367 410
%%EndComments
%%BeginProlog
save
50 dict begin
/q { gsave } bind def
/Q { grestore } bind def
/cm { 6 array astore concat } bind def
/w { setlinewidth } bind def
/J { setlinecap } bind def
/j { setlinejoin } bind def
/M { setmiterlimit } bind def
/d { setdash } bind def
/m { moveto } bind def
/l { lineto } bind def
/c { curveto } bind def
/h { closepath } bind def
/re { exch dup neg 3 1 roll 5 3 roll moveto 0 rlineto
      0 exch rlineto 0 rlineto closepath } bind def
/S { stroke } bind def
/f { fill } bind def
/f* { eofill } bind def
/n { newpath } bind def
/W { clip } bind def
/W* { eoclip } bind def
/BT { } bind def
/ET { } bind def
/pdfmark where { pop globaldict /?pdfmark /exec load put }
    { globaldict begin /?pdfmark /pop load def /pdfmark
    /cleartomark load def end } ifelse
/BDC { mark 3 1 roll /BDC pdfmark } bind def
/EMC { mark /EMC pdfmark } bind def
/cairo_store_point { /cairo_point_y exch def /cairo_point_x exch def } def
/Tj { show currentpoint cairo_store_point } bind def
/TJ {
  {
    dup
    type /stringtype eq
    { show } { -0.001 mul 0 cairo_font_matrix dtransform rmoveto } ifelse
  } forall
  currentpoint cairo_store_point
} bind def
/cairo_selectfont { cairo_font_matrix aload pop pop pop 0 0 6 array astore
    cairo_font exch selectfont cairo_point_x cairo_point_y moveto } bind def
/Tf { pop /cairo_font exch def /cairo_font_matrix where
      { pop cairo_selectfont } if } bind def
/Td { matrix translate cairo_font_matrix matrix concatmatrix dup
      /cairo_font_matrix exch def dup 4 get exch 5 get cairo_store_point
      /cairo_font where { pop cairo_selectfont } if } bind def
/Tm { 2 copy 8 2 roll 6 array astore /cairo_font_matrix exch def
      cairo_store_point /cairo_font where { pop cairo_selectfont } if } bind def
/g { setgray } bind def
/rg { setrgbcolor } bind def
/d1 { setcachedevice } bind def
%%EndProlog
%%BeginSetup
%%EndSetup
%%Page: 1 1
%%BeginPageSetup
%%PageBoundingBox: 43 -1 367 410
%%EndPageSetup
q 43 -1 324 411 rectclip q
1 0.352941 0.352941 rg
358.398 7.998 m 204.801 87.924 l 51.199 7.998 l 51.199 401.6 l 358.398 
401.6 l h
358.398 7.998 m f
0 g
358.398 -0.002 m 357.133 -0.002 355.867 0.299 354.707 0.905 c 204.801 78.905
 l 54.895 0.905 l 52.414 -0.388 49.441 -0.291 47.047 1.163 c 44.66 2.612
 43.199 5.205 43.199 7.998 c 43.199 252.401 l 43.199 256.819 46.781 260.401
 51.199 260.401 c 55.617 260.401 59.199 256.819 59.199 252.401 c 59.199 
21.182 l 201.105 95.022 l 203.422 96.225 206.176 96.225 208.492 95.022 c
 350.398 21.182 l 350.398 120.268 l 350.398 124.686 353.98 128.268 358.398
 128.268 c 362.816 128.268 366.398 124.686 366.398 120.268 c 366.398 7.998
 l 366.398 5.205 364.941 2.612 362.551 1.163 c 361.277 0.389 359.84 -0.002
 358.398 -0.002 c h
358.398 -0.002 m f
358.398 172.534 m 353.98 172.534 350.398 176.116 350.398 180.534 c 350.398
 393.6 l 59.199 393.6 l 59.199 316.799 l 59.199 312.381 55.617 308.799 51.199
 308.799 c 46.781 308.799 43.199 312.381 43.199 316.799 c 43.199 401.6 l
 43.199 406.018 46.781 409.6 51.199 409.6 c 358.398 409.6 l 362.816 409.6
 366.398 406.018 366.398 401.6 c 366.398 180.534 l 366.398 176.116 362.82
 172.534 358.398 172.534 c h
358.398 172.534 m f
0.980392 0.882353 0.588235 rg
204.777 335.053 m 234.129 275.623 l 299.73 266.108 l 252.273 219.827 l 
263.496 154.502 l 204.82 185.33 l 146.156 154.471 l 157.344 219.803 l 109.867
 266.057 l 175.461 275.608 l h
204.777 335.053 m f
0 g
146.156 146.467 m 144.5 146.467 142.848 146.983 141.457 147.995 c 138.992
 149.784 137.758 152.819 138.27 155.819 c 148.75 217.006 l 104.285 260.327
 l 102.102 262.452 101.316 265.631 102.258 268.526 c 103.199 271.424 105.703
 273.534 108.715 273.975 c 170.145 282.916 l 197.605 338.592 l 198.953 341.323
 201.73 343.053 204.777 343.053 c 207.824 343.053 210.605 341.327 211.953
 338.596 c 239.441 282.936 l 300.879 274.026 l 303.891 273.588 306.395 271.479
 307.336 268.58 c 308.277 265.686 307.496 262.506 305.316 260.381 c 260.871
 217.038 l 271.383 155.854 l 271.898 152.854 270.664 149.819 268.203 148.03
 c 265.738 146.237 262.473 145.998 259.777 147.416 c 204.82 176.291 l 149.883
 147.389 l 148.711 146.772 147.43 146.467 146.156 146.467 c h
127.059 260.475 m 162.926 225.534 l 164.812 223.698 165.676 221.049 165.23
 218.452 c 156.777 169.096 l 201.094 192.409 l 203.426 193.635 206.211 193.635
 208.539 192.413 c 252.871 169.123 l 244.391 218.471 l 243.945 221.069 244.805
 223.717 246.691 225.557 c 282.539 260.518 l 232.984 267.705 l 230.379 268.084
 228.125 269.721 226.961 272.08 c 204.785 316.979 l 182.637 272.069 l 181.469
 269.705 179.219 268.069 176.613 267.69 c h
127.059 260.475 m f
51.199 276.264 m 49.098 276.264 47.031 277.12 45.543 278.608 c 44.055 280.096
 43.199 282.159 43.199 284.264 c 43.199 286.377 44.055 288.432 45.543 289.928
 c 47.031 291.416 49.098 292.264 51.199 292.264 c 53.305 292.264 55.367 
291.416 56.855 289.928 c 58.344 288.432 59.199 286.37 59.199 284.264 c 59.199
 282.159 58.344 280.104 56.855 278.608 c 55.367 277.12 53.305 276.264 51.199
 276.264 c h
51.199 276.264 m f
358.398 143.202 m 356.297 143.202 354.23 144.057 352.742 145.545 c 351.258
 147.034 350.398 149.096 350.398 151.202 c 350.398 153.303 351.254 155.37
 352.742 156.858 c 354.23 158.342 356.297 159.202 358.398 159.202 c 360.504
 159.202 362.566 158.342 364.055 156.858 c 365.543 155.37 366.398 153.303
 366.398 151.202 c 366.398 149.096 365.543 147.034 364.055 145.545 c 362.566
 144.057 360.504 143.202 358.398 143.202 c h
358.398 143.202 m f
Q Q
showpage
%%Trailer
end restore
%%EOF
