%!PS-Adobe-3.0 EPSF-3.0
%%Creator: cairo 1.14.2 (http://cairographics.org)
%%CreationDate: Fri Jun 15 11:41:46 2018
%%Pages: 1
%%DocumentData: Clean7Bit
%%LanguageLevel: 2
%%BoundingBox: 0 -1 410 410
%%EndComments
%%BeginProlog
save
50 dict begin
/q { gsave } bind def
/Q { grestore } bind def
/cm { 6 array astore concat } bind def
/w { setlinewidth } bind def
/J { setlinecap } bind def
/j { setlinejoin } bind def
/M { setmiterlimit } bind def
/d { setdash } bind def
/m { moveto } bind def
/l { lineto } bind def
/c { curveto } bind def
/h { closepath } bind def
/re { exch dup neg 3 1 roll 5 3 roll moveto 0 rlineto
      0 exch rlineto 0 rlineto closepath } bind def
/S { stroke } bind def
/f { fill } bind def
/f* { eofill } bind def
/n { newpath } bind def
/W { clip } bind def
/W* { eoclip } bind def
/BT { } bind def
/ET { } bind def
/pdfmark where { pop globaldict /?pdfmark /exec load put }
    { globaldict begin /?pdfmark /pop load def /pdfmark
    /cleartomark load def end } ifelse
/BDC { mark 3 1 roll /BDC pdfmark } bind def
/EMC { mark /EMC pdfmark } bind def
/cairo_store_point { /cairo_point_y exch def /cairo_point_x exch def } def
/Tj { show currentpoint cairo_store_point } bind def
/TJ {
  {
    dup
    type /stringtype eq
    { show } { -0.001 mul 0 cairo_font_matrix dtransform rmoveto } ifelse
  } forall
  currentpoint cairo_store_point
} bind def
/cairo_selectfont { cairo_font_matrix aload pop pop pop 0 0 6 array astore
    cairo_font exch selectfont cairo_point_x cairo_point_y moveto } bind def
/Tf { pop /cairo_font exch def /cairo_font_matrix where
      { pop cairo_selectfont } if } bind def
/Td { matrix translate cairo_font_matrix matrix concatmatrix dup
      /cairo_font_matrix exch def dup 4 get exch 5 get cairo_store_point
      /cairo_font where { pop cairo_selectfont } if } bind def
/Tm { 2 copy 8 2 roll 6 array astore /cairo_font_matrix exch def
      cairo_store_point /cairo_font where { pop cairo_selectfont } if } bind def
/g { setgray } bind def
/rg { setrgbcolor } bind def
/d1 { setcachedevice } bind def
%%EndProlog
%%BeginSetup
%%EndSetup
%%Page: 1 1
%%BeginPageSetup
%%PageBoundingBox: 0 -1 410 410
%%EndPageSetup
q 0 -1 410 411 rectclip q
0.784314 0.960784 1 rg
358.395 276.791 m 51.199 276.791 l 27.344 276.791 8 257.452 8 233.592 c
 8 51.198 l 8 27.342 27.344 7.998 51.199 7.998 c 358.395 7.998 l 382.25 
7.998 401.594 27.338 401.594 51.198 c 401.594 233.596 l 401.594 257.452 
382.254 276.791 358.395 276.791 c h
358.395 276.791 m f
1 0.352941 0.352941 rg
358.395 276.791 m 51.199 276.791 l 27.344 276.791 8 257.452 8 233.592 c
 8 177.358 l 12.434 177.596 l 401.594 177.596 l 401.594 233.592 l 401.594
 257.452 382.254 276.791 358.395 276.791 c h
358.395 276.791 m f
0.470588 0.823529 0.980392 rg
291.191 142.397 m 291.191 94.682 252.512 56.002 204.797 56.002 c 157.078
 56.002 118.398 94.682 118.398 142.397 c 118.398 190.116 157.078 228.795
 204.797 228.795 c 252.512 228.795 291.191 190.116 291.191 142.397 c h
291.191 142.397 m f
1 g
257.691 142.397 m 257.691 113.186 234.008 89.502 204.797 89.502 c 175.582
 89.502 151.902 113.186 151.902 142.397 c 151.902 171.612 175.582 195.291
 204.797 195.291 c 234.008 195.291 257.691 171.612 257.691 142.397 c h
257.691 142.397 m f
0.470588 0.823529 0.980392 rg
223.996 142.397 m 223.996 131.795 215.398 123.198 204.797 123.198 c 194.191
 123.198 185.598 131.795 185.598 142.397 c 185.598 153.002 194.191 161.596
 204.797 161.596 c 215.398 161.596 223.996 153.002 223.996 142.397 c h
223.996 142.397 m f
1 0.431373 0.215686 rg
89.973 227.198 m 89.973 218.362 82.809 211.198 73.973 211.198 c 65.137 
211.198 57.977 218.362 57.977 227.198 c 57.977 236.034 65.137 243.198 73.973
 243.198 c 82.809 243.198 89.973 236.034 89.973 227.198 c h
89.973 227.198 m f
0.490196 0.607843 1 rg
79.777 305.592 m 68.164 305.592 l 59.473 305.592 52.434 298.549 52.434 
289.862 c 52.434 276.791 l 95.508 276.791 l 95.508 289.862 l 95.508 298.549
 88.465 305.592 79.777 305.592 c h
79.777 305.592 m f
0.941176 0.941176 0.980392 rg
126.945 306.323 m 119.129 276.791 l 298.324 276.791 l 290.512 306.323 l
 287.133 319.096 275.574 327.991 262.363 327.991 c 155.094 327.991 l 141.879
 327.991 130.324 319.096 126.945 306.323 c h
126.945 306.323 m f
0 g
204.797 203.194 m 171.273 203.194 144 175.92 144 142.397 c 144 108.873 
171.273 81.6 204.797 81.6 c 238.32 81.6 265.598 108.873 265.598 142.397 
c 265.598 146.815 262.012 150.397 257.598 150.397 c 253.18 150.397 249.598
 146.815 249.598 142.397 c 249.598 117.694 229.5 97.596 204.797 97.596 c
 180.094 97.596 159.996 117.694 159.996 142.397 c 159.996 167.1 180.094 
187.198 204.797 187.198 c 209.215 187.198 212.797 190.776 212.797 195.198
 c 212.797 199.616 209.215 203.194 204.797 203.194 c h
204.797 203.194 m f
177.598 142.397 m 177.598 127.397 189.801 115.198 204.797 115.198 c 219.793
 115.198 231.996 127.397 231.996 142.397 c 231.996 157.393 219.793 169.596
 204.797 169.596 c 189.801 169.596 177.598 157.393 177.598 142.397 c h
215.996 142.397 m 215.996 136.221 210.973 131.198 204.797 131.198 c 198.621
 131.198 193.598 136.221 193.598 142.397 c 193.598 148.573 198.621 153.596
 204.797 153.596 c 210.973 153.596 215.996 148.573 215.996 142.397 c h
215.996 142.397 m f
401.594 84.799 m 397.176 84.799 393.594 81.217 393.594 76.799 c 393.594
 51.198 l 393.594 31.791 377.801 15.998 358.395 15.998 c 51.199 15.998 l
 31.793 15.998 16 31.791 16 51.198 c 16 169.596 l 114.43 169.596 l 111.801
 160.897 110.398 151.752 110.398 142.397 c 110.398 90.346 152.746 47.998
 204.797 47.998 c 256.848 47.998 299.195 90.346 299.195 142.397 c 299.195
 151.776 297.809 160.916 295.207 169.596 c 393.594 169.596 l 393.594 146.795
 l 393.594 142.377 397.176 138.795 401.594 138.795 c 406.008 138.795 409.594
 142.377 409.594 146.795 c 409.594 233.596 l 409.594 261.827 386.625 284.791
 358.395 284.791 c 304.484 284.791 l 298.246 308.37 l 293.941 324.631 279.191
 335.991 262.367 335.991 c 155.094 335.991 l 138.27 335.991 123.516 324.631
 119.211 308.37 c 112.973 284.791 l 103.508 284.791 l 103.508 289.862 l 
103.508 302.948 92.863 313.592 79.777 313.592 c 68.164 313.592 l 55.078 
313.592 44.434 302.948 44.434 289.862 c 44.434 284.33 l 19.391 281.006 0.004
 259.53 0.004 233.596 c 0.004 51.198 l 0.004 22.967 22.969 -0.002 51.203
 -0.002 c 358.395 -0.002 l 386.625 -0.002 409.594 22.967 409.594 51.198 
c 409.594 76.799 l 409.594 81.217 406.012 84.799 401.594 84.799 c h
134.68 304.276 m 137.129 313.53 145.523 319.995 155.094 319.995 c 262.367
 319.995 l 271.938 319.995 280.332 313.53 282.781 304.276 c 287.934 284.795
 l 129.523 284.795 l h
60.434 289.862 m 60.434 294.127 63.898 297.592 68.164 297.592 c 79.777 
297.592 l 84.043 297.592 87.508 294.127 87.508 289.862 c 87.508 284.795 
l 60.434 284.795 l h
51.199 268.791 m 358.395 268.791 l 377.801 268.791 393.594 253.002 393.594
 233.592 c 393.594 185.596 l 288.762 185.596 l 278.898 204.772 262.551 220.405
 241.844 229.245 c 237.781 230.979 233.078 229.096 231.344 225.03 c 229.609
 220.967 231.496 216.268 235.559 214.53 c 264.496 202.174 283.195 173.858
 283.195 142.397 c 283.195 99.166 248.027 63.998 204.797 63.998 c 161.57
 63.998 126.398 99.166 126.398 142.397 c 126.398 173.038 144.422 201.057
 172.316 213.772 c 176.336 215.604 178.109 220.35 176.277 224.37 c 174.445
 228.389 169.699 230.163 165.68 228.33 c 146.035 219.373 130.465 204.108
 120.918 185.596 c 16.004 185.596 l 16.004 233.596 l 16.004 253.002 31.793
 268.791 51.199 268.791 c h
51.199 268.791 m f
73.973 203.194 m 87.203 203.194 97.969 213.963 97.969 227.194 c 97.969 
240.428 87.203 251.194 73.973 251.194 c 60.738 251.194 49.973 240.428 49.973
 227.194 c 49.973 213.963 60.738 203.194 73.973 203.194 c h
73.973 235.194 m 78.383 235.194 81.973 231.604 81.973 227.194 c 81.973 
222.784 78.383 219.194 73.973 219.194 c 69.559 219.194 65.973 222.784 65.973
 227.194 c 65.973 231.604 69.562 235.194 73.973 235.194 c h
73.973 235.194 m f
327.16 219.194 m 347.871 219.194 l 352.289 219.194 355.871 222.776 355.871
 227.194 c 355.871 231.612 352.289 235.194 347.871 235.194 c 327.16 235.194
 l 322.742 235.194 319.16 231.612 319.16 227.194 c 319.16 222.776 322.742
 219.194 327.16 219.194 c h
327.16 219.194 m f
204.707 355.112 m 209.125 355.112 212.707 358.694 212.707 363.112 c 212.707
 401.6 l 212.707 406.018 209.125 409.6 204.707 409.6 c 200.289 409.6 196.707
 406.018 196.707 401.6 c 196.707 363.112 l 196.707 358.694 200.289 355.112
 204.707 355.112 c h
204.707 355.112 m f
260.031 346.381 m 262.078 346.381 264.125 347.166 265.688 348.725 c 281.395
 364.432 l 284.52 367.553 284.52 372.62 281.395 375.745 c 278.27 378.87 
273.207 378.87 270.078 375.745 c 254.375 360.041 l 251.25 356.916 251.25
 351.85 254.375 348.725 c 255.938 347.163 257.984 346.381 260.031 346.381
 c h
260.031 346.381 m f
144.008 348.44 m 145.57 346.877 147.617 346.096 149.664 346.096 c 151.711
 346.096 153.758 346.877 155.32 348.44 c 158.445 351.565 158.445 356.631
 155.32 359.756 c 139.617 375.459 l 136.492 378.58 131.43 378.58 128.305
 375.459 c 125.18 372.334 125.18 367.268 128.305 364.143 c h
144.008 348.44 m f
204.801 220.795 m 206.906 220.795 208.961 221.651 210.457 223.139 c 211.945
 224.627 212.793 226.69 212.793 228.795 c 212.793 230.897 211.945 232.963
 210.457 234.452 c 208.961 235.94 206.906 236.795 204.801 236.795 c 202.691
 236.795 200.625 235.94 199.137 234.452 c 197.652 232.963 196.793 230.897
 196.793 228.795 c 196.793 226.69 197.648 224.627 199.137 223.139 c 200.633
 221.651 202.691 220.795 204.801 220.795 c h
204.801 220.795 m f
401.59 118.795 m 399.484 118.795 397.422 117.94 395.934 116.452 c 394.445
 114.963 393.59 112.901 393.59 110.795 c 393.59 108.694 394.445 106.627 
395.934 105.139 c 397.422 103.655 399.484 102.795 401.59 102.795 c 403.703
 102.795 405.758 103.655 407.246 105.139 c 408.742 106.627 409.598 108.694
 409.598 110.795 c 409.598 112.901 408.742 114.963 407.246 116.452 c 405.758
 117.94 403.699 118.795 401.59 118.795 c h
401.59 118.795 m f
Q Q
showpage
%%Trailer
end restore
%%EOF
