%!PS-Adobe-3.0 EPSF-3.0
%%Creator: cairo 1.14.2 (http://cairographics.org)
%%CreationDate: Fri Jun 15 11:41:46 2018
%%Pages: 1
%%DocumentData: Clean7Bit
%%LanguageLevel: 2
%%BoundingBox: 0 28 410 381
%%EndComments
%%BeginProlog
save
50 dict begin
/q { gsave } bind def
/Q { grestore } bind def
/cm { 6 array astore concat } bind def
/w { setlinewidth } bind def
/J { setlinecap } bind def
/j { setlinejoin } bind def
/M { setmiterlimit } bind def
/d { setdash } bind def
/m { moveto } bind def
/l { lineto } bind def
/c { curveto } bind def
/h { closepath } bind def
/re { exch dup neg 3 1 roll 5 3 roll moveto 0 rlineto
      0 exch rlineto 0 rlineto closepath } bind def
/S { stroke } bind def
/f { fill } bind def
/f* { eofill } bind def
/n { newpath } bind def
/W { clip } bind def
/W* { eoclip } bind def
/BT { } bind def
/ET { } bind def
/pdfmark where { pop globaldict /?pdfmark /exec load put }
    { globaldict begin /?pdfmark /pop load def /pdfmark
    /cleartomark load def end } ifelse
/BDC { mark 3 1 roll /BDC pdfmark } bind def
/EMC { mark /EMC pdfmark } bind def
/cairo_store_point { /cairo_point_y exch def /cairo_point_x exch def } def
/Tj { show currentpoint cairo_store_point } bind def
/TJ {
  {
    dup
    type /stringtype eq
    { show } { -0.001 mul 0 cairo_font_matrix dtransform rmoveto } ifelse
  } forall
  currentpoint cairo_store_point
} bind def
/cairo_selectfont { cairo_font_matrix aload pop pop pop 0 0 6 array astore
    cairo_font exch selectfont cairo_point_x cairo_point_y moveto } bind def
/Tf { pop /cairo_font exch def /cairo_font_matrix where
      { pop cairo_selectfont } if } bind def
/Td { matrix translate cairo_font_matrix matrix concatmatrix dup
      /cairo_font_matrix exch def dup 4 get exch 5 get cairo_store_point
      /cairo_font where { pop cairo_selectfont } if } bind def
/Tm { 2 copy 8 2 roll 6 array astore /cairo_font_matrix exch def
      cairo_store_point /cairo_font where { pop cairo_selectfont } if } bind def
/g { setgray } bind def
/rg { setrgbcolor } bind def
/d1 { setcachedevice } bind def
%%EndProlog
%%BeginSetup
%%EndSetup
%%Page: 1 1
%%BeginPageSetup
%%PageBoundingBox: 0 28 410 381
%%EndPageSetup
q 0 28 410 353 rectclip q
0.843137 0.980392 0.568627 rg
229.273 57.413 m 284.297 25.647 354.586 44.373 386.266 99.248 c 400.137
 123.272 404.305 150.245 399.992 175.643 c 400.051 175.608 l 379.52 318.463
 l 256.004 268.807 l h
229.273 57.413 m f
0.647059 0.862745 0.411765 rg
26.262 111.045 m 63.996 45.694 147.707 23.389 213.238 61.225 c 278.773 
99.057 301.309 182.709 263.578 248.061 c 247.223 276.393 222.223 296.623
 193.812 307.385 c 193.82 307.389 l 34.297 372.131 l 9.844 201.995 l 9.914
 202.034 l 4.777 171.784 9.742 139.663 26.262 111.045 c h
26.262 111.045 m f
0 g
408.043 176.014 m 408.027 176.256 408.004 176.502 407.969 176.748 c 387.441
 319.604 l 387.09 322.034 385.645 324.17 383.516 325.397 c 381.391 326.623
 378.816 326.803 376.535 325.889 c 282.055 287.901 l 277.953 286.256 275.969
 281.596 277.613 277.495 c 279.262 273.393 283.926 271.409 288.023 273.057
 c 373.051 307.241 l 391.996 175.42 l 392.004 175.049 392.043 174.674 392.105
 174.303 c 396.246 149.916 391.711 124.682 379.336 103.248 c 365.086 78.565
 342.047 60.92 314.465 53.573 c 286.871 46.221 258.039 50.045 233.273 64.342
 c 233.102 64.44 232.926 64.526 232.75 64.608 c 238.062 68.643 243.055 73.014
 247.715 77.686 c 341.375 102.784 l 345.645 103.928 348.176 108.315 347.035
 112.58 c 345.891 116.85 341.5 119.385 337.234 118.241 c 265.168 98.928 
l 273.086 110.709 279.281 123.702 283.516 137.604 c 347.812 154.83 l 352.082
 155.975 354.613 160.362 353.469 164.631 c 352.328 168.897 347.938 171.432
 343.672 170.288 c 296.359 157.612 l 314.152 188.424 l 351.746 198.498 l
 356.016 199.643 358.547 204.03 357.406 208.299 c 356.262 212.565 351.871
 215.1 347.605 213.955 c 325.465 208.022 l 342.492 237.51 l 344.699 241.338
 343.391 246.229 339.562 248.44 c 335.734 250.647 330.844 249.338 328.633
 245.51 c 311.609 216.026 l 305.676 238.166 l 304.531 242.432 300.145 244.967
 295.879 243.823 c 291.609 242.678 289.078 238.291 290.223 234.022 c 300.293
 196.428 l 289.887 178.397 l 290.191 204.006 283.641 229.315 270.504 252.065
 c 253.969 280.709 227.867 302.955 196.98 314.741 c 196.93 314.76 196.879
 314.784 196.828 314.803 c 160.625 329.498 l 156.527 331.159 151.867 329.186
 150.203 325.092 c 148.543 320.998 150.516 316.33 154.609 314.67 c 190.48
 300.112 l 190.645 300.038 190.809 299.967 190.977 299.905 c 218.566 289.455
 241.891 269.623 256.648 244.065 c 273.824 214.311 278.355 179.631 269.406
 146.409 c 261.148 115.764 242.328 89.752 216.039 72.373 c 202.613 95.627
 l 231.723 204.264 l 232.867 208.534 230.336 212.92 226.066 214.065 c 221.793
 215.205 217.41 212.674 216.266 208.405 c 191.301 115.225 l 161.68 166.53
 l 181.875 241.897 l 183.02 246.163 180.484 250.549 176.219 251.694 c 171.945
 252.838 167.562 250.303 166.418 246.038 c 150.367 186.127 l 127.016 226.569
 l 139.18 271.955 l 140.324 276.225 137.789 280.612 133.52 281.756 c 129.25
 282.901 124.867 280.366 123.723 276.1 c 115.699 246.166 l 93.582 284.479
 l 91.371 288.307 86.477 289.62 82.652 287.409 c 78.824 285.198 77.512 280.307
 79.723 276.479 c 101.844 238.166 l 71.914 246.186 l 67.645 247.33 63.258
 244.795 62.113 240.53 c 60.969 236.26 63.504 231.873 67.773 230.729 c 113.16
 218.569 l 136.508 178.123 l 76.602 194.178 l 72.332 195.323 67.945 192.788
 66.801 188.518 c 65.656 184.252 68.191 179.866 72.461 178.721 c 147.824
 158.526 l 177.445 107.221 l 84.266 132.19 l 79.996 133.33 75.609 130.799
 74.465 126.53 c 73.324 122.26 75.855 117.873 80.125 116.733 c 188.762 87.623
 l 202.188 64.37 l 141.727 34.237 67.32 55.94 33.195 115.045 c 18.277 140.881
 12.812 171.299 17.805 200.69 c 17.875 201.088 17.91 201.483 17.914 201.877
 c 40.762 360.873 l 93.762 339.362 l 97.859 337.702 102.523 339.674 104.184
 343.768 c 105.844 347.862 103.875 352.53 99.777 354.19 c 37.305 379.545
 l 35.027 380.471 32.445 380.295 30.312 379.073 c 28.18 377.846 26.727 375.705
 26.375 373.272 c 1.926 203.131 l 1.887 202.862 1.863 202.592 1.852 202.323
 c -3.457 169.588 2.734 135.799 19.336 107.045 c 46.066 60.748 94.77 34.85
 144.836 34.85 c 166.949 34.85 189.324 39.924 210.191 50.498 c 220.023 33.467
 l 221.508 30.901 224.195 29.467 226.961 29.467 c 228.316 29.467 229.695
 29.811 230.953 30.541 c 234.781 32.748 236.094 37.643 233.883 41.467 c 
230.234 47.784 l 247.914 38.608 267.195 33.913 286.711 33.913 c 297.34 33.913
 308.043 35.299 318.586 38.112 c 350.305 46.565 376.805 66.858 393.195 95.248
 c 407.266 119.62 412.523 148.264 408.043 176.014 c h
408.043 176.014 m f
126.551 326.686 m 128.656 326.686 130.719 327.541 132.207 329.03 c 133.703
 330.526 134.551 332.588 134.551 334.694 c 134.551 336.799 133.703 338.854
 132.207 340.35 c 130.719 341.838 128.656 342.694 126.551 342.694 c 124.445
 342.694 122.383 341.838 120.895 340.35 c 119.406 338.854 118.551 336.799
 118.551 334.694 c 118.551 332.58 119.406 330.526 120.895 329.03 c 122.383
 327.541 124.445 326.686 126.551 326.686 c h
126.551 326.686 m f
342.16 260.705 m 343.723 258.549 346.164 257.405 348.641 257.405 c 350.27
 257.405 351.914 257.901 353.336 258.932 c 356.91 261.53 357.703 266.534
 355.105 270.108 c 355.059 270.17 l 352.461 273.748 347.457 274.541 343.883
 271.944 c 340.309 269.346 339.516 264.342 342.109 260.768 c h
342.16 260.705 m f
Q Q
showpage
%%Trailer
end restore
%%EOF
