%!PS-Adobe-3.0 EPSF-3.0
%%Creator: cairo 1.14.2 (http://cairographics.org)
%%CreationDate: Fri Jun 15 11:41:46 2018
%%Pages: 1
%%DocumentData: Clean7Bit
%%LanguageLevel: 2
%%BoundingBox: 0 17 410 393
%%EndComments
%%BeginProlog
save
50 dict begin
/q { gsave } bind def
/Q { grestore } bind def
/cm { 6 array astore concat } bind def
/w { setlinewidth } bind def
/J { setlinecap } bind def
/j { setlinejoin } bind def
/M { setmiterlimit } bind def
/d { setdash } bind def
/m { moveto } bind def
/l { lineto } bind def
/c { curveto } bind def
/h { closepath } bind def
/re { exch dup neg 3 1 roll 5 3 roll moveto 0 rlineto
      0 exch rlineto 0 rlineto closepath } bind def
/S { stroke } bind def
/f { fill } bind def
/f* { eofill } bind def
/n { newpath } bind def
/W { clip } bind def
/W* { eoclip } bind def
/BT { } bind def
/ET { } bind def
/pdfmark where { pop globaldict /?pdfmark /exec load put }
    { globaldict begin /?pdfmark /pop load def /pdfmark
    /cleartomark load def end } ifelse
/BDC { mark 3 1 roll /BDC pdfmark } bind def
/EMC { mark /EMC pdfmark } bind def
/cairo_store_point { /cairo_point_y exch def /cairo_point_x exch def } def
/Tj { show currentpoint cairo_store_point } bind def
/TJ {
  {
    dup
    type /stringtype eq
    { show } { -0.001 mul 0 cairo_font_matrix dtransform rmoveto } ifelse
  } forall
  currentpoint cairo_store_point
} bind def
/cairo_selectfont { cairo_font_matrix aload pop pop pop 0 0 6 array astore
    cairo_font exch selectfont cairo_point_x cairo_point_y moveto } bind def
/Tf { pop /cairo_font exch def /cairo_font_matrix where
      { pop cairo_selectfont } if } bind def
/Td { matrix translate cairo_font_matrix matrix concatmatrix dup
      /cairo_font_matrix exch def dup 4 get exch 5 get cairo_store_point
      /cairo_font where { pop cairo_selectfont } if } bind def
/Tm { 2 copy 8 2 roll 6 array astore /cairo_font_matrix exch def
      cairo_store_point /cairo_font where { pop cairo_selectfont } if } bind def
/g { setgray } bind def
/rg { setrgbcolor } bind def
/d1 { setcachedevice } bind def
%%EndProlog
%%BeginSetup
%%EndSetup
%%Page: 1 1
%%BeginPageSetup
%%PageBoundingBox: 0 17 410 393
%%EndPageSetup
q 0 17 410 376 rectclip q
1 0.568627 0.333333 rg
401.602 251.483 m 401.602 313.334 l 401.602 327.471 390.137 338.932 376
 338.932 c 349.668 338.932 l 349.668 251.483 l 401.602 251.483 l f
8 259.549 m 8 358.393 l 8 372.534 19.461 383.995 33.602 383.995 c 118.664
 383.995 l 157.602 338.932 l 220 338.932 l 220 259.549 l 8 259.549 l f
0.960784 0.784314 0.431373 rg
33.602 294.405 m 376 294.405 l 390.137 294.405 401.602 282.944 401.602 
268.803 c 401.602 51.205 l 401.602 37.065 390.137 25.604 376 25.604 c 33.602
 25.604 l 19.461 25.604 8 37.065 8 51.205 c 8 268.803 l 8 282.944 19.461
 294.405 33.602 294.405 c h
33.602 294.405 m f
1 g
230.555 219.205 m 304 219.205 l 314.605 219.205 323.199 210.608 323.199
 200.002 c 323.199 120.006 l 323.199 109.401 314.605 100.803 304 100.803
 c 105.602 100.803 l 94.996 100.803 86.398 109.401 86.398 120.006 c 86.398
 200.002 l 86.398 210.608 94.996 219.205 105.602 219.205 c 176.258 219.205
 l f
363.406 294.405 m 322.512 383.87 l 126.734 294.381 l h
363.406 294.405 m f
0 g
277.199 187.205 m 132.398 187.205 l 127.98 187.205 124.398 183.623 124.398
 179.205 c 124.398 174.788 127.98 171.205 132.398 171.205 c 277.199 171.205
 l 281.617 171.205 285.199 174.788 285.199 179.205 c 285.199 183.623 281.617
 187.205 277.199 187.205 c h
277.199 187.205 m f
132.398 148.803 m 127.98 148.803 124.398 145.225 124.398 140.803 c 124.398
 136.385 127.98 132.803 132.398 132.803 c 244.398 132.803 l 248.82 132.803
 252.398 136.385 252.398 140.803 c 252.398 145.225 248.82 148.803 244.398
 148.803 c h
132.398 148.803 m f
276.812 148.803 m 276.723 148.803 l 272.305 148.803 268.723 145.225 268.723
 140.803 c 268.723 136.385 272.305 132.803 276.723 132.803 c 276.812 132.803
 l 281.23 132.803 284.812 136.385 284.812 140.803 c 284.812 145.225 281.23
 148.803 276.812 148.803 c h
276.812 148.803 m f
203.754 211.205 m 203.859 211.205 l 208.277 211.205 211.859 214.788 211.859
 219.205 c 211.859 223.623 208.277 227.205 203.859 227.205 c 203.754 227.205
 l 199.336 227.205 195.754 223.623 195.754 219.205 c 195.754 214.788 199.336
 211.205 203.754 211.205 c h
203.754 211.205 m f
304 227.205 m 230.555 227.205 l 226.137 227.205 222.555 223.623 222.555
 219.205 c 222.555 214.788 226.137 211.205 230.555 211.205 c 304 211.205
 l 310.176 211.205 315.199 206.178 315.199 200.002 c 315.199 120.002 l 315.199
 113.827 310.176 108.803 304 108.803 c 105.602 108.803 l 99.426 108.803 
94.398 113.827 94.398 120.002 c 94.398 200.002 l 94.398 206.178 99.426 211.205
 105.602 211.205 c 176.258 211.205 l 180.676 211.205 184.258 214.788 184.258
 219.205 c 184.258 223.623 180.676 227.205 176.258 227.205 c 105.602 227.205
 l 90.602 227.205 78.398 215.002 78.398 200.002 c 78.398 120.002 l 78.398
 105.006 90.602 92.803 105.602 92.803 c 304 92.803 l 319 92.803 331.199 
105.006 331.199 120.002 c 331.199 200.002 l 331.199 215.002 319 227.205 
304 227.205 c h
304 227.205 m f
376 346.932 m 349.668 346.932 l 349.184 346.932 348.711 346.881 348.25 
346.799 c 329.785 387.198 l 328.902 389.127 327.293 390.627 325.301 391.366
 c 323.316 392.108 321.113 392.03 319.184 391.147 c 221.926 346.69 l 221.309
 346.842 220.664 346.932 220 346.932 c 161.262 346.932 l 124.719 389.225
 l 123.199 390.983 120.988 391.995 118.664 391.995 c 33.602 391.995 l 15.074
 391.995 0 376.92 0 358.393 c 0 51.205 l 0 32.678 15.074 17.604 33.602 17.604
 c 376 17.604 l 394.527 17.604 409.602 32.678 409.602 51.205 c 409.602 313.334
 l 409.602 331.862 394.527 346.932 376 346.932 c h
376 330.932 m 385.703 330.932 393.602 323.038 393.602 313.334 c 393.602
 297.409 l 388.477 300.573 382.449 302.405 376 302.405 c 368.543 302.405
 l 355.504 330.932 l h
350.953 302.405 m 163.531 302.405 l 318.559 373.268 l h
33.602 375.995 m 115.004 375.995 l 151.547 333.702 l 153.066 331.944 155.277
 330.932 157.602 330.932 c 187.457 330.932 l 125.043 302.405 l 33.602 302.405
 l 27.152 302.405 21.121 300.573 16 297.409 c 16 358.393 l 16 368.1 23.895
 375.995 33.602 375.995 c h
393.602 51.205 m 393.602 41.498 385.703 33.604 376 33.604 c 33.602 33.604
 l 23.895 33.604 16 41.498 16 51.205 c 16 268.803 l 16 278.51 23.895 286.405
 33.602 286.405 c 126.363 286.405 l 126.488 286.397 126.613 286.377 126.738
 286.377 c 126.906 286.377 127.074 286.393 127.242 286.405 c 376 286.405
 l 385.703 286.405 393.602 278.51 393.602 268.803 c h
393.602 51.205 m f
Q Q
showpage
%%Trailer
end restore
%%EOF
