%!PS-Adobe-3.0 EPSF-3.0
%%Creator: cairo 1.14.2 (http://cairographics.org)
%%CreationDate: Fri Jun 15 11:41:46 2018
%%Pages: 1
%%DocumentData: Clean7Bit
%%LanguageLevel: 2
%%BoundingBox: 0 32 410 378
%%EndComments
%%BeginProlog
save
50 dict begin
/q { gsave } bind def
/Q { grestore } bind def
/cm { 6 array astore concat } bind def
/w { setlinewidth } bind def
/J { setlinecap } bind def
/j { setlinejoin } bind def
/M { setmiterlimit } bind def
/d { setdash } bind def
/m { moveto } bind def
/l { lineto } bind def
/c { curveto } bind def
/h { closepath } bind def
/re { exch dup neg 3 1 roll 5 3 roll moveto 0 rlineto
      0 exch rlineto 0 rlineto closepath } bind def
/S { stroke } bind def
/f { fill } bind def
/f* { eofill } bind def
/n { newpath } bind def
/W { clip } bind def
/W* { eoclip } bind def
/BT { } bind def
/ET { } bind def
/pdfmark where { pop globaldict /?pdfmark /exec load put }
    { globaldict begin /?pdfmark /pop load def /pdfmark
    /cleartomark load def end } ifelse
/BDC { mark 3 1 roll /BDC pdfmark } bind def
/EMC { mark /EMC pdfmark } bind def
/cairo_store_point { /cairo_point_y exch def /cairo_point_x exch def } def
/Tj { show currentpoint cairo_store_point } bind def
/TJ {
  {
    dup
    type /stringtype eq
    { show } { -0.001 mul 0 cairo_font_matrix dtransform rmoveto } ifelse
  } forall
  currentpoint cairo_store_point
} bind def
/cairo_selectfont { cairo_font_matrix aload pop pop pop 0 0 6 array astore
    cairo_font exch selectfont cairo_point_x cairo_point_y moveto } bind def
/Tf { pop /cairo_font exch def /cairo_font_matrix where
      { pop cairo_selectfont } if } bind def
/Td { matrix translate cairo_font_matrix matrix concatmatrix dup
      /cairo_font_matrix exch def dup 4 get exch 5 get cairo_store_point
      /cairo_font where { pop cairo_selectfont } if } bind def
/Tm { 2 copy 8 2 roll 6 array astore /cairo_font_matrix exch def
      cairo_store_point /cairo_font where { pop cairo_selectfont } if } bind def
/g { setgray } bind def
/rg { setrgbcolor } bind def
/d1 { setcachedevice } bind def
%%EndProlog
%%BeginSetup
%%EndSetup
%%Page: 1 1
%%BeginPageSetup
%%PageBoundingBox: 0 32 410 378
%%EndPageSetup
q 0 32 410 346 rectclip q
0.666667 0.901961 1 rg
32.988 115.975 m 344.613 115.975 l 358.414 115.975 369.602 127.163 369.602
 140.963 c 369.602 343.811 l 369.602 357.612 358.41 368.799 344.609 368.799
 c 32.988 368.799 l 19.188 368.799 8 357.612 8 343.811 c 8 140.963 l 8 127.163
 19.188 115.975 32.988 115.975 c h
32.988 115.975 m f
0.745098 g
8 319.202 361.602 -61.602 re f
0.901961 0.666667 0.27451 rg
145.238 187.026 m 145.238 169.166 130.762 154.69 112.902 154.69 c 95.047
 154.69 80.566 169.166 80.566 187.026 c 80.566 204.881 95.047 219.362 112.902
 219.362 c 130.762 219.362 145.238 204.881 145.238 187.026 c h
145.238 187.026 m f
1 0.352941 0.352941 rg
104.91 187.026 m 104.91 169.166 90.434 154.69 72.574 154.69 c 54.719 154.69
 40.238 169.166 40.238 187.026 c 40.238 204.881 54.719 219.362 72.574 219.362
 c 90.434 219.362 104.91 204.881 104.91 187.026 c h
104.91 187.026 m f
0.980392 0.882353 0.588235 rg
80.566 187.026 m 80.566 176.795 85.324 167.682 92.738 161.756 c 100.156
 167.682 104.914 176.795 104.914 187.026 c 104.914 197.256 100.156 206.373
 92.738 212.299 c 85.324 206.373 80.566 197.256 80.566 187.026 c h
80.566 187.026 m f
0.960784 0.784314 0.431373 rg
401.602 135.202 m 401.602 83.065 359.336 40.799 307.199 40.799 c 255.062
 40.799 212.801 83.065 212.801 135.202 c 212.801 187.334 255.062 229.6 307.199
 229.6 c 359.336 229.6 401.602 187.334 401.602 135.202 c h
401.602 135.202 m f
0 g
112.906 227.366 m 105.562 227.366 98.676 225.381 92.738 221.94 c 86.801
 225.381 79.918 227.366 72.574 227.366 c 50.332 227.366 32.234 209.268 32.234
 187.026 c 32.234 164.784 50.332 146.69 72.574 146.69 c 79.918 146.69 86.805
 148.67 92.738 152.112 c 98.676 148.67 105.562 146.69 112.906 146.69 c 135.148
 146.69 153.242 164.784 153.242 187.026 c 153.242 209.268 135.148 227.366
 112.906 227.366 c h
92.738 173.413 m 90.105 177.303 88.566 181.987 88.566 187.026 c 88.566 
192.065 90.105 196.752 92.738 200.639 c 95.371 196.752 96.914 192.065 96.914
 187.026 c 96.914 181.987 95.371 177.303 92.738 173.413 c h
48.234 187.026 m 48.234 200.448 59.152 211.366 72.574 211.366 c 75.141 
211.366 77.613 210.963 79.938 210.225 c 75.301 203.659 72.566 195.659 72.566
 187.026 c 72.566 178.397 75.301 170.397 79.938 163.83 c 77.613 163.092 
75.141 162.69 72.574 162.69 c 59.152 162.69 48.234 173.608 48.234 187.026
 c h
112.906 162.69 m 110.34 162.69 107.867 163.092 105.543 163.83 c 110.18 
170.397 112.91 178.397 112.91 187.026 c 112.91 195.659 110.18 203.659 105.543
 210.225 c 107.867 210.963 110.34 211.366 112.906 211.366 c 126.324 211.366
 137.242 200.448 137.242 187.026 c 137.242 173.608 126.324 162.69 112.906
 162.69 c h
112.906 162.69 m f
377.551 209.538 m 377.582 209.823 377.602 210.108 377.602 210.401 c 377.602
 343.811 l 377.602 362.002 362.801 376.799 344.609 376.799 c 222.133 376.799
 l 217.715 376.799 214.133 373.217 214.133 368.799 c 214.133 364.381 217.715
 360.799 222.133 360.799 c 344.609 360.799 l 353.98 360.799 361.602 353.178
 361.602 343.811 c 361.602 327.202 l 16 327.202 l 16 343.811 l 16 353.178
 23.621 360.799 32.988 360.799 c 155.199 360.799 l 159.617 360.799 163.199
 364.381 163.199 368.799 c 163.199 373.217 159.617 376.799 155.199 376.799
 c 32.988 376.799 l 14.801 376.799 0 362.002 0 343.811 c 0 140.963 l 0 122.772
 14.801 107.975 32.988 107.975 c 208.516 107.975 l 217.211 76.659 240.57
 50.522 271.992 39.014 c 272.898 38.682 273.828 38.526 274.742 38.526 c 
278.004 38.526 281.066 40.538 282.254 43.776 c 283.773 47.928 281.641 52.522
 277.492 54.041 c 243.582 66.455 220.801 99.073 220.801 135.202 c 220.801
 182.842 259.559 221.6 307.199 221.6 c 354.84 221.6 393.602 182.842 393.602
 135.202 c 393.602 99.678 372.297 68.186 339.332 54.971 c 335.23 53.327 
333.238 48.67 334.883 44.569 c 336.527 40.467 341.184 38.475 345.285 40.12
 c 364.055 47.643 380.059 60.452 391.574 77.159 c 403.367 94.272 409.602
 114.342 409.602 135.202 c 409.602 164.444 397.277 190.862 377.551 209.538
 c h
361.602 311.202 m 361.602 265.6 l 16 265.6 l 16 311.202 l h
204.801 135.202 m 204.801 131.42 205.023 127.674 205.434 123.975 c 32.988
 123.975 l 23.621 123.975 16 131.596 16 140.963 c 16 249.6 l 361.602 249.6
 l 361.602 221.916 l 345.828 231.846 327.176 237.6 307.199 237.6 c 250.734
 237.6 204.801 191.663 204.801 135.202 c h
204.801 135.202 m f
341.902 110.217 m 341.902 127.995 326.336 142.455 307.199 142.455 c 296.887
 142.455 288.496 149.737 288.496 158.69 c 288.496 167.639 296.887 174.924
 307.199 174.924 c 317.512 174.924 325.902 167.639 325.902 158.69 c 325.902
 154.268 329.484 150.69 333.902 150.69 c 338.32 150.69 341.902 154.268 341.902
 158.69 c 341.902 173.905 330.488 186.682 315.199 190.049 c 315.199 197.932
 l 315.199 202.35 311.617 205.932 307.199 205.932 c 302.781 205.932 299.199
 202.35 299.199 197.932 c 299.199 190.049 l 283.91 186.682 272.496 173.905
 272.496 158.69 c 272.496 140.913 288.066 126.455 307.199 126.455 c 317.512
 126.455 325.902 119.17 325.902 110.217 c 325.902 101.268 317.512 93.983
 307.199 93.983 c 296.887 93.983 288.496 101.268 288.496 110.217 c 288.496
 114.635 284.914 118.217 280.496 118.217 c 276.078 118.217 272.496 114.635
 272.496 110.217 c 272.496 95.002 283.91 82.225 299.199 78.858 c 299.199
 72.467 l 299.199 68.045 302.781 64.467 307.199 64.467 c 311.617 64.467 
315.199 68.045 315.199 72.467 c 315.199 78.858 l 330.492 82.225 341.902 
95.002 341.902 110.217 c h
341.902 110.217 m f
307.199 48.799 m 305.098 48.799 303.031 47.944 301.543 46.455 c 300.055
 44.967 299.199 42.905 299.199 40.799 c 299.199 38.698 300.055 36.631 301.543
 35.143 c 303.031 33.655 305.098 32.799 307.199 32.799 c 309.305 32.799 
311.367 33.655 312.855 35.143 c 314.344 36.631 315.199 38.698 315.199 40.799
 c 315.199 42.905 314.344 44.967 312.855 46.455 c 311.367 47.944 309.305
 48.799 307.199 48.799 c h
307.199 48.799 m f
190.664 360.799 m 192.777 360.799 194.832 361.655 196.328 363.143 c 197.816
 364.631 198.664 366.698 198.664 368.799 c 198.664 370.905 197.816 372.967
 196.328 374.455 c 194.832 375.944 192.777 376.799 190.664 376.799 c 188.559
 376.799 186.496 375.944 185.008 374.455 c 183.52 372.967 182.664 370.905
 182.664 368.799 c 182.664 366.698 183.52 364.631 185.008 363.143 c 186.496
 361.655 188.559 360.799 190.664 360.799 c h
190.664 360.799 m f
Q Q
showpage
%%Trailer
end restore
%%EOF
