%!PS-Adobe-3.0 EPSF-3.0
%%Creator: cairo 1.14.2 (http://cairographics.org)
%%CreationDate: Fri Jun 15 11:41:46 2018
%%Pages: 1
%%DocumentData: Clean7Bit
%%LanguageLevel: 2
%%BoundingBox: 0 -1 410 410
%%EndComments
%%BeginProlog
save
50 dict begin
/q { gsave } bind def
/Q { grestore } bind def
/cm { 6 array astore concat } bind def
/w { setlinewidth } bind def
/J { setlinecap } bind def
/j { setlinejoin } bind def
/M { setmiterlimit } bind def
/d { setdash } bind def
/m { moveto } bind def
/l { lineto } bind def
/c { curveto } bind def
/h { closepath } bind def
/re { exch dup neg 3 1 roll 5 3 roll moveto 0 rlineto
      0 exch rlineto 0 rlineto closepath } bind def
/S { stroke } bind def
/f { fill } bind def
/f* { eofill } bind def
/n { newpath } bind def
/W { clip } bind def
/W* { eoclip } bind def
/BT { } bind def
/ET { } bind def
/pdfmark where { pop globaldict /?pdfmark /exec load put }
    { globaldict begin /?pdfmark /pop load def /pdfmark
    /cleartomark load def end } ifelse
/BDC { mark 3 1 roll /BDC pdfmark } bind def
/EMC { mark /EMC pdfmark } bind def
/cairo_store_point { /cairo_point_y exch def /cairo_point_x exch def } def
/Tj { show currentpoint cairo_store_point } bind def
/TJ {
  {
    dup
    type /stringtype eq
    { show } { -0.001 mul 0 cairo_font_matrix dtransform rmoveto } ifelse
  } forall
  currentpoint cairo_store_point
} bind def
/cairo_selectfont { cairo_font_matrix aload pop pop pop 0 0 6 array astore
    cairo_font exch selectfont cairo_point_x cairo_point_y moveto } bind def
/Tf { pop /cairo_font exch def /cairo_font_matrix where
      { pop cairo_selectfont } if } bind def
/Td { matrix translate cairo_font_matrix matrix concatmatrix dup
      /cairo_font_matrix exch def dup 4 get exch 5 get cairo_store_point
      /cairo_font where { pop cairo_selectfont } if } bind def
/Tm { 2 copy 8 2 roll 6 array astore /cairo_font_matrix exch def
      cairo_store_point /cairo_font where { pop cairo_selectfont } if } bind def
/g { setgray } bind def
/rg { setrgbcolor } bind def
/d1 { setcachedevice } bind def
%%EndProlog
%%BeginSetup
%%EndSetup
%%Page: 1 1
%%BeginPageSetup
%%PageBoundingBox: 0 -1 410 410
%%EndPageSetup
q 0 -1 410 411 rectclip q
0.784314 0.960784 1 rg
8 270.401 262.398 -262.402 re f
1 g
43.199 235.202 192 -192 re f
0.470588 0.823529 0.980392 rg
139.199 401.6 m 139.199 335.998 l 336 335.998 l 336 139.202 l 401.602 139.202
 l 401.602 401.6 l h
139.199 401.6 m f
0.666667 0.901961 1 rg
73.602 335.998 m 73.602 270.401 l 270.398 270.401 l 270.398 73.6 l 336 
73.6 l 336 335.998 l h
73.602 335.998 m f
0 g
235.199 243.202 m 167.41 243.202 l 162.992 243.202 159.41 239.62 159.41
 235.202 c 159.41 230.78 162.992 227.202 167.41 227.202 c 227.199 227.202
 l 227.199 51.202 l 51.199 51.202 l 51.199 227.202 l 112.211 227.202 l 116.629
 227.202 120.211 230.78 120.211 235.202 c 120.211 239.62 116.629 243.202
 112.211 243.202 c 43.199 243.202 l 38.781 243.202 35.199 239.62 35.199 
235.202 c 35.199 43.202 l 35.199 38.78 38.781 35.202 43.199 35.202 c 235.199
 35.202 l 239.617 35.202 243.199 38.78 243.199 43.202 c 243.199 235.202 
l 243.199 239.62 239.617 243.202 235.199 243.202 c h
235.199 243.202 m f
401.602 409.6 m 139.199 409.6 l 134.781 409.6 131.199 406.018 131.199 401.6
 c 131.199 343.998 l 73.602 343.998 l 69.18 343.998 65.602 340.42 65.602
 335.998 c 65.602 278.401 l 8 278.401 l 3.582 278.401 0 274.819 0 270.401
 c 0 7.998 l 0 3.58 3.582 -0.002 8 -0.002 c 270.398 -0.002 l 274.82 -0.002
 278.398 3.58 278.398 7.998 c 278.398 65.6 l 336 65.6 l 340.418 65.6 344
 69.182 344 73.6 c 344 131.202 l 401.602 131.202 l 406.02 131.202 409.602
 134.78 409.602 139.202 c 409.602 401.6 l 409.602 406.018 406.02 409.6 401.602
 409.6 c h
262.398 15.998 m 16 15.998 l 16 262.401 l 262.398 262.401 l h
393.602 147.202 m 344 147.202 l 344 335.998 l 344 340.42 340.418 343.998
 336 343.998 c 275.809 343.998 l 271.391 343.998 267.809 340.42 267.809 
335.998 c 267.809 331.58 271.391 327.998 275.809 327.998 c 328 327.998 l
 328 81.6 l 278.398 81.6 l 278.398 270.401 l 278.398 274.819 274.82 278.401
 270.398 278.401 c 81.602 278.401 l 81.602 327.998 l 214.211 327.998 l 218.629
 327.998 222.211 331.58 222.211 335.998 c 222.211 340.42 218.629 343.998
 214.211 343.998 c 147.199 343.998 l 147.199 393.6 l 393.602 393.6 l h
393.602 147.202 m f
139.199 226.631 m 143.621 226.631 147.199 230.213 147.199 234.631 c 147.199
 235.768 l 147.199 240.186 143.621 243.768 139.199 243.768 c 134.781 243.768
 131.199 240.186 131.199 235.768 c 131.199 234.631 l 131.199 230.213 134.781
 226.631 139.199 226.631 c h
139.199 226.631 m f
244.809 327.998 m 246.914 327.998 248.977 328.858 250.465 330.342 c 251.953
 331.83 252.809 333.897 252.809 335.998 c 252.809 338.104 251.953 340.166
 250.465 341.655 c 248.977 343.143 246.914 343.998 244.809 343.998 c 242.707
 343.998 240.641 343.143 239.156 341.655 c 237.668 340.166 236.809 338.104
 236.809 335.998 c 236.809 333.897 237.668 331.83 239.156 330.342 c 240.641
 328.858 242.707 327.998 244.809 327.998 c h
244.809 327.998 m f
Q Q
showpage
%%Trailer
end restore
%%EOF
