%!PS-Adobe-3.0 EPSF-3.0
%%Creator: cairo 1.14.2 (http://cairographics.org)
%%CreationDate: Fri Jun 15 11:41:46 2018
%%Pages: 1
%%DocumentData: Clean7Bit
%%LanguageLevel: 2
%%BoundingBox: 0 -1 410 410
%%EndComments
%%BeginProlog
save
50 dict begin
/q { gsave } bind def
/Q { grestore } bind def
/cm { 6 array astore concat } bind def
/w { setlinewidth } bind def
/J { setlinecap } bind def
/j { setlinejoin } bind def
/M { setmiterlimit } bind def
/d { setdash } bind def
/m { moveto } bind def
/l { lineto } bind def
/c { curveto } bind def
/h { closepath } bind def
/re { exch dup neg 3 1 roll 5 3 roll moveto 0 rlineto
      0 exch rlineto 0 rlineto closepath } bind def
/S { stroke } bind def
/f { fill } bind def
/f* { eofill } bind def
/n { newpath } bind def
/W { clip } bind def
/W* { eoclip } bind def
/BT { } bind def
/ET { } bind def
/pdfmark where { pop globaldict /?pdfmark /exec load put }
    { globaldict begin /?pdfmark /pop load def /pdfmark
    /cleartomark load def end } ifelse
/BDC { mark 3 1 roll /BDC pdfmark } bind def
/EMC { mark /EMC pdfmark } bind def
/cairo_store_point { /cairo_point_y exch def /cairo_point_x exch def } def
/Tj { show currentpoint cairo_store_point } bind def
/TJ {
  {
    dup
    type /stringtype eq
    { show } { -0.001 mul 0 cairo_font_matrix dtransform rmoveto } ifelse
  } forall
  currentpoint cairo_store_point
} bind def
/cairo_selectfont { cairo_font_matrix aload pop pop pop 0 0 6 array astore
    cairo_font exch selectfont cairo_point_x cairo_point_y moveto } bind def
/Tf { pop /cairo_font exch def /cairo_font_matrix where
      { pop cairo_selectfont } if } bind def
/Td { matrix translate cairo_font_matrix matrix concatmatrix dup
      /cairo_font_matrix exch def dup 4 get exch 5 get cairo_store_point
      /cairo_font where { pop cairo_selectfont } if } bind def
/Tm { 2 copy 8 2 roll 6 array astore /cairo_font_matrix exch def
      cairo_store_point /cairo_font where { pop cairo_selectfont } if } bind def
/g { setgray } bind def
/rg { setrgbcolor } bind def
/d1 { setcachedevice } bind def
%%EndProlog
%%BeginSetup
%%EndSetup
%%Page: 1 1
%%BeginPageSetup
%%PageBoundingBox: 0 -1 410 410
%%EndPageSetup
q 0 -1 410 411 rectclip q
0.941176 0.941176 0.980392 rg
375.977 86.507 m 33.621 86.507 l 19.484 86.507 8.027 97.968 8.027 112.105
 c 8.027 376.003 l 8.027 390.14 19.484 401.601 33.621 401.601 c 375.977 
401.601 l 390.113 401.601 401.574 390.14 401.574 376.003 c 401.574 112.105
 l 401.574 97.968 390.113 86.507 375.977 86.507 c h
375.977 86.507 m f
0.784314 0.960784 1 rg
334.383 121.702 m 75.215 121.702 l 57.547 121.702 43.223 136.03 43.223 
153.698 c 43.223 334.409 l 43.223 352.081 57.547 366.405 75.215 366.405 
c 334.383 366.405 l 352.055 366.405 366.379 352.081 366.379 334.409 c 366.379
 153.698 l 366.379 136.03 352.055 121.702 334.383 121.702 c h
334.383 121.702 m f
0.529412 0.529412 0.568627 rg
261.836 7.999 m 250.258 15.718 l 235.707 25.421 226.965 41.757 226.965 
59.245 c 226.965 86.511 l 182.637 86.511 l 182.637 59.245 l 182.637 41.757
 173.895 25.421 159.344 15.718 c h
261.836 7.999 m f
1 0.352941 0.352941 rg
193.668 291.097 m 244.273 261.878 l 255.129 255.613 255.129 239.948 244.273
 233.683 c 193.668 204.464 l 182.812 198.198 169.246 206.03 169.246 218.566
 c 169.246 276.999 l 169.246 289.53 182.812 297.363 193.668 291.097 c h
193.668 291.097 m f
0.647059 0.862745 0.411765 rg
113.809 164.034 m 113.809 155.198 106.648 148.034 97.812 148.034 c 88.977
 148.034 81.812 155.198 81.812 164.034 c 81.812 172.866 88.977 180.03 97.812
 180.03 c 106.648 180.03 113.809 172.866 113.809 164.034 c h
113.809 164.034 m f
0 g
375.977 409.601 m 33.621 409.601 l 15.098 409.601 0.027 394.53 0.027 376.003
 c 0.027 112.105 l 0.027 93.581 15.098 78.511 33.621 78.511 c 174.637 78.511
 l 174.637 59.245 l 174.637 44.394 167.262 30.613 154.906 22.374 c 145.344
 15.999 l 75.82 15.999 l 71.402 15.999 67.824 12.417 67.824 7.999 c 67.824
 3.581 71.402 -0.001 75.82 -0.001 c 333.391 -0.001 l 337.805 -0.001 341.387
 3.581 341.387 7.999 c 341.387 12.417 337.809 15.999 333.391 15.999 c 264.258
 15.999 l 254.695 22.374 l 242.34 30.613 234.965 44.394 234.965 59.245 c
 234.965 78.511 l 375.977 78.511 l 394.504 78.511 409.574 93.581 409.574
 112.105 c 409.574 376.003 l 409.574 394.53 394.504 409.601 375.977 409.601
 c h
237.234 15.999 m 172.367 15.999 l 183.953 27.245 190.633 42.761 190.633
 59.245 c 190.633 78.511 l 218.965 78.511 l 218.965 59.245 l 218.965 42.761
 225.645 27.245 237.234 15.999 c h
393.574 112.105 m 393.574 102.402 385.68 94.507 375.977 94.507 c 33.621
 94.507 l 23.918 94.507 16.023 102.402 16.023 112.105 c 16.023 376.003 l
 16.023 385.706 23.918 393.601 33.621 393.601 c 375.977 393.601 l 385.68
 393.601 393.574 385.706 393.574 376.003 c h
393.574 112.105 m f
334.383 374.405 m 232.797 374.405 l 228.379 374.405 224.797 370.823 224.797
 366.405 c 224.797 361.988 228.379 358.405 232.797 358.405 c 334.383 358.405
 l 347.617 358.405 358.379 347.644 358.379 334.409 c 358.379 153.698 l 358.379
 140.468 347.617 129.702 334.383 129.702 c 75.215 129.702 l 61.984 129.702
 51.219 140.468 51.219 153.698 c 51.219 334.409 l 51.219 347.644 61.984 
358.405 75.215 358.405 c 176.004 358.405 l 180.422 358.405 184.004 361.988
 184.004 366.405 c 184.004 370.823 180.422 374.405 176.004 374.405 c 75.215
 374.405 l 53.164 374.405 35.223 356.464 35.223 334.409 c 35.223 153.698
 l 35.223 131.648 53.164 113.706 75.215 113.706 c 334.383 113.706 l 356.438
 113.706 374.379 131.648 374.379 153.698 c 374.379 334.409 l 374.379 356.464
 356.438 374.405 334.383 374.405 c h
334.383 374.405 m f
161.246 276.999 m 161.246 218.562 l 161.246 209.784 165.785 201.925 173.387
 197.534 c 177.188 195.339 181.355 194.241 185.527 194.241 c 189.695 194.241
 193.867 195.339 197.668 197.534 c 248.273 226.753 l 255.875 231.14 260.414
 238.999 260.414 247.78 c 260.414 256.558 255.875 264.417 248.273 268.808
 c 197.668 298.023 l 190.062 302.413 180.988 302.413 173.387 298.023 c 165.785
 293.636 161.246 285.777 161.246 276.999 c h
177.246 276.999 m 177.246 281.312 180.141 283.452 181.387 284.171 c 182.141
 284.609 183.656 285.308 185.566 285.308 c 186.801 285.308 188.203 285.015
 189.668 284.171 c 240.273 254.952 l 244.012 252.796 244.414 249.218 244.414
 247.78 c 244.414 246.343 244.012 242.765 240.273 240.609 c 189.668 211.39
 l 185.93 209.234 182.629 210.671 181.387 211.39 c 180.141 212.109 177.242
 214.249 177.242 218.562 c h
177.246 276.999 m f
97.816 188.03 m 84.586 188.03 73.82 177.265 73.82 164.034 c 73.82 150.8
 84.586 140.034 97.816 140.034 c 108.242 140.034 117.137 146.726 120.438
 156.034 c 326.117 156.034 l 330.535 156.034 334.117 159.613 334.117 164.034
 c 334.117 168.452 330.535 172.03 326.117 172.03 c 120.438 172.03 l 117.137
 181.343 108.242 188.03 97.816 188.03 c h
97.816 156.034 m 93.406 156.034 89.816 159.62 89.816 164.034 c 89.816 168.445
 93.406 172.03 97.816 172.03 c 102.227 172.03 105.816 168.445 105.816 164.034
 c 105.812 159.62 102.227 156.034 97.816 156.034 c h
97.816 156.034 m f
204.801 358.405 m 206.902 358.405 208.969 359.265 210.457 360.753 c 211.941
 362.238 212.801 364.304 212.801 366.405 c 212.801 368.511 211.941 370.573
 210.457 372.062 c 208.969 373.55 206.902 374.405 204.801 374.405 c 202.695
 374.405 200.633 373.55 199.145 372.062 c 197.656 370.573 196.801 368.511
 196.801 366.405 c 196.801 364.304 197.656 362.238 199.145 360.753 c 200.633
 359.265 202.695 358.405 204.801 358.405 c h
204.801 358.405 m f
Q Q
showpage
%%Trailer
end restore
%%EOF
