%!PS-Adobe-3.0 EPSF-3.0
%%Creator: cairo 1.14.2 (http://cairographics.org)
%%CreationDate: Fri Jun 15 11:41:46 2018
%%Pages: 1
%%DocumentData: Clean7Bit
%%LanguageLevel: 2
%%BoundingBox: 21 -1 388 410
%%EndComments
%%BeginProlog
save
50 dict begin
/q { gsave } bind def
/Q { grestore } bind def
/cm { 6 array astore concat } bind def
/w { setlinewidth } bind def
/J { setlinecap } bind def
/j { setlinejoin } bind def
/M { setmiterlimit } bind def
/d { setdash } bind def
/m { moveto } bind def
/l { lineto } bind def
/c { curveto } bind def
/h { closepath } bind def
/re { exch dup neg 3 1 roll 5 3 roll moveto 0 rlineto
      0 exch rlineto 0 rlineto closepath } bind def
/S { stroke } bind def
/f { fill } bind def
/f* { eofill } bind def
/n { newpath } bind def
/W { clip } bind def
/W* { eoclip } bind def
/BT { } bind def
/ET { } bind def
/pdfmark where { pop globaldict /?pdfmark /exec load put }
    { globaldict begin /?pdfmark /pop load def /pdfmark
    /cleartomark load def end } ifelse
/BDC { mark 3 1 roll /BDC pdfmark } bind def
/EMC { mark /EMC pdfmark } bind def
/cairo_store_point { /cairo_point_y exch def /cairo_point_x exch def } def
/Tj { show currentpoint cairo_store_point } bind def
/TJ {
  {
    dup
    type /stringtype eq
    { show } { -0.001 mul 0 cairo_font_matrix dtransform rmoveto } ifelse
  } forall
  currentpoint cairo_store_point
} bind def
/cairo_selectfont { cairo_font_matrix aload pop pop pop 0 0 6 array astore
    cairo_font exch selectfont cairo_point_x cairo_point_y moveto } bind def
/Tf { pop /cairo_font exch def /cairo_font_matrix where
      { pop cairo_selectfont } if } bind def
/Td { matrix translate cairo_font_matrix matrix concatmatrix dup
      /cairo_font_matrix exch def dup 4 get exch 5 get cairo_store_point
      /cairo_font where { pop cairo_selectfont } if } bind def
/Tm { 2 copy 8 2 roll 6 array astore /cairo_font_matrix exch def
      cairo_store_point /cairo_font where { pop cairo_selectfont } if } bind def
/g { setgray } bind def
/rg { setrgbcolor } bind def
/d1 { setcachedevice } bind def
%%EndProlog
%%BeginSetup
%%EndSetup
%%Page: 1 1
%%BeginPageSetup
%%PageBoundingBox: 21 -1 388 410
%%EndPageSetup
q 21 -1 367 411 rectclip q
1 g
336.801 271.701 m 336.801 323.209 l 258.41 401.599 l 45.621 401.599 l 36.781
 401.599 29.621 394.435 29.621 385.599 c 29.621 24.002 l 29.621 15.162 36.781
 8.002 45.621 8.002 c 320.801 8.002 l 329.637 8.002 336.801 15.162 336.801
 24.002 c h
336.801 271.701 m f
0.784314 0.960784 1 rg
274.41 323.209 m 336.801 323.209 l 258.41 401.599 l 258.41 339.209 l 258.41
 330.373 265.574 323.209 274.41 323.209 c h
274.41 323.209 m f
0 g
320.801 0.002 m 45.621 0.002 l 32.387 0.002 21.621 10.767 21.621 24.002
 c 21.621 168.798 l 21.621 173.22 25.203 176.798 29.621 176.798 c 34.039
 176.798 37.621 173.22 37.621 168.798 c 37.621 24.002 l 37.621 19.587 41.207
 16.002 45.621 16.002 c 320.801 16.002 l 325.211 16.002 328.801 19.587 328.801
 24.002 c 328.801 102.4 l 328.801 106.818 332.379 110.4 336.801 110.4 c 
341.219 110.4 344.801 106.818 344.801 102.4 c 344.801 24.002 l 344.801 10.767
 334.031 0.002 320.801 0.002 c h
320.801 0.002 m f
368.203 259.88 m 361.332 266.752 353.332 271.818 344.801 275.107 c 344.801
 323.209 l 344.793 323.209 344.789 323.209 344.781 323.209 c 344.781 325.291
 343.988 327.334 342.457 328.865 c 264.066 407.255 l 262.535 408.787 260.492
 409.576 258.41 409.58 c 258.41 409.587 258.41 409.591 258.41 409.599 c 
45.621 409.599 l 32.387 409.599 21.621 398.834 21.621 385.599 c 21.621 236.533
 l 21.621 232.115 25.203 228.533 29.621 228.533 c 34.039 228.533 37.621 
232.115 37.621 236.533 c 37.621 385.599 l 37.621 390.009 41.207 393.599 
45.621 393.599 c 250.41 393.599 l 250.41 339.209 l 250.41 325.974 261.176
 315.209 274.41 315.209 c 328.801 315.209 l 328.801 279.119 l 308.797 281.603
 287.891 275.205 272.566 259.88 c 158.551 145.865 l 155.426 142.74 155.426
 137.673 158.551 134.552 c 161.672 131.427 166.738 131.427 169.863 134.552
 c 283.879 248.568 l 304.008 268.697 336.762 268.697 356.891 248.568 c 377.02
 228.439 377.02 195.685 356.891 175.56 c 249.957 68.627 l 237.406 56.076
 216.98 56.072 204.43 68.627 c 198.352 74.705 195.004 82.791 195.004 91.388
 c 195.004 99.986 198.352 108.072 204.43 114.154 c 311.883 221.603 l 314.254
 223.974 317.402 225.279 320.75 225.279 c 324.098 225.279 327.246 223.974
 329.613 221.603 c 331.984 219.236 333.289 216.087 333.289 212.74 c 333.289
 209.392 331.984 206.24 329.613 203.873 c 232.773 107.033 l 229.648 103.908
 229.648 98.841 232.773 95.716 c 235.895 92.595 240.961 92.595 244.086 95.716
 c 340.93 192.56 l 346.32 197.951 349.289 205.119 349.289 212.74 c 349.289
 220.361 346.32 227.529 340.93 232.92 c 335.539 238.31 328.371 241.279 320.75
 241.279 c 313.129 241.279 305.961 238.31 300.57 232.92 c 193.117 125.466
 l 174.328 106.677 174.328 76.103 193.117 57.31 c 202.512 47.916 214.852
 43.22 227.195 43.22 c 239.535 43.22 251.879 47.92 261.27 57.31 c 368.203
 164.244 l 394.57 190.611 394.57 233.513 368.203 259.88 c h
274.41 331.209 m 270 331.209 266.41 334.798 266.41 339.209 c 266.41 382.287
 l 317.484 331.209 l h
274.41 331.209 m f
29.621 194.232 m 27.512 194.232 25.453 195.08 23.957 196.576 c 22.469 198.064
 21.621 200.127 21.621 202.232 c 21.621 204.337 22.469 206.4 23.957 207.888
 c 25.453 209.377 27.512 210.232 29.621 210.232 c 31.727 210.232 33.789 
209.377 35.277 207.888 c 36.766 206.4 37.621 204.337 37.621 202.232 c 37.621
 200.127 36.766 198.064 35.277 196.576 c 33.789 195.08 31.727 194.232 29.621
 194.232 c h
29.621 194.232 m f
138.75 107.642 m 135.375 107.642 132.238 109.791 131.141 113.173 c 130.98
 113.662 l 129.617 117.865 131.922 122.377 136.121 123.74 c 140.324 125.107
 144.836 122.802 146.203 118.603 c 146.359 118.111 l 147.723 113.912 145.422
 109.396 141.219 108.033 c 140.398 107.767 139.566 107.642 138.75 107.642
 c h
138.75 107.642 m f
Q Q
showpage
%%Trailer
end restore
%%EOF
