%!PS-Adobe-3.0 EPSF-3.0
%%Creator: cairo 1.14.2 (http://cairographics.org)
%%CreationDate: Fri Jun 15 11:41:46 2018
%%Pages: 1
%%DocumentData: Clean7Bit
%%LanguageLevel: 2
%%BoundingBox: 0 -1 410 410
%%EndComments
%%BeginProlog
save
50 dict begin
/q { gsave } bind def
/Q { grestore } bind def
/cm { 6 array astore concat } bind def
/w { setlinewidth } bind def
/J { setlinecap } bind def
/j { setlinejoin } bind def
/M { setmiterlimit } bind def
/d { setdash } bind def
/m { moveto } bind def
/l { lineto } bind def
/c { curveto } bind def
/h { closepath } bind def
/re { exch dup neg 3 1 roll 5 3 roll moveto 0 rlineto
      0 exch rlineto 0 rlineto closepath } bind def
/S { stroke } bind def
/f { fill } bind def
/f* { eofill } bind def
/n { newpath } bind def
/W { clip } bind def
/W* { eoclip } bind def
/BT { } bind def
/ET { } bind def
/pdfmark where { pop globaldict /?pdfmark /exec load put }
    { globaldict begin /?pdfmark /pop load def /pdfmark
    /cleartomark load def end } ifelse
/BDC { mark 3 1 roll /BDC pdfmark } bind def
/EMC { mark /EMC pdfmark } bind def
/cairo_store_point { /cairo_point_y exch def /cairo_point_x exch def } def
/Tj { show currentpoint cairo_store_point } bind def
/TJ {
  {
    dup
    type /stringtype eq
    { show } { -0.001 mul 0 cairo_font_matrix dtransform rmoveto } ifelse
  } forall
  currentpoint cairo_store_point
} bind def
/cairo_selectfont { cairo_font_matrix aload pop pop pop 0 0 6 array astore
    cairo_font exch selectfont cairo_point_x cairo_point_y moveto } bind def
/Tf { pop /cairo_font exch def /cairo_font_matrix where
      { pop cairo_selectfont } if } bind def
/Td { matrix translate cairo_font_matrix matrix concatmatrix dup
      /cairo_font_matrix exch def dup 4 get exch 5 get cairo_store_point
      /cairo_font where { pop cairo_selectfont } if } bind def
/Tm { 2 copy 8 2 roll 6 array astore /cairo_font_matrix exch def
      cairo_store_point /cairo_font where { pop cairo_selectfont } if } bind def
/g { setgray } bind def
/rg { setrgbcolor } bind def
/d1 { setcachedevice } bind def
%%EndProlog
%%BeginSetup
%%EndSetup
%%Page: 1 1
%%BeginPageSetup
%%PageBoundingBox: 0 -1 410 410
%%EndPageSetup
q 0 -1 410 411 rectclip q
1 g
8 232.756 m 204.824 8.022 l 401.602 232.756 l h
8 232.756 m f
0.470588 0.823529 0.980392 rg
8 232.756 m 204.824 8.022 l 401.602 232.756 l h
8 232.756 m f
73.902 332.776 m 8.008 232.756 l 401.602 232.756 l 336.008 332.776 l h
73.902 332.776 m f
1 g
139.23 232.756 m 204.824 332.776 l 270.414 232.756 l h
139.23 232.756 m f
0.784314 0.960784 1 rg
270.414 232.756 m 336.008 332.776 l 401.602 232.756 l h
270.414 232.756 m f
8.309 232.756 m 73.902 332.776 l 139.496 232.756 l h
8.309 232.756 m f
270.414 232.756 m 139.23 232.756 l 204.824 8.823 l h
270.414 232.756 m f
0.490196 0.607843 1 rg
80.328 94.565 m 80.328 119.651 59.992 139.987 34.906 139.987 c 59.992 139.987
 80.328 160.323 80.328 185.409 c 80.328 160.323 100.664 139.987 125.75 139.987
 c 100.668 139.987 80.328 119.651 80.328 94.565 c h
80.328 94.565 m f
369.605 337.588 m 369.605 355.256 355.277 369.584 337.605 369.584 c 355.277
 369.584 369.605 383.909 369.605 401.58 c 369.605 383.909 383.93 369.584
 401.602 369.584 c 383.93 369.58 369.605 355.256 369.605 337.588 c h
369.605 337.588 m f
0 g
342.699 337.163 m 341.219 339.416 338.703 340.776 336.008 340.776 c 73.902
 340.776 l 71.211 340.776 68.703 339.424 67.223 337.178 c 1.523 237.455 
l 1.211 237.026 0.941 236.557 0.715 236.061 c -0.582 233.202 -0.086 229.85
 1.98 227.487 c 35.281 189.467 l 38.195 186.143 43.246 185.807 46.57 188.717
 c 49.895 191.627 50.227 196.682 47.316 200.006 c 25.641 224.756 l 133.242
 224.756 l 187.309 40.159 l 126.211 109.924 l 123.301 113.248 118.246 113.58
 114.922 110.67 c 111.598 107.76 111.266 102.705 114.176 99.385 c 198.809
 2.752 l 200.324 1.018 202.52 0.022 204.824 0.022 c 207.129 0.022 209.324
 1.018 210.84 2.752 c 300.945 105.659 l 303.855 108.983 303.523 114.034 
300.195 116.944 c 296.871 119.858 291.82 119.522 288.91 116.198 c 222.34
 40.17 l 276.41 224.756 l 383.965 224.756 l 334.219 167.94 l 331.309 164.62
 331.641 159.565 334.969 156.655 c 336.484 155.327 338.363 154.674 340.234
 154.674 c 342.461 154.674 344.672 155.596 346.254 157.405 c 407.621 227.487
 l 409.988 230.19 410.262 234.139 408.289 237.143 c h
386.789 240.756 m 285.227 240.756 l 336.008 318.19 l h
139.363 247.545 m 88.715 324.776 l 190.012 324.776 l h
204.824 318.19 m 255.605 240.756 l 154.043 240.756 l h
219.637 324.776 m 321.199 324.776 l 270.418 247.342 l h
73.887 318.213 m 124.684 240.756 l 22.859 240.756 l h
204.824 37.276 m 149.91 224.756 l 259.738 224.756 l h
204.824 37.276 m f
133.75 139.987 m 133.75 144.405 130.168 147.987 125.75 147.987 c 105.117
 147.987 88.328 164.776 88.328 185.409 c 88.328 189.827 84.746 193.409 80.328
 193.409 c 75.914 193.409 72.332 189.827 72.332 185.409 c 72.332 164.776
 55.543 147.987 34.906 147.987 c 30.492 147.987 26.91 144.405 26.91 139.987
 c 26.91 135.569 30.492 131.987 34.906 131.987 c 55.543 131.987 72.332 115.202
 72.332 94.565 c 72.332 90.147 75.914 86.565 80.328 86.565 c 84.746 86.565
 88.328 90.147 88.328 94.565 c 88.328 115.202 105.117 131.987 125.75 131.987
 c 130.168 131.987 133.75 135.569 133.75 139.987 c h
80.328 122.659 m 75.969 129.686 70.027 135.627 63 139.987 c 70.027 144.346
 75.969 150.291 80.328 157.315 c 84.691 150.291 90.633 144.35 97.656 139.987
 c 90.633 135.627 84.691 129.686 80.328 122.659 c h
80.328 122.659 m f
337.605 361.584 m 350.84 361.584 361.605 350.819 361.605 337.584 c 361.605
 333.166 365.188 329.588 369.605 329.588 c 374.02 329.588 377.602 333.166
 377.602 337.584 c 377.602 350.819 388.367 361.584 401.602 361.584 c 406.02
 361.584 409.602 365.166 409.602 369.58 c 409.602 373.998 406.02 377.58 
401.602 377.58 c 388.367 377.58 377.602 388.346 377.602 401.58 c 377.602
 405.998 374.02 409.577 369.605 409.577 c 365.188 409.577 361.605 405.998
 361.605 401.58 c 361.605 388.346 350.84 377.58 337.605 377.58 c 333.191
 377.58 329.609 373.998 329.609 369.58 c 329.609 365.166 333.191 361.584
 337.605 361.584 c h
369.605 377.608 m 371.887 374.569 374.59 371.866 377.629 369.58 c 374.59
 367.299 371.887 364.596 369.605 361.557 c 367.32 364.596 364.617 367.299
 361.578 369.58 c 364.617 371.866 367.32 374.569 369.605 377.608 c h
369.605 377.608 m f
316.57 143.647 m 314.469 143.647 312.414 142.799 310.918 141.303 c 309.43
 139.815 308.574 137.752 308.574 135.647 c 308.574 133.545 309.43 131.479
 310.918 129.991 c 312.406 128.502 314.469 127.647 316.57 127.647 c 318.676
 127.647 320.738 128.502 322.227 129.991 c 323.715 131.479 324.57 133.545
 324.57 135.647 c 324.57 137.752 323.715 139.815 322.227 141.303 c 320.738
 142.799 318.676 143.647 316.57 143.647 c h
316.57 143.647 m f
Q Q
showpage
%%Trailer
end restore
%%EOF
