%!PS-Adobe-3.0 EPSF-3.0
%%Creator: cairo 1.14.2 (http://cairographics.org)
%%CreationDate: Fri Jun 15 11:41:46 2018
%%Pages: 1
%%DocumentData: Clean7Bit
%%LanguageLevel: 2
%%BoundingBox: 0 38 410 371
%%EndComments
%%BeginProlog
save
50 dict begin
/q { gsave } bind def
/Q { grestore } bind def
/cm { 6 array astore concat } bind def
/w { setlinewidth } bind def
/J { setlinecap } bind def
/j { setlinejoin } bind def
/M { setmiterlimit } bind def
/d { setdash } bind def
/m { moveto } bind def
/l { lineto } bind def
/c { curveto } bind def
/h { closepath } bind def
/re { exch dup neg 3 1 roll 5 3 roll moveto 0 rlineto
      0 exch rlineto 0 rlineto closepath } bind def
/S { stroke } bind def
/f { fill } bind def
/f* { eofill } bind def
/n { newpath } bind def
/W { clip } bind def
/W* { eoclip } bind def
/BT { } bind def
/ET { } bind def
/pdfmark where { pop globaldict /?pdfmark /exec load put }
    { globaldict begin /?pdfmark /pop load def /pdfmark
    /cleartomark load def end } ifelse
/BDC { mark 3 1 roll /BDC pdfmark } bind def
/EMC { mark /EMC pdfmark } bind def
/cairo_store_point { /cairo_point_y exch def /cairo_point_x exch def } def
/Tj { show currentpoint cairo_store_point } bind def
/TJ {
  {
    dup
    type /stringtype eq
    { show } { -0.001 mul 0 cairo_font_matrix dtransform rmoveto } ifelse
  } forall
  currentpoint cairo_store_point
} bind def
/cairo_selectfont { cairo_font_matrix aload pop pop pop 0 0 6 array astore
    cairo_font exch selectfont cairo_point_x cairo_point_y moveto } bind def
/Tf { pop /cairo_font exch def /cairo_font_matrix where
      { pop cairo_selectfont } if } bind def
/Td { matrix translate cairo_font_matrix matrix concatmatrix dup
      /cairo_font_matrix exch def dup 4 get exch 5 get cairo_store_point
      /cairo_font where { pop cairo_selectfont } if } bind def
/Tm { 2 copy 8 2 roll 6 array astore /cairo_font_matrix exch def
      cairo_store_point /cairo_font where { pop cairo_selectfont } if } bind def
/g { setgray } bind def
/rg { setrgbcolor } bind def
/d1 { setcachedevice } bind def
%%EndProlog
%%BeginSetup
%%EndSetup
%%Page: 1 1
%%BeginPageSetup
%%PageBoundingBox: 0 38 410 371
%%EndPageSetup
q 0 38 410 333 rectclip q
1 0.352941 0.352941 rg
8 87.202 393.602 -40 re f
0.941176 0.941176 0.980392 rg
401.602 87.202 m 257.457 87.202 l 235.305 87.202 215 74.862 204.801 55.202
 c 204.801 330.401 l 215 350.061 235.305 362.401 257.457 362.401 c 401.602
 362.401 l h
401.602 87.202 m f
1 g
8 87.202 m 152.145 87.202 l 174.293 87.202 194.598 74.862 204.801 55.202
 c 204.801 330.401 l 194.598 350.061 174.293 362.401 152.145 362.401 c 8
 362.401 l h
8 87.202 m f
0 g
401.602 370.401 m 257.457 370.401 l 236.637 370.401 217.418 360.924 204.801
 345.034 c 192.18 360.924 172.961 370.401 152.145 370.401 c 110.934 370.401
 l 106.516 370.401 102.934 366.819 102.934 362.401 c 102.934 357.983 106.516
 354.401 110.934 354.401 c 152.145 354.401 l 170.754 354.401 187.691 344.475
 196.801 328.373 c 196.801 78.299 l 184.707 89.034 168.945 95.202 152.145
 95.202 c 16 95.202 l 16 354.401 l 45.332 354.401 l 49.754 354.401 53.332
 357.983 53.332 362.401 c 53.332 366.819 49.754 370.401 45.332 370.401 c
 8 370.401 l 3.582 370.401 0 366.819 0 362.401 c 0 47.202 l 0 42.78 3.582
 39.202 8 39.202 c 401.602 39.202 l 406.02 39.202 409.602 42.78 409.602 
47.202 c 409.602 362.401 l 409.602 366.819 406.02 370.401 401.602 370.401
 c h
257.457 354.401 m 393.602 354.401 l 393.602 95.202 l 257.457 95.202 l 240.656
 95.202 224.891 89.034 212.801 78.299 c 212.801 328.373 l 221.906 344.475
 238.848 354.401 257.457 354.401 c h
16 79.202 m 152.145 79.202 l 169.957 79.202 186.234 70.1 195.586 55.202
 c 16 55.202 l h
214.016 55.202 m 223.367 70.1 239.645 79.202 257.457 79.202 c 393.602 79.202
 l 393.602 55.202 l h
214.016 55.202 m f
153.609 149.6 m 151.504 149.6 149.441 148.745 147.953 147.256 c 146.465
 145.768 145.609 143.705 145.609 141.6 c 145.609 139.495 146.465 137.432
 147.953 135.944 c 149.441 134.455 151.504 133.6 153.609 133.6 c 155.719
 133.6 157.777 134.455 159.266 135.944 c 160.762 137.432 161.609 139.495
 161.609 141.6 c 161.609 143.705 160.762 145.768 159.266 147.256 c 157.777
 148.745 155.711 149.6 153.609 149.6 c h
153.609 149.6 m f
51.457 149.6 m 47.035 149.6 43.457 146.018 43.457 141.6 c 43.457 137.182
 47.035 133.6 51.457 133.6 c 123.453 133.6 l 127.871 133.6 131.453 137.182
 131.453 141.6 c 131.453 146.018 127.871 149.6 123.453 149.6 c h
51.457 149.6 m f
153.609 205.065 m 51.457 205.065 l 47.035 205.065 43.457 201.487 43.457
 197.065 c 43.457 192.647 47.035 189.065 51.457 189.065 c 153.609 189.065
 l 158.027 189.065 161.609 192.647 161.609 197.065 c 161.609 201.487 158.027
 205.065 153.609 205.065 c h
153.609 205.065 m f
153.609 260.534 m 51.457 260.534 l 47.035 260.534 43.457 256.952 43.457
 252.534 c 43.457 248.116 47.035 244.534 51.457 244.534 c 153.609 244.534
 l 158.027 244.534 161.609 248.116 161.609 252.534 c 161.609 256.952 158.027
 260.534 153.609 260.534 c h
153.609 260.534 m f
153.609 315.998 m 51.457 315.998 l 47.035 315.998 43.457 312.42 43.457 
307.998 c 43.457 303.58 47.035 299.998 51.457 299.998 c 153.609 299.998 
l 158.027 299.998 161.609 303.58 161.609 307.998 c 161.609 312.42 158.027
 315.998 153.609 315.998 c h
153.609 315.998 m f
358.398 149.6 m 356.297 149.6 354.23 148.745 352.742 147.256 c 351.258 
145.768 350.398 143.705 350.398 141.6 c 350.398 139.495 351.258 137.432 
352.742 135.944 c 354.23 134.455 356.297 133.6 358.398 133.6 c 360.504 133.6
 362.566 134.455 364.055 135.944 c 365.543 137.432 366.398 139.495 366.398
 141.6 c 366.398 143.705 365.543 145.768 364.055 147.256 c 362.566 148.745
 360.504 149.6 358.398 149.6 c h
358.398 149.6 m f
256.246 133.6 m 328.242 133.6 l 332.66 133.6 336.242 137.182 336.242 141.6
 c 336.242 146.018 332.66 149.6 328.242 149.6 c 256.246 149.6 l 251.828 
149.6 248.246 146.018 248.246 141.6 c 248.246 137.182 251.828 133.6 256.246
 133.6 c h
256.246 133.6 m f
256.246 189.065 m 358.398 189.065 l 362.82 189.065 366.398 192.647 366.398
 197.065 c 366.398 201.487 362.82 205.065 358.398 205.065 c 256.246 205.065
 l 251.828 205.065 248.246 201.487 248.246 197.065 c 248.246 192.647 251.828
 189.065 256.246 189.065 c h
256.246 189.065 m f
256.246 244.534 m 358.398 244.534 l 362.82 244.534 366.398 248.116 366.398
 252.534 c 366.398 256.952 362.82 260.534 358.398 260.534 c 256.246 260.534
 l 251.828 260.534 248.246 256.952 248.246 252.534 c 248.246 248.116 251.828
 244.534 256.246 244.534 c h
256.246 244.534 m f
256.246 299.998 m 358.398 299.998 l 362.82 299.998 366.398 303.58 366.398
 307.998 c 366.398 312.42 362.82 315.998 358.398 315.998 c 256.246 315.998
 l 251.828 315.998 248.246 312.42 248.246 307.998 c 248.246 303.58 251.828
 299.998 256.246 299.998 c h
256.246 299.998 m f
78.398 354.401 m 80.504 354.401 82.566 355.256 84.055 356.745 c 85.543 
358.233 86.398 360.295 86.398 362.401 c 86.398 364.502 85.543 366.569 84.055
 368.057 c 82.566 369.545 80.504 370.401 78.398 370.401 c 76.297 370.401
 74.23 369.545 72.742 368.057 c 71.258 366.569 70.398 364.502 70.398 362.401
 c 70.398 360.295 71.258 358.233 72.742 356.745 c 74.23 355.256 76.297 354.401
 78.398 354.401 c h
78.398 354.401 m f
Q Q
showpage
%%Trailer
end restore
%%EOF
