<?xml version="1.0" encoding="iso-8859-1"?>
<!-- Generator: Adobe Illustrator 19.0.0, SVG Export Plug-In . SVG Version: 6.00 Build 0)  -->
<svg version="1.1" id="Capa_1" xmlns="http://www.w3.org/2000/svg" xmlns:xlink="http://www.w3.org/1999/xlink" x="0px" y="0px"
	 viewBox="0 0 511.999 511.999" style="enable-background:new 0 0 511.999 511.999;" xml:space="preserve">
<g>
	<g>
		<path d="M64.062,433.809c-1.864-1.864-4.449-2.936-7.085-2.936c-2.635,0-5.221,1.071-7.095,2.936
			c-1.863,1.864-2.926,4.449-2.926,7.085c0,2.635,1.063,5.221,2.926,7.084c1.874,1.864,4.459,2.937,7.095,2.937
			c2.635,0,5.22-1.073,7.085-2.937c1.863-1.863,2.936-4.448,2.936-7.084C66.998,438.258,65.926,435.673,64.062,433.809z"/>
	</g>
</g>
<g>
	<g>
		<path d="M321.035,241.883h-4.757c23.875-17.83,39.625-45.962,40.614-77.749c2.232-0.222,4.447-0.57,6.6-1.055
			c14.188-3.192,26.285-11.716,34.061-24.006c7.777-12.289,10.301-26.871,7.11-41.061c-2.473-10.991-8.233-20.831-16.468-28.315
			c1.195-6.651,0.925-12.948-0.813-18.79c-3.806-12.802-11.74-22.498-22.946-28.04c-15.487-7.662-33.617-5.596-45.417-1.109
			c-0.109,0.042-0.21,0.094-0.318,0.139C301.467,8.197,279.671,0,255.994,0c-23.666,0-45.452,8.189-62.685,21.877
			c-0.092-0.038-0.179-0.084-0.274-0.12c-11.8-4.485-29.928-6.55-45.417,1.109c-11.206,5.542-19.141,15.239-22.946,28.04
			c-1.737,5.842-2.007,12.139-0.813,18.79c-8.237,7.484-13.996,17.324-16.468,28.316c-3.193,14.188-0.667,28.771,7.11,41.06
			c7.776,12.289,19.872,20.814,34.061,24.006c2.131,0.48,4.324,0.826,6.534,1.048c0.987,31.789,16.739,59.924,40.615,77.755h-4.746
			c-79.408,0-144.012,64.604-144.012,144.012v14.916c0,5.534,4.487,10.021,10.021,10.021c5.533,0,10.021-4.487,10.021-10.021
			v-14.916c0-39.257,18.346-74.306,46.909-97.036l43.475,43.474l-11.36,14.032c-2.538,3.135-2.948,7.487-1.042,11.042
			l72.172,134.552h-89.394v-79.833c0-5.534-4.487-10.021-10.021-10.021c-5.533,0-10.021,4.487-10.021,10.021v79.833H66.994v-8.978
			c0-5.534-4.487-10.021-10.021-10.021c-5.534,0-10.021,4.487-10.021,10.021v18.998c0,5.534,4.487,10.021,10.021,10.021h398.053
			c5.534,0,10.021-4.487,10.021-10.021V385.894C465.047,306.487,400.443,241.883,321.035,241.883z M355.552,40.831
			c6.168,3.05,10.415,8.362,12.622,15.788c1.157,3.897,0.893,8.562-0.789,13.866c-1.327,4.185,0.224,8.745,3.826,11.252
			c7.072,4.922,12.007,12.264,13.9,20.674c2.016,8.966,0.421,18.181-4.492,25.946c-4.913,7.766-12.557,13.153-21.524,15.17
			c-0.703,0.158-1.423,0.286-2.147,0.4v-42.972c0-23.68-8.199-45.479-21.902-62.715C341.577,37.289,349.106,37.643,355.552,40.831z
			 M255.995,20.042c44.615,0,80.912,36.297,80.912,80.912v15.68c-3.502-17.085-18.653-29.976-36.759-29.976h-16.62
			c-10.856,0-20.643,4.639-27.5,12.031c-6.857-7.393-16.646-12.031-27.5-12.031h-16.619c-18.236,0-33.467,13.079-36.825,30.348
			v-16.052C175.082,56.339,211.378,20.042,255.995,20.042z M317.627,124.18v3.621c0,9.638-7.841,17.479-17.479,17.479h-16.62
			c-9.638,0-17.479-7.841-17.479-17.479v-3.621c0-9.638,7.841-17.479,17.479-17.479h16.62
			C309.786,106.7,317.627,114.542,317.627,124.18z M246.006,124.18v3.621c0,9.638-7.841,17.479-17.479,17.479h-16.62
			c-9.638,0-17.479-7.841-17.479-17.479v-3.621c0-9.638,7.841-17.479,17.479-17.479h16.62
			C238.165,106.7,246.006,114.542,246.006,124.18z M155.041,100.954v42.96c-0.701-0.112-1.399-0.234-2.08-0.388
			c-8.967-2.017-16.61-7.404-21.524-15.17c-4.913-7.765-6.509-16.979-4.492-25.946c1.892-8.408,6.827-15.751,13.9-20.674
			c3.602-2.508,5.154-7.069,3.826-11.252c-1.681-5.304-1.946-9.969-0.789-13.866c2.208-7.425,6.453-12.737,12.622-15.788
			c6.425-3.177,13.928-3.537,20.445-2.599C163.243,55.469,155.041,77.27,155.041,100.954z M175.082,160.952v-25.979
			c3.358,17.269,18.59,30.348,36.825,30.348h16.619c10.856,0,20.643-4.639,27.5-12.031c6.857,7.393,16.646,12.031,27.5,12.031h16.62
			c18.106,0,33.257-12.891,36.759-29.976v25.607c0,44.616-36.297,80.913-80.913,80.913S175.082,205.568,175.082,160.952z
			 M245.979,491.957h-6.087l-74.107-138.159l12.846-15.869c3.227-3.986,2.923-9.764-0.702-13.391l-47.049-47.049
			c12.779-7.112,26.939-12.029,41.968-14.24l73.131,151.764V491.957z M194.456,261.923h123.151l-61.576,127.786L194.456,261.923z
			 M266.02,491.957v-76.808l73.191-151.889c15.023,2.217,29.176,7.14,41.949,14.255l-47.026,47.026
			c-3.625,3.625-3.928,9.404-0.702,13.39l12.846,15.869l-74.106,138.159H266.02z M445.005,491.958h-40.653v-61.086
			c0-5.534-4.487-10.021-10.021-10.021s-10.021,4.487-10.021,10.021v61.086h-89.394l72.172-134.552
			c1.906-3.554,1.496-7.906-1.042-11.042l-11.36-14.032l43.446-43.445c28.543,22.732,46.873,57.767,46.873,97.008V491.958z"/>
	</g>
</g>
<g>
	<g>
		<g>
			<path d="M229.499,198.606c-0.073-0.041-0.383-0.216-1.071-0.605c-0.8-0.452-1.217-0.688-1.384-0.782
				C227.471,197.46,229.29,198.488,229.499,198.606z"/>
			<path d="M287.353,184.346c-2.724-4.819-8.838-6.515-13.654-3.794c-1.533,0.868-3.31,1.087-5.007,0.612
				c-1.696-0.471-3.108-1.574-3.974-3.108c-3.76-6.639-13.704-6.662-17.448,0.001c-0.866,1.532-2.277,2.636-3.973,3.107
				c-1.698,0.473-3.476,0.253-5.008-0.612c-4.818-2.724-10.931-1.024-13.654,3.794c-2.722,4.818-1.023,10.932,3.795,13.654
				c4.053,2.291,8.532,3.458,13.063,3.458c2.394,0,4.802-0.326,7.17-0.983c2.635-0.732,5.098-1.845,7.333-3.286
				c2.235,1.441,4.698,2.554,7.332,3.286c2.369,0.657,4.778,0.983,7.17,0.983c4.532,0,9.011-1.167,13.063-3.458
				C288.378,195.277,290.076,189.164,287.353,184.346z"/>
			<path d="M229.499,198.606C229.523,198.62,229.523,198.62,229.499,198.606L229.499,198.606z"/>
			<path d="M227.044,197.219C226.935,197.157,226.919,197.148,227.044,197.219L227.044,197.219z"/>
		</g>
	</g>
</g>
<g>
	<g>
		<path d="M274.914,57.36h-37.838c-5.533,0-10.021,4.487-10.021,10.021c0,5.534,4.487,10.021,10.021,10.021h37.837
			c5.533,0,10.021-4.487,10.021-10.021C284.935,61.847,280.448,57.36,274.914,57.36z"/>
	</g>
</g>
<g>
	<g>
		<path d="M401.411,382.662c-1.863-1.863-4.439-2.936-7.084-2.936c-2.635,0-5.221,1.072-7.085,2.936
			c-1.864,1.864-2.936,4.439-2.936,7.085c0,2.635,1.071,5.221,2.936,7.085c1.864,1.863,4.449,2.936,7.085,2.936
			c2.646,0,5.221-1.072,7.084-2.936c1.874-1.864,2.937-4.449,2.937-7.085C404.348,387.111,403.284,384.526,401.411,382.662z"/>
	</g>
</g>
<g>
</g>
<g>
</g>
<g>
</g>
<g>
</g>
<g>
</g>
<g>
</g>
<g>
</g>
<g>
</g>
<g>
</g>
<g>
</g>
<g>
</g>
<g>
</g>
<g>
</g>
<g>
</g>
<g>
</g>
</svg>
