<?xml version="1.0" encoding="iso-8859-1"?>
<!-- Generator: Adobe Illustrator 19.0.0, SVG Export Plug-In . SVG Version: 6.00 Build 0)  -->
<svg version="1.1" id="Capa_1" xmlns="http://www.w3.org/2000/svg" xmlns:xlink="http://www.w3.org/1999/xlink" x="0px" y="0px"
	 viewBox="0 0 512 512" style="enable-background:new 0 0 512 512;" xml:space="preserve">
<g>
	<g>
		<path d="M214.5,48h-69c-5.522,0-10,4.478-10,10s4.478,10,10,10h69c5.522,0,10-4.478,10-10S220.022,48,214.5,48z"/>
	</g>
</g>
<g>
	<g>
		<path d="M257.569,50.93C255.71,49.069,253.13,48,250.5,48s-5.21,1.069-7.07,2.93s-2.93,4.44-2.93,7.07s1.069,5.21,2.93,7.069
			c1.86,1.86,4.44,2.931,7.07,2.931s5.21-1.07,7.069-2.931C259.43,63.2,260.5,60.63,260.5,58S259.43,52.79,257.569,50.93z"/>
	</g>
</g>
<g>
	<g>
		<path d="M231.069,494.93C229.21,493.069,226.63,492,224,492s-5.21,1.069-7.07,2.93c-1.86,1.861-2.93,4.44-2.93,7.07
			s1.069,5.21,2.93,7.069c1.86,1.86,4.44,2.931,7.07,2.931s5.21-1.07,7.069-2.931C232.93,507.21,234,504.63,234,502
			S232.93,496.79,231.069,494.93z"/>
	</g>
</g>
<g>
	<g>
		<path d="M462,18.37h-45.26V10c0-5.522-4.478-10-10-10H105.26c-5.522,0-10,4.478-10,10v8.37H50c-27.57,0-50,22.43-50,50v98.114
			c0,75.368,60.069,137.02,134.844,139.573c2.253,2.557,4.585,5.059,7.017,7.49l1.635,1.635
			c19.879,19.877,44.091,33.841,70.505,41.022v81.885h-55.045c-20.377,0-36.955,16.578-36.955,36.955V502c0,5.522,4.478,10,10,10
			h51.747c5.522,0,10-4.478,10-10c0-5.522-4.478-10-10-10H142v-16.955c0-9.349,7.606-16.955,16.955-16.955h194.09
			c9.349,0,16.955,7.606,16.955,16.955V492H264c-5.522,0-10,4.478-10,10c0,5.522,4.478,10,10,10h116c5.522,0,10-4.478,10-10v-26.955
			c0-20.377-16.578-36.955-36.955-36.955H298v-81.885c26.414-7.181,50.626-21.145,70.505-41.022l1.635-1.635
			c2.431-2.431,4.764-4.933,7.017-7.49C451.931,303.505,512,241.852,512,166.484V68.37C512,40.8,489.57,18.37,462,18.37z
			 M416.74,201.042V78.37H452v88.114c0,28.286-15.284,54.176-38.846,68.355C415.518,223.856,416.74,212.544,416.74,201.042z
			 M328.499,20L328.499,20h28.241v92.299l-7.056-7.043c-3.902-3.896-10.227-3.896-14.129,0l-7.056,7.043V20z M98.846,234.84
			C75.284,220.661,60,194.77,60,166.484V78.37h35.26v122.673C95.26,212.544,96.482,223.857,98.846,234.84z M20,166.484V68.37
			c0-16.542,13.458-30,30-30h45.26v20H50c-5.522,0-10,4.478-10,10v98.114c0,21.947,7.024,42.778,20.313,60.242
			c11.803,15.511,28.141,27.381,46.41,33.817c3.316,8.232,7.33,16.179,12.01,23.77C62.701,274.383,20,225.307,20,166.484z M278,438
			h-44v-77.728c7.23,0.994,14.575,1.511,22,1.511s14.77-0.517,22-1.511V438z M388.235,249.123
			c-6.863,18.673-17.752,35.796-32.238,50.282l-1.635,1.635c-26.274,26.273-61.207,40.743-98.362,40.743
			c-37.155,0-72.088-14.47-98.362-40.743l-1.635-1.635c-14.487-14.487-25.376-31.609-32.238-50.282l0.063-0.043
			c-0.142-0.386-0.309-0.759-0.495-1.12c-5.308-14.856-8.074-30.674-8.074-46.917V20H308.5v116.411c0,4.043,2.435,7.688,6.169,9.237
			c3.735,1.547,8.033,0.696,10.896-2.16l17.056-17.025l17.056,17.025c1.912,1.909,4.467,2.923,7.066,2.923
			c1.29,0,2.591-0.249,3.829-0.763c3.734-1.549,6.169-5.194,6.169-9.237V20h20v181.043c0,16.243-2.766,32.062-8.074,46.917
			c-0.186,0.361-0.353,0.734-0.495,1.12L388.235,249.123z M492,166.484c0,58.823-42.701,107.898-98.733,117.83
			c4.68-7.591,8.693-15.538,12.01-23.77c18.269-6.437,34.606-18.306,46.41-33.817C464.976,209.263,472,188.432,472,166.484V68.37
			c0-5.522-4.478-10-10-10h-45.26v-20H462c16.542,0,30,13.458,30,30V166.484z"/>
	</g>
</g>
<g>
	<g>
		<path d="M208,160c-5.522,0-10,4.478-10,10v10.661c0,5.522,4.478,10,10,10c5.522,0,10-4.478,10-10V170
			C218,164.478,213.522,160,208,160z"/>
	</g>
</g>
<g>
	<g>
		<path d="M208,208.506c-5.522,0-10,4.478-10,10v10.661c0,5.522,4.478,10,10,10c5.522,0,10-4.478,10-10v-10.661
			C218,212.983,213.522,208.506,208,208.506z"/>
	</g>
</g>
<g>
	<g>
		<path d="M237.583,189.583h-10.66c-5.522,0-10,4.478-10,10c0,5.522,4.478,10,10,10h10.66c5.522,0,10-4.478,10-10
			C247.583,194.061,243.105,189.583,237.583,189.583z"/>
	</g>
</g>
<g>
	<g>
		<path d="M189.077,189.583h-10.66c-5.522,0-10,4.478-10,10c0,5.522,4.478,10,10,10h10.66c5.522,0,10-4.478,10-10
			C199.077,194.061,194.6,189.583,189.077,189.583z"/>
	</g>
</g>
<g>
</g>
<g>
</g>
<g>
</g>
<g>
</g>
<g>
</g>
<g>
</g>
<g>
</g>
<g>
</g>
<g>
</g>
<g>
</g>
<g>
</g>
<g>
</g>
<g>
</g>
<g>
</g>
<g>
</g>
</svg>
