<?xml version="1.0" encoding="iso-8859-1"?>
<!-- Generator: Adobe Illustrator 19.0.0, SVG Export Plug-In . SVG Version: 6.00 Build 0)  -->
<svg version="1.1" id="Capa_1" xmlns="http://www.w3.org/2000/svg" xmlns:xlink="http://www.w3.org/1999/xlink" x="0px" y="0px"
	 viewBox="0 0 512 512" style="enable-background:new 0 0 512 512;" xml:space="preserve">
<g>
	<g>
		<path d="M448.024,437.991H342.236c19.365-9.398,37.514-22.114,53.57-38.17c77.44-77.44,77.44-203.443,0-280.883l-12.103-12.102
			l10.985-10.985c9.049-9.05,9.049-23.775,0-32.825l-6.991-6.991l7.39-7.391c4.044-4.044,6.272-9.421,6.272-15.141
			c0-5.719-2.227-11.095-6.272-15.141L383.122,6.398c-8.348-8.348-21.932-8.348-30.28,0l-7.391,7.391l-6.991-6.991
			C334.077,2.414,328.248,0,322.047,0c-6.2,0-12.029,2.414-16.413,6.798L140.862,171.572c-9.049,9.049-9.049,23.774,0,32.824
			l6.991,6.991l-34.409,34.409c-3.905,3.905-3.905,10.238,0,14.145l28.102,28.102c1.953,1.952,4.513,2.929,7.072,2.929
			s5.12-0.977,7.072-2.929l34.41-34.41l6.991,6.991c4.525,4.524,10.468,6.787,16.412,6.787c5.944,0,11.888-2.263,16.412-6.787
			l70.865-70.864c7.695,5.052,16.887,8.002,26.76,8.002c11.825,0,22.682-4.22,31.147-11.23
			c25.622,36.343,30.416,84.341,11.749,125.306c-2.29,5.026-0.073,10.957,4.954,13.248c1.344,0.612,2.753,0.903,4.141,0.903
			c3.797,0,7.429-2.175,9.106-5.857c22.445-49.255,15.603-107.296-17.12-149.899c3.154-6.462,4.929-13.716,4.929-21.378
			c0-9.873-2.95-19.065-8.002-26.76l1.114-1.114l12.102,12.103c69.641,69.641,69.641,182.954,0,252.595
			c-69.639,69.642-182.953,69.642-252.595,0c-2.487-2.487-4.908-5.056-7.251-7.693h47.653
			c45.292,32.872,105.886,37.012,155.355,10.343c4.862-2.621,6.679-8.688,4.058-13.55c-2.62-4.862-8.687-6.68-13.55-4.059
			c-32.465,17.503-70.474,19.627-104.013,7.18c4.939-0.61,8.764-4.814,8.764-9.917v-40.338c0-5.523-4.478-10.001-10.001-10.001
			H71.221c-5.524,0-10.001,4.479-10.001,10.001v40.338c0,5.523,4.478,10.001,10.001,10.001h24.826
			c5.754,7.713,12.083,15.044,18.876,21.838c16.056,16.056,34.203,28.772,53.569,38.17H63.976c-5.524,0-10.001,4.479-10.001,10.001
			v54.007c0,5.523,4.478,10.001,10.001,10.001h384.048c5.524,0,10.001-4.479,10.001-10.001v-54.007
			C458.025,442.468,453.548,437.991,448.024,437.991z M366.986,20.543c0.549-0.55,1.443-0.55,1.992,0l11.964,11.964
			c0.341,0.342,0.413,0.731,0.413,0.997c0,0.267-0.072,0.655-0.413,0.996l-7.391,7.391l-13.956-13.957L366.986,20.543z
			 M148.617,266.826l-13.958-13.957l27.337-27.337l6.979,6.979l6.979,6.979L148.617,266.826z M327.539,177.759
			c-15.938,0-28.904-12.967-28.904-28.905s12.967-28.904,28.904-28.904c15.938,0,28.905,12.967,28.905,28.904
			C356.444,164.793,343.477,177.759,327.539,177.759z M380.543,81.706l-26.243,26.243c-7.695-5.052-16.888-8.002-26.761-8.002
			c-26.967,0-48.906,21.94-48.906,48.906c0,9.873,2.95,19.065,8.002,26.761L215.77,246.48c-1.25,1.25-3.286,1.25-4.537,0
			l-14.061-14.061c-0.001-0.001-0.002-0.002-0.002-0.003l-17.412-17.412l30.769-30.769c3.905-3.906,3.905-10.238,0-14.145
			c-3.906-3.905-10.238-3.905-14.145,0l-30.769,30.769l-10.607-10.607c-1.25-1.251-1.25-3.287,0-4.538L319.779,20.942
			c0.817-0.818,1.772-0.939,2.268-0.939c0.496,0,1.451,0.121,2.268,0.939l56.227,56.228
			C381.794,78.421,381.794,80.455,380.543,81.706z M101.137,357.981H81.222v-20.336h118.859v20.336H172.78H101.137z
			 M438.023,491.997H73.977v-34.004h364.046V491.997z"/>
	</g>
</g>
<g>
	<g>
		<path d="M358.928,348.8c-3.893-3.921-10.226-3.94-14.144-0.046l-0.227,0.226c-3.917,3.893-3.938,10.225-0.045,14.144
			c1.955,1.968,4.525,2.952,7.095,2.952c2.548,0,5.099-0.967,7.049-2.906l0.227-0.226C362.8,359.05,362.821,352.718,358.928,348.8z"
			/>
	</g>
</g>
<g>
	<g>
		<path d="M235.657,144.964c-1.86-1.871-4.441-2.93-7.071-2.93c-2.63,0-5.211,1.06-7.071,2.93c-1.86,1.86-2.93,4.441-2.93,7.071
			c0,2.63,1.07,5.201,2.93,7.07c1.86,1.86,4.441,2.931,7.071,2.931c2.63,0,5.211-1.07,7.071-2.931c1.86-1.869,2.93-4.44,2.93-7.07
			C238.588,149.405,237.518,146.824,235.657,144.964z"/>
	</g>
</g>
<g>
</g>
<g>
</g>
<g>
</g>
<g>
</g>
<g>
</g>
<g>
</g>
<g>
</g>
<g>
</g>
<g>
</g>
<g>
</g>
<g>
</g>
<g>
</g>
<g>
</g>
<g>
</g>
<g>
</g>
</svg>
