<?xml version="1.0" encoding="iso-8859-1"?>
<!-- Generator: Adobe Illustrator 19.0.0, SVG Export Plug-In . SVG Version: 6.00 Build 0)  -->
<svg version="1.1" id="Capa_1" xmlns="http://www.w3.org/2000/svg" xmlns:xlink="http://www.w3.org/1999/xlink" x="0px" y="0px"
	 viewBox="0 0 512.002 512.002" style="enable-background:new 0 0 512.002 512.002;" xml:space="preserve">
<g>
	<g>
		<path d="M297.686,340.982l-51.191-61.474v-43.576c0-13.27-10.795-24.064-24.064-24.064H77.569
			c-13.269,0-24.064,10.795-24.064,24.064v43.576l-51.19,61.473C0.819,342.778,0,345.043,0,347.381v133.591
			c0,17.036,13.86,30.896,30.896,30.896h238.209c17.036,0,30.896-13.859,30.896-30.896V347.381
			C300.001,345.043,299.182,342.778,297.686,340.982z M73.505,235.931c0-2.241,1.823-4.064,4.064-4.064h144.862
			c2.241,0,4.064,1.823,4.064,4.064v37.195H73.505V235.931z M280,480.971c0,6.008-4.888,10.896-10.896,10.896H30.896
			c-6.008,0-10.896-4.888-10.896-10.896V360.698h115.674c5.523,0,10-4.478,10-10c0-5.522-4.477-10-10-10H28.578l39.613-47.571
			h163.618L280,350.999V480.971z"/>
	</g>
</g>
<g>
	<g>
		<path d="M369.26,494.932c-1.86-1.86-4.44-2.93-7.07-2.93s-5.21,1.069-7.07,2.93c-1.86,1.86-2.93,4.44-2.93,7.07
			s1.07,5.21,2.93,7.069c1.86,1.86,4.44,2.931,7.07,2.931s5.21-1.07,7.07-2.931c1.86-1.859,2.93-4.439,2.93-7.069
			S371.12,496.792,369.26,494.932z"/>
	</g>
</g>
<g>
	<g>
		<path d="M510.929,184.673L494.434,9.066c-0.397-4.229-3.422-7.745-7.544-8.77c-4.124-1.025-8.441,0.666-10.772,4.218
			l-96.792,147.448c-25.651,39.076-39.462,84.437-39.939,131.177c-0.46,45,11.469,88.971,34.531,127.515l-11.619,46.419
			c-1.341,5.357,1.915,10.787,7.272,12.129c0.815,0.203,1.632,0.301,2.436,0.301c4.479,0,8.556-3.031,9.693-7.573l11.312-45.19
			c39.151-23.301,70.848-56.932,91.793-97.456C506.267,277.759,515.3,231.212,510.929,184.673z M479.997,69.238l8.865,94.371
			l-38.25,23.021L479.997,69.238z M460.506,64.742l-29.177,116.56l-22.642-37.621L460.506,64.742z M396.046,162.937l0.463-0.705
			l27.963,46.462l-18.139,72.463l-36.969-61.425C375.451,199.907,384.343,180.766,396.046,162.937z M381.137,381.815
			c-20.046-42.136-26.154-89.192-18.396-134.304l36.736,61.038L381.137,381.815z M400.196,388.044l18.459-73.744l62.195-37.432
			C466.392,320.947,438.413,360.12,400.196,388.044z M488.004,249.218l-62.469,37.597l18.198-72.701l47.205-28.411l0.079,0.84
			C493.011,207.775,491.906,228.852,488.004,249.218z"/>
	</g>
</g>
<g>
	<g>
		<path d="M189.91,343.632c-1.86-1.871-4.44-2.93-7.07-2.93s-5.21,1.06-7.07,2.93c-1.86,1.86-2.93,4.43-2.93,7.07
			c0,2.63,1.07,5.199,2.93,7.069c1.86,1.86,4.44,2.931,7.07,2.931s5.21-1.07,7.07-2.931c1.86-1.859,2.93-4.439,2.93-7.069
			C192.84,348.061,191.77,345.481,189.91,343.632z"/>
	</g>
</g>
<g>
</g>
<g>
</g>
<g>
</g>
<g>
</g>
<g>
</g>
<g>
</g>
<g>
</g>
<g>
</g>
<g>
</g>
<g>
</g>
<g>
</g>
<g>
</g>
<g>
</g>
<g>
</g>
<g>
</g>
</svg>
