<?xml version="1.0" encoding="iso-8859-1"?>
<!-- Generator: Adobe Illustrator 19.0.0, SVG Export Plug-In . SVG Version: 6.00 Build 0)  -->
<svg version="1.1" id="Capa_1" xmlns="http://www.w3.org/2000/svg" xmlns:xlink="http://www.w3.org/1999/xlink" x="0px" y="0px"
	 viewBox="0 0 512 512" style="enable-background:new 0 0 512 512;" xml:space="preserve">
<g>
	<g>
		<path d="M425.979,250c-5.523,0-10,4.477-10,10v78c0,5.522,4.477,10,10,10s10-4.478,10-10v-78
			C435.979,254.477,431.502,250,425.979,250z"/>
	</g>
</g>
<g>
	<g>
		<path d="M433.049,364.69c-1.86-1.86-4.44-2.93-7.07-2.93c-2.63,0-5.21,1.07-7.07,2.93c-1.86,1.87-2.93,4.44-2.93,7.07
			s1.07,5.21,2.93,7.07c1.86,1.859,4.44,2.93,7.07,2.93s5.21-1.07,7.07-2.93c1.86-1.86,2.93-4.44,2.93-7.07
			S434.909,366.56,433.049,364.69z"/>
	</g>
</g>
<g>
	<g>
		<path d="M465.979,250c-5.523,0-10,4.477-10,10v112c0,5.522,4.477,10,10,10s10-4.478,10-10V260
			C475.979,254.477,471.502,250,465.979,250z"/>
	</g>
</g>
<g>
	<g>
		<path d="M481.979,120h-72c-3.506,0-6.87,0.61-10,1.72V30c0-16.542-13.458-30-30-30h-72c-16.542,0-30,13.458-30,30v91.72
			c-3.13-1.11-6.494-1.72-10-1.72h-72c-16.542,0-30,13.458-30,30v120.937c-1.13,0.791-2.215,1.581-3.258,2.364
			c-3.043-17.797-11.458-34.195-24.485-47.223c-3.906-3.905-10.237-3.905-14.142,0c-3.905,3.905-3.906,10.237,0,14.142
			c8.597,8.597,14.593,19.095,17.63,30.54c-4.584-3.193-9.846-6.39-15.681-9.157c-29.2-13.846-58.13-10.488-83.667,9.708
			c-26.07,20.618-49.778,62.643-14.679,145.763c2.149,5.089,8.015,7.471,13.103,5.322c5.088-2.149,7.471-8.015,5.322-13.102
			c-10.364-24.544-15.79-46.54-16.125-65.375c-0.442-24.763,7.666-43.382,24.786-56.921c26.556-21.003,52.135-14.013,69.492-3.813
			c-11.912,2.442-23.084,8.33-32.093,17.339c-17.11,17.11-22.979,42.015-15.317,64.995c0.996,2.985,3.338,5.328,6.323,6.323
			c6.671,2.225,13.504,3.309,20.261,3.309c16.521,0,32.591-6.48,44.735-18.624c15.659-15.66,21.895-37.847,16.967-59.115
			c4.667-4.496,13.638-12.192,25.335-17.737c22.165-10.511,43.257-8.045,62.691,7.324c22.016,17.411,29.412,44.61,21.982,80.843
			c-6.373,31.076-21.736,60.155-29.12,74.13l-0.644,1.218C222.66,467.325,207.034,492,187.703,492
			c-11.423,0-17.099-3.574-23.108-7.358c-5.452-3.433-11.631-7.324-20.652-7.324c-8.949,0-15.128,3.892-20.58,7.324
			c-6.009,3.784-11.685,7.358-23.108,7.358c-10.632,0-21.069-7.336-31.906-22.428c-3.221-4.485-9.471-5.51-13.956-2.29
			c-4.486,3.222-5.511,9.47-2.29,13.956C66.967,501.938,82.718,512,100.255,512c17.195,0,26.772-6.03,33.765-10.435
			c4.557-2.869,6.881-4.248,9.995-4.248c3.042,0,5.366,1.379,9.923,4.248c6.993,4.404,16.57,10.435,33.765,10.435h70.276
			c7.678,0,14.688-2.902,20-7.663c5.312,4.761,12.322,7.663,20,7.663h72c7.678,0,14.688-2.902,20-7.663
			c5.312,4.761,12.322,7.663,20,7.663h72c16.542,0,30-13.458,30-30V150C511.979,133.458,498.521,120,481.979,120z M124.041,342.384
			c-10.493,10.493-25.268,14.81-39.549,11.831c-2.98-14.281,1.339-29.057,11.832-39.549c10.492-10.493,25.268-14.812,39.549-11.831
			C138.852,317.116,134.533,331.892,124.041,342.384z M267.979,482c0,5.514-4.486,10-10,10h-30.775
			c9.822-10.796,18.176-24.877,25.88-39.478l0.639-1.209c3.559-6.737,8.87-16.796,14.256-28.946V482z M267.979,283.263
			c-3.648-4.304-7.775-8.297-12.396-11.952c-24.352-19.259-51.79-23.193-79.604-11.512V150c0-5.514,4.486-10,10-10h72
			c5.514,0,10,4.486,10,10V283.263z M379.979,451.979c0,0.006-0.001,0.013-0.001,0.019c0,0.006,0.001,0.013,0.001,0.019V482
			c0,5.514-4.486,10-10,10h-72c-5.514,0-10-4.486-10-10v-32.499h92V451.979z M379.979,429.501h-92V82.499h92V429.501z
			 M379.979,62.499h-92V30c0-5.514,4.486-10,10-10h72c5.514,0,10,4.486,10,10V62.499z M491.979,482c0,5.514-4.486,10-10,10h-72
			c-5.514,0-10-4.486-10-10v-20.002h92V482z M491.979,441.999h-92v-252h92V441.999z M491.979,169.999h-92V150
			c0-5.514,4.486-10,10-10h72c5.514,0,10,4.486,10,10V169.999z"/>
	</g>
</g>
<g>
	<g>
		<path d="M351.645,286.46h-35.333c-5.523,0-10,4.478-10,10c0,5.522,4.477,10,10,10h35.333c5.523,0,10-4.478,10-10
			C361.645,290.938,357.168,286.46,351.645,286.46z"/>
	</g>
</g>
<g>
	<g>
		<path d="M351.645,246h-35.333c-5.523,0-10,4.477-10,10c0,5.522,4.477,10,10,10h35.333c5.523,0,10-4.478,10-10
			C361.645,250.477,357.168,246,351.645,246z"/>
	</g>
</g>
<g>
	<g>
		<path d="M351.645,205.54h-35.333c-5.523,0-10,4.477-10,10s4.477,10,10,10h35.333c5.523,0,10-4.477,10-10
			S357.168,205.54,351.645,205.54z"/>
	</g>
</g>
<g>
	<g>
		<path d="M52.554,443.175c-2.532-4.787-8.439-6.698-13.309-4.264c-4.939,2.471-6.942,8.477-4.472,13.416
			c0.096,0.192,0.208,0.401,0.317,0.587c1.858,3.186,5.207,4.963,8.647,4.963c1.711,0,3.445-0.44,5.029-1.364
			C53.425,453.795,55.071,447.893,52.554,443.175z"/>
	</g>
</g>
<g>
</g>
<g>
</g>
<g>
</g>
<g>
</g>
<g>
</g>
<g>
</g>
<g>
</g>
<g>
</g>
<g>
</g>
<g>
</g>
<g>
</g>
<g>
</g>
<g>
</g>
<g>
</g>
<g>
</g>
</svg>
