<?xml version="1.0" encoding="iso-8859-1"?>
<!-- Generator: Adobe Illustrator 19.0.0, SVG Export Plug-In . SVG Version: 6.00 Build 0)  -->
<svg version="1.1" id="Capa_1" xmlns="http://www.w3.org/2000/svg" xmlns:xlink="http://www.w3.org/1999/xlink" x="0px" y="0px"
	 viewBox="0 0 512 512" style="enable-background:new 0 0 512 512;" xml:space="preserve">
<g>
	<g>
		<path d="M263.071,210.43c-1.86-1.86-4.44-2.93-7.07-2.93s-5.21,1.07-7.07,2.93s-2.93,4.44-2.93,7.07s1.07,5.21,2.93,7.07
			s4.44,2.93,7.07,2.93s5.21-1.07,7.07-2.93c1.86-1.86,2.93-4.44,2.93-7.07S264.931,212.29,263.071,210.43z"/>
	</g>
</g>
<g>
	<g>
		<path d="M394.191,246h-41.574c28.518-26.593,45.384-64.262,45.384-104c0-78.299-63.701-142-142-142s-142,63.701-142,142
			c0,39.738,16.866,77.407,45.384,104h-41.574c-22.546,0-40.888,18.342-40.888,40.888c0,22.546,18.342,40.888,40.888,40.888h10.321
			l2.682,6.017c14.091,31.611,21.236,65.186,21.236,99.793V502c0,5.523,4.477,10,10,10s10-4.477,10-10v-68.414
			c0-8.904-0.451-17.743-1.323-26.508l24.089,31.454c-0.146,0.68-0.227,1.384-0.227,2.107v61.337c0,5.523,4.477,10,10,10
			s10-4.477,10-10v-37.823l33.624,43.904c1.892,2.471,4.827,3.92,7.939,3.92s6.047-1.449,7.939-3.92l28.885-37.716v31.636
			c0,5.523,4.477,10,10,10s10-4.477,10-10v-57.948l29.554-38.59c-1.705,13.528-2.579,27.21-2.579,41.019V502c0,5.523,4.477,10,10,10
			s10-4.477,10-10v-55.542c0-41.063,8.085-80.954,24.007-118.682h10.232c22.546,0,40.888-18.342,40.888-40.888
			C435.079,264.342,416.737,246,394.191,246z M344.756,225.626c-19.14-20.008-30.88-46.077-33.18-73.626h65.994
			C375.269,179.677,363.515,205.646,344.756,225.626z M377.589,132h-66.013c2.3-27.546,14.037-53.613,33.174-73.62
			C363.207,77.958,375.275,103.619,377.589,132z M266.001,20.412c23.891,1.948,45.852,10.809,63.883,24.574
			C307.449,68.644,293.849,99.489,291.521,132h-25.52V20.412z M256.001,184.333c5.523,0,10-4.477,10-10V152h25.52
			c2.329,32.523,15.939,63.379,38.389,87.041c-3.241,2.478-6.622,4.801-10.133,6.959H192.225c-3.511-2.159-6.892-4.482-10.133-6.959
			c22.451-23.661,36.061-54.518,38.389-87.041h25.52v22.333C246.001,179.856,250.478,184.333,256.001,184.333z M246.001,20.412V132
			h-25.52c-2.328-32.511-15.928-63.356-38.363-87.014C200.149,31.221,222.11,22.36,246.001,20.412z M167.252,58.38
			c19.137,20.007,30.874,46.074,33.174,73.62h-66.013C136.727,103.619,148.795,77.958,167.252,58.38z M134.433,152h65.994
			c-2.3,27.549-14.04,53.618-33.18,73.626C148.487,205.646,136.733,179.677,134.433,152z M162.344,362.473
			c-3.287-11.772-7.404-23.35-12.347-34.697h38.92L162.344,362.473z M209.025,424.193l-34.379-44.89l34.379-44.89l34.38,44.89
			L209.025,424.193z M229.134,327.776h53.734l-26.867,35.081L229.134,327.776z M256.152,485.53l-34.456-44.989l34.305-44.792
			l34.456,44.989L256.152,485.53z M302.977,424.193l-34.38-44.89l34.38-44.89l34.379,44.89L302.977,424.193z M350.614,363.721
			l-27.529-35.945h39.283C357.737,339.577,353.815,351.566,350.614,363.721z M394.191,307.776h-276.38
			c-11.518,0-20.888-9.371-20.888-20.888c0-11.517,9.37-20.888,20.888-20.888h276.38c11.518,0,20.888,9.37,20.888,20.888
			S405.709,307.776,394.191,307.776z"/>
	</g>
</g>
<g>
</g>
<g>
</g>
<g>
</g>
<g>
</g>
<g>
</g>
<g>
</g>
<g>
</g>
<g>
</g>
<g>
</g>
<g>
</g>
<g>
</g>
<g>
</g>
<g>
</g>
<g>
</g>
<g>
</g>
</svg>
