<?xml version="1.0" encoding="iso-8859-1"?>
<!-- Generator: Adobe Illustrator 19.0.0, SVG Export Plug-In . SVG Version: 6.00 Build 0)  -->
<svg version="1.1" id="Capa_1" xmlns="http://www.w3.org/2000/svg" xmlns:xlink="http://www.w3.org/1999/xlink" x="0px" y="0px"
	 viewBox="0 0 512 512" style="enable-background:new 0 0 512 512;" xml:space="preserve">
<g>
	<g>
		<path d="M502,38h-48h-80h-78c-16.339,0-30.87,7.878-40,20.035C246.87,45.878,232.339,38,216,38H10C4.478,38,0,42.477,0,48v416
			c0,5.523,4.478,10,10,10h492c5.522,0,10-4.477,10-10V48C512,42.477,507.522,38,502,38z M246,454H20v-52h195.873
			c16.56,0,30.074,13.472,30.127,30.032V454z M246,392.104c-8.396-6.34-18.836-10.104-30.127-10.104H20V58h196
			c16.542,0,30,13.458,30,30V392.104z M384,58h60v76.024l-25.384-13.208c-1.447-0.752-3.031-1.129-4.616-1.129
			c-1.585,0-3.169,0.376-4.616,1.129L384,134.024V58z M492,454H266v-21.968c0.053-16.56,13.567-30.032,30.127-30.032H492V454z
			 M492,382H296.127c-11.291,0-21.73,3.764-30.127,10.104V88c0-16.542,13.458-30,30-30h68v92.5c0,3.495,1.824,6.735,4.812,8.549
			c2.989,1.814,6.707,1.935,9.805,0.322L414,140.959l35.384,18.412c1.45,0.754,3.034,1.129,4.616,1.129
			c1.801,0,3.598-0.486,5.188-1.451c2.987-1.813,4.812-5.054,4.812-8.549V58h28V382z"/>
	</g>
</g>
<g>
	<g>
		<path d="M199.08,316.93c-1.86-1.86-4.44-2.93-7.07-2.93s-5.21,1.07-7.07,2.93c-1.859,1.86-2.93,4.44-2.93,7.07
			c0,2.64,1.07,5.21,2.93,7.07c1.86,1.86,4.44,2.93,7.07,2.93c2.64,0,5.21-1.07,7.07-2.93c1.859-1.86,2.93-4.44,2.93-7.07
			S200.94,318.79,199.08,316.93z"/>
	</g>
</g>
<g>
	<g>
		<path d="M154.316,314H64.319c-5.522,0-10,4.477-10,10s4.478,10,10,10h89.997c5.522,0,10-4.477,10-10S159.838,314,154.316,314z"/>
	</g>
</g>
<g>
	<g>
		<path d="M192.012,244.667H64.319c-5.522,0-10,4.477-10,10s4.478,10,10,10h127.693c5.522,0,10-4.477,10-10
			S197.534,244.667,192.012,244.667z"/>
	</g>
</g>
<g>
	<g>
		<path d="M192.012,175.333H64.319c-5.522,0-10,4.477-10,10c0,5.523,4.478,10,10,10h127.693c5.522,0,10-4.477,10-10
			C202.012,179.81,197.534,175.333,192.012,175.333z"/>
	</g>
</g>
<g>
	<g>
		<path d="M192.013,106h-90.346c-5.522,0-10,4.477-10,10s4.478,10,10,10h90.346c5.522,0,10-4.477,10-10S197.535,106,192.013,106z"/>
	</g>
</g>
<g>
	<g>
		<path d="M71.389,108.93c-1.86-1.86-4.439-2.93-7.07-2.93c-2.63,0-5.21,1.07-7.069,2.93c-1.86,1.86-2.931,4.44-2.931,7.07
			s1.07,5.21,2.931,7.07c1.859,1.86,4.439,2.93,7.069,2.93c2.631,0,5.21-1.07,7.07-2.93c1.86-1.86,2.93-4.44,2.93-7.07
			S73.25,110.79,71.389,108.93z"/>
	</g>
</g>
<g>
	<g>
		<path d="M331,106h-10.693c-5.522,0-10,4.477-10,10s4.477,10,10,10H331c5.522,0,10-4.477,10-10S336.522,106,331,106z"/>
	</g>
</g>
<g>
	<g>
		<path d="M448.043,314H320.307c-5.522,0-10,4.477-10,10s4.477,10,10,10h127.736c5.522,0,10-4.477,10-10S453.565,314,448.043,314z"
			/>
	</g>
</g>
<g>
	<g>
		<path d="M448,244.667H320.307c-5.522,0-10,4.477-10,10s4.477,10,10,10H448c5.522,0,10-4.477,10-10S453.522,244.667,448,244.667z"
			/>
	</g>
</g>
<g>
	<g>
		<path d="M448,175.333H320.307c-5.522,0-10,4.477-10,10c0,5.523,4.477,10,10,10H448c5.522,0,10-4.477,10-10
			C458,179.81,453.522,175.333,448,175.333z"/>
	</g>
</g>
<g>
</g>
<g>
</g>
<g>
</g>
<g>
</g>
<g>
</g>
<g>
</g>
<g>
</g>
<g>
</g>
<g>
</g>
<g>
</g>
<g>
</g>
<g>
</g>
<g>
</g>
<g>
</g>
<g>
</g>
</svg>
