<?xml version="1.0" encoding="iso-8859-1"?>
<!-- Generator: Adobe Illustrator 19.0.0, SVG Export Plug-In . SVG Version: 6.00 Build 0)  -->
<svg version="1.1" id="Capa_1" xmlns="http://www.w3.org/2000/svg" xmlns:xlink="http://www.w3.org/1999/xlink" x="0px" y="0px"
	 viewBox="0 0 512.001 512.001" style="enable-background:new 0 0 512.001 512.001;" xml:space="preserve">
<g>
	<g>
		<path d="M492,98.22V79.781c0-20.522-16.696-37.219-37.219-37.219h-31.077C411.48,29.609,394.175,21.5,375,21.5H137.088
			c-19.175,0-36.48,8.109-48.705,21.063H57.219C36.696,42.563,20,59.259,20,79.781V98.22C8.361,102.349,0,113.464,0,126.5v44
			c0,16.542,13.458,30,30,30s30-13.458,30-30v-44c0-13.036-8.361-24.152-20-28.28V79.781c0-9.495,7.725-17.219,17.219-17.219h18.096
			c-3.364,7.982-5.227,16.746-5.227,25.938V229.62C60.439,235.625,54,246.323,54,258.5v84.841c-16.211,5.109-28,20.282-28,38.159
			c0,22.056,17.944,40,40,40h4.088v31c0,6.509,1.647,12.639,4.543,18H30c-5.522,0-10,4.477-10,10s4.478,10,10,10h174.127
			c5.522,0,10-4.477,10-10s-4.478-10-10-10h-62.582c2.896-5.361,4.543-11.491,4.543-18v-31H366v31c0,6.509,1.647,12.639,4.543,18
			H313c-5.522,0-10,4.477-10,10s4.478,10,10,10h151.531c5.522,0,10-4.477,10-10s-4.478-10-10-10h-27.074
			c2.896-5.361,4.543-11.491,4.543-18v-31h4c22.056,0,40-17.944,40-40c0-17.844-11.747-32.992-27.912-38.129V258.5
			c0-12.178-6.439-22.875-16.088-28.881V88.5c0-9.192-1.863-17.955-5.227-25.938h18.009c9.494,0,17.219,7.724,17.219,17.219V98.22
			c-11.639,4.128-20,15.243-20,28.28v44c0,16.542,13.458,30,30,30s30-13.458,30-30v-44C512,113.464,503.639,102.349,492,98.22z
			 M40,170.5c0,5.514-4.486,10-10,10s-10-4.486-10-10v-44c0-5.514,4.486-10,10-10s10,4.486,10,10V170.5z M266.004,41.5H375
			c1.516,0,3.013,0.079,4.493,0.22l-59.136,59.136c-3.905,3.905-3.905,10.237,0,14.143c1.953,1.953,4.512,2.929,7.071,2.929
			s5.118-0.976,7.071-2.929l65.969-65.969c11.127,7.205,19.032,18.974,21.03,32.643L278.671,224.5h-12.667V41.5z M422,109.456V224.5
			H306.956L422,109.456z M90.088,88.5c0-25.916,21.084-47,47-47h69.938l-84.513,84.513c-3.905,3.905-3.905,10.237,0,14.143
			c1.953,1.953,4.512,2.929,7.071,2.929c2.559,0,5.118-0.976,7.071-2.929L235.311,41.5h10.693v42.98L105.984,224.5H90.088V88.5z
			 M246.004,112.766V224.5H134.27L246.004,112.766z M126.088,452.5c0,9.925-8.075,18-18,18s-18-8.075-18-18v-31h36V452.5z
			 M422,452.5c0,9.925-8.075,18-18,18s-18-8.075-18-18v-31h36V452.5z M446,361.5c11.028,0,20,8.972,20,20s-8.972,20-20,20H66
			c-11.028,0-20-8.972-20-20s8.972-20,20-20H446z M438.088,258.5v83H74v-83c0-7.72,6.28-14,14-14h336.088
			C431.808,244.5,438.088,250.78,438.088,258.5z M492,170.5c0,5.514-4.486,10-10,10c-5.514,0-10-4.486-10-10v-44
			c0-5.514,4.486-10,10-10c5.514,0,10,4.486,10,10V170.5z"/>
	</g>
</g>
<g>
	<g>
		<path d="M305.21,130.151c-1.86-1.87-4.44-2.93-7.07-2.93s-5.21,1.06-7.07,2.93c-1.859,1.86-2.93,4.43-2.93,7.06
			c0,2.64,1.07,5.22,2.93,7.08s4.44,2.93,7.07,2.93s5.21-1.07,7.07-2.93c1.859-1.86,2.93-4.44,2.93-7.08
			C308.14,134.581,307.07,132.01,305.21,130.151z"/>
	</g>
</g>
<g>
	<g>
		<path d="M140.088,263c-16.542,0-30,13.458-30,30s13.458,30,30,30s30-13.458,30-30S156.63,263,140.088,263z M140.088,303
			c-5.514,0-10-4.486-10-10c0-5.514,4.486-10,10-10s10,4.486,10,10C150.088,298.514,145.602,303,140.088,303z"/>
	</g>
</g>
<g>
	<g>
		<path d="M372,263c-16.542,0-30,13.458-30,30s13.458,30,30,30s30-13.458,30-30S388.542,263,372,263z M372,303
			c-5.514,0-10-4.486-10-10c0-5.514,4.486-10,10-10c5.514,0,10,4.486,10,10C382,298.514,377.514,303,372,303z"/>
	</g>
</g>
<g>
	<g>
		<path d="M308.127,303h-104c-5.522,0-10,4.477-10,10s4.478,10,10,10h104c5.522,0,10-4.477,10-10S313.649,303,308.127,303z"/>
	</g>
</g>
<g>
	<g>
		<path d="M308.127,263h-104c-5.522,0-10,4.477-10,10s4.478,10,10,10h104c5.522,0,10-4.477,10-10S313.649,263,308.127,263z"/>
	</g>
</g>
<g>
	<g>
		<path d="M263.2,473.43c-1.86-1.86-4.44-2.93-7.07-2.93c-2.64,0-5.21,1.07-7.07,2.93c-1.87,1.86-2.93,4.44-2.93,7.07
			s1.06,5.21,2.93,7.07c1.86,1.86,4.431,2.93,7.07,2.93c2.63,0,5.21-1.07,7.07-2.93c1.859-1.86,2.93-4.44,2.93-7.07
			S265.06,475.29,263.2,473.43z"/>
	</g>
</g>
<g>
</g>
<g>
</g>
<g>
</g>
<g>
</g>
<g>
</g>
<g>
</g>
<g>
</g>
<g>
</g>
<g>
</g>
<g>
</g>
<g>
</g>
<g>
</g>
<g>
</g>
<g>
</g>
<g>
</g>
</svg>
