%!PS-Adobe-3.0 EPSF-3.0
%%Creator: cairo 1.14.2 (http://cairographics.org)
%%CreationDate: Tue Apr  3 10:37:02 2018
%%Pages: 1
%%DocumentData: Clean7Bit
%%LanguageLevel: 2
%%BoundingBox: 0 32 384 352
%%EndComments
%%BeginProlog
save
50 dict begin
/q { gsave } bind def
/Q { grestore } bind def
/cm { 6 array astore concat } bind def
/w { setlinewidth } bind def
/J { setlinecap } bind def
/j { setlinejoin } bind def
/M { setmiterlimit } bind def
/d { setdash } bind def
/m { moveto } bind def
/l { lineto } bind def
/c { curveto } bind def
/h { closepath } bind def
/re { exch dup neg 3 1 roll 5 3 roll moveto 0 rlineto
      0 exch rlineto 0 rlineto closepath } bind def
/S { stroke } bind def
/f { fill } bind def
/f* { eofill } bind def
/n { newpath } bind def
/W { clip } bind def
/W* { eoclip } bind def
/BT { } bind def
/ET { } bind def
/pdfmark where { pop globaldict /?pdfmark /exec load put }
    { globaldict begin /?pdfmark /pop load def /pdfmark
    /cleartomark load def end } ifelse
/BDC { mark 3 1 roll /BDC pdfmark } bind def
/EMC { mark /EMC pdfmark } bind def
/cairo_store_point { /cairo_point_y exch def /cairo_point_x exch def } def
/Tj { show currentpoint cairo_store_point } bind def
/TJ {
  {
    dup
    type /stringtype eq
    { show } { -0.001 mul 0 cairo_font_matrix dtransform rmoveto } ifelse
  } forall
  currentpoint cairo_store_point
} bind def
/cairo_selectfont { cairo_font_matrix aload pop pop pop 0 0 6 array astore
    cairo_font exch selectfont cairo_point_x cairo_point_y moveto } bind def
/Tf { pop /cairo_font exch def /cairo_font_matrix where
      { pop cairo_selectfont } if } bind def
/Td { matrix translate cairo_font_matrix matrix concatmatrix dup
      /cairo_font_matrix exch def dup 4 get exch 5 get cairo_store_point
      /cairo_font where { pop cairo_selectfont } if } bind def
/Tm { 2 copy 8 2 roll 6 array astore /cairo_font_matrix exch def
      cairo_store_point /cairo_font where { pop cairo_selectfont } if } bind def
/g { setgray } bind def
/rg { setrgbcolor } bind def
/d1 { setcachedevice } bind def
%%EndProlog
%%BeginSetup
%%EndSetup
%%Page: 1 1
%%BeginPageSetup
%%PageBoundingBox: 0 32 384 352
%%EndPageSetup
q 0 32 384 320 rectclip q
0 g
384 217.602 m 384 345.602 l 384 349.133 381.133 352 377.602 352 c 198.398
 352 l 194.867 352 192 349.133 192 345.602 c 192 217.602 l 192 214.066 194.867
 211.199 198.398 211.199 c 254.207 211.199 l 251.008 198.398 l 172.633 198.398
 l 167.848 204.781 160.848 209.137 153.012 210.609 c 150.211 225.766 137.012
 236.773 121.602 236.801 c 108.801 236.801 l 93.391 236.773 80.188 225.766
 77.391 210.609 c 69.551 209.137 62.551 204.781 57.766 198.398 c 6.398 198.398
 l 2.867 198.398 0 195.535 0 192 c 0 38.398 l 0 34.867 2.867 32 6.398 32
 c 9.934 32 12.801 34.867 12.801 38.398 c 12.801 160 l 51.199 160 l 51.199
 147.199 l 44.801 147.199 l 34.195 147.199 25.602 138.605 25.602 128 c 25.602
 115.199 l 25.602 104.598 34.195 96 44.801 96 c 96 96 l 96 76.801 l 96 73.266
 98.867 70.398 102.398 70.398 c 108.801 70.398 l 108.801 57.602 l 76.801
 57.602 l 73.266 57.602 70.398 54.734 70.398 51.199 c 70.398 38.398 l 70.398
 34.867 73.266 32 76.801 32 c 80.336 32 83.199 34.867 83.199 38.398 c 83.199
 44.801 l 108.801 44.801 l 108.801 38.398 l 108.801 34.867 111.664 32 115.199
 32 c 118.734 32 121.602 34.867 121.602 38.398 c 121.602 44.801 l 147.199
 44.801 l 147.199 38.398 l 147.199 34.867 150.066 32 153.602 32 c 157.133
 32 160 34.867 160 38.398 c 160 51.199 l 160 54.734 157.133 57.602 153.602
 57.602 c 121.602 57.602 l 121.602 70.398 l 128 70.398 l 131.535 70.398 
134.398 73.266 134.398 76.801 c 134.398 96 l 185.602 96 l 196.203 96 204.801
 104.598 204.801 115.199 c 204.801 128 l 204.801 138.605 196.203 147.199
 185.602 147.199 c 179.199 147.199 l 179.199 160 l 371.199 160 l 371.199
 38.398 l 371.199 34.867 374.066 32 377.602 32 c 381.133 32 384 34.867 384
 38.398 c 384 192 l 384 195.535 381.133 198.398 377.602 198.398 c 324.992
 198.398 l 321.793 211.199 l 377.602 211.199 l 381.133 211.199 384 214.066
 384 217.602 c h
51.199 108.801 m 44.801 108.801 l 41.266 108.801 38.398 111.664 38.398 
115.199 c 38.398 128 l 38.398 131.535 41.266 134.398 44.801 134.398 c 51.199
 134.398 l h
51.199 179.199 m 51.199 172.801 l 12.801 172.801 l 12.801 185.602 l 51.84
 185.602 l 51.41 183.492 51.199 181.348 51.199 179.199 c h
108.801 224 m 121.602 224 l 129.734 223.992 136.984 218.867 139.707 211.199
 c 90.695 211.199 l 93.418 218.867 100.664 223.992 108.801 224 c h
121.602 83.199 m 108.801 83.199 l 108.801 96 l 121.602 96 l h
166.398 108.801 m 64 108.801 l 64 179.199 l 64 189.805 72.598 198.398 83.199
 198.398 c 147.199 198.398 l 157.805 198.398 166.398 189.805 166.398 179.199
 c h
185.602 134.398 m 189.133 134.398 192 131.535 192 128 c 192 115.199 l 192
 111.664 189.133 108.801 185.602 108.801 c 179.199 108.801 l 179.199 134.398
 l h
371.199 185.602 m 371.199 172.801 l 179.199 172.801 l 179.199 179.199 l
 179.203 181.348 178.988 183.492 178.559 185.602 c h
264.199 198.398 m 267.398 211.199 l 308.602 211.199 l 311.801 198.398 l
 h
371.199 224 m 204.801 224 l 204.801 236.801 l 371.199 236.801 l h
371.199 249.602 m 204.801 249.602 l 204.801 339.199 l 371.199 339.199 l
 h
371.199 249.602 m f
115.199 307.199 m 97.527 307.199 83.199 292.871 83.199 275.199 c 83.199
 257.527 97.527 243.199 115.199 243.199 c 132.871 243.199 147.199 257.527
 147.199 275.199 c 147.18 292.863 132.863 307.18 115.199 307.199 c h
115.199 256 m 104.598 256 96 264.598 96 275.199 c 96 285.805 104.598 294.398
 115.199 294.398 c 125.805 294.398 134.398 285.805 134.398 275.199 c 134.398
 264.598 125.805 256 115.199 256 c h
115.199 256 m f
Q Q
showpage
%%Trailer
end restore
%%EOF
