%!PS-Adobe-3.0 EPSF-3.0
%%Creator: cairo 1.14.2 (http://cairographics.org)
%%CreationDate: Tue Apr  3 10:37:02 2018
%%Pages: 1
%%DocumentData: Clean7Bit
%%LanguageLevel: 2
%%BoundingBox: 0 0 384 384
%%EndComments
%%BeginProlog
save
50 dict begin
/q { gsave } bind def
/Q { grestore } bind def
/cm { 6 array astore concat } bind def
/w { setlinewidth } bind def
/J { setlinecap } bind def
/j { setlinejoin } bind def
/M { setmiterlimit } bind def
/d { setdash } bind def
/m { moveto } bind def
/l { lineto } bind def
/c { curveto } bind def
/h { closepath } bind def
/re { exch dup neg 3 1 roll 5 3 roll moveto 0 rlineto
      0 exch rlineto 0 rlineto closepath } bind def
/S { stroke } bind def
/f { fill } bind def
/f* { eofill } bind def
/n { newpath } bind def
/W { clip } bind def
/W* { eoclip } bind def
/BT { } bind def
/ET { } bind def
/pdfmark where { pop globaldict /?pdfmark /exec load put }
    { globaldict begin /?pdfmark /pop load def /pdfmark
    /cleartomark load def end } ifelse
/BDC { mark 3 1 roll /BDC pdfmark } bind def
/EMC { mark /EMC pdfmark } bind def
/cairo_store_point { /cairo_point_y exch def /cairo_point_x exch def } def
/Tj { show currentpoint cairo_store_point } bind def
/TJ {
  {
    dup
    type /stringtype eq
    { show } { -0.001 mul 0 cairo_font_matrix dtransform rmoveto } ifelse
  } forall
  currentpoint cairo_store_point
} bind def
/cairo_selectfont { cairo_font_matrix aload pop pop pop 0 0 6 array astore
    cairo_font exch selectfont cairo_point_x cairo_point_y moveto } bind def
/Tf { pop /cairo_font exch def /cairo_font_matrix where
      { pop cairo_selectfont } if } bind def
/Td { matrix translate cairo_font_matrix matrix concatmatrix dup
      /cairo_font_matrix exch def dup 4 get exch 5 get cairo_store_point
      /cairo_font where { pop cairo_selectfont } if } bind def
/Tm { 2 copy 8 2 roll 6 array astore /cairo_font_matrix exch def
      cairo_store_point /cairo_font where { pop cairo_selectfont } if } bind def
/g { setgray } bind def
/rg { setrgbcolor } bind def
/d1 { setcachedevice } bind def
%%EndProlog
%%BeginSetup
%%EndSetup
%%Page: 1 1
%%BeginPageSetup
%%PageBoundingBox: 0 0 384 384
%%EndPageSetup
q 0 0 384 384 rectclip q
0 g
147.199 115.199 m 44.801 115.199 l 44.801 137.602 l 44.801 149.973 34.77
 160 22.398 160 c 10.027 160 0 149.973 0 137.602 c 0 6.398 l 0 2.867 2.867
 0 6.398 0 c 96 0 l 106.559 -0.047 115.156 8.473 115.203 19.031 c 115.223
 23.828 113.441 28.457 110.207 32 c 116.863 39.234 116.863 50.363 110.207
 57.602 c 115.023 62.754 116.512 70.191 114.047 76.801 c 147.199 76.801 
l 157.805 76.801 166.398 85.395 166.398 96 c 166.398 106.605 157.805 115.199
 147.199 115.199 c h
96 12.801 m 70.398 12.801 l 66.867 12.801 64 15.664 64 19.199 c 64 22.734
 66.867 25.602 70.398 25.602 c 96 25.602 l 99.535 25.602 102.398 22.734 
102.398 19.199 c 102.398 15.664 99.535 12.801 96 12.801 c h
96 38.398 m 70.398 38.398 l 66.867 38.398 64 41.266 64 44.801 c 64 48.336
 66.867 51.199 70.398 51.199 c 96 51.199 l 99.535 51.199 102.398 48.336 
102.398 44.801 c 102.398 41.266 99.535 38.398 96 38.398 c h
96 64 m 70.398 64 l 66.867 64 64 66.867 64 70.398 c 64 73.934 66.867 76.801
 70.398 76.801 c 96 76.801 l 99.535 76.801 102.398 73.934 102.398 70.398
 c 102.398 66.867 99.535 64 96 64 c h
147.199 89.602 m 70.398 89.602 l 59.844 89.645 51.246 81.125 51.199 70.566
 c 51.176 65.773 52.961 61.145 56.191 57.602 c 49.535 50.363 49.535 39.234
 56.191 32 c 51.375 26.844 49.891 19.41 52.352 12.801 c 12.801 12.801 l 
12.801 137.602 l 12.801 142.902 17.098 147.199 22.398 147.199 c 27.703 147.199
 32 142.902 32 137.602 c 32 108.801 l 32 105.266 34.867 102.398 38.398 102.398
 c 147.199 102.398 l 150.734 102.398 153.602 99.535 153.602 96 c 153.602
 92.465 150.734 89.602 147.199 89.602 c h
147.199 89.602 m f
377.602 384 m 288 384 l 277.441 384.047 268.844 375.527 268.797 364.969
 c 268.777 360.172 270.559 355.543 273.793 352 c 267.137 344.766 267.137
 333.637 273.793 326.398 c 268.977 321.246 267.488 313.809 269.953 307.199
 c 236.801 307.199 l 226.195 307.199 217.602 298.605 217.602 288 c 217.602
 277.395 226.195 268.801 236.801 268.801 c 339.199 268.801 l 339.199 246.398
 l 339.199 234.027 349.23 224 361.602 224 c 373.973 224 384 234.027 384 
246.398 c 384 377.602 l 384 381.133 381.137 384 377.602 384 c h
288 371.199 m 313.602 371.199 l 317.133 371.199 320 368.336 320 364.801
 c 320 361.266 317.133 358.398 313.602 358.398 c 288 358.398 l 284.465 358.398
 281.602 361.266 281.602 364.801 c 281.602 368.336 284.465 371.199 288 371.199
 c h
288 345.602 m 313.602 345.602 l 317.133 345.602 320 342.734 320 339.199
 c 320 335.664 317.133 332.801 313.602 332.801 c 288 332.801 l 284.465 332.801
 281.602 335.664 281.602 339.199 c 281.602 342.734 284.465 345.602 288 345.602
 c h
288 320 m 313.602 320 l 317.133 320 320 317.133 320 313.602 c 320 310.066
 317.133 307.199 313.602 307.199 c 288 307.199 l 284.465 307.199 281.602
 310.066 281.602 313.602 c 281.602 317.133 284.465 320 288 320 c h
371.199 246.398 m 371.199 241.098 366.902 236.801 361.602 236.801 c 356.297
 236.801 352 241.098 352 246.398 c 352 275.199 l 352 278.734 349.133 281.602
 345.602 281.602 c 236.801 281.602 l 233.266 281.602 230.398 284.465 230.398
 288 c 230.398 291.535 233.266 294.398 236.801 294.398 c 313.602 294.398
 l 324.156 294.355 332.754 302.875 332.801 313.434 c 332.824 318.227 331.039
 322.855 327.809 326.398 c 334.465 333.637 334.465 344.766 327.809 352 c
 332.625 357.156 334.109 364.59 331.648 371.199 c 371.199 371.199 l h
371.199 246.398 m f
192 224 m 174.328 224 160 209.672 160 192 c 160.02 174.336 174.336 160.02
 192 160 c 209.672 160 224 174.328 224 192 c 224 209.672 209.672 224 192
 224 c h
192 172.801 m 181.395 172.801 172.801 181.395 172.801 192 c 172.801 202.605
 181.395 211.199 192 211.199 c 202.605 211.199 211.199 202.605 211.199 192
 c 211.199 181.395 202.605 172.801 192 172.801 c h
192 172.801 m f
337.531 196.281 m 335.609 198.438 l 264.23 277.754 142.07 284.184 62.758
 212.805 c 57.719 208.27 52.926 203.477 48.391 198.438 c 46.469 196.281 
l 44.277 193.848 44.277 190.152 46.469 187.719 c 48.391 185.562 l 119.77
 106.246 241.93 99.816 321.242 171.195 c 326.281 175.73 331.074 180.523 
335.609 185.562 c 337.531 187.719 l 339.723 190.152 339.723 193.848 337.531
 196.281 c h
59.84 192 m 82.508 216.336 111.449 233.945 143.48 242.887 c 115.383 216.246
 114.199 171.867 140.84 143.77 c 141.695 142.863 142.578 141.984 143.48 
141.125 c 111.453 150.066 82.508 167.668 59.84 192 c h
192 134.398 m 160.188 134.398 134.398 160.188 134.398 192 c 134.398 223.812
 160.188 249.602 192 249.602 c 223.797 249.562 249.562 223.797 249.602 192
 c 249.602 160.188 223.812 134.398 192 134.398 c h
240.52 141.113 m 268.617 167.754 269.801 212.133 243.16 240.23 c 242.305
 241.137 241.422 242.016 240.52 242.875 c 272.551 233.934 301.492 216.332
 324.16 192 c 301.492 167.664 272.551 150.055 240.52 141.113 c h
240.52 141.113 m f
Q Q
showpage
%%Trailer
end restore
%%EOF
