%!PS-Adobe-3.0 EPSF-3.0
%%Creator: cairo 1.14.2 (http://cairographics.org)
%%CreationDate: Tue Apr  3 10:37:02 2018
%%Pages: 1
%%DocumentData: Clean7Bit
%%LanguageLevel: 2
%%BoundingBox: 0 0 384 384
%%EndComments
%%BeginProlog
save
50 dict begin
/q { gsave } bind def
/Q { grestore } bind def
/cm { 6 array astore concat } bind def
/w { setlinewidth } bind def
/J { setlinecap } bind def
/j { setlinejoin } bind def
/M { setmiterlimit } bind def
/d { setdash } bind def
/m { moveto } bind def
/l { lineto } bind def
/c { curveto } bind def
/h { closepath } bind def
/re { exch dup neg 3 1 roll 5 3 roll moveto 0 rlineto
      0 exch rlineto 0 rlineto closepath } bind def
/S { stroke } bind def
/f { fill } bind def
/f* { eofill } bind def
/n { newpath } bind def
/W { clip } bind def
/W* { eoclip } bind def
/BT { } bind def
/ET { } bind def
/pdfmark where { pop globaldict /?pdfmark /exec load put }
    { globaldict begin /?pdfmark /pop load def /pdfmark
    /cleartomark load def end } ifelse
/BDC { mark 3 1 roll /BDC pdfmark } bind def
/EMC { mark /EMC pdfmark } bind def
/cairo_store_point { /cairo_point_y exch def /cairo_point_x exch def } def
/Tj { show currentpoint cairo_store_point } bind def
/TJ {
  {
    dup
    type /stringtype eq
    { show } { -0.001 mul 0 cairo_font_matrix dtransform rmoveto } ifelse
  } forall
  currentpoint cairo_store_point
} bind def
/cairo_selectfont { cairo_font_matrix aload pop pop pop 0 0 6 array astore
    cairo_font exch selectfont cairo_point_x cairo_point_y moveto } bind def
/Tf { pop /cairo_font exch def /cairo_font_matrix where
      { pop cairo_selectfont } if } bind def
/Td { matrix translate cairo_font_matrix matrix concatmatrix dup
      /cairo_font_matrix exch def dup 4 get exch 5 get cairo_store_point
      /cairo_font where { pop cairo_selectfont } if } bind def
/Tm { 2 copy 8 2 roll 6 array astore /cairo_font_matrix exch def
      cairo_store_point /cairo_font where { pop cairo_selectfont } if } bind def
/g { setgray } bind def
/rg { setrgbcolor } bind def
/d1 { setcachedevice } bind def
%%EndProlog
%%BeginSetup
%%EndSetup
%%Page: 1 1
%%BeginPageSetup
%%PageBoundingBox: 0 0 384 384
%%EndPageSetup
q 0 0 384 384 rectclip q
0 g
38.398 121.602 m 24.262 121.602 12.801 110.137 12.801 96 c 12.801 81.863
 24.262 70.398 38.398 70.398 c 52.539 70.398 64 81.863 64 96 c 64 110.137
 52.539 121.602 38.398 121.602 c h
38.398 83.199 m 31.332 83.199 25.602 88.93 25.602 96 c 25.602 103.07 31.332
 108.801 38.398 108.801 c 45.469 108.801 51.199 103.07 51.199 96 c 51.199
 88.93 45.469 83.199 38.398 83.199 c h
38.398 83.199 m f
38.398 64 m 17.191 64 0 46.809 0 25.602 c 0 6.398 l 0 2.867 2.867 0 6.398
 0 c 9.934 0 12.801 2.867 12.801 6.398 c 12.801 25.602 l 12.801 39.738 24.262
 51.199 38.398 51.199 c 52.539 51.199 64 39.738 64 25.602 c 64 6.398 l 64
 2.867 66.867 0 70.398 0 c 73.934 0 76.801 2.867 76.801 6.398 c 76.801 25.602
 l 76.801 46.809 59.609 64 38.398 64 c h
38.398 64 m f
140.801 121.602 m 126.66 121.602 115.199 110.137 115.199 96 c 115.199 81.863
 126.66 70.398 140.801 70.398 c 154.938 70.398 166.398 81.863 166.398 96
 c 166.398 110.137 154.938 121.602 140.801 121.602 c h
140.801 83.199 m 133.73 83.199 128 88.93 128 96 c 128 103.07 133.73 108.801
 140.801 108.801 c 147.871 108.801 153.602 103.07 153.602 96 c 153.602 88.93
 147.871 83.199 140.801 83.199 c h
140.801 83.199 m f
140.801 64 m 119.594 64 102.398 46.809 102.398 25.602 c 102.398 6.398 l
 102.398 2.867 105.266 0 108.801 0 c 112.336 0 115.199 2.867 115.199 6.398
 c 115.199 25.602 l 115.199 39.738 126.66 51.199 140.801 51.199 c 154.938
 51.199 166.398 39.738 166.398 25.602 c 166.398 6.398 l 166.398 2.867 169.266
 0 172.801 0 c 176.336 0 179.199 2.867 179.199 6.398 c 179.199 25.602 l 
179.199 46.809 162.008 64 140.801 64 c h
140.801 64 m f
243.199 121.602 m 229.062 121.602 217.602 110.137 217.602 96 c 217.602 
81.863 229.062 70.398 243.199 70.398 c 257.34 70.398 268.801 81.863 268.801
 96 c 268.801 110.137 257.34 121.602 243.199 121.602 c h
243.199 83.199 m 236.129 83.199 230.398 88.93 230.398 96 c 230.398 103.07
 236.129 108.801 243.199 108.801 c 250.27 108.801 256 103.07 256 96 c 256
 88.93 250.27 83.199 243.199 83.199 c h
243.199 83.199 m f
243.199 64 m 221.992 64 204.801 46.809 204.801 25.602 c 204.801 6.398 l
 204.801 2.867 207.664 0 211.199 0 c 214.734 0 217.602 2.867 217.602 6.398
 c 217.602 25.602 l 217.602 39.738 229.062 51.199 243.199 51.199 c 257.34
 51.199 268.801 39.738 268.801 25.602 c 268.801 6.398 l 268.801 2.867 271.664
 0 275.199 0 c 278.734 0 281.602 2.867 281.602 6.398 c 281.602 25.602 l 
281.602 46.809 264.406 64 243.199 64 c h
243.199 64 m f
345.602 121.602 m 331.461 121.602 320 110.137 320 96 c 320 81.863 331.461
 70.398 345.602 70.398 c 359.738 70.398 371.199 81.863 371.199 96 c 371.199
 110.137 359.738 121.602 345.602 121.602 c h
345.602 83.199 m 338.531 83.199 332.801 88.93 332.801 96 c 332.801 103.07
 338.531 108.801 345.602 108.801 c 352.668 108.801 358.398 103.07 358.398
 96 c 358.398 88.93 352.668 83.199 345.602 83.199 c h
345.602 83.199 m f
345.602 64 m 324.402 63.98 307.223 46.801 307.199 25.602 c 307.199 6.398
 l 307.199 2.867 310.066 0 313.602 0 c 317.133 0 320 2.867 320 6.398 c 320
 25.602 l 320 39.738 331.461 51.199 345.602 51.199 c 359.738 51.199 371.199
 39.738 371.199 25.602 c 371.199 6.398 l 371.199 2.867 374.066 0 377.602
 0 c 381.133 0 384 2.867 384 6.398 c 384 25.602 l 383.98 46.801 366.801 
63.98 345.602 64 c h
345.602 64 m f
38.398 243.199 m 24.262 243.199 12.801 231.738 12.801 217.602 c 12.801 
203.461 24.262 192 38.398 192 c 52.539 192 64 203.461 64 217.602 c 64 231.738
 52.539 243.199 38.398 243.199 c h
38.398 204.801 m 31.332 204.801 25.602 210.531 25.602 217.602 c 25.602 
224.668 31.332 230.398 38.398 230.398 c 45.469 230.398 51.199 224.668 51.199
 217.602 c 51.199 210.531 45.469 204.801 38.398 204.801 c h
38.398 204.801 m f
38.398 185.602 m 17.191 185.602 0 168.406 0 147.199 c 0 128 l 0 124.465
 2.867 121.602 6.398 121.602 c 9.934 121.602 12.801 124.465 12.801 128 c
 12.801 147.199 l 12.801 161.34 24.262 172.801 38.398 172.801 c 52.539 172.801
 64 161.34 64 147.199 c 64 128 l 64 124.465 66.867 121.602 70.398 121.602
 c 73.934 121.602 76.801 124.465 76.801 128 c 76.801 147.199 l 76.801 168.406
 59.609 185.602 38.398 185.602 c h
38.398 185.602 m f
140.801 243.199 m 126.66 243.199 115.199 231.738 115.199 217.602 c 115.199
 203.461 126.66 192 140.801 192 c 154.938 192 166.398 203.461 166.398 217.602
 c 166.398 231.738 154.938 243.199 140.801 243.199 c h
140.801 204.801 m 133.73 204.801 128 210.531 128 217.602 c 128 224.668 
133.73 230.398 140.801 230.398 c 147.871 230.398 153.602 224.668 153.602
 217.602 c 153.602 210.531 147.871 204.801 140.801 204.801 c h
140.801 204.801 m f
140.801 185.602 m 119.594 185.602 102.398 168.406 102.398 147.199 c 102.398
 128 l 102.398 124.465 105.266 121.602 108.801 121.602 c 112.336 121.602
 115.199 124.465 115.199 128 c 115.199 147.199 l 115.199 161.34 126.66 172.801
 140.801 172.801 c 154.938 172.801 166.398 161.34 166.398 147.199 c 166.398
 128 l 166.398 124.465 169.266 121.602 172.801 121.602 c 176.336 121.602
 179.199 124.465 179.199 128 c 179.199 147.199 l 179.199 168.406 162.008
 185.602 140.801 185.602 c h
140.801 185.602 m f
243.199 243.199 m 229.062 243.199 217.602 231.738 217.602 217.602 c 217.602
 203.461 229.062 192 243.199 192 c 257.34 192 268.801 203.461 268.801 217.602
 c 268.801 231.738 257.34 243.199 243.199 243.199 c h
243.199 204.801 m 236.129 204.801 230.398 210.531 230.398 217.602 c 230.398
 224.668 236.129 230.398 243.199 230.398 c 250.27 230.398 256 224.668 256
 217.602 c 256 210.531 250.27 204.801 243.199 204.801 c h
243.199 204.801 m f
243.199 185.602 m 221.992 185.602 204.801 168.406 204.801 147.199 c 204.801
 128 l 204.801 124.465 207.664 121.602 211.199 121.602 c 214.734 121.602
 217.602 124.465 217.602 128 c 217.602 147.199 l 217.602 161.34 229.062 
172.801 243.199 172.801 c 257.34 172.801 268.801 161.34 268.801 147.199 
c 268.801 128 l 268.801 124.465 271.664 121.602 275.199 121.602 c 278.734
 121.602 281.602 124.465 281.602 128 c 281.602 147.199 l 281.602 168.406
 264.406 185.602 243.199 185.602 c h
243.199 185.602 m f
345.602 243.199 m 331.461 243.199 320 231.738 320 217.602 c 320 203.461
 331.461 192 345.602 192 c 359.738 192 371.199 203.461 371.199 217.602 c
 371.199 231.738 359.738 243.199 345.602 243.199 c h
345.602 204.801 m 338.531 204.801 332.801 210.531 332.801 217.602 c 332.801
 224.668 338.531 230.398 345.602 230.398 c 352.668 230.398 358.398 224.668
 358.398 217.602 c 358.398 210.531 352.668 204.801 345.602 204.801 c h
345.602 204.801 m f
345.602 185.602 m 324.402 185.578 307.223 168.398 307.199 147.199 c 307.199
 128 l 307.199 124.465 310.066 121.602 313.602 121.602 c 317.133 121.602
 320 124.465 320 128 c 320 147.199 l 320 161.34 331.461 172.801 345.602 
172.801 c 359.738 172.801 371.199 161.34 371.199 147.199 c 371.199 128 l
 371.199 124.465 374.066 121.602 377.602 121.602 c 381.133 121.602 384 124.465
 384 128 c 384 147.199 l 383.98 168.398 366.801 185.578 345.602 185.602 
c h
345.602 185.602 m f
326.398 384 m 57.602 384 l 54.066 384 51.199 381.133 51.199 377.602 c 51.199
 262.398 l 51.199 258.867 54.066 256 57.602 256 c 326.398 256 l 329.934 
256 332.801 258.867 332.801 262.398 c 332.801 377.602 l 332.801 381.133 
329.934 384 326.398 384 c h
320 268.801 m 64 268.801 l 64 371.199 l 320 371.199 l h
320 268.801 m f
256 352 m 230.879 352 211.199 337.922 211.199 320 c 211.199 302.078 230.879
 288 256 288 c 281.121 288 300.801 302.078 300.801 320 c 300.801 337.922
 281.121 352 256 352 c h
256 300.801 m 238.656 300.801 224 309.594 224 320 c 224 329.094 235.195
 336.953 249.602 338.789 c 249.602 320 l 249.602 318.301 250.273 316.676
 251.477 315.477 c 265.211 301.742 l 262.176 301.141 259.094 300.828 256
 300.801 c h
278.535 306.523 m 262.398 322.648 l 262.398 338.789 l 276.805 336.953 288
 329.094 288 320 c 287.426 314.16 283.836 309.043 278.535 306.523 c h
278.535 306.523 m f
96 352 m 83.199 352 l 79.664 352 76.801 349.133 76.801 345.602 c 76.801
 342.066 79.664 339.199 83.199 339.199 c 96 339.199 l 99.535 339.199 102.398
 342.066 102.398 345.602 c 102.398 349.133 99.535 352 96 352 c h
96 352 m f
185.602 352 m 115.199 352 l 111.664 352 108.801 349.133 108.801 345.602
 c 108.801 342.066 111.664 339.199 115.199 339.199 c 185.602 339.199 l 189.133
 339.199 192 342.066 192 345.602 c 192 349.133 189.133 352 185.602 352 c
 h
185.602 352 m f
153.602 326.398 m 83.199 326.398 l 79.664 326.398 76.801 323.535 76.801
 320 c 76.801 316.465 79.664 313.602 83.199 313.602 c 153.602 313.602 l 
157.133 313.602 160 316.465 160 320 c 160 323.535 157.133 326.398 153.602
 326.398 c h
153.602 326.398 m f
185.602 326.398 m 172.801 326.398 l 169.266 326.398 166.398 323.535 166.398
 320 c 166.398 316.465 169.266 313.602 172.801 313.602 c 185.602 313.602
 l 189.133 313.602 192 316.465 192 320 c 192 323.535 189.133 326.398 185.602
 326.398 c h
185.602 326.398 m f
115.199 300.801 m 83.199 300.801 l 79.664 300.801 76.801 297.934 76.801
 294.398 c 76.801 290.867 79.664 288 83.199 288 c 115.199 288 l 118.734 
288 121.602 290.867 121.602 294.398 c 121.602 297.934 118.734 300.801 115.199
 300.801 c h
115.199 300.801 m f
185.602 300.801 m 134.398 300.801 l 130.867 300.801 128 297.934 128 294.398
 c 128 290.867 130.867 288 134.398 288 c 185.602 288 l 189.133 288 192 290.867
 192 294.398 c 192 297.934 189.133 300.801 185.602 300.801 c h
185.602 300.801 m f
Q Q
showpage
%%Trailer
end restore
%%EOF
