%!PS-Adobe-3.0 EPSF-3.0
%%Creator: cairo 1.14.2 (http://cairographics.org)
%%CreationDate: Tue Apr  3 10:37:02 2018
%%Pages: 1
%%DocumentData: Clean7Bit
%%LanguageLevel: 2
%%BoundingBox: 0 0 385 385
%%EndComments
%%BeginProlog
save
50 dict begin
/q { gsave } bind def
/Q { grestore } bind def
/cm { 6 array astore concat } bind def
/w { setlinewidth } bind def
/J { setlinecap } bind def
/j { setlinejoin } bind def
/M { setmiterlimit } bind def
/d { setdash } bind def
/m { moveto } bind def
/l { lineto } bind def
/c { curveto } bind def
/h { closepath } bind def
/re { exch dup neg 3 1 roll 5 3 roll moveto 0 rlineto
      0 exch rlineto 0 rlineto closepath } bind def
/S { stroke } bind def
/f { fill } bind def
/f* { eofill } bind def
/n { newpath } bind def
/W { clip } bind def
/W* { eoclip } bind def
/BT { } bind def
/ET { } bind def
/pdfmark where { pop globaldict /?pdfmark /exec load put }
    { globaldict begin /?pdfmark /pop load def /pdfmark
    /cleartomark load def end } ifelse
/BDC { mark 3 1 roll /BDC pdfmark } bind def
/EMC { mark /EMC pdfmark } bind def
/cairo_store_point { /cairo_point_y exch def /cairo_point_x exch def } def
/Tj { show currentpoint cairo_store_point } bind def
/TJ {
  {
    dup
    type /stringtype eq
    { show } { -0.001 mul 0 cairo_font_matrix dtransform rmoveto } ifelse
  } forall
  currentpoint cairo_store_point
} bind def
/cairo_selectfont { cairo_font_matrix aload pop pop pop 0 0 6 array astore
    cairo_font exch selectfont cairo_point_x cairo_point_y moveto } bind def
/Tf { pop /cairo_font exch def /cairo_font_matrix where
      { pop cairo_selectfont } if } bind def
/Td { matrix translate cairo_font_matrix matrix concatmatrix dup
      /cairo_font_matrix exch def dup 4 get exch 5 get cairo_store_point
      /cairo_font where { pop cairo_selectfont } if } bind def
/Tm { 2 copy 8 2 roll 6 array astore /cairo_font_matrix exch def
      cairo_store_point /cairo_font where { pop cairo_selectfont } if } bind def
/g { setgray } bind def
/rg { setrgbcolor } bind def
/d1 { setcachedevice } bind def
%%EndProlog
%%BeginSetup
%%EndSetup
%%Page: 1 1
%%BeginPageSetup
%%PageBoundingBox: 0 0 385 385
%%EndPageSetup
q 0 0 385 385 rectclip q
0 g
257.195 281.488 m 256.801 281.566 256.402 281.601 256 281.601 c 128 281.601
 l 124.465 281.601 121.602 278.734 121.602 275.199 c 121.602 274.8 121.641
 274.398 121.715 274.003 c 172.914 5.206 l 173.492 2.187 176.129 0.003 179.199
 0.003 c 204.801 0.003 l 207.871 0.003 210.512 2.187 211.086 5.206 c 262.285
 274.003 l 262.945 277.476 260.668 280.827 257.195 281.488 c h
191.328 252.449 m 183.156 268.8 l 200.844 268.8 l 192.641 252.464 l 192.207
 251.57 191.988 250.593 192 249.601 c 192 249.3 192.023 249.003 192.066 
248.706 c 204.543 161.347 l 192 140.445 l 179.457 161.347 l 191.938 248.695
 l 191.98 248.995 192.004 249.296 192 249.601 c 192 250.589 191.77 251.566
 191.328 252.449 c h
199.5 12.8 m 184.5 12.8 l 135.73 268.8 l 168.844 268.8 l 178.984 248.527
 l 166.465 160.909 l 166.258 159.452 166.559 157.968 167.316 156.706 c 186.516
 124.706 l 188.336 121.675 192.27 120.699 195.301 122.519 c 196.195 123.058
 196.945 123.808 197.484 124.706 c 216.688 156.706 l 217.445 157.968 217.746
 159.452 217.535 160.909 c 205.02 248.527 l 215.156 268.8 l 248.27 268.8
 l h
199.5 12.8 m f
127.867 7.722 m 83.375 218.921 l 82.75 221.878 80.141 223.999 77.113 224.003
 c 51.199 224.003 l 48.18 224.003 45.57 221.89 44.941 218.933 c 0.141 7.734
 l -0.594 4.277 1.613 0.878 5.07 0.14 c 5.508 0.05 5.953 0.003 6.402 0.003
 c 121.602 0.003 l 125.137 -0.001 128.004 2.863 128.004 6.398 c 128.004 
6.843 127.957 7.284 127.867 7.722 c h
14.297 12.8 m 56.387 211.202 l 71.918 211.202 l 113.715 12.8 l h
14.297 12.8 m f
192 384.003 m 167.258 384.003 147.199 363.945 147.199 339.202 c 147.23 
314.472 167.27 294.429 192 294.402 c 216.742 294.402 236.801 314.46 236.801
 339.202 c 236.801 363.945 216.742 384.003 192 384.003 c h
192 307.202 m 174.328 307.202 160 321.531 160 339.202 c 160.023 356.866
 174.336 371.179 192 371.202 c 209.672 371.202 224 356.874 224 339.202 c
 224 321.531 209.672 307.202 192 307.202 c h
192 307.202 m f
383.867 7.722 m 339.375 218.921 l 338.75 221.878 336.141 223.999 333.113
 224.003 c 307.199 224.003 l 304.18 224.003 301.57 221.89 300.941 218.933
 c 256.141 7.734 l 255.406 4.277 257.613 0.878 261.07 0.14 c 261.508 0.05
 261.953 0.003 262.402 0.003 c 377.602 0.003 l 381.137 -0.001 384.004 2.863
 384.004 6.398 c 384.004 6.843 383.957 7.284 383.867 7.722 c h
270.297 12.8 m 312.387 211.202 l 327.918 211.202 l 369.715 12.8 l h
270.297 12.8 m f
57.602 179.202 12.801 -12.801 re f
57.602 153.601 12.801 -12.801 re f
313.602 179.202 12.801 -12.801 re f
313.602 153.601 12.801 -12.801 re f
64 313.601 m 42.793 313.601 25.602 296.409 25.602 275.202 c 25.602 253.995
 42.793 236.8 64 236.8 c 85.199 236.824 102.379 254.003 102.402 275.202 
c 102.402 296.409 85.207 313.601 64 313.601 c h
64 249.601 m 49.863 249.601 38.402 261.062 38.402 275.202 c 38.402 289.339
 49.863 300.8 64 300.8 c 78.141 300.8 89.602 289.339 89.602 275.202 c 89.602
 261.062 78.141 249.601 64 249.601 c h
64 249.601 m f
320 313.601 m 298.793 313.601 281.602 296.409 281.602 275.202 c 281.602
 253.995 298.793 236.8 320 236.8 c 341.199 236.824 358.379 254.003 358.402
 275.202 c 358.402 296.409 341.207 313.601 320 313.601 c h
320 249.601 m 305.863 249.601 294.402 261.062 294.402 275.202 c 294.402
 289.339 305.863 300.8 320 300.8 c 334.141 300.8 345.602 289.339 345.602
 275.202 c 345.602 261.062 334.141 249.601 320 249.601 c h
320 249.601 m f
Q Q
showpage
%%Trailer
end restore
%%EOF
