%!PS-Adobe-3.0 EPSF-3.0
%%Creator: cairo 1.14.2 (http://cairographics.org)
%%CreationDate: Tue Apr  3 10:37:02 2018
%%Pages: 1
%%DocumentData: Clean7Bit
%%LanguageLevel: 2
%%BoundingBox: 0 0 384 384
%%EndComments
%%BeginProlog
save
50 dict begin
/q { gsave } bind def
/Q { grestore } bind def
/cm { 6 array astore concat } bind def
/w { setlinewidth } bind def
/J { setlinecap } bind def
/j { setlinejoin } bind def
/M { setmiterlimit } bind def
/d { setdash } bind def
/m { moveto } bind def
/l { lineto } bind def
/c { curveto } bind def
/h { closepath } bind def
/re { exch dup neg 3 1 roll 5 3 roll moveto 0 rlineto
      0 exch rlineto 0 rlineto closepath } bind def
/S { stroke } bind def
/f { fill } bind def
/f* { eofill } bind def
/n { newpath } bind def
/W { clip } bind def
/W* { eoclip } bind def
/BT { } bind def
/ET { } bind def
/pdfmark where { pop globaldict /?pdfmark /exec load put }
    { globaldict begin /?pdfmark /pop load def /pdfmark
    /cleartomark load def end } ifelse
/BDC { mark 3 1 roll /BDC pdfmark } bind def
/EMC { mark /EMC pdfmark } bind def
/cairo_store_point { /cairo_point_y exch def /cairo_point_x exch def } def
/Tj { show currentpoint cairo_store_point } bind def
/TJ {
  {
    dup
    type /stringtype eq
    { show } { -0.001 mul 0 cairo_font_matrix dtransform rmoveto } ifelse
  } forall
  currentpoint cairo_store_point
} bind def
/cairo_selectfont { cairo_font_matrix aload pop pop pop 0 0 6 array astore
    cairo_font exch selectfont cairo_point_x cairo_point_y moveto } bind def
/Tf { pop /cairo_font exch def /cairo_font_matrix where
      { pop cairo_selectfont } if } bind def
/Td { matrix translate cairo_font_matrix matrix concatmatrix dup
      /cairo_font_matrix exch def dup 4 get exch 5 get cairo_store_point
      /cairo_font where { pop cairo_selectfont } if } bind def
/Tm { 2 copy 8 2 roll 6 array astore /cairo_font_matrix exch def
      cairo_store_point /cairo_font where { pop cairo_selectfont } if } bind def
/g { setgray } bind def
/rg { setrgbcolor } bind def
/d1 { setcachedevice } bind def
%%EndProlog
%%BeginSetup
%%EndSetup
%%Page: 1 1
%%BeginPageSetup
%%PageBoundingBox: 0 0 384 384
%%EndPageSetup
q 0 0 384 384 rectclip q
0 g
377.602 140.801 m 262.398 140.801 l 262.398 249.602 l 262.398 253.133 259.535
 256 256 256 c 224 256 l 224 262.398 l 224 264.098 223.324 265.727 222.125
 266.926 c 211.199 277.848 l 211.199 291.75 l 214.656 295.207 l 242.988 
304.207 262.277 330.465 262.398 360.191 c 262.398 364.801 l 262.398 368.336
 259.535 371.199 256 371.199 c 242.996 371.199 l 243.059 372.602 243.199
 373.992 243.199 375.406 c 243.199 377.602 l 243.199 381.133 240.336 384
 236.801 384 c 147.199 384 l 143.664 384 140.801 381.133 140.801 377.602
 c 140.801 375.406 l 140.801 373.992 140.941 372.602 141.004 371.199 c 128
 371.199 l 124.465 371.199 121.602 368.336 121.602 364.801 c 121.602 360.191
 l 121.723 330.465 141.012 304.207 169.344 295.207 c 172.801 291.75 l 172.801
 277.848 l 161.875 266.926 l 160.676 265.727 160 264.098 160 262.398 c 160
 256 l 128 256 l 124.465 256 121.602 253.133 121.602 249.602 c 121.602 140.801
 l 6.398 140.801 l 2.867 140.801 0 137.934 0 134.398 c 0 6.398 l 0 2.867
 2.867 0 6.398 0 c 377.602 0 l 381.133 0 384 2.867 384 6.398 c 384 134.398
 l 384 137.934 381.133 140.801 377.602 140.801 c h
121.602 12.801 m 12.801 12.801 l 12.801 128 l 121.602 128 l h
241.613 358.398 m 249.602 358.398 l 248.84 337.555 236.488 318.879 217.602
 310.023 c 217.602 311.141 l 230.02 324.23 238.363 340.652 241.613 358.398
 c h
166.398 310.023 m 147.512 318.879 135.16 337.555 134.398 358.398 c 142.363
 358.398 l 145.617 340.648 153.969 324.227 166.398 311.141 c h
153.707 371.199 m 230.293 371.199 l 229.355 352.082 221.625 333.926 208.492
 320 c 175.508 320 l 162.375 333.926 154.645 352.082 153.707 371.199 c h
183.727 298.926 m 179.199 303.449 l 179.199 307.199 l 204.801 307.199 l
 204.801 303.449 l 200.273 298.926 l 199.074 297.727 198.398 296.098 198.398
 294.398 c 198.398 281.602 l 185.602 281.602 l 185.602 294.398 l 185.602
 296.098 184.926 297.727 183.727 298.926 c h
172.801 259.75 m 181.848 268.801 l 202.152 268.801 l 211.199 259.75 l 211.199
 256 l 172.801 256 l h
249.602 12.801 m 134.398 12.801 l 134.398 243.199 l 249.602 243.199 l h
371.199 12.801 m 262.398 12.801 l 262.398 128 l 371.199 128 l h
371.199 12.801 m f
Q Q
showpage
%%Trailer
end restore
%%EOF
