%!PS-Adobe-3.0 EPSF-3.0
%%Creator: cairo 1.14.2 (http://cairographics.org)
%%CreationDate: Tue Apr  3 10:37:02 2018
%%Pages: 1
%%DocumentData: Clean7Bit
%%LanguageLevel: 2
%%BoundingBox: 0 0 384 384
%%EndComments
%%BeginProlog
save
50 dict begin
/q { gsave } bind def
/Q { grestore } bind def
/cm { 6 array astore concat } bind def
/w { setlinewidth } bind def
/J { setlinecap } bind def
/j { setlinejoin } bind def
/M { setmiterlimit } bind def
/d { setdash } bind def
/m { moveto } bind def
/l { lineto } bind def
/c { curveto } bind def
/h { closepath } bind def
/re { exch dup neg 3 1 roll 5 3 roll moveto 0 rlineto
      0 exch rlineto 0 rlineto closepath } bind def
/S { stroke } bind def
/f { fill } bind def
/f* { eofill } bind def
/n { newpath } bind def
/W { clip } bind def
/W* { eoclip } bind def
/BT { } bind def
/ET { } bind def
/pdfmark where { pop globaldict /?pdfmark /exec load put }
    { globaldict begin /?pdfmark /pop load def /pdfmark
    /cleartomark load def end } ifelse
/BDC { mark 3 1 roll /BDC pdfmark } bind def
/EMC { mark /EMC pdfmark } bind def
/cairo_store_point { /cairo_point_y exch def /cairo_point_x exch def } def
/Tj { show currentpoint cairo_store_point } bind def
/TJ {
  {
    dup
    type /stringtype eq
    { show } { -0.001 mul 0 cairo_font_matrix dtransform rmoveto } ifelse
  } forall
  currentpoint cairo_store_point
} bind def
/cairo_selectfont { cairo_font_matrix aload pop pop pop 0 0 6 array astore
    cairo_font exch selectfont cairo_point_x cairo_point_y moveto } bind def
/Tf { pop /cairo_font exch def /cairo_font_matrix where
      { pop cairo_selectfont } if } bind def
/Td { matrix translate cairo_font_matrix matrix concatmatrix dup
      /cairo_font_matrix exch def dup 4 get exch 5 get cairo_store_point
      /cairo_font where { pop cairo_selectfont } if } bind def
/Tm { 2 copy 8 2 roll 6 array astore /cairo_font_matrix exch def
      cairo_store_point /cairo_font where { pop cairo_selectfont } if } bind def
/g { setgray } bind def
/rg { setrgbcolor } bind def
/d1 { setcachedevice } bind def
%%EndProlog
%%BeginSetup
%%EndSetup
%%Page: 1 1
%%BeginPageSetup
%%PageBoundingBox: 0 0 384 384
%%EndPageSetup
q 0 0 384 384 rectclip q
0 g
380.691 171.996 m 291.199 221.375 l 291.199 326.398 l 291.199 328.727 289.93
 330.871 287.891 331.996 c 195.09 383.199 l 193.168 384.266 190.832 384.266
 188.91 383.199 c 96.109 331.996 l 94.07 330.871 92.801 328.727 92.801 326.398
 c 92.801 221.375 l 3.309 171.996 l 1.27 170.871 0 168.727 0 166.398 c 0
 57.598 l 0 55.27 1.27 53.125 3.309 51.996 c 96.109 0.797 l 98.031 -0.266
 100.367 -0.266 102.293 0.797 c 192 50.289 l 281.707 0.797 l 283.633 -0.266
 285.969 -0.266 287.891 0.797 c 380.691 51.996 l 382.73 53.125 384 55.27
 384 57.598 c 384 166.398 l 384 168.727 382.73 170.871 380.691 171.996 c
 h
185.602 61.375 m 99.199 13.707 l 12.801 61.375 l 12.801 162.621 l 99.199
 210.289 l 185.602 162.621 l h
105.602 221.375 m 105.602 322.621 l 192 370.289 l 278.398 322.621 l 278.398
 221.375 l 192 173.707 l h
371.199 61.375 m 284.801 13.707 l 198.398 61.375 l 198.398 162.621 l 284.801
 210.289 l 371.199 162.621 l h
371.199 61.375 m f
217.543 218.441 m 205.043 312.191 l 214.645 327.902 l 214.988 328.457 215.242
 329.066 215.398 329.699 c 217.109 336.559 212.938 343.508 206.078 345.219
 c 205.07 345.469 204.039 345.594 203 345.598 c 181 345.598 l 173.93 345.598
 168.195 339.871 168.195 332.801 c 168.195 331.758 168.324 330.715 168.574
 329.699 c 168.734 329.066 168.988 328.457 169.332 327.902 c 178.93 312.191
 l 166.457 218.441 l 166.195 216.469 166.867 214.48 168.273 213.074 c 187.477
 193.871 l 189.973 191.375 194.027 191.375 196.523 193.871 c 215.727 213.074
 l 217.133 214.48 217.805 216.469 217.543 218.441 c h
202.656 332.797 m 194.809 319.996 l 189.191 319.996 l 181.344 332.797 l
 h
192 207.445 m 179.566 219.891 l 191.207 307.199 l 192.793 307.199 l 204.434
 219.891 l h
192 207.445 m f
166.398 153.598 m 96 153.598 l 92.465 153.598 89.602 150.73 89.602 147.199
 c 89.602 95.996 l 89.602 92.465 92.465 89.598 96 89.598 c 111.246 89.598
 l 103.07 73.258 l 101.492 70.098 102.773 66.254 105.938 64.672 c 106.824
 64.23 107.805 63.996 108.801 63.996 c 153.602 63.996 l 157.133 63.996 160
 66.859 160.004 70.395 c 160.004 71.391 159.773 72.367 159.328 73.258 c 
151.156 89.598 l 166.398 89.598 l 169.934 89.598 172.801 92.465 172.801 
95.996 c 172.801 147.199 l 172.801 150.73 169.934 153.598 166.398 153.598
 c h
119.156 76.797 m 125.555 89.598 l 136.844 89.598 l 143.246 76.797 l h
160 102.398 m 102.398 102.398 l 102.398 140.797 l 160 140.797 l h
160 102.398 m f
70.398 140.797 m 32 140.797 l 28.465 140.797 25.602 137.934 25.602 134.398
 c 25.602 70.398 l 25.602 66.863 28.465 63.996 32 63.996 c 70.398 63.996
 l 73.934 63.996 76.801 66.863 76.801 70.398 c 76.801 134.398 l 76.801 137.934
 73.934 140.797 70.398 140.797 c h
64 76.797 m 38.398 76.797 l 38.398 127.996 l 64 127.996 l h
64 76.797 m f
44.801 102.398 12.801 -12.801 re f
345.602 159.996 m 313.602 159.996 l 313.602 166.398 l 313.602 177 305.004
 185.598 294.398 185.598 c 275.199 185.598 l 264.598 185.598 256 177 256
 166.398 c 256 159.996 l 224 159.996 l 220.465 159.996 217.602 157.133 217.602
 153.598 c 217.602 70.398 l 217.602 66.863 220.465 63.996 224 63.996 c 345.602
 63.996 l 349.133 63.996 352 66.863 352 70.398 c 352 153.598 l 352 157.133
 349.133 159.996 345.602 159.996 c h
268.801 166.398 m 268.801 169.934 271.664 172.797 275.199 172.797 c 294.398
 172.797 l 297.934 172.797 300.801 169.934 300.801 166.398 c 300.801 159.996
 l 268.801 159.996 l h
339.199 76.797 m 230.398 76.797 l 230.398 115.199 l 262.398 115.199 l 262.398
 95.996 l 262.398 92.465 265.266 89.598 268.801 89.598 c 300.801 89.598 
l 304.336 89.598 307.199 92.465 307.199 95.996 c 307.199 115.199 l 339.199
 115.199 l h
275.199 102.398 m 275.199 115.199 l 294.398 115.199 l 294.398 102.398 l
 h
339.199 127.996 m 230.398 127.996 l 230.398 147.199 l 339.199 147.199 l
 h
339.199 127.996 m f
Q Q
showpage
%%Trailer
end restore
%%EOF
