%!PS-Adobe-3.0 EPSF-3.0
%%Creator: cairo 1.14.2 (http://cairographics.org)
%%CreationDate: Tue Apr  3 10:37:02 2018
%%Pages: 1
%%DocumentData: Clean7Bit
%%LanguageLevel: 2
%%BoundingBox: 0 0 384 384
%%EndComments
%%BeginProlog
save
50 dict begin
/q { gsave } bind def
/Q { grestore } bind def
/cm { 6 array astore concat } bind def
/w { setlinewidth } bind def
/J { setlinecap } bind def
/j { setlinejoin } bind def
/M { setmiterlimit } bind def
/d { setdash } bind def
/m { moveto } bind def
/l { lineto } bind def
/c { curveto } bind def
/h { closepath } bind def
/re { exch dup neg 3 1 roll 5 3 roll moveto 0 rlineto
      0 exch rlineto 0 rlineto closepath } bind def
/S { stroke } bind def
/f { fill } bind def
/f* { eofill } bind def
/n { newpath } bind def
/W { clip } bind def
/W* { eoclip } bind def
/BT { } bind def
/ET { } bind def
/pdfmark where { pop globaldict /?pdfmark /exec load put }
    { globaldict begin /?pdfmark /pop load def /pdfmark
    /cleartomark load def end } ifelse
/BDC { mark 3 1 roll /BDC pdfmark } bind def
/EMC { mark /EMC pdfmark } bind def
/cairo_store_point { /cairo_point_y exch def /cairo_point_x exch def } def
/Tj { show currentpoint cairo_store_point } bind def
/TJ {
  {
    dup
    type /stringtype eq
    { show } { -0.001 mul 0 cairo_font_matrix dtransform rmoveto } ifelse
  } forall
  currentpoint cairo_store_point
} bind def
/cairo_selectfont { cairo_font_matrix aload pop pop pop 0 0 6 array astore
    cairo_font exch selectfont cairo_point_x cairo_point_y moveto } bind def
/Tf { pop /cairo_font exch def /cairo_font_matrix where
      { pop cairo_selectfont } if } bind def
/Td { matrix translate cairo_font_matrix matrix concatmatrix dup
      /cairo_font_matrix exch def dup 4 get exch 5 get cairo_store_point
      /cairo_font where { pop cairo_selectfont } if } bind def
/Tm { 2 copy 8 2 roll 6 array astore /cairo_font_matrix exch def
      cairo_store_point /cairo_font where { pop cairo_selectfont } if } bind def
/g { setgray } bind def
/rg { setrgbcolor } bind def
/d1 { setcachedevice } bind def
%%EndProlog
%%BeginSetup
%%EndSetup
%%Page: 1 1
%%BeginPageSetup
%%PageBoundingBox: 0 0 384 384
%%EndPageSetup
q 0 0 384 384 rectclip q
0 g
377.602 384 m 6.398 384 l 2.867 384 0 381.133 0 377.602 c 0 6.398 l 0 2.867
 2.867 0 6.398 0 c 377.602 0 l 381.133 0 384 2.867 384 6.398 c 384 377.602
 l 384 381.133 381.133 384 377.602 384 c h
371.199 12.801 m 12.801 12.801 l 12.801 371.199 l 371.199 371.199 l h
371.199 12.801 m f
134.398 76.801 m 115.199 76.801 l 97.535 76.82 83.223 91.137 83.199 108.801
 c 83.199 234.152 l 104.273 213.074 l 106.816 210.621 110.871 210.691 113.324
 213.234 c 115.719 215.711 115.719 219.645 113.324 222.125 c 81.324 254.125
 l 78.824 256.625 74.773 256.625 72.273 254.125 c 40.273 222.125 l 37.82
 219.582 37.891 215.531 40.434 213.074 c 42.914 210.68 46.844 210.68 49.324
 213.074 c 70.398 234.152 l 70.398 108.801 l 70.43 84.07 90.469 64.027 115.199
 64 c 134.398 64 l 137.934 64 140.801 66.867 140.801 70.398 c 140.801 73.934
 137.934 76.801 134.398 76.801 c h
134.398 76.801 m f
76.801 345.602 m 55.594 345.602 38.398 328.406 38.398 307.199 c 38.422 
286 55.602 268.82 76.801 268.801 c 98.008 268.801 115.199 285.992 115.199
 307.199 c 115.199 328.406 98.008 345.602 76.801 345.602 c h
76.801 281.602 m 62.66 281.602 51.199 293.062 51.199 307.199 c 51.199 321.34
 62.66 332.801 76.801 332.801 c 90.938 332.801 102.398 321.34 102.398 307.199
 c 102.398 293.062 90.938 281.602 76.801 281.602 c h
76.801 281.602 m f
307.199 345.602 m 285.992 345.602 268.801 328.406 268.801 307.199 c 268.82
 286 286 268.82 307.199 268.801 c 328.406 268.801 345.602 285.992 345.602
 307.199 c 345.602 328.406 328.406 345.602 307.199 345.602 c h
307.199 281.602 m 293.062 281.602 281.602 293.062 281.602 307.199 c 281.602
 321.34 293.062 332.801 307.199 332.801 c 321.34 332.801 332.801 321.34 
332.801 307.199 c 332.801 293.062 321.34 281.602 307.199 281.602 c h
307.199 281.602 m f
217.602 358.398 m 166.398 358.398 l 162.867 358.398 160 355.535 160 352
 c 160 300.801 l 160 297.266 162.867 294.398 166.398 294.398 c 217.602 294.398
 l 221.133 294.398 224 297.266 224 300.801 c 224 352 l 224 355.535 221.133
 358.398 217.602 358.398 c h
211.199 307.199 m 172.801 307.199 l 172.801 345.602 l 211.199 345.602 l
 h
211.199 307.199 m f
217.602 281.602 m 166.398 281.602 l 162.867 281.602 160 278.734 160 275.199
 c 160 224 l 160 220.465 162.867 217.602 166.398 217.602 c 217.602 217.602
 l 221.133 217.602 224 220.465 224 224 c 224 275.199 l 224 278.734 221.133
 281.602 217.602 281.602 c h
211.199 230.398 m 172.801 230.398 l 172.801 268.801 l 211.199 268.801 l
 h
211.199 230.398 m f
192 108.801 m 170.793 108.801 153.602 91.609 153.602 70.398 c 153.621 49.199
 170.801 32.02 192 32 c 213.207 32 230.398 49.191 230.398 70.398 c 230.398
 91.609 213.207 108.801 192 108.801 c h
192 44.801 m 177.863 44.801 166.398 56.262 166.398 70.398 c 166.398 84.539
 177.863 96 192 96 c 206.137 96 217.602 84.539 217.602 70.398 c 217.602 
56.262 206.137 44.801 192 44.801 c h
192 44.801 m f
217.602 204.801 m 166.398 204.801 l 162.867 204.801 160 201.934 160 198.398
 c 160 147.199 l 160 143.664 162.867 140.801 166.398 140.801 c 217.602 140.801
 l 221.133 140.801 224 143.664 224 147.199 c 224 198.398 l 224 201.934 221.133
 204.801 217.602 204.801 c h
211.199 153.602 m 172.801 153.602 l 172.801 192 l 211.199 192 l h
211.199 153.602 m f
343.727 222.125 m 311.727 254.125 l 309.227 256.625 305.176 256.625 302.676
 254.125 c 270.676 222.125 l 268.219 219.582 268.289 215.531 270.832 213.074
 c 273.312 210.68 277.242 210.68 279.727 213.074 c 300.801 234.152 l 300.801
 108.801 l 300.777 91.137 286.465 76.82 268.801 76.801 c 249.602 76.801 
l 246.066 76.801 243.199 73.934 243.199 70.398 c 243.199 66.867 246.066 
64 249.602 64 c 268.801 64 l 293.531 64.027 313.57 84.07 313.602 108.801
 c 313.602 234.152 l 334.676 213.074 l 337.219 210.621 341.27 210.691 343.727
 213.23 c 346.121 215.711 346.121 219.645 343.727 222.125 c h
343.727 222.125 m f
Q Q
showpage
%%Trailer
end restore
%%EOF
