%!PS-Adobe-3.0 EPSF-3.0
%%Creator: cairo 1.14.2 (http://cairographics.org)
%%CreationDate: Tue Apr  3 10:37:02 2018
%%Pages: 1
%%DocumentData: Clean7Bit
%%LanguageLevel: 2
%%BoundingBox: 48 0 336 384
%%EndComments
%%BeginProlog
save
50 dict begin
/q { gsave } bind def
/Q { grestore } bind def
/cm { 6 array astore concat } bind def
/w { setlinewidth } bind def
/J { setlinecap } bind def
/j { setlinejoin } bind def
/M { setmiterlimit } bind def
/d { setdash } bind def
/m { moveto } bind def
/l { lineto } bind def
/c { curveto } bind def
/h { closepath } bind def
/re { exch dup neg 3 1 roll 5 3 roll moveto 0 rlineto
      0 exch rlineto 0 rlineto closepath } bind def
/S { stroke } bind def
/f { fill } bind def
/f* { eofill } bind def
/n { newpath } bind def
/W { clip } bind def
/W* { eoclip } bind def
/BT { } bind def
/ET { } bind def
/pdfmark where { pop globaldict /?pdfmark /exec load put }
    { globaldict begin /?pdfmark /pop load def /pdfmark
    /cleartomark load def end } ifelse
/BDC { mark 3 1 roll /BDC pdfmark } bind def
/EMC { mark /EMC pdfmark } bind def
/cairo_store_point { /cairo_point_y exch def /cairo_point_x exch def } def
/Tj { show currentpoint cairo_store_point } bind def
/TJ {
  {
    dup
    type /stringtype eq
    { show } { -0.001 mul 0 cairo_font_matrix dtransform rmoveto } ifelse
  } forall
  currentpoint cairo_store_point
} bind def
/cairo_selectfont { cairo_font_matrix aload pop pop pop 0 0 6 array astore
    cairo_font exch selectfont cairo_point_x cairo_point_y moveto } bind def
/Tf { pop /cairo_font exch def /cairo_font_matrix where
      { pop cairo_selectfont } if } bind def
/Td { matrix translate cairo_font_matrix matrix concatmatrix dup
      /cairo_font_matrix exch def dup 4 get exch 5 get cairo_store_point
      /cairo_font where { pop cairo_selectfont } if } bind def
/Tm { 2 copy 8 2 roll 6 array astore /cairo_font_matrix exch def
      cairo_store_point /cairo_font where { pop cairo_selectfont } if } bind def
/g { setgray } bind def
/rg { setrgbcolor } bind def
/d1 { setcachedevice } bind def
%%EndProlog
%%BeginSetup
%%EndSetup
%%Page: 1 1
%%BeginPageSetup
%%PageBoundingBox: 48 0 336 384
%%EndPageSetup
q 48 0 288 384 rectclip q
0 g
233.602 185.602 m 227.199 185.602 l 227.199 224 l 227.168 232.105 222.043
 239.32 214.398 242.023 c 214.398 249.602 l 214.379 267.266 200.062 281.578
 182.398 281.602 c 105.602 281.602 l 87.938 281.578 73.621 267.266 73.602
 249.602 c 73.602 242.023 l 65.957 239.32 60.832 232.105 60.801 224 c 60.801
 185.602 l 54.398 185.602 l 50.867 185.602 48 182.734 48 179.199 c 48 102.398
 l 48 98.867 50.867 96 54.398 96 c 60.801 96 l 60.801 6.398 l 60.801 2.867
 63.664 0 67.199 0 c 220.801 0 l 224.336 0 227.199 2.867 227.199 6.398 c
 227.199 96 l 233.602 96 l 237.133 96 240 98.867 240 102.398 c 240 179.199
 l 240 182.734 237.133 185.602 233.602 185.602 c h
208 230.398 m 211.535 230.398 214.398 227.535 214.398 224 c 214.398 217.602
 l 201.602 217.602 l 201.602 224 l 201.602 227.535 204.465 230.398 208 230.398
 c h
214.398 204.801 m 214.398 185.602 l 201.602 185.602 l 201.602 204.801 l
 h
86.398 249.602 m 86.398 260.203 94.996 268.801 105.602 268.801 c 182.398
 268.801 l 193.004 268.801 201.602 260.203 201.602 249.602 c 201.602 242.023
 l 193.957 239.32 188.832 232.105 188.801 224 c 188.801 185.602 l 163.199
 185.602 l 163.199 236.801 l 163.199 247.402 154.605 256 144 256 c 133.395
 256 124.801 247.402 124.801 236.801 c 124.801 185.602 l 99.199 185.602 
l 99.199 224 l 99.168 232.105 94.043 239.32 86.398 242.023 c h
137.602 230.398 m 137.602 236.801 l 137.602 240.336 140.465 243.199 144
 243.199 c 147.535 243.199 150.398 240.336 150.398 236.801 c 150.398 230.398
 l h
150.398 217.602 m 150.398 185.602 l 137.602 185.602 l 137.602 217.602 l
 h
73.602 224 m 73.602 227.535 76.465 230.398 80 230.398 c 83.535 230.398 
86.398 227.535 86.398 224 c 86.398 217.602 l 73.602 217.602 l h
73.602 204.801 m 86.398 204.801 l 86.398 185.602 l 73.602 185.602 l h
214.398 12.801 m 73.602 12.801 l 73.602 96 l 214.398 96 l h
227.199 108.801 m 60.801 108.801 l 60.801 172.801 l 227.199 172.801 l h
227.199 108.801 m f
144 384 m 119.258 384 99.199 363.941 99.199 339.199 c 99.227 314.469 119.27
 294.43 144 294.398 c 168.742 294.398 188.801 314.457 188.801 339.199 c 
188.801 363.941 168.742 384 144 384 c h
144 307.199 m 126.328 307.199 112 321.527 112 339.199 c 112.02 356.863 
126.336 371.18 144 371.199 c 161.672 371.199 176 356.871 176 339.199 c 176
 321.527 161.672 307.199 144 307.199 c h
144 307.199 m f
316.801 384 m 227.199 384 l 216.598 384 208 375.402 208 364.801 c 208 326.398
 l 208 315.797 216.598 307.199 227.199 307.199 c 233.602 307.199 l 233.602
 288 l 233.602 284.465 236.465 281.602 240 281.602 c 241.699 281.602 243.324
 282.277 244.523 283.477 c 268.25 307.199 l 316.801 307.199 l 327.402 307.199
 336 315.797 336 326.398 c 336 364.801 l 336 375.402 327.402 384 316.801
 384 c h
323.199 326.398 m 323.199 322.867 320.336 320 316.801 320 c 265.602 320
 l 263.902 320 262.273 319.324 261.074 318.125 c 246.398 303.449 l 246.398
 313.602 l 246.398 317.133 243.535 320 240 320 c 227.199 320 l 223.664 320
 220.801 322.867 220.801 326.398 c 220.801 364.801 l 220.801 368.336 223.664
 371.199 227.199 371.199 c 316.801 371.199 l 320.336 371.199 323.199 368.336
 323.199 364.801 c h
323.199 326.398 m f
240 352 12.801 -12.801 re f
291.199 352 12.801 -12.801 re f
265.602 352 12.797 -12.801 re f
Q Q
showpage
%%Trailer
end restore
%%EOF
