%!PS-Adobe-3.0 EPSF-3.0
%%Creator: cairo 1.14.2 (http://cairographics.org)
%%CreationDate: Tue Apr  3 10:37:02 2018
%%Pages: 1
%%DocumentData: Clean7Bit
%%LanguageLevel: 2
%%BoundingBox: 0 0 384 384
%%EndComments
%%BeginProlog
save
50 dict begin
/q { gsave } bind def
/Q { grestore } bind def
/cm { 6 array astore concat } bind def
/w { setlinewidth } bind def
/J { setlinecap } bind def
/j { setlinejoin } bind def
/M { setmiterlimit } bind def
/d { setdash } bind def
/m { moveto } bind def
/l { lineto } bind def
/c { curveto } bind def
/h { closepath } bind def
/re { exch dup neg 3 1 roll 5 3 roll moveto 0 rlineto
      0 exch rlineto 0 rlineto closepath } bind def
/S { stroke } bind def
/f { fill } bind def
/f* { eofill } bind def
/n { newpath } bind def
/W { clip } bind def
/W* { eoclip } bind def
/BT { } bind def
/ET { } bind def
/pdfmark where { pop globaldict /?pdfmark /exec load put }
    { globaldict begin /?pdfmark /pop load def /pdfmark
    /cleartomark load def end } ifelse
/BDC { mark 3 1 roll /BDC pdfmark } bind def
/EMC { mark /EMC pdfmark } bind def
/cairo_store_point { /cairo_point_y exch def /cairo_point_x exch def } def
/Tj { show currentpoint cairo_store_point } bind def
/TJ {
  {
    dup
    type /stringtype eq
    { show } { -0.001 mul 0 cairo_font_matrix dtransform rmoveto } ifelse
  } forall
  currentpoint cairo_store_point
} bind def
/cairo_selectfont { cairo_font_matrix aload pop pop pop 0 0 6 array astore
    cairo_font exch selectfont cairo_point_x cairo_point_y moveto } bind def
/Tf { pop /cairo_font exch def /cairo_font_matrix where
      { pop cairo_selectfont } if } bind def
/Td { matrix translate cairo_font_matrix matrix concatmatrix dup
      /cairo_font_matrix exch def dup 4 get exch 5 get cairo_store_point
      /cairo_font where { pop cairo_selectfont } if } bind def
/Tm { 2 copy 8 2 roll 6 array astore /cairo_font_matrix exch def
      cairo_store_point /cairo_font where { pop cairo_selectfont } if } bind def
/g { setgray } bind def
/rg { setrgbcolor } bind def
/d1 { setcachedevice } bind def
%%EndProlog
%%BeginSetup
%%EndSetup
%%Page: 1 1
%%BeginPageSetup
%%PageBoundingBox: 0 0 384 384
%%EndPageSetup
q 0 0 384 384 rectclip q
0 g
192 384 m 170.793 384 153.602 366.809 153.602 345.602 c 153.602 324.391
 170.793 307.199 192 307.199 c 213.199 307.223 230.379 324.402 230.398 345.602
 c 230.398 366.809 213.207 384 192 384 c h
192 320 m 177.863 320 166.398 331.461 166.398 345.602 c 166.398 359.738
 177.863 371.199 192 371.199 c 206.137 371.199 217.602 359.738 217.602 345.602
 c 217.602 331.461 206.137 320 192 320 c h
192 320 m f
217.602 300.801 m 216.09 300.801 l 214.738 300.129 l 200.418 292.996 183.582
 292.996 169.262 300.129 c 167.91 300.801 l 166.398 300.801 l 148.734 300.777
 134.422 286.465 134.398 268.801 c 134.398 230.398 l 134.398 219.797 142.996
 211.199 153.602 211.199 c 230.398 211.199 l 241.004 211.199 249.602 219.797
 249.602 230.398 c 249.602 268.801 l 249.578 286.465 235.266 300.777 217.602
 300.801 c h
236.801 230.398 m 236.801 226.867 233.934 224 230.398 224 c 153.602 224
 l 150.066 224 147.199 226.867 147.199 230.398 c 147.199 268.801 l 147.203
 278.875 154.988 287.234 165.035 287.949 c 182.137 280.012 201.863 280.012
 218.965 287.949 c 229.012 287.234 236.797 278.875 236.801 268.801 c h
236.801 230.398 m f
326.398 172.801 m 305.191 172.801 288 155.609 288 134.398 c 288 113.191
 305.191 96 326.398 96 c 347.609 96 364.801 113.191 364.801 134.398 c 364.777
 155.598 347.598 172.777 326.398 172.801 c h
326.398 108.801 m 312.262 108.801 300.801 120.262 300.801 134.398 c 300.801
 148.539 312.262 160 326.398 160 c 340.539 160 352 148.539 352 134.398 c
 352 120.262 340.539 108.801 326.398 108.801 c h
326.398 108.801 m f
352 89.602 m 350.488 89.602 l 349.141 88.961 l 334.82 81.832 317.98 81.832
 303.66 88.961 c 302.309 89.602 l 300.801 89.602 l 283.137 89.578 268.82
 75.266 268.801 57.602 c 268.801 19.199 l 268.801 8.598 277.395 0 288 0 
c 364.801 0 l 375.402 0 384 8.598 384 19.199 c 384 57.602 l 383.98 75.266
 369.664 89.578 352 89.602 c h
371.199 19.199 m 371.199 15.664 368.336 12.801 364.801 12.801 c 288 12.801
 l 284.465 12.801 281.602 15.664 281.602 19.199 c 281.602 57.602 l 281.602
 67.672 289.387 76.035 299.438 76.75 c 316.535 68.812 336.262 68.812 353.363
 76.75 c 363.41 76.035 371.199 67.672 371.199 57.602 c h
371.199 19.199 m f
57.602 172.801 m 36.391 172.801 19.199 155.609 19.199 134.398 c 19.199 
113.191 36.391 96 57.602 96 c 78.809 96 96 113.191 96 134.398 c 95.98 155.598
 78.801 172.777 57.602 172.801 c h
57.602 108.801 m 43.461 108.801 32 120.262 32 134.398 c 32 148.539 43.461
 160 57.602 160 c 71.738 160 83.199 148.539 83.199 134.398 c 83.199 120.262
 71.738 108.801 57.602 108.801 c h
57.602 108.801 m f
83.199 89.602 m 81.691 89.602 l 80.34 88.961 l 66.02 81.832 49.18 81.832
 34.859 88.961 c 33.512 89.602 l 32 89.602 l 14.336 89.578 0.02 75.266 0
 57.602 c 0 19.199 l 0 8.598 8.598 0 19.199 0 c 96 0 l 106.605 0 115.199
 8.598 115.199 19.199 c 115.199 57.602 l 115.18 75.266 100.863 89.578 83.199
 89.602 c h
102.398 19.199 m 102.398 15.664 99.535 12.801 96 12.801 c 19.199 12.801
 l 15.664 12.801 12.801 15.664 12.801 19.199 c 12.801 57.602 l 12.801 67.672
 20.59 76.035 30.637 76.75 c 47.738 68.812 67.465 68.812 84.562 76.75 c 
94.613 76.035 102.398 67.672 102.398 57.602 c h
102.398 19.199 m f
255.496 58.98 m 255.496 58.988 255.492 58.992 255.488 59 c 254.102 62.254
 250.344 63.766 247.094 62.379 c 218.191 50.27 186.098 48.059 155.809 56.098
 c 161.801 57.855 l 165.191 58.848 167.137 62.406 166.145 65.797 c 165.152
 69.191 161.598 71.137 158.203 70.145 c 132.602 62.637 l 132.508 62.637 
132.438 62.527 132.348 62.496 c 131.754 62.273 131.195 61.965 130.695 61.582
 c 130.473 61.461 130.258 61.328 130.055 61.176 c 129.379 60.574 128.844
 59.832 128.488 59 c 128.141 58.164 127.973 57.266 128 56.359 c 128.156 
55.492 128.371 54.637 128.641 53.797 c 128.68 53.707 128.641 53.605 128.711
 53.516 c 141.512 29.023 l 143.148 25.891 147.016 24.672 150.152 26.309 
c 153.285 27.945 154.5 31.816 152.863 34.949 c 147.656 44.91 l 182.066 34.566
 219.012 36.574 252.098 50.594 c 255.352 51.969 256.875 55.723 255.496 58.98
 c h
255.496 58.98 m f
362.926 215.727 m 360.426 218.223 356.375 218.223 353.875 215.727 c 344.82
 206.668 l 339.52 262.727 303.93 311.371 252.109 333.391 c 248.855 334.773
 245.098 333.262 243.711 330.008 c 242.328 326.758 243.84 323 247.09 321.613
 c 293.578 301.855 325.895 258.676 331.742 208.504 c 324.523 215.727 l 321.98
 218.18 317.93 218.109 315.477 215.566 c 313.078 213.09 313.078 209.156 
315.477 206.676 c 334.676 187.477 l 337.172 184.973 341.223 184.969 343.727
 187.465 c 362.938 206.676 l 365.434 209.176 365.426 213.23 362.926 215.727
 c h
362.926 215.727 m f
140.613 328.582 m 140.594 328.957 140.539 329.328 140.449 329.691 c 140.449
 329.746 140.379 329.785 140.352 329.848 c 140.328 329.914 140.352 329.957
 140.352 330.008 c 140.176 330.32 139.977 330.617 139.75 330.895 c 139.543
 331.27 139.297 331.621 139.02 331.949 c 138.641 332.285 138.223 332.57 
137.773 332.801 c 137.547 332.992 137.309 333.164 137.055 333.32 c 111.457
 345.012 l 108.188 346.355 104.445 344.793 103.105 341.523 c 101.836 338.43
 103.16 334.879 106.145 333.375 c 119.398 327.316 l 69.5 300.609 38.363 
248.594 38.398 192 c 38.398 188.465 41.266 185.602 44.801 185.602 c 48.336
 185.602 51.199 188.465 51.199 192 c 51.168 241.836 77.52 287.961 120.469
 313.242 c 115.84 303.57 l 114.312 300.391 115.652 296.574 118.828 295.039
 c 119.691 294.617 120.641 294.398 121.602 294.398 c 124.059 294.402 126.297
 295.812 127.359 298.027 c 140.16 324.734 l 140.16 324.801 140.16 324.871
 140.211 324.934 c 140.379 325.371 140.492 325.828 140.559 326.293 c 140.668
 326.637 140.746 326.988 140.801 327.348 c 140.777 327.766 140.719 328.176
 140.613 328.582 c h
140.613 328.582 m f
Q Q
showpage
%%Trailer
end restore
%%EOF
