%!PS-Adobe-3.0 EPSF-3.0
%%Creator: cairo 1.14.2 (http://cairographics.org)
%%CreationDate: Tue Apr  3 10:37:02 2018
%%Pages: 1
%%DocumentData: Clean7Bit
%%LanguageLevel: 2
%%BoundingBox: 0 25 385 360
%%EndComments
%%BeginProlog
save
50 dict begin
/q { gsave } bind def
/Q { grestore } bind def
/cm { 6 array astore concat } bind def
/w { setlinewidth } bind def
/J { setlinecap } bind def
/j { setlinejoin } bind def
/M { setmiterlimit } bind def
/d { setdash } bind def
/m { moveto } bind def
/l { lineto } bind def
/c { curveto } bind def
/h { closepath } bind def
/re { exch dup neg 3 1 roll 5 3 roll moveto 0 rlineto
      0 exch rlineto 0 rlineto closepath } bind def
/S { stroke } bind def
/f { fill } bind def
/f* { eofill } bind def
/n { newpath } bind def
/W { clip } bind def
/W* { eoclip } bind def
/BT { } bind def
/ET { } bind def
/pdfmark where { pop globaldict /?pdfmark /exec load put }
    { globaldict begin /?pdfmark /pop load def /pdfmark
    /cleartomark load def end } ifelse
/BDC { mark 3 1 roll /BDC pdfmark } bind def
/EMC { mark /EMC pdfmark } bind def
/cairo_store_point { /cairo_point_y exch def /cairo_point_x exch def } def
/Tj { show currentpoint cairo_store_point } bind def
/TJ {
  {
    dup
    type /stringtype eq
    { show } { -0.001 mul 0 cairo_font_matrix dtransform rmoveto } ifelse
  } forall
  currentpoint cairo_store_point
} bind def
/cairo_selectfont { cairo_font_matrix aload pop pop pop 0 0 6 array astore
    cairo_font exch selectfont cairo_point_x cairo_point_y moveto } bind def
/Tf { pop /cairo_font exch def /cairo_font_matrix where
      { pop cairo_selectfont } if } bind def
/Td { matrix translate cairo_font_matrix matrix concatmatrix dup
      /cairo_font_matrix exch def dup 4 get exch 5 get cairo_store_point
      /cairo_font where { pop cairo_selectfont } if } bind def
/Tm { 2 copy 8 2 roll 6 array astore /cairo_font_matrix exch def
      cairo_store_point /cairo_font where { pop cairo_selectfont } if } bind def
/g { setgray } bind def
/rg { setrgbcolor } bind def
/d1 { setcachedevice } bind def
%%EndProlog
%%BeginSetup
%%EndSetup
%%Page: 1 1
%%BeginPageSetup
%%PageBoundingBox: 0 25 385 360
%%EndPageSetup
q 0 25 385 335 rectclip q
0 g
192 198.403 m 153.602 198.403 l 150.066 198.403 147.199 195.54 147.195 
192.005 c 147.195 191.013 147.426 190.032 147.871 189.142 c 160 164.892 
l 160 140.802 l 160 123.13 174.328 108.802 192 108.802 c 209.672 108.802
 224 123.13 224 140.802 c 224 166.403 l 223.98 184.067 209.664 198.38 192
 198.403 c h
163.957 185.602 m 192 185.602 l 200.133 185.595 207.383 180.47 210.105 
172.802 c 170.355 172.802 l h
211.199 140.802 m 211.199 130.2 202.605 121.602 192 121.602 c 181.395 121.602
 172.801 130.2 172.801 140.802 c 172.801 160.001 l 211.199 160.001 l h
211.199 140.802 m f
217.602 108.802 m 166.398 108.802 l 148.734 108.782 134.422 94.466 134.398
 76.802 c 134.398 32.001 l 134.398 28.47 137.266 25.602 140.801 25.602 c
 243.199 25.602 l 246.734 25.602 249.602 28.47 249.602 32.001 c 249.602 
76.802 l 249.578 94.466 235.266 108.782 217.602 108.802 c h
236.801 38.403 m 224 38.403 l 224 57.602 l 224 61.138 221.133 64.001 217.602
 64.001 c 214.066 64.001 211.199 61.138 211.199 57.602 c 211.199 38.403 
l 172.801 38.403 l 172.801 57.602 l 172.801 61.138 169.934 64.001 166.398
 64.001 c 162.867 64.001 160 61.138 160 57.602 c 160 38.403 l 147.199 38.403
 l 147.199 76.802 l 147.199 87.407 155.797 96.001 166.398 96.001 c 217.602
 96.001 l 228.203 96.001 236.801 87.407 236.801 76.802 c h
236.801 38.403 m f
70.398 198.403 m 44.801 198.403 l 34.195 198.403 25.602 189.806 25.602 
179.204 c 25.602 140.802 l 25.602 123.13 39.926 108.802 57.602 108.802 c
 75.273 108.802 89.602 123.13 89.602 140.802 c 89.602 179.204 l 89.602 189.806
 81.004 198.403 70.398 198.403 c h
76.801 140.802 m 76.801 130.2 68.203 121.602 57.602 121.602 c 46.996 121.602
 38.398 130.2 38.398 140.802 c 38.398 160.001 l 76.801 160.001 l h
76.801 172.802 m 38.398 172.802 l 38.398 179.204 l 38.398 182.735 41.266
 185.602 44.801 185.602 c 70.398 185.602 l 73.934 185.602 76.801 182.735
 76.801 179.204 c h
76.801 172.802 m f
83.199 108.802 m 32 108.802 l 14.336 108.782 0.02 94.466 0 76.802 c 0 32.001
 l 0 28.47 2.867 25.602 6.398 25.602 c 108.801 25.602 l 112.336 25.602 115.199
 28.47 115.199 32.001 c 115.199 76.802 l 115.18 94.466 100.863 108.782 83.199
 108.802 c h
102.398 38.403 m 89.602 38.403 l 89.602 57.602 l 89.602 61.138 86.734 64.001
 83.199 64.001 c 79.664 64.001 76.801 61.138 76.801 57.602 c 76.801 38.403
 l 38.398 38.403 l 38.398 57.602 l 38.398 61.138 35.535 64.001 32 64.001
 c 28.465 64.001 25.602 61.138 25.602 57.602 c 25.602 38.403 l 12.801 38.403
 l 12.801 76.802 l 12.801 87.407 21.395 96.001 32 96.001 c 83.199 96.001
 l 93.805 96.001 102.398 87.407 102.398 76.802 c h
102.398 38.403 m f
383.332 156.427 m 383.328 156.431 l 369.176 184.731 l 357.363 208.356 328.637
 217.934 305.012 206.118 c 295.754 201.493 288.25 193.985 283.621 184.731
 c 269.473 156.431 l 267.891 153.27 269.172 149.427 272.336 147.845 c 272.34
 147.841 l 294.824 136.602 l 297.02 119.165 312.938 106.806 330.379 109.005
 c 344.801 110.821 356.16 122.181 357.977 136.602 c 357.977 136.638 l 380.461
 147.841 l 383.625 149.419 384.906 153.263 383.332 156.427 c h
345.602 140.802 m 345.602 130.2 337.004 121.602 326.398 121.602 c 315.797
 121.602 307.199 130.2 307.199 140.802 c 307.199 160.001 l 345.602 160.001
 l h
358.398 151.157 m 358.398 166.403 l 358.398 169.938 355.535 172.802 352
 172.802 c 300.801 172.802 l 297.266 172.802 294.398 169.938 294.398 166.403
 c 294.398 151.157 l 283.789 156.462 l 295.07 179.044 l 303.727 196.345 
324.766 203.356 342.066 194.704 c 348.844 191.313 354.34 185.817 357.727
 179.044 c 369.012 156.462 l h
358.398 151.157 m f
352 108.802 m 300.801 108.802 l 283.137 108.782 268.82 94.466 268.801 76.802
 c 268.801 32.001 l 268.801 28.47 271.664 25.602 275.199 25.602 c 377.602
 25.602 l 381.133 25.602 384 28.47 384 32.001 c 384 76.802 l 383.98 94.466
 369.664 108.782 352 108.802 c h
371.199 38.403 m 358.398 38.403 l 358.398 57.602 l 358.398 61.138 355.535
 64.001 352 64.001 c 348.465 64.001 345.602 61.138 345.602 57.602 c 345.602
 38.403 l 307.199 38.403 l 307.199 57.602 l 307.199 61.138 304.336 64.001
 300.801 64.001 c 297.266 64.001 294.398 61.138 294.398 57.602 c 294.398
 38.403 l 281.602 38.403 l 281.602 76.802 l 281.602 87.407 290.195 96.001
 300.801 96.001 c 352 96.001 l 362.605 96.001 371.199 87.407 371.199 76.802
 c h
371.199 38.403 m f
112.062 319.192 m 104.184 342.579 82.281 358.349 57.602 358.403 c 25.789
 358.333 0.055 332.489 0.125 300.681 c 0.176 276.001 15.945 254.095 39.336
 246.216 c 51.871 221.142 l 53.449 217.977 57.293 216.692 60.457 218.27 
c 61.699 218.888 62.707 219.899 63.328 221.142 c 75.867 246.216 l 106.012
 256.372 122.219 289.044 112.062 319.192 c h
100.75 288.798 m 96.535 273.7 84.742 261.907 69.645 257.692 c 67.902 257.208
 66.445 256.009 65.637 254.392 c 57.602 238.313 l 49.562 254.392 l 48.754
 256.009 47.297 257.208 45.555 257.692 c 21.723 264.345 7.797 289.056 14.449
 312.888 c 21.102 336.72 45.812 350.645 69.645 343.993 c 93.477 337.341 
107.402 312.63 100.75 288.798 c h
100.75 288.798 m f
246.461 319.192 m 238.582 342.579 216.68 358.349 192 358.403 c 160.188 
358.333 134.457 332.489 134.523 300.681 c 134.578 276.001 150.348 254.095
 173.734 246.216 c 186.273 221.142 l 187.848 217.977 191.691 216.692 194.855
 218.27 c 196.098 218.888 197.109 219.899 197.727 221.142 c 210.266 246.216
 l 240.414 256.372 256.617 289.044 246.461 319.192 c h
235.152 288.798 m 230.938 273.7 219.141 261.907 204.043 257.692 c 202.301
 257.208 200.848 256.009 200.039 254.392 c 192 238.313 l 183.961 254.392
 l 183.152 256.009 181.699 257.208 179.957 257.692 c 156.125 264.345 142.199
 289.056 148.848 312.888 c 155.5 336.72 180.215 350.645 204.043 343.993 
c 227.875 337.341 241.801 312.63 235.152 288.798 c h
235.152 288.798 m f
380.863 319.192 m 372.984 342.579 351.078 358.349 326.398 358.403 c 294.59
 358.333 268.855 332.489 268.926 300.681 c 268.977 276.001 284.746 254.095
 308.133 246.216 c 320.672 221.142 l 322.25 217.977 326.09 216.692 329.254
 218.27 c 330.5 218.888 331.508 219.899 332.129 221.142 c 344.664 246.216
 l 374.812 256.372 391.02 289.044 380.863 319.192 c h
369.551 288.798 m 365.336 273.7 353.539 261.907 338.445 257.692 c 336.703
 257.208 335.246 256.009 334.438 254.392 c 326.398 238.313 l 318.363 254.392
 l 317.555 256.009 316.098 257.208 314.355 257.692 c 290.523 264.345 276.598
 289.056 283.25 312.888 c 289.902 336.72 314.613 350.645 338.445 343.993
 c 362.277 337.341 376.203 312.63 369.551 288.798 c h
369.551 288.798 m f
353.324 321.329 m 345.934 328.438 334.414 328.966 326.398 322.563 c 318.395
 328.974 306.875 328.458 299.477 321.352 c 291.676 313.552 291.676 300.907
 299.477 293.102 c 326.398 266.153 l 353.324 293.079 l 361.125 300.88 361.125
 313.524 353.324 321.329 c h
344.273 302.126 m 344.273 302.153 l 326.398 284.251 l 308.523 302.126 l
 305.723 304.931 305.723 309.474 308.523 312.278 c 311.328 315.079 315.871
 315.079 318.676 312.278 c 326.398 304.552 l 334.125 312.278 l 336.93 315.079
 341.473 315.079 344.273 312.278 c 347.078 309.474 347.078 304.931 344.273
 302.126 c h
344.273 302.126 m f
192 332.802 m 174.328 332.802 160 318.474 160 300.802 c 160 283.13 174.328
 268.802 192 268.802 c 209.672 268.802 224 283.13 224 300.802 c 223.98 318.466
 209.664 332.782 192 332.802 c h
172.801 300.802 m 172.801 311.407 181.395 320.001 192 320.001 c 194.852
 319.993 197.664 319.337 200.223 318.083 c 174.719 292.579 l 173.469 295.138
 172.812 297.95 172.801 300.802 c h
192 281.602 m 189.148 281.614 186.336 282.27 183.777 283.524 c 209.281 
309.028 l 210.531 306.466 211.188 303.653 211.199 300.802 c 211.199 290.2
 202.605 281.602 192 281.602 c h
192 281.602 m f
32 307.204 51.199 -12.801 re f
Q Q
showpage
%%Trailer
end restore
%%EOF
