%!PS-Adobe-3.0 EPSF-3.0
%%Creator: cairo 1.14.2 (http://cairographics.org)
%%CreationDate: Tue Apr  3 10:37:02 2018
%%Pages: 1
%%DocumentData: Clean7Bit
%%LanguageLevel: 2
%%BoundingBox: 0 0 384 385
%%EndComments
%%BeginProlog
save
50 dict begin
/q { gsave } bind def
/Q { grestore } bind def
/cm { 6 array astore concat } bind def
/w { setlinewidth } bind def
/J { setlinecap } bind def
/j { setlinejoin } bind def
/M { setmiterlimit } bind def
/d { setdash } bind def
/m { moveto } bind def
/l { lineto } bind def
/c { curveto } bind def
/h { closepath } bind def
/re { exch dup neg 3 1 roll 5 3 roll moveto 0 rlineto
      0 exch rlineto 0 rlineto closepath } bind def
/S { stroke } bind def
/f { fill } bind def
/f* { eofill } bind def
/n { newpath } bind def
/W { clip } bind def
/W* { eoclip } bind def
/BT { } bind def
/ET { } bind def
/pdfmark where { pop globaldict /?pdfmark /exec load put }
    { globaldict begin /?pdfmark /pop load def /pdfmark
    /cleartomark load def end } ifelse
/BDC { mark 3 1 roll /BDC pdfmark } bind def
/EMC { mark /EMC pdfmark } bind def
/cairo_store_point { /cairo_point_y exch def /cairo_point_x exch def } def
/Tj { show currentpoint cairo_store_point } bind def
/TJ {
  {
    dup
    type /stringtype eq
    { show } { -0.001 mul 0 cairo_font_matrix dtransform rmoveto } ifelse
  } forall
  currentpoint cairo_store_point
} bind def
/cairo_selectfont { cairo_font_matrix aload pop pop pop 0 0 6 array astore
    cairo_font exch selectfont cairo_point_x cairo_point_y moveto } bind def
/Tf { pop /cairo_font exch def /cairo_font_matrix where
      { pop cairo_selectfont } if } bind def
/Td { matrix translate cairo_font_matrix matrix concatmatrix dup
      /cairo_font_matrix exch def dup 4 get exch 5 get cairo_store_point
      /cairo_font where { pop cairo_selectfont } if } bind def
/Tm { 2 copy 8 2 roll 6 array astore /cairo_font_matrix exch def
      cairo_store_point /cairo_font where { pop cairo_selectfont } if } bind def
/g { setgray } bind def
/rg { setrgbcolor } bind def
/d1 { setcachedevice } bind def
%%EndProlog
%%BeginSetup
%%EndSetup
%%Page: 1 1
%%BeginPageSetup
%%PageBoundingBox: 0 0 384 385
%%EndPageSetup
q 0 0 384 385 rectclip q
0 g
320 351.36 m 320 377.602 l 320 381.134 317.137 384.001 313.602 384.001 
c 313.078 384.001 312.555 383.934 312.047 383.809 c 210.422 358.399 l 198.402
 358.399 l 177.195 358.309 160.074 341.048 160.164 319.841 c 160.238 302.325
 172.152 287.083 189.129 282.778 c 191.957 274.305 l 189.887 274.872 187.75
 275.177 185.602 275.2 c 32 275.2 l 14.336 275.18 0.023 260.864 0 243.2 
c 0 6.399 l 0 2.868 2.867 0.001 6.402 0.001 c 96 0.001 l 106.605 0.001 115.199
 8.598 115.199 19.2 c 115.199 29.805 106.605 38.399 96 38.399 c 89.602 38.399
 l 89.602 198.399 l 192 198.399 l 204.41 198.43 215.008 207.356 217.152 
219.579 c 217.523 219.38 217.844 219.118 218.223 218.938 c 230.047 213.454
 244.078 218.595 249.566 230.423 c 252.098 235.884 252.449 242.11 250.543
 247.821 c 241.922 273.727 l 312.059 256.192 l 315.488 255.341 318.961 257.43
 319.812 260.86 c 319.938 261.364 320 261.88 320 262.399 c 320 288.641 l
 334.891 291.704 345.582 304.802 345.602 320.001 c 345.582 335.2 334.891
 348.298 320 351.36 c h
172.801 320.001 m 172.801 334.138 184.262 345.602 198.402 345.602 c 204.801
 345.602 l 204.801 294.399 l 198.402 294.399 l 184.262 294.399 172.801 305.864
 172.801 320.001 c h
83.199 236.802 m 79.668 236.802 76.801 233.934 76.801 230.399 c 76.801 
32.001 l 76.801 28.466 79.668 25.602 83.199 25.602 c 96 25.602 l 99.535 
25.602 102.402 22.735 102.402 19.2 c 102.402 15.665 99.535 12.802 96 12.802
 c 51.199 12.802 l 51.199 121.602 l 51.199 125.134 48.336 128.001 44.801
 128.001 c 41.266 128.001 38.402 125.134 38.402 121.602 c 38.402 12.802 
l 12.801 12.802 l 12.801 243.2 l 12.801 253.805 21.398 262.399 32 262.399
 c 185.602 262.399 l 192.672 262.399 198.402 256.669 198.402 249.602 c 198.402
 242.532 192.672 236.802 185.602 236.802 c h
198.961 213.212 m 196.887 211.88 194.465 211.18 192 211.2 c 89.602 211.2
 l 89.602 224.001 l 185.602 224.001 l 191.977 224.02 198.113 226.434 202.789
 230.766 c 206.578 224.86 204.867 217.001 198.961 213.212 c h
232.16 230.337 m 226.629 228.118 220.348 230.802 218.129 236.333 c 218.047
 236.536 217.969 236.739 217.902 236.946 c 203.016 281.602 l 210.422 281.602
 l 227.188 277.407 l 238.402 243.778 l 240.199 238.352 237.465 232.466 232.16
 230.337 c h
307.199 270.598 m 217.602 293.001 l 217.602 347.001 l 307.199 369.403 l
 h
331.719 313.61 m 329.785 308.134 325.477 303.829 320 301.895 c 320 338.106
 l 330 334.579 335.246 323.61 331.719 313.61 c h
331.719 313.61 m f
377.602 326.399 m 364.801 326.399 l 361.266 326.399 358.402 323.536 358.402
 320.001 c 358.402 316.466 361.266 313.602 364.801 313.602 c 377.602 313.602
 l 381.137 313.602 384 316.466 384 320.001 c 384 323.536 381.137 326.399
 377.602 326.399 c h
377.602 326.399 m f
363.535 369.778 m 361.082 372.321 357.031 372.391 354.488 369.938 c 354.434
 369.888 354.383 369.833 354.332 369.778 c 345.281 360.731 l 342.738 358.274
 342.668 354.223 345.125 351.68 c 347.578 349.138 351.629 349.067 354.172
 351.524 c 354.227 351.575 354.277 351.626 354.332 351.68 c 363.379 360.731
 l 365.922 363.184 365.992 367.239 363.535 369.778 c h
363.535 369.778 m f
363.379 279.27 m 354.332 288.321 l 351.875 290.864 347.824 290.934 345.281
 288.477 c 342.738 286.024 342.668 281.97 345.125 279.427 c 345.176 279.376
 345.227 279.321 345.281 279.27 c 354.332 270.223 l 356.871 267.766 360.926
 267.837 363.379 270.38 c 365.773 272.86 365.773 276.79 363.379 279.27 c
 h
363.379 279.27 m f
96 384.001 m 51.199 384.001 l 22.969 384.048 0.047 361.2 0 332.966 c -0.008
 328.024 0.703 323.102 2.105 318.36 c 1.875 318.13 l 2.266 317.739 l 10.586
 290.716 39.238 275.548 66.262 283.868 c 87.742 290.477 102.398 310.325 
102.398 332.798 c 102.398 377.602 l 102.402 381.134 99.535 384.001 96 384.001
 c h
89.602 332.802 m 89.578 311.602 72.398 294.423 51.199 294.399 c 36.93 294.411
 23.84 302.341 17.219 314.981 c 37.098 333.18 62.688 343.891 89.602 345.286
 c h
89.602 358.087 m 61.539 356.829 34.664 346.43 13.062 328.473 c 10.594 349.458
 25.598 368.47 46.578 370.938 c 48.113 371.118 49.656 371.208 51.199 371.2
 c 89.602 371.2 l h
89.602 358.087 m f
Q Q
showpage
%%Trailer
end restore
%%EOF
