%!PS-Adobe-3.0 EPSF-3.0
%%Creator: cairo 1.14.2 (http://cairographics.org)
%%CreationDate: Tue Apr  3 10:37:02 2018
%%Pages: 1
%%DocumentData: Clean7Bit
%%LanguageLevel: 2
%%BoundingBox: 44 0 340 384
%%EndComments
%%BeginProlog
save
50 dict begin
/q { gsave } bind def
/Q { grestore } bind def
/cm { 6 array astore concat } bind def
/w { setlinewidth } bind def
/J { setlinecap } bind def
/j { setlinejoin } bind def
/M { setmiterlimit } bind def
/d { setdash } bind def
/m { moveto } bind def
/l { lineto } bind def
/c { curveto } bind def
/h { closepath } bind def
/re { exch dup neg 3 1 roll 5 3 roll moveto 0 rlineto
      0 exch rlineto 0 rlineto closepath } bind def
/S { stroke } bind def
/f { fill } bind def
/f* { eofill } bind def
/n { newpath } bind def
/W { clip } bind def
/W* { eoclip } bind def
/BT { } bind def
/ET { } bind def
/pdfmark where { pop globaldict /?pdfmark /exec load put }
    { globaldict begin /?pdfmark /pop load def /pdfmark
    /cleartomark load def end } ifelse
/BDC { mark 3 1 roll /BDC pdfmark } bind def
/EMC { mark /EMC pdfmark } bind def
/cairo_store_point { /cairo_point_y exch def /cairo_point_x exch def } def
/Tj { show currentpoint cairo_store_point } bind def
/TJ {
  {
    dup
    type /stringtype eq
    { show } { -0.001 mul 0 cairo_font_matrix dtransform rmoveto } ifelse
  } forall
  currentpoint cairo_store_point
} bind def
/cairo_selectfont { cairo_font_matrix aload pop pop pop 0 0 6 array astore
    cairo_font exch selectfont cairo_point_x cairo_point_y moveto } bind def
/Tf { pop /cairo_font exch def /cairo_font_matrix where
      { pop cairo_selectfont } if } bind def
/Td { matrix translate cairo_font_matrix matrix concatmatrix dup
      /cairo_font_matrix exch def dup 4 get exch 5 get cairo_store_point
      /cairo_font where { pop cairo_selectfont } if } bind def
/Tm { 2 copy 8 2 roll 6 array astore /cairo_font_matrix exch def
      cairo_store_point /cairo_font where { pop cairo_selectfont } if } bind def
/g { setgray } bind def
/rg { setrgbcolor } bind def
/d1 { setcachedevice } bind def
%%EndProlog
%%BeginSetup
%%EndSetup
%%Page: 1 1
%%BeginPageSetup
%%PageBoundingBox: 44 0 340 384
%%EndPageSetup
q 44 0 296 384 rectclip q
0 g
198.34 211.199 m 185.539 211.199 l 182.004 211.199 179.137 214.066 179.137
 217.602 c 179.137 224 l 179.137 227.535 182.004 230.398 185.539 230.398
 c 198.34 230.398 l 201.871 230.398 204.738 227.535 204.738 224 c 217.539
 224 l 217.539 234.605 208.941 243.199 198.34 243.199 c 198.34 256 l 185.539
 256 l 185.539 243.199 l 174.934 243.199 166.34 234.605 166.34 224 c 166.34
 217.602 l 166.34 206.996 174.934 198.398 185.539 198.398 c 198.34 198.398
 l 201.871 198.398 204.738 195.535 204.738 192 c 204.738 185.602 l 204.738
 182.066 201.871 179.199 198.34 179.199 c 185.539 179.199 l 182.004 179.199
 179.137 182.066 179.137 185.602 c 166.34 185.602 l 166.34 174.996 174.934
 166.398 185.539 166.398 c 185.539 153.602 l 198.34 153.602 l 198.34 166.398
 l 208.941 166.398 217.539 174.996 217.539 185.602 c 217.539 192 l 217.539
 202.605 208.941 211.199 198.34 211.199 c h
198.34 211.199 m f
257.5 283.379 m 267.121 287.836 271.309 299.25 266.848 308.871 c 263.723
 315.621 256.977 319.957 249.539 320 c 244.547 320 l 250.582 350.164 l 253.641
 365.488 243.703 380.391 228.379 383.453 c 226.555 383.816 224.703 384 222.844
 384 c 213.648 384.027 204.824 380.371 198.34 373.848 c 194.758 370.426 
189.117 370.426 185.539 373.848 c 179.055 380.371 170.23 384.027 161.031
 384 c 145.406 383.996 132.742 371.324 132.746 355.695 c 132.746 353.84 
132.93 351.984 133.297 350.164 c 139.332 320 l 134.34 320 l 123.734 319.938
 115.188 311.293 115.246 300.691 c 115.289 293.25 119.625 286.508 126.375
 283.379 c 103.094 263.914 89.605 235.148 89.539 204.801 c 89.492 148.246
 135.305 102.363 191.859 102.32 c 248.41 102.273 294.293 148.086 294.34 
204.637 c 294.363 235.055 280.863 263.906 257.5 283.379 c h
157.98 370.895 m 158.984 371.098 160.008 371.199 161.031 371.199 c 166.832
 371.219 172.395 368.914 176.48 364.801 c 185.133 356.555 198.734 356.555
 207.387 364.801 c 211.477 368.91 217.043 371.215 222.844 371.199 c 231.402
 371.191 238.332 364.25 238.324 355.691 c 238.324 354.668 238.223 353.645
 238.02 352.641 c 231.492 320 l 152.387 320 l 145.859 352.641 l 144.164 
361.027 149.594 369.199 157.98 370.895 c h
134.34 307.199 m 249.539 307.199 l 253.074 307.199 255.938 304.336 255.938
 300.801 c 255.938 297.266 253.074 294.398 249.539 294.398 c 134.34 294.398
 l 130.805 294.398 127.938 297.266 127.938 300.801 c 127.938 304.336 130.805
 307.199 134.34 307.199 c h
191.98 115.156 m 142.496 115.133 102.363 155.23 102.34 204.715 c 102.324
 236.211 118.848 265.402 145.859 281.602 c 238.02 281.602 l 264.961 265.375
 281.465 236.25 281.539 204.801 c 281.562 155.316 241.465 115.18 191.98 
115.156 c h
191.98 115.156 m f
332.289 95.148 m 327.656 99.859 321.305 102.48 314.695 102.398 c 308.102
 102.434 301.77 99.809 297.137 95.117 c 288.477 86.398 271.688 69.605 266.082
 64 c 236.738 64 l 236.738 78.137 225.277 89.602 211.137 89.602 c 179.137
 89.602 l 177.754 89.602 176.406 89.152 175.297 88.32 c 151.406 70.398 l
 121.539 70.398 l 121.539 76.801 l 121.539 80.336 118.672 83.199 115.137
 83.199 c 51.137 83.199 l 47.605 83.199 44.738 80.336 44.738 76.801 c 44.738
 6.398 l 44.738 2.867 47.605 0 51.137 0 c 115.137 0 l 118.672 0 121.539 
2.867 121.539 6.398 c 121.539 12.801 l 265.633 12.801 l 277.523 12.77 288.93
 17.496 297.309 25.926 c 332.254 60.871 l 341.582 70.387 341.602 85.613 
332.289 95.148 c h
108.738 12.801 m 57.539 12.801 l 57.539 70.398 l 108.738 70.398 l h
323.203 69.922 m 288.258 34.977 l 282.273 28.953 274.125 25.578 265.633
 25.602 c 121.539 25.602 l 121.539 57.602 l 153.539 57.602 l 154.922 57.602
 156.27 58.047 157.379 58.879 c 181.27 76.801 l 211.137 76.801 l 218.207
 76.801 223.938 71.07 223.938 64 c 223.938 56.93 218.207 51.199 211.137 
51.199 c 185.539 51.199 l 185.539 38.398 l 211.137 38.398 l 220.281 38.402
 228.73 43.281 233.301 51.199 c 268.738 51.199 l 270.438 51.199 272.062 
51.875 273.262 53.074 c 273.262 53.074 295.715 75.531 306.219 86.105 c 308.543
 88.414 311.707 89.68 314.984 89.602 c 318.062 89.609 321.012 88.375 323.164
 86.176 c 325.395 83.887 326.586 80.781 326.453 77.586 c 326.41 74.703 325.246
 71.953 323.203 69.922 c h
323.203 69.922 m f
83.137 38.398 12.801 -12.797 re f
Q Q
showpage
%%Trailer
end restore
%%EOF
