%!PS-Adobe-3.0 EPSF-3.0
%%Creator: cairo 1.14.2 (http://cairographics.org)
%%CreationDate: Tue Apr  3 10:37:02 2018
%%Pages: 1
%%DocumentData: Clean7Bit
%%LanguageLevel: 2
%%BoundingBox: 0 -1 385 385
%%EndComments
%%BeginProlog
save
50 dict begin
/q { gsave } bind def
/Q { grestore } bind def
/cm { 6 array astore concat } bind def
/w { setlinewidth } bind def
/J { setlinecap } bind def
/j { setlinejoin } bind def
/M { setmiterlimit } bind def
/d { setdash } bind def
/m { moveto } bind def
/l { lineto } bind def
/c { curveto } bind def
/h { closepath } bind def
/re { exch dup neg 3 1 roll 5 3 roll moveto 0 rlineto
      0 exch rlineto 0 rlineto closepath } bind def
/S { stroke } bind def
/f { fill } bind def
/f* { eofill } bind def
/n { newpath } bind def
/W { clip } bind def
/W* { eoclip } bind def
/BT { } bind def
/ET { } bind def
/pdfmark where { pop globaldict /?pdfmark /exec load put }
    { globaldict begin /?pdfmark /pop load def /pdfmark
    /cleartomark load def end } ifelse
/BDC { mark 3 1 roll /BDC pdfmark } bind def
/EMC { mark /EMC pdfmark } bind def
/cairo_store_point { /cairo_point_y exch def /cairo_point_x exch def } def
/Tj { show currentpoint cairo_store_point } bind def
/TJ {
  {
    dup
    type /stringtype eq
    { show } { -0.001 mul 0 cairo_font_matrix dtransform rmoveto } ifelse
  } forall
  currentpoint cairo_store_point
} bind def
/cairo_selectfont { cairo_font_matrix aload pop pop pop 0 0 6 array astore
    cairo_font exch selectfont cairo_point_x cairo_point_y moveto } bind def
/Tf { pop /cairo_font exch def /cairo_font_matrix where
      { pop cairo_selectfont } if } bind def
/Td { matrix translate cairo_font_matrix matrix concatmatrix dup
      /cairo_font_matrix exch def dup 4 get exch 5 get cairo_store_point
      /cairo_font where { pop cairo_selectfont } if } bind def
/Tm { 2 copy 8 2 roll 6 array astore /cairo_font_matrix exch def
      cairo_store_point /cairo_font where { pop cairo_selectfont } if } bind def
/g { setgray } bind def
/rg { setrgbcolor } bind def
/d1 { setcachedevice } bind def
%%EndProlog
%%BeginSetup
%%EndSetup
%%Page: 1 1
%%BeginPageSetup
%%PageBoundingBox: 0 -1 385 385
%%EndPageSetup
q 0 -1 385 386 rectclip q
0 g
377.605 128.01 m 371.203 128.01 l 371.203 371.209 l 377.605 371.209 l 381.141
 371.209 384.004 374.076 384.004 377.611 c 384.004 381.142 381.141 384.01
 377.605 384.01 c 6.406 384.01 l 2.871 384.01 0.004 381.142 0.004 377.611
 c 0.004 374.076 2.871 371.209 6.406 371.209 c 12.805 371.209 l 12.805 128.01
 l 6.406 128.01 l 2.871 128.01 0.004 125.142 0.004 121.611 c 0.004 118.076
 2.871 115.209 6.406 115.209 c 112.727 115.209 l 77.137 8.431 l 76.02 5.076
 77.836 1.447 81.195 0.33 c 84.555 -0.787 88.18 1.029 89.297 4.389 c 126.211
 115.209 l 257.797 115.209 l 294.738 4.389 l 295.855 1.029 299.48 -0.787
 302.84 0.33 c 306.199 1.447 308.016 5.076 306.898 8.431 c 271.281 115.209
 l 377.605 115.209 l 381.141 115.209 384.004 118.076 384.004 121.611 c 384.004
 125.142 381.141 128.01 377.605 128.01 c h
358.406 128.01 m 25.605 128.01 l 25.605 371.209 l 358.406 371.209 l h
358.406 128.01 m f
211.203 358.408 m 200.602 358.408 192.004 349.814 192.004 339.209 c 192.004
 328.607 200.602 320.01 211.203 320.01 c 221.809 320.01 230.406 328.607 
230.406 339.209 c 230.406 349.814 221.809 358.408 211.203 358.408 c h
211.203 332.81 m 207.672 332.81 204.805 335.674 204.805 339.209 c 204.805
 342.744 207.672 345.611 211.203 345.611 c 214.738 345.611 217.605 342.744
 217.605 339.209 c 217.605 335.674 214.738 332.81 211.203 332.81 c h
211.203 332.81 m f
211.203 307.209 m 200.602 307.209 192.004 298.615 192.004 288.01 c 192.004
 277.404 200.602 268.81 211.203 268.81 c 221.809 268.81 230.406 277.404 
230.406 288.01 c 230.406 298.615 221.809 307.209 211.203 307.209 c h
211.203 281.611 m 207.672 281.611 204.805 284.474 204.805 288.01 c 204.805
 291.545 207.672 294.408 211.203 294.408 c 214.738 294.408 217.605 291.545
 217.605 288.01 c 217.605 284.474 214.738 281.611 211.203 281.611 c h
211.203 281.611 m f
211.203 256.01 m 200.602 256.01 192.004 247.412 192.004 236.81 c 192.004
 226.205 200.602 217.611 211.203 217.611 c 221.809 217.611 230.406 226.205
 230.406 236.81 c 230.406 247.412 221.809 256.01 211.203 256.01 c h
211.203 230.408 m 207.672 230.408 204.805 233.275 204.805 236.81 c 204.805
 240.346 207.672 243.209 211.203 243.209 c 214.738 243.209 217.605 240.346
 217.605 236.81 c 217.605 233.275 214.738 230.408 211.203 230.408 c h
211.203 230.408 m f
243.203 345.611 64 -12.801 re f
320.004 345.611 25.602 -12.801 re f
243.203 294.408 64 -12.797 re f
320.004 294.408 25.602 -12.797 re f
243.203 243.209 64 -12.801 re f
320.004 243.209 25.602 -12.801 re f
262.406 153.611 m 256.004 153.611 l 256.004 185.611 l 256.004 189.142 253.141
 192.01 249.605 192.01 c 224.004 192.01 l 220.469 192.01 217.605 189.142
 217.605 185.611 c 217.605 153.611 l 204.805 153.611 l 204.805 172.81 l 
204.805 176.346 201.938 179.209 198.406 179.209 c 172.805 179.209 l 169.27
 179.209 166.406 176.346 166.406 172.81 c 166.406 153.611 l 153.605 153.611
 l 153.605 198.408 l 153.605 201.943 150.738 204.81 147.203 204.81 c 121.605
 204.81 l 118.07 204.81 115.203 201.943 115.203 198.408 c 115.203 153.611
 l 102.406 153.611 l 102.406 185.611 l 102.406 189.142 99.539 192.01 96.004
 192.01 c 70.406 192.01 l 66.871 192.01 64.004 189.142 64.004 185.611 c 
64.004 153.611 l 51.203 153.611 l 51.203 211.209 l 51.203 214.744 48.34 
217.611 44.805 217.611 c 41.27 217.611 38.406 214.744 38.406 211.209 c 38.406
 147.209 l 38.406 143.674 41.27 140.81 44.805 140.81 c 262.406 140.81 l 
265.938 140.81 268.805 143.674 268.805 147.209 c 268.805 150.744 265.938
 153.611 262.406 153.611 c h
89.605 153.611 m 76.805 153.611 l 76.805 179.209 l 89.605 179.209 l h
140.805 153.611 m 128.004 153.611 l 128.004 192.01 l 140.805 192.01 l h
192.004 153.611 m 179.203 153.611 l 179.203 166.408 l 192.004 166.408 l
 h
243.203 153.611 m 230.406 153.611 l 230.406 179.209 l 243.203 179.209 l
 h
243.203 153.611 m f
339.203 192.01 m 326.406 192.01 l 322.871 192.01 320.004 189.142 320.004
 185.611 c 320.004 182.076 322.871 179.209 326.406 179.209 c 339.203 179.209
 l 342.738 179.209 345.605 182.076 345.605 185.611 c 345.605 189.142 342.738
 192.01 339.203 192.01 c h
339.203 192.01 m f
300.805 192.01 m 288.004 192.01 l 284.469 192.01 281.605 189.142 281.605
 185.611 c 281.605 182.076 284.469 179.209 288.004 179.209 c 300.805 179.209
 l 304.34 179.209 307.203 182.076 307.203 185.611 c 307.203 189.142 304.34
 192.01 300.805 192.01 c h
300.805 192.01 m f
300.805 166.408 m 288.004 166.408 l 284.469 166.408 281.605 163.545 281.605
 160.01 c 281.605 156.474 284.469 153.611 288.004 153.611 c 300.805 153.611
 l 304.34 153.611 307.203 156.474 307.203 160.01 c 307.203 163.545 304.34
 166.408 300.805 166.408 c h
300.805 166.408 m f
339.203 166.408 m 326.406 166.408 l 322.871 166.408 320.004 163.545 320.004
 160.01 c 320.004 156.474 322.871 153.611 326.406 153.611 c 339.203 153.611
 l 342.738 153.611 345.605 156.474 345.605 160.01 c 345.605 163.545 342.738
 166.408 339.203 166.408 c h
339.203 166.408 m f
108.805 358.408 m 69.926 358.408 38.406 326.889 38.406 288.01 c 38.137 
249.396 69.227 217.877 107.84 217.611 c 108.164 217.607 108.484 217.607 
108.805 217.611 c 147.688 217.611 179.203 249.131 179.203 288.01 c 179.203
 326.889 147.688 358.408 108.805 358.408 c h
115.203 345.256 m 141.93 342.224 163.02 321.135 166.047 294.408 c 153.152
 294.408 l 150.281 314.056 134.852 329.486 115.203 332.353 c h
131.434 310.635 m 143.93 298.135 143.926 277.873 131.43 265.377 c 118.93
 252.881 98.668 252.885 86.172 265.385 c 80.172 271.385 76.805 279.525 76.805
 288.01 c 76.777 296.502 80.156 304.654 86.18 310.639 c 98.68 323.135 118.941
 323.131 131.434 310.635 c h
102.406 345.256 m 102.406 332.361 l 94.988 331.314 87.961 328.4 81.977 
323.896 c 72.848 333.021 l 81.332 339.838 91.586 344.08 102.406 345.256 
c h
102.398 230.783 m 70.781 234.322 48.027 262.822 51.57 294.439 c 52.777 
305.236 57.02 315.474 63.801 323.967 c 72.918 314.846 l 58.121 295.017 62.195
 266.947 82.023 252.146 c 101.852 237.346 129.922 241.42 144.723 261.248
 c 149.184 267.228 152.086 274.228 153.156 281.611 c 166.051 281.611 l 162.512
 249.998 134.012 227.24 102.398 230.783 c h
102.398 230.783 m f
Q Q
showpage
%%Trailer
end restore
%%EOF
