%!PS-Adobe-3.0 EPSF-3.0
%%Creator: cairo 1.14.2 (http://cairographics.org)
%%CreationDate: Tue Apr  3 10:37:02 2018
%%Pages: 1
%%DocumentData: Clean7Bit
%%LanguageLevel: 2
%%BoundingBox: 0 -1 385 385
%%EndComments
%%BeginProlog
save
50 dict begin
/q { gsave } bind def
/Q { grestore } bind def
/cm { 6 array astore concat } bind def
/w { setlinewidth } bind def
/J { setlinecap } bind def
/j { setlinejoin } bind def
/M { setmiterlimit } bind def
/d { setdash } bind def
/m { moveto } bind def
/l { lineto } bind def
/c { curveto } bind def
/h { closepath } bind def
/re { exch dup neg 3 1 roll 5 3 roll moveto 0 rlineto
      0 exch rlineto 0 rlineto closepath } bind def
/S { stroke } bind def
/f { fill } bind def
/f* { eofill } bind def
/n { newpath } bind def
/W { clip } bind def
/W* { eoclip } bind def
/BT { } bind def
/ET { } bind def
/pdfmark where { pop globaldict /?pdfmark /exec load put }
    { globaldict begin /?pdfmark /pop load def /pdfmark
    /cleartomark load def end } ifelse
/BDC { mark 3 1 roll /BDC pdfmark } bind def
/EMC { mark /EMC pdfmark } bind def
/cairo_store_point { /cairo_point_y exch def /cairo_point_x exch def } def
/Tj { show currentpoint cairo_store_point } bind def
/TJ {
  {
    dup
    type /stringtype eq
    { show } { -0.001 mul 0 cairo_font_matrix dtransform rmoveto } ifelse
  } forall
  currentpoint cairo_store_point
} bind def
/cairo_selectfont { cairo_font_matrix aload pop pop pop 0 0 6 array astore
    cairo_font exch selectfont cairo_point_x cairo_point_y moveto } bind def
/Tf { pop /cairo_font exch def /cairo_font_matrix where
      { pop cairo_selectfont } if } bind def
/Td { matrix translate cairo_font_matrix matrix concatmatrix dup
      /cairo_font_matrix exch def dup 4 get exch 5 get cairo_store_point
      /cairo_font where { pop cairo_selectfont } if } bind def
/Tm { 2 copy 8 2 roll 6 array astore /cairo_font_matrix exch def
      cairo_store_point /cairo_font where { pop cairo_selectfont } if } bind def
/g { setgray } bind def
/rg { setrgbcolor } bind def
/d1 { setcachedevice } bind def
%%EndProlog
%%BeginSetup
%%EndSetup
%%Page: 1 1
%%BeginPageSetup
%%PageBoundingBox: 0 -1 385 385
%%EndPageSetup
q 0 -1 385 386 rectclip q
0 g
326.402 383.999 m 6.402 383.999 l 2.871 383.999 0.004 381.132 0.004 377.601
 c 0.004 6.398 l 0.004 2.867 2.871 -0.001 6.402 -0.001 c 326.402 -0.001 
l 329.938 -0.001 332.805 2.867 332.805 6.398 c 332.805 377.601 l 332.805
 381.136 329.938 383.999 326.402 383.999 c h
320.004 12.8 m 12.805 12.8 l 12.805 371.199 l 320.004 371.199 l h
320.004 12.8 m f
383.551 347.976 m 370.75 379.976 l 369.441 383.257 365.719 384.859 362.434
 383.55 c 360.801 382.902 359.508 381.609 358.859 379.976 c 346.059 347.976
 l 345.758 347.218 345.602 346.413 345.605 345.601 c 345.605 19.199 l 345.605
 8.597 354.199 -0.001 364.805 -0.001 c 375.406 -0.001 384.004 8.597 384.004
 19.199 c 384.004 345.601 l 384.004 346.413 383.852 347.218 383.551 347.976
 c h
371.203 19.199 m 371.203 15.663 368.34 12.8 364.805 12.8 c 361.27 12.8 
358.402 15.663 358.402 19.199 c 358.402 31.999 l 371.203 31.999 l h
371.203 44.8 m 358.402 44.8 l 358.402 319.999 l 371.203 319.999 l h
371.203 332.8 m 358.402 332.8 l 358.402 344.37 l 364.805 360.37 l 371.203
 344.37 l h
371.203 332.8 m f
96.004 319.999 m 57.125 319.999 25.605 288.48 25.605 249.601 c 25.359 210.964
 56.48 179.445 95.117 179.199 c 95.414 179.199 95.707 179.199 96.004 179.199
 c 134.887 179.199 166.402 210.718 166.402 249.601 c 166.402 288.48 134.887
 319.999 96.004 319.999 c h
102.402 306.847 m 113.223 305.675 123.48 301.425 131.961 294.605 c 102.402
 265.05 l h
51.004 213.648 m 31.148 238.503 35.203 274.745 60.059 294.601 c 68.555 
301.39 78.797 305.632 89.602 306.843 c 89.602 249.601 l 89.617 248.855 89.758
 248.12 90.027 247.425 c 90.059 247.339 90.027 247.249 90.09 247.167 c 90.152
 247.085 90.258 246.937 90.32 246.808 c 90.566 246.304 90.879 245.831 91.254
 245.41 c 91.344 245.304 91.383 245.171 91.477 245.074 c 131.957 204.597
 l 107.105 184.742 70.859 188.792 51.004 213.648 c h
141.016 213.644 m 105.055 249.601 l 141.016 285.554 l 157.801 264.523 157.801
 234.675 141.016 213.644 c h
141.016 213.644 m f
281.605 281.601 25.598 -12.801 re f
204.805 281.601 64 -12.801 re f
268.805 230.398 38.398 -12.797 re f
204.805 230.398 51.199 -12.797 re f
243.203 255.999 64 -12.801 re f
204.805 255.999 25.598 -12.801 re f
190.148 279.742 m 187.598 282.152 183.609 282.152 181.059 279.742 c 179.891
 278.515 179.227 276.894 179.203 275.199 c 179.188 273.495 179.855 271.859
 181.059 270.656 c 181.695 270.093 182.406 269.617 183.172 269.245 c 183.945
 268.941 184.773 268.788 185.605 268.8 c 189.102 268.765 191.969 271.57 
192.004 275.07 c 192.004 275.113 192.004 275.156 192.004 275.199 c 191.98
 276.894 191.316 278.515 190.148 279.742 c h
190.148 279.742 m f
191.492 252.031 m 191.168 252.808 190.711 253.519 190.148 254.144 c 187.582
 256.511 183.625 256.511 181.059 254.144 c 180.48 253.531 180.027 252.816
 179.715 252.031 c 178.695 249.648 179.227 246.886 181.059 245.054 c 183.547
 242.546 187.602 242.531 190.109 245.019 c 191.332 246.23 192.016 247.878
 192.004 249.601 c 192.027 250.441 191.852 251.273 191.492 252.031 c h
191.492 252.031 m f
185.605 230.398 m 182.07 230.398 179.203 227.535 179.203 223.999 c 179.188
 222.296 179.855 220.66 181.059 219.456 c 183.547 216.945 187.602 216.929
 190.109 219.417 c 191.332 220.628 192.016 222.281 192.004 223.999 c 192.004
 227.535 189.137 230.398 185.605 230.398 c h
185.605 230.398 m f
204.805 351.999 25.598 -12.801 re f
102.402 351.999 89.602 -12.801 re f
256.004 38.398 m 38.402 38.398 l 38.402 159.999 l 38.402 163.535 35.539
 166.398 32.004 166.398 c 28.469 166.398 25.605 163.535 25.605 159.999 c
 25.605 31.999 l 25.605 28.464 28.469 25.601 32.004 25.601 c 256.004 25.601
 l 259.539 25.601 262.402 28.464 262.402 31.999 c 262.402 35.535 259.539
 38.398 256.004 38.398 c h
256.004 38.398 m f
240.949 88.081 m 240.875 88.14 240.801 88.199 240.727 88.253 c 228.566 
97.714 l 242.129 118.054 l 244.09 120.995 243.297 124.968 240.355 126.929
 c 237.414 128.894 233.441 128.097 231.477 125.16 c 218.434 105.601 l 183.133
 133.062 l 180.891 134.816 177.762 134.878 175.453 133.214 c 133.789 103.46
 l 111.633 114.538 l 109.832 115.441 107.711 115.441 105.91 114.538 c 81.59
 102.378 l 61.797 119.98 l 59.156 122.331 55.109 122.097 52.758 119.456 
c 50.406 116.816 50.645 112.769 53.281 110.417 c 69.281 96.218 l 54.699 
88.929 l 51.551 87.331 50.289 83.488 51.875 80.339 c 53.453 77.175 57.297
 75.89 60.461 77.468 c 60.465 77.472 l 79.664 87.07 l 110.98 59.23 l 112.691
 57.71 115.086 57.226 117.258 57.953 c 153.781 70.113 l 196.664 57.855 l
 197.23 57.695 197.812 57.609 198.402 57.601 c 200.543 57.601 202.539 58.667
 203.727 60.449 c 221.441 87.038 l 232.867 78.156 l 235.609 75.925 239.641
 76.339 241.871 79.078 c 244.102 81.82 243.691 85.851 240.949 88.081 c h
195.672 71.406 m 155.352 82.925 l 154.109 83.277 152.793 83.245 151.57 
82.835 c 116.676 71.214 l 91.953 93.191 l 108.805 101.644 l 131.543 90.242
 l 133.664 89.183 136.195 89.386 138.121 90.765 c 179.043 119.988 l 211.32
 94.878 l h
195.672 71.406 m f
300.805 127.999 m 275.203 127.999 l 271.668 127.999 268.805 125.132 268.805
 121.601 c 268.805 118.066 271.668 115.199 275.203 115.199 c 300.805 115.199
 l 304.34 115.199 307.203 118.066 307.203 121.601 c 307.203 125.132 304.34
 127.999 300.805 127.999 c h
300.805 127.999 m f
300.805 89.601 m 275.203 89.601 l 271.668 89.601 268.805 86.734 268.805
 83.199 c 268.805 79.663 271.668 76.8 275.203 76.8 c 300.805 76.8 l 304.34
 76.8 307.203 79.663 307.203 83.199 c 307.203 86.734 304.34 89.601 300.805
 89.601 c h
300.805 89.601 m f
Q Q
showpage
%%Trailer
end restore
%%EOF
