%!PS-Adobe-3.0 EPSF-3.0
%%Creator: cairo 1.14.2 (http://cairographics.org)
%%CreationDate: Tue Apr  3 10:37:02 2018
%%Pages: 1
%%DocumentData: Clean7Bit
%%LanguageLevel: 2
%%BoundingBox: 9 -1 375 385
%%EndComments
%%BeginProlog
save
50 dict begin
/q { gsave } bind def
/Q { grestore } bind def
/cm { 6 array astore concat } bind def
/w { setlinewidth } bind def
/J { setlinecap } bind def
/j { setlinejoin } bind def
/M { setmiterlimit } bind def
/d { setdash } bind def
/m { moveto } bind def
/l { lineto } bind def
/c { curveto } bind def
/h { closepath } bind def
/re { exch dup neg 3 1 roll 5 3 roll moveto 0 rlineto
      0 exch rlineto 0 rlineto closepath } bind def
/S { stroke } bind def
/f { fill } bind def
/f* { eofill } bind def
/n { newpath } bind def
/W { clip } bind def
/W* { eoclip } bind def
/BT { } bind def
/ET { } bind def
/pdfmark where { pop globaldict /?pdfmark /exec load put }
    { globaldict begin /?pdfmark /pop load def /pdfmark
    /cleartomark load def end } ifelse
/BDC { mark 3 1 roll /BDC pdfmark } bind def
/EMC { mark /EMC pdfmark } bind def
/cairo_store_point { /cairo_point_y exch def /cairo_point_x exch def } def
/Tj { show currentpoint cairo_store_point } bind def
/TJ {
  {
    dup
    type /stringtype eq
    { show } { -0.001 mul 0 cairo_font_matrix dtransform rmoveto } ifelse
  } forall
  currentpoint cairo_store_point
} bind def
/cairo_selectfont { cairo_font_matrix aload pop pop pop 0 0 6 array astore
    cairo_font exch selectfont cairo_point_x cairo_point_y moveto } bind def
/Tf { pop /cairo_font exch def /cairo_font_matrix where
      { pop cairo_selectfont } if } bind def
/Td { matrix translate cairo_font_matrix matrix concatmatrix dup
      /cairo_font_matrix exch def dup 4 get exch 5 get cairo_store_point
      /cairo_font where { pop cairo_selectfont } if } bind def
/Tm { 2 copy 8 2 roll 6 array astore /cairo_font_matrix exch def
      cairo_store_point /cairo_font where { pop cairo_selectfont } if } bind def
/g { setgray } bind def
/rg { setrgbcolor } bind def
/d1 { setcachedevice } bind def
%%EndProlog
%%BeginSetup
%%EndSetup
%%Page: 1 1
%%BeginPageSetup
%%PageBoundingBox: 9 -1 375 385
%%EndPageSetup
q 9 -1 366 386 rectclip q
0 g
281.598 345.669 m 263.926 345.669 249.598 331.341 249.598 313.669 c 249.598
 295.993 263.926 281.669 281.598 281.669 c 299.262 281.688 313.578 296.005
 313.598 313.669 c 313.598 331.341 299.27 345.669 281.598 345.669 c h
281.598 294.466 m 270.992 294.466 262.398 303.063 262.398 313.669 c 262.398
 324.27 270.992 332.868 281.598 332.868 c 292.203 332.868 300.797 324.27
 300.797 313.669 c 300.797 303.063 292.203 294.466 281.598 294.466 c h
281.598 294.466 m f
348.895 244.18 m 350.438 245.11 351.516 246.645 351.871 248.411 c 374.398
 361.102 l 376.477 371.501 369.73 381.618 359.332 383.696 c 358.102 383.942
 356.844 384.067 355.59 384.067 c 346.777 384.067 339.102 378.071 336.965
 369.528 c 314.641 280.227 l 281.598 269.212 l 248.555 280.227 l 226.23 
369.528 l 223.648 379.809 213.219 386.055 202.934 383.47 c 198.941 382.47
 195.375 380.208 192.766 377.028 c 192.465 376.661 192.266 376.239 191.996
 375.856 c 191.73 376.239 191.535 376.661 191.234 377.028 c 184.512 385.227
 172.414 386.423 164.215 379.7 c 161.027 377.087 158.766 373.513 157.766
 369.513 c 135.441 280.227 l 102.398 269.212 l 69.348 280.227 l 47.023 369.528
 l 44.246 379.759 33.699 385.802 23.465 383.024 c 13.859 380.415 7.84 370.899
 9.598 361.102 c 32.121 248.388 l 32.473 246.622 33.555 245.083 35.102 244.157
 c 63.996 226.845 l 63.996 179.966 l 30.828 30.704 l 27.777 17.138 36.305
 3.665 49.871 0.618 c 63.441 -2.433 76.91 6.095 79.961 19.665 c 102.398 
118.391 l 124.797 19.665 l 127.848 6.095 141.316 -2.433 154.883 0.618 c 
168.453 3.665 176.98 17.138 173.93 30.704 c 140.797 179.966 l 140.797 226.845
 l 169.688 244.18 l 171.234 245.11 172.316 246.645 172.668 248.411 c 191.996
 345.028 l 211.324 248.388 l 211.68 246.622 212.758 245.087 214.301 244.157
 c 243.199 226.845 l 243.199 179.966 l 210.027 30.704 l 206.977 17.138 215.504
 3.665 229.074 0.618 c 242.641 -2.433 256.109 6.095 259.16 19.665 c 281.598
 118.391 l 304.035 19.665 l 307.086 6.095 320.555 -2.433 334.121 0.618 c
 347.691 3.665 356.219 17.138 353.168 30.704 c 319.996 179.966 l 319.996
 226.845 l h
182.66 363.618 m 160.668 253.7 l 131.102 235.954 l 129.176 234.794 128 
232.712 127.996 230.466 c 127.996 179.266 l 127.996 178.802 128.043 178.333
 128.145 177.88 c 161.469 27.934 l 162.969 21.263 158.777 14.641 152.105
 13.141 c 145.438 11.645 138.812 15.837 137.316 22.505 c 108.637 148.688
 l 107.859 152.138 104.434 154.302 100.988 153.524 c 98.578 152.981 96.695
 151.098 96.152 148.688 c 67.473 22.505 l 65.973 15.837 59.352 11.645 52.684
 13.141 c 46.012 14.641 41.82 21.263 43.32 27.934 c 76.645 177.88 l 76.746
 178.333 76.797 178.802 76.797 179.266 c 76.797 230.466 l 76.797 232.716
 75.613 234.798 73.688 235.954 c 44.121 253.7 l 22.129 363.587 l 21.484 
367.063 23.777 370.403 27.254 371.048 c 30.547 371.657 33.754 369.626 34.609
 366.391 c 57.781 273.688 l 58.312 271.563 59.895 269.86 61.969 269.169 
c 100.367 256.368 l 101.684 255.927 103.105 255.927 104.422 256.368 c 142.82
 269.169 l 144.895 269.86 146.473 271.563 147.004 273.688 c 170.18 366.423
 l 171.086 369.841 174.586 371.876 178.004 370.973 c 181.242 370.118 183.27
 366.911 182.66 363.618 c h
307.352 177.88 m 340.668 27.934 l 342.168 21.263 337.977 14.641 331.305
 13.141 c 324.637 11.645 318.016 15.837 316.516 22.505 c 287.836 148.688
 l 287.051 152.134 283.621 154.29 280.176 153.505 c 277.777 152.958 275.902
 151.087 275.359 148.688 c 246.68 22.505 l 245.18 15.837 238.559 11.645 
231.891 13.141 c 225.219 14.641 221.027 21.263 222.527 27.934 c 255.844 
177.88 l 255.945 178.333 255.996 178.802 255.996 179.266 c 255.996 230.466
 l 255.996 232.712 254.82 234.794 252.895 235.954 c 223.32 253.7 l 201.336
 363.587 l 200.73 367.071 203.062 370.384 206.543 370.989 c 209.789 371.552
 212.93 369.563 213.809 366.391 c 236.988 273.72 l 237.52 271.595 239.098
 269.891 241.176 269.2 c 279.574 256.399 l 280.887 255.958 282.309 255.958
 283.621 256.399 c 322.02 269.2 l 324.098 269.891 325.676 271.595 326.207
 273.72 c 349.387 366.423 l 350.289 369.841 353.793 371.876 357.211 370.973
 c 360.445 370.118 362.477 366.911 361.867 363.618 c 339.867 253.7 l 310.293
 235.954 l 308.371 234.794 307.195 232.712 307.195 230.466 c 307.195 179.266
 l 307.199 178.802 307.25 178.333 307.352 177.88 c h
307.352 177.88 m f
102.398 345.669 m 84.727 345.669 70.398 331.341 70.398 313.669 c 70.398
 295.993 84.727 281.669 102.398 281.669 c 120.062 281.688 134.375 296.005
 134.398 313.669 c 134.398 331.341 120.07 345.669 102.398 345.669 c h
102.398 294.466 m 91.793 294.466 83.199 303.063 83.199 313.669 c 83.199
 324.27 91.793 332.868 102.398 332.868 c 113 332.868 121.598 324.27 121.598
 313.669 c 121.598 303.063 113 294.466 102.398 294.466 c h
102.398 294.466 m f
Q Q
showpage
%%Trailer
end restore
%%EOF
