%!PS-Adobe-3.0 EPSF-3.0
%%Creator: cairo 1.14.2 (http://cairographics.org)
%%CreationDate: Tue Apr  3 10:37:02 2018
%%Pages: 1
%%DocumentData: Clean7Bit
%%LanguageLevel: 2
%%BoundingBox: 0 0 384 384
%%EndComments
%%BeginProlog
save
50 dict begin
/q { gsave } bind def
/Q { grestore } bind def
/cm { 6 array astore concat } bind def
/w { setlinewidth } bind def
/J { setlinecap } bind def
/j { setlinejoin } bind def
/M { setmiterlimit } bind def
/d { setdash } bind def
/m { moveto } bind def
/l { lineto } bind def
/c { curveto } bind def
/h { closepath } bind def
/re { exch dup neg 3 1 roll 5 3 roll moveto 0 rlineto
      0 exch rlineto 0 rlineto closepath } bind def
/S { stroke } bind def
/f { fill } bind def
/f* { eofill } bind def
/n { newpath } bind def
/W { clip } bind def
/W* { eoclip } bind def
/BT { } bind def
/ET { } bind def
/pdfmark where { pop globaldict /?pdfmark /exec load put }
    { globaldict begin /?pdfmark /pop load def /pdfmark
    /cleartomark load def end } ifelse
/BDC { mark 3 1 roll /BDC pdfmark } bind def
/EMC { mark /EMC pdfmark } bind def
/cairo_store_point { /cairo_point_y exch def /cairo_point_x exch def } def
/Tj { show currentpoint cairo_store_point } bind def
/TJ {
  {
    dup
    type /stringtype eq
    { show } { -0.001 mul 0 cairo_font_matrix dtransform rmoveto } ifelse
  } forall
  currentpoint cairo_store_point
} bind def
/cairo_selectfont { cairo_font_matrix aload pop pop pop 0 0 6 array astore
    cairo_font exch selectfont cairo_point_x cairo_point_y moveto } bind def
/Tf { pop /cairo_font exch def /cairo_font_matrix where
      { pop cairo_selectfont } if } bind def
/Td { matrix translate cairo_font_matrix matrix concatmatrix dup
      /cairo_font_matrix exch def dup 4 get exch 5 get cairo_store_point
      /cairo_font where { pop cairo_selectfont } if } bind def
/Tm { 2 copy 8 2 roll 6 array astore /cairo_font_matrix exch def
      cairo_store_point /cairo_font where { pop cairo_selectfont } if } bind def
/g { setgray } bind def
/rg { setrgbcolor } bind def
/d1 { setcachedevice } bind def
%%EndProlog
%%BeginSetup
%%EndSetup
%%Page: 1 1
%%BeginPageSetup
%%PageBoundingBox: 0 0 384 384
%%EndPageSetup
q 0 0 384 384 rectclip q
0 g
364.801 89.602 m 339.199 89.602 l 337.504 89.602 335.875 88.926 334.676
 87.727 c 326.398 79.449 l 318.125 87.727 l 316.926 88.926 315.297 89.602
 313.602 89.602 c 288 89.602 l 277.395 89.602 268.801 81.004 268.801 70.398
 c 268.801 19.199 l 268.801 8.598 277.395 0 288 0 c 364.801 0 l 375.402 
0 384 8.598 384 19.199 c 384 70.398 l 384 81.004 375.402 89.602 364.801 
89.602 c h
371.199 19.199 m 371.199 15.664 368.336 12.801 364.801 12.801 c 288 12.801
 l 284.465 12.801 281.602 15.664 281.602 19.199 c 281.602 70.398 l 281.602
 73.934 284.465 76.801 288 76.801 c 310.949 76.801 l 320 67.75 l 320 51.199
 l 332.801 51.199 l 332.801 67.75 l 341.848 76.801 l 364.801 76.801 l 368.336
 76.801 371.199 73.934 371.199 70.398 c h
371.199 19.199 m f
96 89.602 m 70.398 89.602 l 68.703 89.602 67.074 88.926 65.875 87.727 c
 57.602 79.449 l 49.324 87.727 l 48.125 88.926 46.496 89.602 44.801 89.602
 c 19.199 89.602 l 8.598 89.602 0 81.004 0 70.398 c 0 19.199 l 0 8.598 8.598
 0 19.199 0 c 96 0 l 106.605 0 115.199 8.598 115.199 19.199 c 115.199 70.398
 l 115.199 81.004 106.605 89.602 96 89.602 c h
102.398 19.199 m 102.398 15.664 99.535 12.801 96 12.801 c 19.199 12.801
 l 15.664 12.801 12.801 15.664 12.801 19.199 c 12.801 70.398 l 12.801 73.934
 15.664 76.801 19.199 76.801 c 42.152 76.801 l 51.199 67.75 l 51.199 51.199
 l 64 51.199 l 64 67.75 l 73.051 76.801 l 96 76.801 l 99.535 76.801 102.398
 73.934 102.398 70.398 c h
102.398 19.199 m f
192 384 m 170.793 384 153.602 366.809 153.602 345.602 c 153.602 324.391
 170.793 307.199 192 307.199 c 213.199 307.223 230.379 324.402 230.398 345.602
 c 230.398 366.809 213.207 384 192 384 c h
192 320 m 177.863 320 166.398 331.461 166.398 345.602 c 166.398 359.738
 177.863 371.199 192 371.199 c 206.137 371.199 217.602 359.738 217.602 345.602
 c 217.602 331.461 206.137 320 192 320 c h
192 320 m f
364.262 140.762 m 361.539 156.875 348.914 169.5 332.801 172.223 c 332.801
 192 l 332.801 195.535 329.934 198.398 326.398 198.398 c 198.398 198.398
 l 198.398 211.199 l 230.398 211.199 l 241.004 211.199 249.602 219.797 249.602
 230.398 c 249.602 281.602 l 249.602 292.203 241.004 300.801 230.398 300.801
 c 153.602 300.801 l 142.996 300.801 134.398 292.203 134.398 281.602 c 134.398
 230.398 l 134.398 219.797 142.996 211.199 153.602 211.199 c 185.602 211.199
 l 185.602 198.398 l 57.602 198.398 l 54.066 198.398 51.199 195.535 51.199
 192 c 51.199 172.223 l 30.289 168.691 16.203 148.871 19.738 127.961 c 23.27
 107.051 43.09 92.965 64 96.496 c 84.91 100.031 98.996 119.848 95.465 140.762
 c 92.738 156.875 80.113 169.5 64 172.223 c 64 185.602 l 185.602 185.602
 l 185.602 172.223 l 164.688 168.691 150.602 148.871 154.137 127.961 c 157.672
 107.051 177.488 92.965 198.398 96.496 c 219.312 100.031 233.398 119.848
 229.863 140.762 c 227.141 156.875 214.516 169.5 198.398 172.223 c 198.398
 185.602 l 320 185.602 l 320 172.223 l 299.09 168.691 285.004 148.871 288.535
 127.961 c 292.07 107.051 311.891 92.965 332.801 96.496 c 353.711 100.031
 367.797 119.848 364.262 140.762 c h
83.199 134.398 m 83.199 120.262 71.738 108.801 57.602 108.801 c 43.461 
108.801 32 120.262 32 134.398 c 32 148.539 43.461 160 57.602 160 c 71.738
 160 83.199 148.539 83.199 134.398 c h
199.246 288 m 193.074 278.754 l 192.375 277.699 192 276.465 192 275.199
 c 192 274.781 192.043 274.367 192.129 273.957 c 197.848 245.305 l 192 239.449
 l 186.152 245.305 l 191.871 273.922 l 191.957 274.34 192 274.77 192 275.199
 c 191.996 276.461 191.625 277.691 190.926 278.738 c 184.754 288 l h
217.602 134.398 m 217.602 120.262 206.137 108.801 192 108.801 c 177.863
 108.801 166.398 120.262 166.398 134.398 c 166.398 148.539 177.863 160 192
 160 c 206.137 160 217.602 148.539 217.602 134.398 c h
153.602 224 m 150.066 224 147.199 226.867 147.199 230.398 c 147.199 281.602
 l 147.199 285.133 150.066 288 153.602 288 c 169.375 288 l 178.805 273.855
 l 172.93 244.48 l 172.516 242.391 173.168 240.23 174.676 238.719 c 187.477
 225.922 l 189.973 223.422 194.027 223.422 196.523 225.922 c 209.324 238.719
 l 210.832 240.23 211.484 242.391 211.07 244.48 c 205.195 273.883 l 214.625
 288 l 230.398 288 l 233.934 288 236.801 285.133 236.801 281.602 c 236.801
 230.398 l 236.801 226.867 233.934 224 230.398 224 c h
326.398 108.801 m 312.262 108.801 300.801 120.262 300.801 134.398 c 300.801
 148.539 312.262 160 326.398 160 c 340.539 160 352 148.539 352 134.398 c
 352 120.262 340.539 108.801 326.398 108.801 c h
326.398 108.801 m f
230.398 89.602 m 204.801 89.602 l 203.102 89.602 201.477 88.926 200.273
 87.727 c 192 79.449 l 183.727 87.727 l 182.523 88.926 180.898 89.602 179.199
 89.602 c 153.602 89.602 l 142.996 89.602 134.398 81.004 134.398 70.398 
c 134.398 19.199 l 134.398 8.598 142.996 0 153.602 0 c 230.398 0 l 241.004
 0 249.602 8.598 249.602 19.199 c 249.602 70.398 l 249.602 81.004 241.004
 89.602 230.398 89.602 c h
236.801 19.199 m 236.801 15.664 233.934 12.801 230.398 12.801 c 153.602
 12.801 l 150.066 12.801 147.199 15.664 147.199 19.199 c 147.199 70.398 
l 147.199 73.934 150.066 76.801 153.602 76.801 c 176.551 76.801 l 185.602
 67.75 l 185.602 51.199 l 198.398 51.199 l 198.398 67.75 l 207.449 76.801
 l 230.398 76.801 l 233.934 76.801 236.801 73.934 236.801 70.398 c h
236.801 19.199 m f
Q Q
showpage
%%Trailer
end restore
%%EOF
