%!PS-Adobe-3.0 EPSF-3.0
%%Creator: cairo 1.14.2 (http://cairographics.org)
%%CreationDate: Tue Apr  3 10:37:02 2018
%%Pages: 1
%%DocumentData: Clean7Bit
%%LanguageLevel: 2
%%BoundingBox: 0 57 384 327
%%EndComments
%%BeginProlog
save
50 dict begin
/q { gsave } bind def
/Q { grestore } bind def
/cm { 6 array astore concat } bind def
/w { setlinewidth } bind def
/J { setlinecap } bind def
/j { setlinejoin } bind def
/M { setmiterlimit } bind def
/d { setdash } bind def
/m { moveto } bind def
/l { lineto } bind def
/c { curveto } bind def
/h { closepath } bind def
/re { exch dup neg 3 1 roll 5 3 roll moveto 0 rlineto
      0 exch rlineto 0 rlineto closepath } bind def
/S { stroke } bind def
/f { fill } bind def
/f* { eofill } bind def
/n { newpath } bind def
/W { clip } bind def
/W* { eoclip } bind def
/BT { } bind def
/ET { } bind def
/pdfmark where { pop globaldict /?pdfmark /exec load put }
    { globaldict begin /?pdfmark /pop load def /pdfmark
    /cleartomark load def end } ifelse
/BDC { mark 3 1 roll /BDC pdfmark } bind def
/EMC { mark /EMC pdfmark } bind def
/cairo_store_point { /cairo_point_y exch def /cairo_point_x exch def } def
/Tj { show currentpoint cairo_store_point } bind def
/TJ {
  {
    dup
    type /stringtype eq
    { show } { -0.001 mul 0 cairo_font_matrix dtransform rmoveto } ifelse
  } forall
  currentpoint cairo_store_point
} bind def
/cairo_selectfont { cairo_font_matrix aload pop pop pop 0 0 6 array astore
    cairo_font exch selectfont cairo_point_x cairo_point_y moveto } bind def
/Tf { pop /cairo_font exch def /cairo_font_matrix where
      { pop cairo_selectfont } if } bind def
/Td { matrix translate cairo_font_matrix matrix concatmatrix dup
      /cairo_font_matrix exch def dup 4 get exch 5 get cairo_store_point
      /cairo_font where { pop cairo_selectfont } if } bind def
/Tm { 2 copy 8 2 roll 6 array astore /cairo_font_matrix exch def
      cairo_store_point /cairo_font where { pop cairo_selectfont } if } bind def
/g { setgray } bind def
/rg { setrgbcolor } bind def
/d1 { setcachedevice } bind def
%%EndProlog
%%BeginSetup
%%EndSetup
%%Page: 1 1
%%BeginPageSetup
%%PageBoundingBox: 0 57 384 327
%%EndPageSetup
q 0 57 384 270 rectclip q
0 g
371.199 96 m 371.199 320 l 371.199 323.535 368.336 326.398 364.801 326.398
 c 236.801 326.398 l 236.723 326.398 236.652 326.355 236.574 326.355 c 235.84
 326.348 235.113 326.207 234.426 325.945 c 234.309 325.902 l 170.434 300.352
 l 167.996 299.383 166.398 297.023 166.398 294.398 c 166.398 96 l 153.602
 96 l 153.602 320 l 153.602 323.535 150.734 326.398 147.199 326.398 c 19.199
 326.398 l 15.664 326.398 12.801 323.535 12.801 320 c 12.801 96 l 0 96 l
 0 83.199 l 166.398 83.199 l 166.398 64 l 166.398 60.465 169.266 57.602 
172.801 57.602 c 173.613 57.598 174.418 57.754 175.176 58.055 c 238.035 
83.199 l 384 83.199 l 384 96 l h
140.801 96 m 25.602 96 l 25.602 313.602 l 140.801 313.602 l h
230.398 93.934 m 179.199 73.453 l 179.199 290.066 l 230.398 310.547 l h
358.398 96 m 243.199 96 l 243.199 313.602 l 358.398 313.602 l h
358.398 96 m f
197.887 194.434 m 197.562 195.207 197.109 195.922 196.543 196.543 c 193.977
 198.91 190.023 198.91 187.457 196.543 c 186.891 195.922 186.438 195.207
 186.113 194.434 c 185.754 193.672 185.578 192.84 185.602 192 c 185.582 
190.297 186.254 188.66 187.457 187.457 c 188.078 186.891 188.793 186.438
 189.566 186.113 c 191.117 185.43 192.883 185.43 194.434 186.113 c 195.207
 186.438 195.922 186.895 196.543 187.457 c 198.375 189.289 198.906 192.051
 197.887 194.434 c h
197.887 194.434 m f
132.543 209.344 m 132.238 209.617 131.918 209.875 131.586 210.113 c 131.227
 210.352 130.84 210.547 130.434 210.688 c 130.047 210.883 129.637 211.012
 129.211 211.07 c 127.125 211.461 124.977 210.816 123.449 209.344 c 122.281
 208.117 121.617 206.496 121.602 204.801 c 121.578 203.961 121.754 203.129
 122.113 202.367 c 122.438 201.594 122.895 200.879 123.457 200.258 c 124.078
 199.691 124.793 199.238 125.566 198.91 c 128.785 197.535 132.508 199.023
 133.887 202.238 c 134.234 203.047 134.41 203.922 134.398 204.801 c 134.391
 206.496 133.727 208.125 132.543 209.344 c h
132.543 209.344 m f
320 230.398 m 323.535 230.398 326.398 233.266 326.398 236.801 c 326.398
 240.336 323.535 243.199 320 243.199 c 307.199 243.199 l 307.199 256 l 320
 256 l 323.535 256 326.398 258.867 326.398 262.398 c 326.398 265.934 323.535
 268.801 320 268.801 c 300.801 268.801 l 297.266 268.801 294.398 265.934
 294.398 262.398 c 294.398 191.09 l 283.133 188.18 275.242 178.039 275.199
 166.398 c 275.148 152.262 286.566 140.758 300.703 140.703 c 314.844 140.652
 326.348 152.07 326.398 166.207 c 326.445 177.918 318.539 188.164 307.199
 191.09 c 307.199 230.398 l h
313.602 166.398 m 313.602 159.332 307.871 153.602 300.801 153.602 c 293.73
 153.602 288 159.332 288 166.398 c 288 173.469 293.73 179.199 300.801 179.199
 c 307.871 179.199 313.602 173.469 313.602 166.398 c h
313.602 166.398 m f
300.801 300.801 m 297.266 300.801 294.398 297.934 294.398 294.398 c 294.398
 288 l 294.398 284.465 297.266 281.602 300.801 281.602 c 304.336 281.602
 307.199 284.465 307.199 288 c 307.199 294.398 l 307.199 297.934 304.336
 300.801 300.801 300.801 c h
300.801 300.801 m f
300.801 128 m 297.266 128 294.398 125.133 294.398 121.602 c 294.398 115.199
 l 294.398 111.664 297.266 108.801 300.801 108.801 c 304.336 108.801 307.199
 111.664 307.199 115.199 c 307.199 121.602 l 307.199 125.133 304.336 128
 300.801 128 c h
300.801 128 m f
283.797 286.598 m 282.137 292.781 l 281.223 296.195 277.711 298.223 274.297
 297.305 c 270.883 296.391 268.859 292.879 269.773 289.465 c 271.43 283.289
 l 272.176 280.492 274.711 278.543 277.605 278.539 c 278.168 278.539 278.727
 278.613 279.27 278.766 c 282.68 279.68 284.707 283.188 283.797 286.598 
c h
283.797 286.598 m f
331.828 120.133 m 330.168 126.309 l 329.238 129.723 325.723 131.73 322.312
 130.801 c 318.926 129.875 316.914 126.398 317.805 123 c 319.461 116.82 
l 320.211 114.023 322.742 112.078 325.637 112.078 c 326.199 112.074 326.762
 112.148 327.301 112.293 c 330.719 113.211 332.742 116.719 331.828 120.133
 c h
331.828 120.133 m f
327.305 297.305 m 327.301 297.305 l 323.891 298.223 320.379 296.195 319.465
 292.781 c 317.805 286.598 l 316.895 283.188 318.918 279.68 322.332 278.766
 c 322.871 278.613 323.434 278.539 323.996 278.539 c 326.891 278.543 329.422
 280.492 330.172 283.289 c 331.828 289.465 l 332.742 292.879 330.719 296.391
 327.305 297.305 c h
327.305 297.305 m f
279.27 130.836 m 275.855 131.75 272.348 129.727 271.43 126.312 c 271.43
 126.309 l 269.773 120.133 l 268.859 116.723 270.883 113.211 274.297 112.297
 c 274.84 112.148 275.402 112.074 275.961 112.078 c 278.855 112.078 281.391
 114.023 282.137 116.82 c 283.797 123.004 l 284.707 126.414 282.68 129.922
 279.27 130.836 c h
279.27 130.836 m f
Q Q
showpage
%%Trailer
end restore
%%EOF
