%!PS-Adobe-3.0 EPSF-3.0
%%Creator: cairo 1.14.2 (http://cairographics.org)
%%CreationDate: Tue Apr  3 10:37:02 2018
%%Pages: 1
%%DocumentData: Clean7Bit
%%LanguageLevel: 2
%%BoundingBox: 0 12 384 372
%%EndComments
%%BeginProlog
save
50 dict begin
/q { gsave } bind def
/Q { grestore } bind def
/cm { 6 array astore concat } bind def
/w { setlinewidth } bind def
/J { setlinecap } bind def
/j { setlinejoin } bind def
/M { setmiterlimit } bind def
/d { setdash } bind def
/m { moveto } bind def
/l { lineto } bind def
/c { curveto } bind def
/h { closepath } bind def
/re { exch dup neg 3 1 roll 5 3 roll moveto 0 rlineto
      0 exch rlineto 0 rlineto closepath } bind def
/S { stroke } bind def
/f { fill } bind def
/f* { eofill } bind def
/n { newpath } bind def
/W { clip } bind def
/W* { eoclip } bind def
/BT { } bind def
/ET { } bind def
/pdfmark where { pop globaldict /?pdfmark /exec load put }
    { globaldict begin /?pdfmark /pop load def /pdfmark
    /cleartomark load def end } ifelse
/BDC { mark 3 1 roll /BDC pdfmark } bind def
/EMC { mark /EMC pdfmark } bind def
/cairo_store_point { /cairo_point_y exch def /cairo_point_x exch def } def
/Tj { show currentpoint cairo_store_point } bind def
/TJ {
  {
    dup
    type /stringtype eq
    { show } { -0.001 mul 0 cairo_font_matrix dtransform rmoveto } ifelse
  } forall
  currentpoint cairo_store_point
} bind def
/cairo_selectfont { cairo_font_matrix aload pop pop pop 0 0 6 array astore
    cairo_font exch selectfont cairo_point_x cairo_point_y moveto } bind def
/Tf { pop /cairo_font exch def /cairo_font_matrix where
      { pop cairo_selectfont } if } bind def
/Td { matrix translate cairo_font_matrix matrix concatmatrix dup
      /cairo_font_matrix exch def dup 4 get exch 5 get cairo_store_point
      /cairo_font where { pop cairo_selectfont } if } bind def
/Tm { 2 copy 8 2 roll 6 array astore /cairo_font_matrix exch def
      cairo_store_point /cairo_font where { pop cairo_selectfont } if } bind def
/g { setgray } bind def
/rg { setrgbcolor } bind def
/d1 { setcachedevice } bind def
%%EndProlog
%%BeginSetup
%%EndSetup
%%Page: 1 1
%%BeginPageSetup
%%PageBoundingBox: 0 12 384 372
%%EndPageSetup
q 0 12 384 360 rectclip q
0 g
166.398 243.199 m 124.25 243.199 l 87.727 279.727 l 86.523 280.926 84.898
 281.602 83.199 281.602 c 6.398 281.602 l 2.867 281.602 0 278.734 0 275.199
 c 0 140.801 l 0.02 123.137 14.336 108.82 32 108.801 c 70.398 108.801 l 
73.934 108.801 76.801 105.934 76.801 102.398 c 76.801 32 l 76.801 21.395
 85.395 12.801 96 12.801 c 108.801 12.801 l 119.402 12.801 128 21.395 128
 32 c 128 115.199 l 127.973 139.93 107.93 159.973 83.199 160 c 76.801 160
 l 76.801 214.949 l 97.875 193.875 l 99.074 192.676 100.703 192 102.398 
192 c 166.398 192 l 180.539 192 192 203.461 192 217.602 c 192 231.738 180.539
 243.199 166.398 243.199 c h
166.398 204.801 m 105.051 204.801 l 74.926 234.926 l 72.426 237.426 68.371
 237.422 65.875 234.922 c 64.676 233.723 64 232.098 64 230.398 c 64 153.602
 l 64 150.066 66.867 147.199 70.398 147.199 c 83.199 147.199 l 100.863 147.18
 115.18 132.863 115.199 115.199 c 115.199 32 l 115.199 28.465 112.336 25.602
 108.801 25.602 c 96 25.602 l 92.465 25.602 89.602 28.465 89.602 32 c 89.602
 102.398 l 89.602 113.004 81.004 121.602 70.398 121.602 c 32 121.602 l 21.395
 121.602 12.801 130.195 12.801 140.801 c 12.801 268.801 l 80.551 268.801
 l 117.074 232.273 l 118.273 231.074 119.902 230.398 121.602 230.398 c 166.398
 230.398 l 173.469 230.398 179.199 224.668 179.199 217.602 c 179.199 210.531
 173.469 204.801 166.398 204.801 c h
166.398 204.801 m f
377.602 281.602 m 300.801 281.602 l 299.102 281.602 297.477 280.926 296.273
 279.727 c 259.75 243.199 l 217.602 243.199 l 203.461 243.199 192 231.738
 192 217.602 c 192 203.461 203.461 192 217.602 192 c 281.602 192 l 283.297
 192 284.926 192.676 286.125 193.875 c 307.199 214.949 l 307.199 160 l 300.801
 160 l 276.07 159.973 256.027 139.93 256 115.199 c 256 32 l 256 21.395 264.598
 12.801 275.199 12.801 c 288 12.801 l 298.605 12.801 307.199 21.395 307.199
 32 c 307.199 102.398 l 307.199 105.934 310.066 108.801 313.602 108.801 
c 352 108.801 l 369.664 108.82 383.98 123.137 384 140.801 c 384 275.199 
l 384 278.734 381.133 281.602 377.602 281.602 c h
371.199 140.801 m 371.199 130.195 362.605 121.602 352 121.602 c 313.602
 121.602 l 302.996 121.602 294.398 113.004 294.398 102.398 c 294.398 32 
l 294.398 28.465 291.535 25.602 288 25.602 c 275.199 25.602 l 271.664 25.602
 268.801 28.465 268.801 32 c 268.801 115.199 l 268.82 132.863 283.137 147.18
 300.801 147.199 c 313.602 147.199 l 317.133 147.199 320 150.066 320 153.602
 c 320 230.398 l 320 233.934 317.133 236.801 313.598 236.797 c 311.902 236.797
 310.273 236.125 309.074 234.926 c 278.949 204.801 l 217.602 204.801 l 210.531
 204.801 204.801 210.531 204.801 217.602 c 204.801 224.668 210.531 230.398
 217.602 230.398 c 262.398 230.398 l 264.098 230.398 265.727 231.074 266.926
 232.273 c 303.449 268.801 l 371.199 268.801 l h
371.199 140.801 m f
268.801 179.199 m 115.199 179.199 l 111.664 179.199 108.801 176.336 108.801
 172.801 c 108.801 169.266 111.664 166.398 115.199 166.398 c 185.602 166.398
 l 185.602 25.602 l 166.398 25.602 l 162.867 25.602 160 22.734 160 19.199
 c 160 15.664 162.867 12.801 166.398 12.801 c 217.602 12.801 l 221.133 12.801
 224 15.664 224 19.199 c 224 22.734 221.133 25.602 217.602 25.602 c 198.398
 25.602 l 198.398 166.398 l 268.801 166.398 l 272.336 166.398 275.199 169.266
 275.199 172.801 c 275.199 176.336 272.336 179.199 268.801 179.199 c h
268.801 179.199 m f
339.199 371.199 m 307.199 371.199 l 303.664 371.199 300.801 368.336 300.801
 364.801 c 300.801 332.801 l 300.801 311.594 317.992 294.398 339.199 294.398
 c 360.406 294.398 377.602 311.594 377.602 332.801 c 377.578 354 360.398
 371.18 339.199 371.199 c h
326.664 310.449 m 318.574 314.973 313.57 323.531 313.602 332.801 c 313.602
 338.996 l 331.152 338.152 347.938 331.574 361.391 320.27 c 354.512 307.969
 338.965 303.57 326.664 310.449 c h
313.602 351.797 m 313.602 358.398 l 339.199 358.398 l 352.895 358.355 364.125
 347.539 364.691 333.855 c 349.824 344.781 332.035 351.027 313.602 351.797
 c h
313.602 351.797 m f
76.801 371.199 m 44.801 371.199 l 23.594 371.199 6.398 354.008 6.398 332.801
 c 6.398 311.594 23.594 294.398 44.801 294.398 c 66 294.422 83.18 311.602
 83.199 332.801 c 83.199 364.801 l 83.199 368.336 80.336 371.199 76.801 
371.199 c h
70.398 332.801 m 70.398 318.66 58.938 307.199 44.801 307.199 c 35.586 307.234
 27.109 312.227 22.609 320.27 c 36.062 331.574 52.848 338.152 70.398 338.996
 c h
70.398 351.797 m 51.969 351.031 34.18 344.793 19.309 333.875 c 19.883 347.551
 31.113 358.355 44.801 358.398 c 70.398 358.398 l h
70.398 351.797 m f
Q Q
showpage
%%Trailer
end restore
%%EOF
