%!PS-Adobe-3.0 EPSF-3.0
%%Creator: cairo 1.14.2 (http://cairographics.org)
%%CreationDate: Tue Apr  3 10:37:02 2018
%%Pages: 1
%%DocumentData: Clean7Bit
%%LanguageLevel: 2
%%BoundingBox: 0 0 384 384
%%EndComments
%%BeginProlog
save
50 dict begin
/q { gsave } bind def
/Q { grestore } bind def
/cm { 6 array astore concat } bind def
/w { setlinewidth } bind def
/J { setlinecap } bind def
/j { setlinejoin } bind def
/M { setmiterlimit } bind def
/d { setdash } bind def
/m { moveto } bind def
/l { lineto } bind def
/c { curveto } bind def
/h { closepath } bind def
/re { exch dup neg 3 1 roll 5 3 roll moveto 0 rlineto
      0 exch rlineto 0 rlineto closepath } bind def
/S { stroke } bind def
/f { fill } bind def
/f* { eofill } bind def
/n { newpath } bind def
/W { clip } bind def
/W* { eoclip } bind def
/BT { } bind def
/ET { } bind def
/pdfmark where { pop globaldict /?pdfmark /exec load put }
    { globaldict begin /?pdfmark /pop load def /pdfmark
    /cleartomark load def end } ifelse
/BDC { mark 3 1 roll /BDC pdfmark } bind def
/EMC { mark /EMC pdfmark } bind def
/cairo_store_point { /cairo_point_y exch def /cairo_point_x exch def } def
/Tj { show currentpoint cairo_store_point } bind def
/TJ {
  {
    dup
    type /stringtype eq
    { show } { -0.001 mul 0 cairo_font_matrix dtransform rmoveto } ifelse
  } forall
  currentpoint cairo_store_point
} bind def
/cairo_selectfont { cairo_font_matrix aload pop pop pop 0 0 6 array astore
    cairo_font exch selectfont cairo_point_x cairo_point_y moveto } bind def
/Tf { pop /cairo_font exch def /cairo_font_matrix where
      { pop cairo_selectfont } if } bind def
/Td { matrix translate cairo_font_matrix matrix concatmatrix dup
      /cairo_font_matrix exch def dup 4 get exch 5 get cairo_store_point
      /cairo_font where { pop cairo_selectfont } if } bind def
/Tm { 2 copy 8 2 roll 6 array astore /cairo_font_matrix exch def
      cairo_store_point /cairo_font where { pop cairo_selectfont } if } bind def
/g { setgray } bind def
/rg { setrgbcolor } bind def
/d1 { setcachedevice } bind def
%%EndProlog
%%BeginSetup
%%EndSetup
%%Page: 1 1
%%BeginPageSetup
%%PageBoundingBox: 0 0 384 384
%%EndPageSetup
q 0 0 384 384 rectclip q
0 g
288 358.398 m 230.398 358.398 l 230.398 377.602 l 230.398 381.133 227.535
 384 224 384 c 70.398 384 l 66.867 384 64 381.133 64 377.602 c 64 358.398
 l 6.398 358.398 l 2.867 358.398 0 355.535 0 352 c 0 6.398 l 0 2.867 2.867
 0 6.398 0 c 288 0 l 291.535 0 294.398 2.867 294.398 6.398 c 294.398 352
 l 294.398 355.535 291.535 358.398 288 358.398 c h
76.801 371.199 m 217.602 371.199 l 217.602 358.398 l 76.801 358.398 l h
76.801 345.602 m 217.602 345.602 l 217.602 320 l 165.305 320 l 161.777 
330 150.809 335.246 140.809 331.715 c 135.336 329.781 131.027 325.477 129.094
 320 c 76.801 320 l h
281.602 12.801 m 12.801 12.801 l 12.801 345.602 l 64 345.602 l 64 313.602
 l 64 310.066 66.867 307.199 70.398 307.199 c 134.398 307.199 l 137.934 
307.199 140.801 310.066 140.801 313.602 c 140.801 317.133 143.664 320 147.199
 320 c 150.734 320 153.602 317.133 153.602 313.602 c 153.602 310.066 156.465
 307.199 160 307.199 c 224 307.199 l 227.535 307.199 230.398 310.066 230.398
 313.602 c 230.398 345.602 l 281.602 345.602 l h
281.602 12.801 m f
64 294.398 m 49.863 294.398 38.398 282.938 38.398 268.801 c 38.398 254.66
 49.863 243.199 64 243.199 c 78.137 243.199 89.602 254.66 89.602 268.801
 c 89.602 282.938 78.137 294.398 64 294.398 c h
64 256 m 56.93 256 51.199 261.73 51.199 268.801 c 51.199 275.871 56.93 
281.602 64 281.602 c 71.07 281.602 76.801 275.871 76.801 268.801 c 76.801
 261.73 71.07 256 64 256 c h
64 256 m f
64 230.398 m 49.863 230.398 38.398 218.938 38.398 204.801 c 38.398 190.66
 49.863 179.199 64 179.199 c 78.137 179.199 89.602 190.66 89.602 204.801
 c 89.602 218.938 78.137 230.398 64 230.398 c h
64 192 m 56.93 192 51.199 197.73 51.199 204.801 c 51.199 211.871 56.93 
217.602 64 217.602 c 71.07 217.602 76.801 211.871 76.801 204.801 c 76.801
 197.73 71.07 192 64 192 c h
64 192 m f
249.602 288 m 160 288 l 156.465 288 153.602 285.133 153.602 281.602 c 153.602
 278.066 156.465 275.199 160 275.199 c 249.602 275.199 l 253.133 275.199
 256 278.066 256 281.602 c 256 285.133 253.133 288 249.602 288 c h
249.602 288 m f
134.398 288 m 108.801 288 l 105.266 288 102.398 285.133 102.398 281.602
 c 102.398 278.066 105.266 275.199 108.801 275.199 c 134.398 275.199 l 137.934
 275.199 140.801 278.066 140.801 281.602 c 140.801 285.133 137.934 288 134.398
 288 c h
134.398 288 m f
249.602 262.398 m 198.398 262.398 l 194.867 262.398 192 259.535 192 256
 c 192 252.465 194.867 249.602 198.398 249.602 c 249.602 249.602 l 253.133
 249.602 256 252.465 256 256 c 256 259.535 253.133 262.398 249.602 262.398
 c h
249.602 262.398 m f
172.801 262.398 m 108.801 262.398 l 105.266 262.398 102.398 259.535 102.398
 256 c 102.398 252.465 105.266 249.602 108.801 249.602 c 172.801 249.602
 l 176.336 249.602 179.199 252.465 179.199 256 c 179.199 259.535 176.336
 262.398 172.801 262.398 c h
172.801 262.398 m f
249.602 224 m 224 224 l 220.465 224 217.602 221.133 217.602 217.602 c 217.602
 214.066 220.465 211.199 224 211.199 c 249.602 211.199 l 253.133 211.199
 256 214.066 256 217.602 c 256 221.133 253.133 224 249.602 224 c h
249.602 224 m f
198.398 224 m 108.801 224 l 105.266 224 102.398 221.133 102.398 217.602
 c 102.398 214.066 105.266 211.199 108.801 211.199 c 198.398 211.199 l 201.934
 211.199 204.801 214.066 204.801 217.602 c 204.801 221.133 201.934 224 198.398
 224 c h
198.398 224 m f
249.602 198.398 m 179.199 198.398 l 175.664 198.398 172.801 195.535 172.801
 192 c 172.801 188.465 175.664 185.602 179.199 185.602 c 249.602 185.602
 l 253.133 185.602 256 188.465 256 192 c 256 195.535 253.133 198.398 249.602
 198.398 c h
249.602 198.398 m f
153.602 198.398 m 108.801 198.398 l 105.266 198.398 102.398 195.535 102.398
 192 c 102.398 188.465 105.266 185.602 108.801 185.602 c 153.602 185.602
 l 157.133 185.602 160 188.465 160 192 c 160 195.535 157.133 198.398 153.602
 198.398 c h
153.602 198.398 m f
358.398 357.762 m 358.398 358.398 l 358.398 372.539 346.938 384 332.801
 384 c 318.66 384 307.199 372.539 307.199 358.398 c 307.199 51.199 l 307.199
 51.117 307.246 51.047 307.246 50.969 c 307.273 50.297 307.406 49.629 307.641
 49 c 307.699 48.859 307.73 48.711 307.789 48.574 c 307.848 48.441 307.832
 48.414 307.871 48.34 c 326.398 11.289 l 326.398 6.398 l 326.398 2.867 329.266
 0 332.801 0 c 336.336 0 339.199 2.867 339.199 6.398 c 339.199 11.289 l 
357.762 48.34 l 357.797 48.414 357.805 48.5 357.844 48.574 c 357.883 48.652
 357.934 48.859 357.992 49 c 358.227 49.629 358.359 50.297 358.387 50.969
 c 358.387 51.055 358.434 51.117 358.434 51.199 c 358.434 344.422 l 366.062
 341.711 371.172 334.5 371.199 326.398 c 371.199 268.801 l 371.199 265.266
 374.066 262.398 377.602 262.398 c 381.133 262.398 384 265.266 384 268.801
 c 384 326.398 l 383.98 341.602 373.289 354.699 358.398 357.762 c h
332.801 27.109 m 323.957 44.801 l 341.645 44.801 l h
345.602 57.602 m 320 57.602 l 320 236.801 l 345.602 236.801 l h
345.602 249.602 m 320 249.602 l 320 345.602 l 345.602 345.602 l h
320 358.398 m 320 365.469 325.73 371.199 332.801 371.199 c 339.871 371.199
 345.602 365.469 345.602 358.398 c h
320 358.398 m f
192 134.398 m 192 147.199 l 172.801 147.199 l 171.102 147.199 169.477 146.523
 168.273 145.324 c 163.359 140.41 l 138.848 170.59 94.512 175.188 64.332
 150.676 c 34.148 126.164 29.555 81.828 54.062 51.645 c 78.574 21.465 122.914
 16.867 153.094 41.379 c 153.699 41.871 154.293 42.371 154.879 42.879 c 
157.918 45.555 160.719 48.488 163.25 51.648 c 168.238 46.66 l 169.449 45.457
 171.09 44.785 172.801 44.801 c 192 44.801 l 192 57.598 l 175.449 57.598
 l 170.566 62.48 l 182.047 83.375 182.078 108.68 170.648 129.598 c 175.449
 134.398 l h
161.105 71.941 m 151.727 81.324 l 142.676 72.273 l 154.238 60.719 l 153.152
 59.32 152.02 57.957 150.805 56.66 c 117.848 89.602 l 166.043 89.602 l 165.355
 83.488 163.688 77.527 161.105 71.941 c h
102.398 102.398 m 98.867 102.398 96 99.535 96 96 c 96 94.301 96.676 92.676
 97.875 91.477 c 141.023 48.32 l 114.684 30.48 78.871 37.375 61.035 63.715
 c 43.195 90.055 50.09 125.867 76.43 143.707 c 101.574 160.734 135.625 155.312
 154.238 131.316 c 142.648 119.727 l 151.699 110.676 l 161.055 120.027 l
 163.656 114.457 165.34 108.504 166.043 102.398 c h
102.398 102.398 m f
230.398 166.398 m 216.262 166.398 204.801 154.938 204.801 140.801 c 204.801
 126.66 216.262 115.199 230.398 115.199 c 244.539 115.199 256 126.66 256
 140.801 c 256 154.938 244.539 166.398 230.398 166.398 c h
230.398 128 m 223.332 128 217.602 133.73 217.602 140.801 c 217.602 147.871
 223.332 153.602 230.398 153.602 c 237.469 153.602 243.199 147.871 243.199
 140.801 c 243.199 133.73 237.469 128 230.398 128 c h
230.398 128 m f
230.398 76.801 m 216.262 76.801 204.801 65.34 204.801 51.199 c 204.801 
37.062 216.262 25.602 230.398 25.602 c 244.539 25.602 256 37.062 256 51.199
 c 256 65.34 244.539 76.801 230.398 76.801 c h
230.398 38.398 m 223.332 38.398 217.602 44.129 217.602 51.199 c 217.602
 58.27 223.332 64 230.398 64 c 237.469 64 243.199 58.27 243.199 51.199 c
 243.199 44.129 237.469 38.398 230.398 38.398 c h
230.398 38.398 m f
Q Q
showpage
%%Trailer
end restore
%%EOF
