%!PS-Adobe-3.0 EPSF-3.0
%%Creator: cairo 1.14.2 (http://cairographics.org)
%%CreationDate: Tue Apr  3 10:37:02 2018
%%Pages: 1
%%DocumentData: Clean7Bit
%%LanguageLevel: 2
%%BoundingBox: 16 -1 368 384
%%EndComments
%%BeginProlog
save
50 dict begin
/q { gsave } bind def
/Q { grestore } bind def
/cm { 6 array astore concat } bind def
/w { setlinewidth } bind def
/J { setlinecap } bind def
/j { setlinejoin } bind def
/M { setmiterlimit } bind def
/d { setdash } bind def
/m { moveto } bind def
/l { lineto } bind def
/c { curveto } bind def
/h { closepath } bind def
/re { exch dup neg 3 1 roll 5 3 roll moveto 0 rlineto
      0 exch rlineto 0 rlineto closepath } bind def
/S { stroke } bind def
/f { fill } bind def
/f* { eofill } bind def
/n { newpath } bind def
/W { clip } bind def
/W* { eoclip } bind def
/BT { } bind def
/ET { } bind def
/pdfmark where { pop globaldict /?pdfmark /exec load put }
    { globaldict begin /?pdfmark /pop load def /pdfmark
    /cleartomark load def end } ifelse
/BDC { mark 3 1 roll /BDC pdfmark } bind def
/EMC { mark /EMC pdfmark } bind def
/cairo_store_point { /cairo_point_y exch def /cairo_point_x exch def } def
/Tj { show currentpoint cairo_store_point } bind def
/TJ {
  {
    dup
    type /stringtype eq
    { show } { -0.001 mul 0 cairo_font_matrix dtransform rmoveto } ifelse
  } forall
  currentpoint cairo_store_point
} bind def
/cairo_selectfont { cairo_font_matrix aload pop pop pop 0 0 6 array astore
    cairo_font exch selectfont cairo_point_x cairo_point_y moveto } bind def
/Tf { pop /cairo_font exch def /cairo_font_matrix where
      { pop cairo_selectfont } if } bind def
/Td { matrix translate cairo_font_matrix matrix concatmatrix dup
      /cairo_font_matrix exch def dup 4 get exch 5 get cairo_store_point
      /cairo_font where { pop cairo_selectfont } if } bind def
/Tm { 2 copy 8 2 roll 6 array astore /cairo_font_matrix exch def
      cairo_store_point /cairo_font where { pop cairo_selectfont } if } bind def
/g { setgray } bind def
/rg { setrgbcolor } bind def
/d1 { setcachedevice } bind def
%%EndProlog
%%BeginSetup
%%EndSetup
%%Page: 1 1
%%BeginPageSetup
%%PageBoundingBox: 16 -1 368 384
%%EndPageSetup
q 16 -1 352 385 rectclip q
0 g
220.801 211.202 m 169.598 211.202 l 130.738 211.155 99.246 179.662 99.199
 140.799 c 99.199 6.401 l 99.199 2.866 102.066 -0.002 105.598 -0.002 c 284.801
 -0.002 l 288.332 -0.002 291.199 2.866 291.199 6.401 c 291.199 140.799 l
 291.152 179.662 259.66 211.155 220.801 211.202 c h
194.527 182.049 m 186.355 198.401 l 204.043 198.401 l 195.84 182.061 l 
195.406 181.17 195.188 180.19 195.199 179.202 c 195.195 178.94 195.215 178.678
 195.25 178.42 c 207.66 79.112 l 195.199 66.651 l 182.738 79.112 l 195.148
 178.405 l 195.184 178.67 195.203 178.936 195.199 179.202 c 195.199 180.19
 194.969 181.162 194.527 182.049 c h
278.398 12.799 m 112 12.799 l 112 140.799 l 112.039 172.596 137.805 198.362
 169.598 198.401 c 172.043 198.401 l 182.207 178.073 l 169.652 77.592 l 
169.406 75.635 170.078 73.67 171.473 72.276 c 190.676 53.077 l 193.172 50.577
 197.227 50.577 199.723 53.077 c 218.926 72.276 l 220.32 73.67 220.992 75.635
 220.746 77.592 c 208.191 178.073 l 218.355 198.401 l 220.801 198.401 l 
252.594 198.362 278.359 172.596 278.398 140.799 c h
278.398 12.799 m f
259.199 371.198 m 258.039 371.198 256.898 370.881 255.902 370.284 c 228.191
 353.643 l 199.727 382.123 l 197.227 384.623 193.176 384.623 190.676 382.123
 c 162.207 353.659 l 134.496 370.299 l 131.465 372.12 127.535 371.139 125.715
 368.108 c 125.113 367.108 124.797 365.967 124.801 364.799 c 124.801 307.202
 l 124.801 303.666 127.664 300.799 131.199 300.799 c 137.602 300.799 l 137.602
 275.202 l 137.602 243.389 163.391 217.6 195.199 217.6 c 227.012 217.6 252.801
 243.389 252.801 275.202 c 252.801 300.799 l 259.199 300.799 l 262.734 300.799
 265.602 303.666 265.602 307.202 c 265.602 364.799 l 265.598 368.334 262.734
 371.198 259.199 371.198 c h
240 275.202 m 240 250.459 219.941 230.401 195.199 230.401 c 170.457 230.401
 150.398 250.459 150.398 275.202 c 150.398 300.799 l 240 300.799 l h
252.801 313.6 m 137.598 313.6 l 137.598 353.498 l 159.902 340.116 l 162.422
 338.604 165.645 338.998 167.723 341.077 c 195.199 368.549 l 222.676 341.077
 l 224.754 338.998 227.977 338.604 230.496 340.116 c 252.801 353.498 l h
252.801 313.6 m f
361.598 281.6 m 350.996 281.6 342.398 290.198 342.398 300.799 c 342.398
 304.334 339.535 307.202 336 307.202 c 332.465 307.202 329.598 304.334 329.598
 300.799 c 329.598 290.198 321.004 281.6 310.398 281.6 c 306.863 281.6 304
 278.733 304 275.202 c 304 271.666 306.863 268.799 310.398 268.799 c 321.004
 268.799 329.598 260.205 329.598 249.6 c 329.598 246.065 332.465 243.202
 336 243.202 c 339.535 243.202 342.398 246.065 342.398 249.6 c 342.398 260.205
 350.996 268.799 361.598 268.799 c 365.133 268.799 368 271.666 368 275.202
 c 368 278.733 365.133 281.6 361.598 281.6 c h
336 268.6 m 334.137 271.112 331.91 273.334 329.402 275.202 c 331.91 277.065
 334.137 279.287 336 281.799 c 337.863 279.287 340.086 277.065 342.598 275.202
 c 340.086 273.334 337.863 271.112 336 268.6 c h
336 268.6 m f
92.801 211.202 m 82.195 211.202 73.598 219.795 73.598 230.401 c 73.598 
233.936 70.734 236.799 67.199 236.799 c 63.664 236.799 60.801 233.936 60.801
 230.401 c 60.801 219.795 52.203 211.202 41.598 211.202 c 38.066 211.202
 35.199 208.334 35.199 204.799 c 35.199 201.264 38.066 198.401 41.598 198.401
 c 52.203 198.401 60.801 189.803 60.801 179.202 c 60.801 175.666 63.664 
172.799 67.199 172.799 c 70.734 172.799 73.598 175.666 73.598 179.202 c 
73.598 189.803 82.195 198.401 92.801 198.401 c 96.332 198.401 99.199 201.264
 99.199 204.799 c 99.199 208.334 96.332 211.202 92.801 211.202 c h
67.199 198.202 m 65.336 200.713 63.113 202.936 60.602 204.799 c 63.109 
206.666 65.336 208.889 67.199 211.397 c 69.062 208.889 71.285 206.666 73.797
 204.799 c 71.289 202.936 69.062 200.713 67.199 198.202 c h
67.199 198.202 m f
73.598 326.401 m 62.996 326.401 54.398 334.995 54.398 345.6 c 54.398 349.135
 51.535 351.998 48 351.998 c 44.465 351.998 41.598 349.135 41.598 345.6 
c 41.598 334.995 33.004 326.401 22.398 326.401 c 18.863 326.401 16 323.534
 16 319.998 c 16 316.467 18.863 313.6 22.398 313.6 c 33.004 313.6 41.598
 305.002 41.598 294.401 c 41.598 290.866 44.465 287.998 48 287.998 c 51.535
 287.998 54.398 290.866 54.398 294.401 c 54.398 305.002 62.996 313.6 73.598
 313.6 c 77.133 313.6 80 316.467 80 319.998 c 80 323.534 77.133 326.401 
73.598 326.401 c h
48 313.401 m 46.133 315.912 43.91 318.135 41.402 319.998 c 43.91 321.866
 46.133 324.088 48 326.6 c 49.863 324.088 52.086 321.866 54.598 319.998 
c 52.086 318.135 49.863 315.912 48 313.401 c h
48 313.401 m f
Q Q
showpage
%%Trailer
end restore
%%EOF
