%!PS-Adobe-3.0 EPSF-3.0
%%Creator: cairo 1.14.2 (http://cairographics.org)
%%CreationDate: Tue Apr  3 10:37:02 2018
%%Pages: 1
%%DocumentData: Clean7Bit
%%LanguageLevel: 2
%%BoundingBox: 3 0 381 384
%%EndComments
%%BeginProlog
save
50 dict begin
/q { gsave } bind def
/Q { grestore } bind def
/cm { 6 array astore concat } bind def
/w { setlinewidth } bind def
/J { setlinecap } bind def
/j { setlinejoin } bind def
/M { setmiterlimit } bind def
/d { setdash } bind def
/m { moveto } bind def
/l { lineto } bind def
/c { curveto } bind def
/h { closepath } bind def
/re { exch dup neg 3 1 roll 5 3 roll moveto 0 rlineto
      0 exch rlineto 0 rlineto closepath } bind def
/S { stroke } bind def
/f { fill } bind def
/f* { eofill } bind def
/n { newpath } bind def
/W { clip } bind def
/W* { eoclip } bind def
/BT { } bind def
/ET { } bind def
/pdfmark where { pop globaldict /?pdfmark /exec load put }
    { globaldict begin /?pdfmark /pop load def /pdfmark
    /cleartomark load def end } ifelse
/BDC { mark 3 1 roll /BDC pdfmark } bind def
/EMC { mark /EMC pdfmark } bind def
/cairo_store_point { /cairo_point_y exch def /cairo_point_x exch def } def
/Tj { show currentpoint cairo_store_point } bind def
/TJ {
  {
    dup
    type /stringtype eq
    { show } { -0.001 mul 0 cairo_font_matrix dtransform rmoveto } ifelse
  } forall
  currentpoint cairo_store_point
} bind def
/cairo_selectfont { cairo_font_matrix aload pop pop pop 0 0 6 array astore
    cairo_font exch selectfont cairo_point_x cairo_point_y moveto } bind def
/Tf { pop /cairo_font exch def /cairo_font_matrix where
      { pop cairo_selectfont } if } bind def
/Td { matrix translate cairo_font_matrix matrix concatmatrix dup
      /cairo_font_matrix exch def dup 4 get exch 5 get cairo_store_point
      /cairo_font where { pop cairo_selectfont } if } bind def
/Tm { 2 copy 8 2 roll 6 array astore /cairo_font_matrix exch def
      cairo_store_point /cairo_font where { pop cairo_selectfont } if } bind def
/g { setgray } bind def
/rg { setrgbcolor } bind def
/d1 { setcachedevice } bind def
%%EndProlog
%%BeginSetup
%%EndSetup
%%Page: 1 1
%%BeginPageSetup
%%PageBoundingBox: 3 0 381 384
%%EndPageSetup
q 3 0 378 384 rectclip q
0 g
80 294.398 m 65.863 294.398 54.398 282.938 54.398 268.801 c 54.398 254.66
 65.863 243.199 80 243.199 c 94.137 243.199 105.602 254.66 105.602 268.801
 c 105.602 282.938 94.137 294.398 80 294.398 c h
80 256 m 72.93 256 67.199 261.73 67.199 268.801 c 67.199 275.871 72.93 
281.602 80 281.602 c 87.07 281.602 92.801 275.871 92.801 268.801 c 92.801
 261.73 87.07 256 80 256 c h
80 256 m f
374.398 384 m 233.602 384 l 230.066 384 227.199 381.133 227.199 377.602
 c 227.199 317.164 l 217.664 311.551 209.211 304.273 202.238 295.68 c 196.84
 308.738 193.09 322.418 191.07 336.402 c 188.734 352.91 l 188.305 355.938
 185.789 358.242 182.734 358.398 c 179.656 358.617 176.879 356.562 176.191
 353.555 c 172.703 339.609 l 167.309 317.809 164.23 295.496 163.527 273.051
 c 161.316 273.762 159.07 274.355 156.801 274.836 c 156.801 313.602 l 156.801
 317.133 153.934 320 150.398 320 c 9.602 320 l 6.066 320 3.199 317.133 3.199
 313.602 c 3.199 224 l 3.199 220.465 6.066 217.602 9.602 217.602 c 150.398
 217.602 l 153.934 217.602 156.801 220.465 156.801 224 c 156.801 229.914
 l 167.457 210.844 172.141 189.008 170.238 167.246 c 170.156 166.398 l 99.199
 166.398 l 95.664 166.398 92.801 163.535 92.801 160 c 92.801 121.602 l 92.801
 118.066 95.664 115.199 99.199 115.199 c 106.578 115.199 l 124.891 5.352
 l 125.402 2.266 128.07 0 131.199 0 c 259.199 0 l 262.328 0 264.996 2.266
 265.512 5.352 c 283.82 115.199 l 291.199 115.199 l 294.734 115.199 297.602
 118.066 297.602 121.602 c 297.602 160 l 297.602 163.535 294.734 166.398
 291.199 166.398 c 220.801 166.398 l 220.801 225.211 l 220.828 244.719 225.188
 263.98 233.566 281.602 c 374.398 281.602 l 377.934 281.602 380.801 284.465
 380.801 288 c 380.801 377.602 l 380.801 381.133 377.934 384 374.398 384
 c h
16 307.199 m 27.707 307.199 l 25.762 301.738 21.465 297.438 16 295.496 
c h
16 230.398 m 16 242.105 l 21.465 240.164 25.762 235.863 27.707 230.398 
c h
144 230.398 m 132.293 230.398 l 134.238 235.863 138.535 240.164 144 242.105
 c h
144 255.359 m 131.441 252.77 121.629 242.957 119.039 230.398 c 40.961 230.398
 l 38.371 242.957 28.559 252.77 16 255.359 c 16 282.238 l 28.559 284.828
 38.371 294.641 40.961 307.199 c 119.039 307.199 l 121.629 294.641 131.441
 284.828 144 282.238 c h
144 295.496 m 138.535 297.438 134.238 301.738 132.293 307.199 c 144 307.199
 l h
181.312 319.129 m 184.219 306.75 188.402 294.707 193.805 283.195 c 189.945
 276.508 186.934 269.367 184.844 261.934 c 182.09 264.078 179.176 266.004
 176.121 267.691 c 176.395 284.953 178.133 302.16 181.312 319.129 c h
253.777 12.801 m 136.621 12.801 l 119.559 115.199 l 270.84 115.199 l h
284.801 153.602 m 284.801 128 l 105.602 128 l 105.602 153.602 l h
227.199 297.082 m 214.641 275.207 208.023 250.43 208 225.211 c 208 166.398
 l 183.039 166.398 l 185.656 197.469 176.262 228.359 156.801 252.719 c 156.801
 261.797 l 166.234 259.367 174.852 254.465 181.762 247.598 c 184.289 245.074
 l 185.484 243.879 187.105 243.203 188.801 243.199 c 191.984 243.199 194.684
 245.539 195.137 248.691 c 198.242 270.016 209.801 289.191 227.199 301.902
 c h
240 371.199 m 251.707 371.199 l 249.762 365.738 245.465 361.438 240 359.496
 c h
240 294.398 m 240 306.105 l 245.465 304.164 249.762 299.863 251.707 294.398
 c h
368 294.398 m 356.293 294.398 l 358.238 299.863 362.535 304.164 368 306.105
 c h
368 319.359 m 355.441 316.77 345.629 306.957 343.039 294.398 c 264.961 
294.398 l 262.371 306.957 252.559 316.77 240 319.359 c 240 346.238 l 252.559
 348.828 262.371 358.641 264.961 371.199 c 343.039 371.199 l 345.629 358.641
 355.441 348.828 368 346.238 c h
368 359.496 m 362.535 361.438 358.238 365.738 356.293 371.199 c 368 371.199
 l h
368 359.496 m f
304 358.398 m 289.863 358.398 278.398 346.938 278.398 332.801 c 278.398
 318.66 289.863 307.199 304 307.199 c 318.137 307.199 329.602 318.66 329.602
 332.801 c 329.602 346.938 318.137 358.398 304 358.398 c h
304 320 m 296.93 320 291.199 325.73 291.199 332.801 c 291.199 339.871 296.93
 345.602 304 345.602 c 311.07 345.602 316.801 339.871 316.801 332.801 c 
316.801 325.73 311.07 320 304 320 c h
304 320 m f
Q Q
showpage
%%Trailer
end restore
%%EOF
