%!PS-Adobe-3.0 EPSF-3.0
%%Creator: cairo 1.14.2 (http://cairographics.org)
%%CreationDate: Tue Apr  3 10:37:02 2018
%%Pages: 1
%%DocumentData: Clean7Bit
%%LanguageLevel: 2
%%BoundingBox: 0 -1 384 385
%%EndComments
%%BeginProlog
save
50 dict begin
/q { gsave } bind def
/Q { grestore } bind def
/cm { 6 array astore concat } bind def
/w { setlinewidth } bind def
/J { setlinecap } bind def
/j { setlinejoin } bind def
/M { setmiterlimit } bind def
/d { setdash } bind def
/m { moveto } bind def
/l { lineto } bind def
/c { curveto } bind def
/h { closepath } bind def
/re { exch dup neg 3 1 roll 5 3 roll moveto 0 rlineto
      0 exch rlineto 0 rlineto closepath } bind def
/S { stroke } bind def
/f { fill } bind def
/f* { eofill } bind def
/n { newpath } bind def
/W { clip } bind def
/W* { eoclip } bind def
/BT { } bind def
/ET { } bind def
/pdfmark where { pop globaldict /?pdfmark /exec load put }
    { globaldict begin /?pdfmark /pop load def /pdfmark
    /cleartomark load def end } ifelse
/BDC { mark 3 1 roll /BDC pdfmark } bind def
/EMC { mark /EMC pdfmark } bind def
/cairo_store_point { /cairo_point_y exch def /cairo_point_x exch def } def
/Tj { show currentpoint cairo_store_point } bind def
/TJ {
  {
    dup
    type /stringtype eq
    { show } { -0.001 mul 0 cairo_font_matrix dtransform rmoveto } ifelse
  } forall
  currentpoint cairo_store_point
} bind def
/cairo_selectfont { cairo_font_matrix aload pop pop pop 0 0 6 array astore
    cairo_font exch selectfont cairo_point_x cairo_point_y moveto } bind def
/Tf { pop /cairo_font exch def /cairo_font_matrix where
      { pop cairo_selectfont } if } bind def
/Td { matrix translate cairo_font_matrix matrix concatmatrix dup
      /cairo_font_matrix exch def dup 4 get exch 5 get cairo_store_point
      /cairo_font where { pop cairo_selectfont } if } bind def
/Tm { 2 copy 8 2 roll 6 array astore /cairo_font_matrix exch def
      cairo_store_point /cairo_font where { pop cairo_selectfont } if } bind def
/g { setgray } bind def
/rg { setrgbcolor } bind def
/d1 { setcachedevice } bind def
%%EndProlog
%%BeginSetup
%%EndSetup
%%Page: 1 1
%%BeginPageSetup
%%PageBoundingBox: 0 -1 384 385
%%EndPageSetup
q 0 -1 384 386 rectclip q
0 g
338.895 315.624 m 326.094 354.027 l 324.984 357.382 321.367 359.202 318.008
 358.093 c 317.711 357.995 317.418 357.874 317.133 357.73 c 278.734 338.531
 l 275.57 336.952 274.289 333.105 275.867 329.941 c 277.445 326.781 281.293
 325.495 284.457 327.074 c 305.371 337.534 l 250.332 236.874 149.953 172.804
 44.801 172.804 c 44.801 160.003 l 156.02 160.003 262.004 228.382 318.777
 335.429 c 326.734 311.581 l 327.852 308.222 331.48 306.406 334.836 307.523
 c 338.195 308.64 340.012 312.269 338.895 315.624 c h
338.895 315.624 m f
377.602 384.003 m 6.402 384.003 l 2.867 384.003 0 381.136 0 377.605 c 0
 89.605 l 0 86.07 2.867 83.202 6.402 83.202 c 119.336 83.202 l 96.297 8.284
 l 95.258 4.906 97.152 1.324 100.531 0.284 c 103.91 -0.755 107.492 1.144
 108.531 4.523 c 120.918 44.804 l 263.086 44.804 l 275.484 4.523 l 276.523
 1.144 280.105 -0.755 283.484 0.284 c 286.863 1.324 288.758 4.906 287.719
 8.284 c 264.668 83.202 l 377.602 83.202 l 381.137 83.202 384 86.07 384 
89.605 c 384 377.605 l 384 381.136 381.137 384.003 377.602 384.003 c h
124.852 57.605 m 132.73 83.202 l 251.273 83.202 l 259.152 57.605 l h
371.203 96.003 m 12.801 96.003 l 12.801 371.202 l 371.203 371.202 l h
371.203 96.003 m f
76.801 147.202 m 51.203 147.202 l 47.668 147.202 44.801 144.339 44.801 
140.804 c 44.801 115.202 l 44.801 111.667 47.668 108.804 51.203 108.804 
c 76.801 108.804 l 80.336 108.804 83.203 111.667 83.203 115.202 c 83.203
 140.804 l 83.203 144.339 80.336 147.202 76.801 147.202 c h
70.402 121.605 m 57.602 121.605 l 57.602 134.402 l 70.402 134.402 l h
70.402 121.605 m f
140.801 160.003 m 115.203 160.003 l 111.668 160.003 108.801 157.136 108.801
 153.605 c 108.801 115.202 l 108.801 111.667 111.668 108.804 115.203 108.804
 c 140.801 108.804 l 144.336 108.804 147.203 111.667 147.203 115.202 c 147.203
 153.605 l 147.203 157.136 144.336 160.003 140.801 160.003 c h
134.402 121.605 m 121.602 121.605 l 121.602 147.202 l 134.402 147.202 l
 h
134.402 121.605 m f
204.801 185.605 m 179.203 185.605 l 175.668 185.605 172.801 182.738 172.801
 179.202 c 172.801 115.202 l 172.801 111.667 175.668 108.804 179.203 108.804
 c 204.801 108.804 l 208.336 108.804 211.203 111.667 211.203 115.202 c 211.203
 179.202 l 211.203 182.738 208.336 185.605 204.801 185.605 c h
198.402 121.605 m 185.602 121.605 l 185.602 172.804 l 198.402 172.804 l
 h
198.402 121.605 m f
268.801 224.003 m 243.203 224.003 l 239.668 224.003 236.801 221.136 236.801
 217.605 c 236.801 115.202 l 236.801 111.667 239.668 108.804 243.203 108.804
 c 268.801 108.804 l 272.336 108.804 275.203 111.667 275.203 115.202 c 275.203
 217.605 l 275.203 221.136 272.336 224.003 268.801 224.003 c h
262.402 121.605 m 249.602 121.605 l 249.602 211.202 l 262.402 211.202 l
 h
262.402 121.605 m f
332.801 294.402 m 307.203 294.402 l 303.668 294.402 300.801 291.538 300.801
 288.003 c 300.801 115.202 l 300.801 111.667 303.668 108.804 307.203 108.804
 c 332.801 108.804 l 336.336 108.804 339.203 111.667 339.203 115.202 c 339.203
 288.003 l 339.203 291.538 336.336 294.402 332.801 294.402 c h
326.402 121.605 m 313.602 121.605 l 313.602 281.605 l 326.402 281.605 l
 h
326.402 121.605 m f
Q Q
showpage
%%Trailer
end restore
%%EOF
