%!PS-Adobe-3.0 EPSF-3.0
%%Creator: cairo 1.14.2 (http://cairographics.org)
%%CreationDate: Tue Apr  3 10:37:02 2018
%%Pages: 1
%%DocumentData: Clean7Bit
%%LanguageLevel: 2
%%BoundingBox: 0 0 384 384
%%EndComments
%%BeginProlog
save
50 dict begin
/q { gsave } bind def
/Q { grestore } bind def
/cm { 6 array astore concat } bind def
/w { setlinewidth } bind def
/J { setlinecap } bind def
/j { setlinejoin } bind def
/M { setmiterlimit } bind def
/d { setdash } bind def
/m { moveto } bind def
/l { lineto } bind def
/c { curveto } bind def
/h { closepath } bind def
/re { exch dup neg 3 1 roll 5 3 roll moveto 0 rlineto
      0 exch rlineto 0 rlineto closepath } bind def
/S { stroke } bind def
/f { fill } bind def
/f* { eofill } bind def
/n { newpath } bind def
/W { clip } bind def
/W* { eoclip } bind def
/BT { } bind def
/ET { } bind def
/pdfmark where { pop globaldict /?pdfmark /exec load put }
    { globaldict begin /?pdfmark /pop load def /pdfmark
    /cleartomark load def end } ifelse
/BDC { mark 3 1 roll /BDC pdfmark } bind def
/EMC { mark /EMC pdfmark } bind def
/cairo_store_point { /cairo_point_y exch def /cairo_point_x exch def } def
/Tj { show currentpoint cairo_store_point } bind def
/TJ {
  {
    dup
    type /stringtype eq
    { show } { -0.001 mul 0 cairo_font_matrix dtransform rmoveto } ifelse
  } forall
  currentpoint cairo_store_point
} bind def
/cairo_selectfont { cairo_font_matrix aload pop pop pop 0 0 6 array astore
    cairo_font exch selectfont cairo_point_x cairo_point_y moveto } bind def
/Tf { pop /cairo_font exch def /cairo_font_matrix where
      { pop cairo_selectfont } if } bind def
/Td { matrix translate cairo_font_matrix matrix concatmatrix dup
      /cairo_font_matrix exch def dup 4 get exch 5 get cairo_store_point
      /cairo_font where { pop cairo_selectfont } if } bind def
/Tm { 2 copy 8 2 roll 6 array astore /cairo_font_matrix exch def
      cairo_store_point /cairo_font where { pop cairo_selectfont } if } bind def
/g { setgray } bind def
/rg { setrgbcolor } bind def
/d1 { setcachedevice } bind def
%%EndProlog
%%BeginSetup
%%EndSetup
%%Page: 1 1
%%BeginPageSetup
%%PageBoundingBox: 0 0 384 384
%%EndPageSetup
q 0 0 384 384 rectclip q
0 g
383.211 9.473 m 241.203 268.801 l 288 268.801 l 288 198.398 l 288 194.867
 290.867 192 294.398 192 c 320 192 l 323.535 192 326.398 194.867 326.398
 198.398 c 326.398 377.602 l 326.398 381.133 323.535 384 320 384 c 64 384
 l 60.465 384 57.602 381.133 57.602 377.602 c 57.602 198.398 l 57.602 194.867
 60.465 192 64 192 c 89.602 192 l 93.133 192 96 194.867 96 198.398 c 96 
268.801 l 142.797 268.801 l 0.789 9.473 l -0.297 7.488 -0.258 5.082 0.895
 3.137 c 2.047 1.191 4.141 0 6.398 0 c 377.602 0 l 381.133 0 384 2.867 384
 6.402 c 383.996 7.477 383.727 8.531 383.211 9.473 c h
313.602 204.801 m 300.801 204.801 l 300.801 268.801 l 313.602 268.801 l
 h
275.199 371.199 m 313.602 371.199 l 313.602 332.801 l 275.199 332.801 l
 h
275.199 320 m 313.602 320 l 313.602 281.602 l 275.199 281.602 l h
224 371.199 m 262.398 371.199 l 262.398 332.801 l 224 332.801 l h
224 320 m 262.398 320 l 262.398 281.602 l 224 281.602 l h
172.801 371.199 m 211.199 371.199 l 211.199 332.801 l 172.801 332.801 l
 h
172.801 320 m 211.199 320 l 211.199 281.602 l 172.801 281.602 l h
121.602 371.199 m 160 371.199 l 160 332.801 l 121.602 332.801 l h
83.199 204.801 m 70.398 204.801 l 70.398 268.801 l 83.199 268.801 l h
108.801 281.602 m 70.398 281.602 l 70.398 320 l 108.801 320 l h
108.801 332.801 m 70.398 332.801 l 70.398 371.199 l 108.801 371.199 l h
121.602 281.602 m 121.602 320 l 160 320 l 160 281.602 l h
198.398 12.801 m 198.398 108.801 l 198.398 112.336 195.535 115.199 192 
115.199 c 188.465 115.199 185.602 112.336 185.602 108.801 c 185.602 12.801
 l 17.203 12.801 l 157.391 268.801 l 185.602 268.801 l 185.602 249.602 l
 185.602 246.066 188.465 243.199 192 243.199 c 195.535 243.199 198.398 246.066
 198.398 249.602 c 198.398 268.801 l 226.609 268.801 l 366.77 12.801 l h
198.398 12.801 m f
192 224 m 188.465 224 185.602 221.133 185.602 217.602 c 185.602 153.602
 l 185.602 150.066 188.465 147.199 192 147.199 c 195.535 147.199 198.398
 150.066 198.398 153.602 c 198.398 217.602 l 198.398 221.133 195.535 224
 192 224 c h
192 224 m f
380.801 306.344 m 374.238 309.598 366.582 309.832 359.832 306.98 c 354.715
 305.496 351.641 304.75 348.801 306.344 c 345.738 308.109 341.824 307.062
 340.059 304 c 339.496 303.027 339.199 301.922 339.199 300.801 c 339.199
 198.398 l 339.199 194.867 342.066 192 345.602 192 c 349.133 192 352 194.867
 352 198.398 c 352 267.035 l 352.312 267.035 l 356.078 267.188 359.801 267.867
 363.371 269.062 c 368.492 270.547 371.559 271.289 374.406 269.672 c 377.469
 267.906 381.383 268.961 383.145 272.023 c 383.703 272.988 383.996 274.086
 384 275.199 c 384 300.801 l 384 303.086 382.781 305.199 380.801 306.344
 c h
371.199 283.379 m 367.332 283.246 363.504 282.562 359.828 281.352 c 357.312
 280.445 354.672 279.934 352 279.832 c 352 292.633 l 355.867 292.766 359.699
 293.445 363.371 294.664 c 365.891 295.562 368.527 296.07 371.199 296.168
 c h
371.199 283.379 m f
38.406 307.199 m 37.281 307.199 36.18 306.902 35.207 306.344 c 32.363 304.719
 29.312 305.465 24.172 306.98 c 17.426 309.832 9.77 309.598 3.207 306.344
 c 1.223 305.199 0 303.09 0 300.801 c 0 275.199 l 0 272.914 1.219 270.801
 3.199 269.656 c 5.18 268.516 7.621 268.516 9.602 269.656 c 12.449 271.277
 15.496 270.535 20.633 269.051 c 24.207 267.855 27.93 267.172 31.691 267.02
 c 32.008 267.02 l 32.008 198.398 l 32.008 194.867 34.875 192.004 38.41 
192.004 c 41.941 192.008 44.805 194.871 44.805 198.398 c 44.805 300.801 
l 44.805 304.336 41.941 307.199 38.406 307.199 c h
32 279.82 m 29.328 279.926 26.691 280.438 24.172 281.336 c 20.602 282.531
 16.875 283.215 13.113 283.367 c 12.801 283.367 l 12.801 296.168 l 15.473
 296.074 18.113 295.562 20.629 294.648 c 24.301 293.426 28.133 292.742 32
 292.621 c h
32 279.82 m f
Q Q
showpage
%%Trailer
end restore
%%EOF
