%!PS-Adobe-3.0 EPSF-3.0
%%Creator: cairo 1.14.2 (http://cairographics.org)
%%CreationDate: Tue Apr  3 10:37:02 2018
%%Pages: 1
%%DocumentData: Clean7Bit
%%LanguageLevel: 2
%%BoundingBox: 0 38 384 346
%%EndComments
%%BeginProlog
save
50 dict begin
/q { gsave } bind def
/Q { grestore } bind def
/cm { 6 array astore concat } bind def
/w { setlinewidth } bind def
/J { setlinecap } bind def
/j { setlinejoin } bind def
/M { setmiterlimit } bind def
/d { setdash } bind def
/m { moveto } bind def
/l { lineto } bind def
/c { curveto } bind def
/h { closepath } bind def
/re { exch dup neg 3 1 roll 5 3 roll moveto 0 rlineto
      0 exch rlineto 0 rlineto closepath } bind def
/S { stroke } bind def
/f { fill } bind def
/f* { eofill } bind def
/n { newpath } bind def
/W { clip } bind def
/W* { eoclip } bind def
/BT { } bind def
/ET { } bind def
/pdfmark where { pop globaldict /?pdfmark /exec load put }
    { globaldict begin /?pdfmark /pop load def /pdfmark
    /cleartomark load def end } ifelse
/BDC { mark 3 1 roll /BDC pdfmark } bind def
/EMC { mark /EMC pdfmark } bind def
/cairo_store_point { /cairo_point_y exch def /cairo_point_x exch def } def
/Tj { show currentpoint cairo_store_point } bind def
/TJ {
  {
    dup
    type /stringtype eq
    { show } { -0.001 mul 0 cairo_font_matrix dtransform rmoveto } ifelse
  } forall
  currentpoint cairo_store_point
} bind def
/cairo_selectfont { cairo_font_matrix aload pop pop pop 0 0 6 array astore
    cairo_font exch selectfont cairo_point_x cairo_point_y moveto } bind def
/Tf { pop /cairo_font exch def /cairo_font_matrix where
      { pop cairo_selectfont } if } bind def
/Td { matrix translate cairo_font_matrix matrix concatmatrix dup
      /cairo_font_matrix exch def dup 4 get exch 5 get cairo_store_point
      /cairo_font where { pop cairo_selectfont } if } bind def
/Tm { 2 copy 8 2 roll 6 array astore /cairo_font_matrix exch def
      cairo_store_point /cairo_font where { pop cairo_selectfont } if } bind def
/g { setgray } bind def
/rg { setrgbcolor } bind def
/d1 { setcachedevice } bind def
%%EndProlog
%%BeginSetup
%%EndSetup
%%Page: 1 1
%%BeginPageSetup
%%PageBoundingBox: 0 38 384 346
%%EndPageSetup
q 0 38 384 308 rectclip q
0 g
345.602 345.598 m 179.199 345.598 l 158 345.578 140.82 328.398 140.801 
307.199 c 140.801 230.398 l 38.398 230.398 l 17.199 230.379 0.02 213.199
 0 192 c 0 102.398 l 0.023 83.668 13.535 67.68 32 64.531 c 32 44.801 l 32
 41.266 34.867 38.398 38.402 38.402 c 40.098 38.402 41.727 39.074 42.926
 40.273 c 66.648 64 l 204.801 64 l 226 64.02 243.18 81.199 243.199 102.398
 c 243.199 179.199 l 317.352 179.199 l 341.074 155.473 l 343.574 152.977
 347.629 152.977 350.125 155.477 c 351.324 156.676 352 158.305 352 160 c
 352 179.73 l 370.465 182.879 383.977 198.867 384 217.598 c 384 307.199 
l 383.98 328.398 366.801 345.578 345.602 345.598 c h
230.398 102.398 m 230.398 88.262 218.938 76.801 204.801 76.801 c 64 76.801
 l 62.301 76.801 60.676 76.125 59.477 74.926 c 44.801 60.25 l 44.801 70.398
 l 44.801 73.934 41.934 76.801 38.398 76.801 c 24.262 76.801 12.801 88.262
 12.801 102.398 c 12.801 192 l 12.801 206.137 24.262 217.598 38.398 217.598
 c 204.801 217.598 l 218.938 217.598 230.398 206.137 230.398 192 c h
371.199 217.598 m 371.199 203.461 359.738 192 345.602 192 c 342.066 192
 339.199 189.133 339.199 185.598 c 339.199 175.449 l 324.523 190.125 l 323.324
 191.324 321.699 192 320 192 c 243.199 192 l 243.18 213.199 226 230.379 
204.801 230.398 c 153.602 230.398 l 153.602 307.199 l 153.602 321.336 165.062
 332.801 179.199 332.801 c 345.602 332.801 l 359.738 332.801 371.199 321.336
 371.199 307.199 c h
371.199 217.598 m f
70.398 166.398 m 59.797 166.398 51.199 157.805 51.199 147.199 c 51.199 
136.594 59.797 128 70.398 128 c 81.004 128 89.602 136.594 89.602 147.199
 c 89.602 157.805 81.004 166.398 70.398 166.398 c h
70.398 140.801 m 66.867 140.801 64 143.664 64 147.199 c 64 150.734 66.867
 153.598 70.398 153.598 c 73.934 153.598 76.801 150.734 76.801 147.199 c
 76.801 143.664 73.934 140.801 70.398 140.801 c h
70.398 140.801 m f
121.602 166.398 m 110.996 166.398 102.398 157.805 102.398 147.199 c 102.398
 136.594 110.996 128 121.602 128 c 132.203 128 140.801 136.594 140.801 147.199
 c 140.801 157.805 132.203 166.398 121.602 166.398 c h
121.602 140.801 m 118.066 140.801 115.199 143.664 115.199 147.199 c 115.199
 150.734 118.066 153.598 121.602 153.598 c 125.133 153.598 128 150.734 128
 147.199 c 128 143.664 125.133 140.801 121.602 140.801 c h
121.602 140.801 m f
172.801 166.398 m 162.195 166.398 153.602 157.805 153.602 147.199 c 153.602
 136.594 162.195 128 172.801 128 c 183.402 128 192 136.594 192 147.199 c
 192 157.805 183.402 166.398 172.801 166.398 c h
172.801 140.801 m 169.266 140.801 166.398 143.664 166.398 147.199 c 166.398
 150.734 169.266 153.598 172.801 153.598 c 176.336 153.598 179.199 150.734
 179.199 147.199 c 179.199 143.664 176.336 140.801 172.801 140.801 c h
172.801 140.801 m f
179.199 307.199 115.199 -12.801 re f
307.199 307.199 38.402 -12.801 re f
179.199 281.598 38.402 -12.797 re f
230.398 281.598 76.801 -12.797 re f
179.199 256 166.402 -12.801 re f
243.199 230.398 51.199 -12.801 re f
307.199 230.398 38.402 -12.801 re f
320 281.598 25.602 -12.797 re f
Q Q
showpage
%%Trailer
end restore
%%EOF
