%!PS-Adobe-3.0 EPSF-3.0
%%Creator: cairo 1.14.2 (http://cairographics.org)
%%CreationDate: Tue Apr  3 10:37:02 2018
%%Pages: 1
%%DocumentData: Clean7Bit
%%LanguageLevel: 2
%%BoundingBox: 0 3 384 381
%%EndComments
%%BeginProlog
save
50 dict begin
/q { gsave } bind def
/Q { grestore } bind def
/cm { 6 array astore concat } bind def
/w { setlinewidth } bind def
/J { setlinecap } bind def
/j { setlinejoin } bind def
/M { setmiterlimit } bind def
/d { setdash } bind def
/m { moveto } bind def
/l { lineto } bind def
/c { curveto } bind def
/h { closepath } bind def
/re { exch dup neg 3 1 roll 5 3 roll moveto 0 rlineto
      0 exch rlineto 0 rlineto closepath } bind def
/S { stroke } bind def
/f { fill } bind def
/f* { eofill } bind def
/n { newpath } bind def
/W { clip } bind def
/W* { eoclip } bind def
/BT { } bind def
/ET { } bind def
/pdfmark where { pop globaldict /?pdfmark /exec load put }
    { globaldict begin /?pdfmark /pop load def /pdfmark
    /cleartomark load def end } ifelse
/BDC { mark 3 1 roll /BDC pdfmark } bind def
/EMC { mark /EMC pdfmark } bind def
/cairo_store_point { /cairo_point_y exch def /cairo_point_x exch def } def
/Tj { show currentpoint cairo_store_point } bind def
/TJ {
  {
    dup
    type /stringtype eq
    { show } { -0.001 mul 0 cairo_font_matrix dtransform rmoveto } ifelse
  } forall
  currentpoint cairo_store_point
} bind def
/cairo_selectfont { cairo_font_matrix aload pop pop pop 0 0 6 array astore
    cairo_font exch selectfont cairo_point_x cairo_point_y moveto } bind def
/Tf { pop /cairo_font exch def /cairo_font_matrix where
      { pop cairo_selectfont } if } bind def
/Td { matrix translate cairo_font_matrix matrix concatmatrix dup
      /cairo_font_matrix exch def dup 4 get exch 5 get cairo_store_point
      /cairo_font where { pop cairo_selectfont } if } bind def
/Tm { 2 copy 8 2 roll 6 array astore /cairo_font_matrix exch def
      cairo_store_point /cairo_font where { pop cairo_selectfont } if } bind def
/g { setgray } bind def
/rg { setrgbcolor } bind def
/d1 { setcachedevice } bind def
%%EndProlog
%%BeginSetup
%%EndSetup
%%Page: 1 1
%%BeginPageSetup
%%PageBoundingBox: 0 3 384 381
%%EndPageSetup
q 0 3 384 378 rectclip q
0 g
140.801 380.801 m 63.039 380.801 0 317.762 0 240 c 0 9.602 l 0 6.066 2.867
 3.199 6.398 3.199 c 115.199 3.199 l 118.734 3.199 121.602 6.066 121.602
 9.602 c 121.602 41.602 l 198.398 41.602 l 223.129 41.629 243.172 61.668
 243.199 86.398 c 243.199 156.801 l 275.199 156.801 l 278.734 156.801 281.602
 159.664 281.602 163.199 c 281.602 240 l 281.602 317.762 218.562 380.801
 140.801 380.801 c h
268.801 169.602 m 236.801 169.602 l 233.266 169.602 230.398 166.734 230.398
 163.199 c 230.398 86.398 l 230.379 68.734 216.062 54.422 198.398 54.398
 c 115.199 54.398 l 111.664 54.398 108.801 51.535 108.801 48 c 108.801 16
 l 12.801 16 l 12.801 240 l 12.801 310.691 70.105 368 140.801 368 c 211.492
 368 268.801 310.691 268.801 240 c h
268.801 169.602 m f
179.199 151.809 m 179.199 172.98 l 195.461 186.277 204.867 206.195 204.801
 227.199 c 204.801 266.082 173.281 297.602 134.398 297.602 c 95.52 297.602
 64 266.082 64 227.199 c 63.934 206.195 73.34 186.277 89.602 172.98 c 89.602
 151.809 l 81.746 144.812 81.047 132.773 88.043 124.918 c 90.531 122.121
 93.789 120.125 97.406 119.168 c 93.414 109.383 98.109 98.215 107.895 94.219
 c 110.211 93.273 112.695 92.789 115.199 92.801 c 153.602 92.801 l 164.168
 92.766 172.766 101.301 172.801 111.871 c 172.809 114.363 172.332 116.832
 171.391 119.141 c 181.566 121.812 187.648 132.227 184.977 142.402 c 184.023
 146.039 182.012 149.312 179.199 151.809 c h
153.602 105.602 m 115.199 105.602 l 111.664 105.602 108.801 108.465 108.801
 112 c 108.801 115.535 111.664 118.398 115.199 118.398 c 153.602 118.398
 l 157.133 118.398 160 115.535 160 112 c 160 108.465 157.133 105.602 153.602
 105.602 c h
166.398 131.199 m 102.398 131.199 l 98.867 131.199 96 134.066 96 137.602
 c 96 141.133 98.867 144 102.398 144 c 166.398 144 l 169.934 144 172.801
 141.133 172.801 137.602 c 172.801 134.066 169.934 131.199 166.398 131.199
 c h
168.961 181.195 m 167.348 179.988 166.398 178.09 166.398 176.078 c 166.398
 156.801 l 102.398 156.801 l 102.398 176.09 l 102.395 178.098 101.449 179.992
 99.84 181.195 c 74.391 200.285 69.234 236.387 88.32 261.836 c 107.406 287.285
 143.512 292.445 168.961 273.355 c 194.41 254.27 199.566 218.168 180.48 
192.719 c 177.207 188.352 173.328 184.473 168.961 181.195 c h
168.961 181.195 m f
134.398 336 m 130.867 336 128 333.133 128 329.602 c 128 316.801 l 128 313.266
 130.867 310.398 134.398 310.398 c 137.934 310.398 140.801 313.266 140.801
 316.801 c 140.801 329.602 l 140.801 333.133 137.934 336 134.398 336 c h
134.398 336 m f
86.91 303.449 m 79.359 313.805 l 77.281 316.664 73.277 317.297 70.418 315.219
 c 67.559 313.141 66.926 309.137 69.004 306.277 c 76.559 295.922 l 78.637
 293.062 82.637 292.43 85.496 294.508 c 88.355 296.586 88.992 300.59 86.91
 303.449 c h
86.91 303.449 m f
51.16 260.992 m 51.16 260.973 l 39 264.934 l 35.594 265.875 32.07 263.875
 31.129 260.469 c 30.246 257.277 31.945 253.938 35.047 252.773 c 47.207 
248.82 l 47.844 248.613 48.512 248.508 49.184 248.504 c 52.719 248.508 55.582
 251.371 55.582 254.906 c 55.582 257.68 53.797 260.137 51.16 260.992 c h
51.16 260.992 m f
197.879 315.129 m 195.137 316.902 191.504 316.332 189.441 313.805 c 181.887
 303.449 l 179.809 300.59 180.441 296.59 183.301 294.508 c 184.395 293.715
 185.707 293.289 187.059 293.285 c 189.109 293.285 191.039 294.266 192.242
 295.922 c 199.77 306.277 l 201.691 309.246 200.844 313.207 197.879 315.129
 c h
197.879 315.129 m f
237.492 260.996 m 236.328 264.098 232.992 265.797 229.797 264.914 c 217.637
 260.953 l 214.277 259.859 212.438 256.25 213.531 252.887 c 214.387 250.254
 216.844 248.469 219.617 248.469 c 219.617 248.488 l 220.289 248.488 220.953
 248.594 221.594 248.801 c 233.754 252.754 l 237.062 254 238.738 257.688
 237.492 260.996 c h
237.492 260.996 m f
377.602 323.199 m 358.398 323.199 l 358.398 342.398 l 358.398 345.934 355.535
 348.801 352 348.801 c 326.398 348.801 l 322.867 348.801 320 345.934 320
 342.398 c 320 323.199 l 300.801 323.199 l 297.266 323.199 294.398 320.336
 294.398 316.801 c 294.398 291.199 l 294.398 287.664 297.266 284.801 300.801
 284.801 c 320 284.801 l 320 265.602 l 320 262.066 322.867 259.199 326.398
 259.199 c 352 259.199 l 355.535 259.199 358.398 262.066 358.398 265.602
 c 358.398 284.801 l 377.602 284.801 l 381.133 284.801 384 287.664 384 291.199
 c 384 316.801 l 384 320.336 381.133 323.199 377.602 323.199 c h
371.199 297.602 m 352 297.602 l 348.465 297.602 345.602 294.734 345.602
 291.199 c 345.602 272 l 332.801 272 l 332.801 291.199 l 332.801 294.734
 329.934 297.602 326.398 297.602 c 307.199 297.602 l 307.199 310.398 l 326.398
 310.398 l 329.934 310.398 332.801 313.266 332.801 316.801 c 332.801 336
 l 345.602 336 l 345.602 316.801 l 345.602 313.266 348.465 310.398 352 310.398
 c 371.199 310.398 l h
371.199 297.602 m f
377.602 208 m 358.398 208 l 358.398 227.199 l 358.398 230.734 355.535 233.602
 352 233.602 c 326.398 233.602 l 322.867 233.602 320 230.734 320 227.199
 c 320 208 l 300.801 208 l 297.266 208 294.398 205.133 294.398 201.602 c
 294.398 176 l 294.398 172.465 297.266 169.602 300.801 169.602 c 320 169.602
 l 320 150.398 l 320 146.867 322.867 144 326.398 144 c 352 144 l 355.535
 144 358.398 146.867 358.398 150.398 c 358.398 169.602 l 377.602 169.602
 l 381.133 169.602 384 172.465 384 176 c 384 201.602 l 384 205.133 381.133
 208 377.602 208 c h
371.199 182.398 m 352 182.398 l 348.465 182.398 345.602 179.535 345.602
 176 c 345.602 156.801 l 332.801 156.801 l 332.801 176 l 332.801 179.535
 329.934 182.398 326.398 182.398 c 307.199 182.398 l 307.199 195.199 l 326.398
 195.199 l 329.934 195.199 332.801 198.066 332.801 201.602 c 332.801 220.801
 l 345.602 220.801 l 345.602 201.602 l 345.602 198.066 348.465 195.199 352
 195.199 c 371.199 195.199 l h
371.199 182.398 m f
377.602 92.801 m 358.398 92.801 l 358.398 112 l 358.398 115.535 355.535
 118.398 352 118.398 c 326.398 118.398 l 322.867 118.398 320 115.535 320
 112 c 320 92.801 l 300.801 92.801 l 297.266 92.801 294.398 89.934 294.398
 86.398 c 294.398 60.801 l 294.398 57.266 297.266 54.398 300.801 54.398 
c 320 54.398 l 320 35.199 l 320 31.664 322.867 28.801 326.398 28.801 c 352
 28.801 l 355.535 28.801 358.398 31.664 358.398 35.199 c 358.398 54.398 
l 377.602 54.398 l 381.133 54.398 384 57.266 384 60.801 c 384 86.398 l 384
 89.934 381.133 92.801 377.602 92.801 c h
371.199 67.199 m 352 67.199 l 348.465 67.199 345.602 64.336 345.602 60.801
 c 345.602 41.602 l 332.801 41.602 l 332.801 60.801 l 332.801 64.336 329.934
 67.199 326.398 67.199 c 307.199 67.199 l 307.199 80 l 326.398 80 l 329.934
 80 332.801 82.867 332.801 86.398 c 332.801 105.602 l 345.602 105.602 l 
345.602 86.398 l 345.602 82.867 348.465 80 352 80 c 371.199 80 l h
371.199 67.199 m f
Q Q
showpage
%%Trailer
end restore
%%EOF
