%!PS-Adobe-3.0 EPSF-3.0
%%Creator: cairo 1.14.2 (http://cairographics.org)
%%CreationDate: Tue Apr  3 10:37:02 2018
%%Pages: 1
%%DocumentData: Clean7Bit
%%LanguageLevel: 2
%%BoundingBox: 32 -1 352 384
%%EndComments
%%BeginProlog
save
50 dict begin
/q { gsave } bind def
/Q { grestore } bind def
/cm { 6 array astore concat } bind def
/w { setlinewidth } bind def
/J { setlinecap } bind def
/j { setlinejoin } bind def
/M { setmiterlimit } bind def
/d { setdash } bind def
/m { moveto } bind def
/l { lineto } bind def
/c { curveto } bind def
/h { closepath } bind def
/re { exch dup neg 3 1 roll 5 3 roll moveto 0 rlineto
      0 exch rlineto 0 rlineto closepath } bind def
/S { stroke } bind def
/f { fill } bind def
/f* { eofill } bind def
/n { newpath } bind def
/W { clip } bind def
/W* { eoclip } bind def
/BT { } bind def
/ET { } bind def
/pdfmark where { pop globaldict /?pdfmark /exec load put }
    { globaldict begin /?pdfmark /pop load def /pdfmark
    /cleartomark load def end } ifelse
/BDC { mark 3 1 roll /BDC pdfmark } bind def
/EMC { mark /EMC pdfmark } bind def
/cairo_store_point { /cairo_point_y exch def /cairo_point_x exch def } def
/Tj { show currentpoint cairo_store_point } bind def
/TJ {
  {
    dup
    type /stringtype eq
    { show } { -0.001 mul 0 cairo_font_matrix dtransform rmoveto } ifelse
  } forall
  currentpoint cairo_store_point
} bind def
/cairo_selectfont { cairo_font_matrix aload pop pop pop 0 0 6 array astore
    cairo_font exch selectfont cairo_point_x cairo_point_y moveto } bind def
/Tf { pop /cairo_font exch def /cairo_font_matrix where
      { pop cairo_selectfont } if } bind def
/Td { matrix translate cairo_font_matrix matrix concatmatrix dup
      /cairo_font_matrix exch def dup 4 get exch 5 get cairo_store_point
      /cairo_font where { pop cairo_selectfont } if } bind def
/Tm { 2 copy 8 2 roll 6 array astore /cairo_font_matrix exch def
      cairo_store_point /cairo_font where { pop cairo_selectfont } if } bind def
/g { setgray } bind def
/rg { setrgbcolor } bind def
/d1 { setcachedevice } bind def
%%EndProlog
%%BeginSetup
%%EndSetup
%%Page: 1 1
%%BeginPageSetup
%%PageBoundingBox: 32 -1 352 384
%%EndPageSetup
q 32 -1 320 385 rectclip q
0 g
192 147.202 m 174.328 147.202 160 132.873 160 115.202 c 160.02 97.537 174.336
 83.221 192 83.202 c 209.672 83.202 224 97.526 224 115.202 c 224 132.873
 209.672 147.202 192 147.202 c h
192 95.998 m 181.395 95.998 172.801 104.596 172.801 115.202 c 172.801 125.803
 181.395 134.401 192 134.401 c 202.602 134.401 211.199 125.803 211.199 115.202
 c 211.199 104.596 202.602 95.998 192 95.998 c h
192 95.998 m f
299.715 115.19 m 297.004 122.87 289.742 128.002 281.598 127.998 c 268.801
 127.998 l 258.195 127.998 249.598 119.405 249.598 108.799 c 249.598 83.202
 l 249.598 79.666 246.734 76.799 243.199 76.799 c 140.801 76.799 l 137.266
 76.799 134.398 79.666 134.398 83.202 c 134.398 108.799 l 134.398 119.405
 125.805 127.998 115.199 127.998 c 102.398 127.998 l 91.797 127.998 83.199
 119.405 83.199 108.799 c 83.203 100.666 88.332 93.42 96 90.705 c 96 83.202
 l 96.031 58.471 116.07 38.432 140.801 38.401 c 147.199 38.401 l 147.199
 6.401 l 147.199 2.866 150.066 -0.002 153.598 -0.002 c 230.398 -0.002 l 
233.934 -0.002 236.801 2.866 236.801 6.401 c 236.801 38.401 l 243.199 38.401
 l 267.93 38.432 287.969 58.471 288 83.202 c 288 90.694 l 298 94.225 303.242
 105.19 299.715 115.19 c h
281.598 102.401 m 278.066 102.401 275.199 99.534 275.199 95.998 c 275.199
 83.202 l 275.18 65.537 260.863 51.221 243.199 51.202 c 230.398 51.202 l
 226.863 51.202 224 48.334 224 44.799 c 224 12.799 l 160 12.799 l 160 44.799
 l 160 48.334 157.133 51.202 153.598 51.202 c 140.801 51.202 l 123.137 51.221
 108.82 65.537 108.801 83.202 c 108.801 95.998 l 108.801 99.534 105.934 
102.401 102.398 102.401 c 98.863 102.401 96 105.264 96 108.799 c 96 112.334
 98.863 115.202 102.398 115.202 c 115.199 115.202 l 118.734 115.202 121.598
 112.334 121.598 108.799 c 121.598 83.202 l 121.598 72.596 130.195 63.998
 140.801 63.998 c 243.199 63.998 l 253.805 63.998 262.398 72.596 262.398
 83.202 c 262.398 108.799 l 262.398 112.334 265.266 115.202 268.801 115.202
 c 281.598 115.202 l 285.133 115.202 288 112.334 288 108.799 c 288 105.264
 285.133 102.401 281.598 102.401 c h
281.598 102.401 m f
204.801 223.998 m 185.598 223.998 l 174.996 223.998 166.398 215.405 166.398
 204.799 c 179.199 204.799 l 179.199 208.334 182.066 211.202 185.598 211.202
 c 204.801 211.202 l 208.332 211.202 211.199 208.334 211.199 204.799 c 211.199
 201.264 208.332 198.401 204.801 198.401 c 194.195 198.401 185.598 189.803
 185.598 179.202 c 198.398 179.202 l 198.398 182.733 201.266 185.6 204.801
 185.6 c 215.402 185.6 224 194.198 224 204.799 c 224 215.405 215.402 223.998
 204.801 223.998 c h
204.801 223.998 m f
185.598 172.799 12.801 -12.801 re f
128 326.401 m 76.801 326.401 l 76.801 339.202 l 76.801 341.787 75.242 344.123
 72.852 345.112 c 70.457 346.104 67.703 345.557 65.875 343.725 c 33.875 
311.725 l 31.375 309.225 31.375 305.174 33.875 302.674 c 65.875 270.674 
l 68.375 268.174 72.426 268.178 74.926 270.678 c 76.125 271.877 76.801 273.502
 76.801 275.202 c 76.801 287.998 l 121.598 287.998 l 121.598 243.202 l 121.598
 239.666 124.465 236.799 128 236.799 c 153.598 236.799 l 157.133 236.799
 160 239.666 160 243.202 c 160 294.401 l 159.977 312.065 145.664 326.377
 128 326.401 c h
147.199 249.6 m 134.398 249.6 l 134.398 287.998 l 134.398 295.069 128.668
 300.799 121.598 300.799 c 70.398 300.799 l 66.863 300.799 64 297.936 64
 294.401 c 64 290.651 l 47.449 307.202 l 64 323.752 l 64 319.998 l 64 316.467
 66.863 313.6 70.398 313.6 c 128 313.6 l 138.602 313.6 147.199 305.002 147.199
 294.401 c h
147.199 249.6 m f
350.125 311.725 m 318.125 343.725 l 315.625 346.225 311.57 346.225 309.074
 343.725 c 307.875 342.522 307.199 340.897 307.199 339.202 c 307.199 326.401
 l 256 326.401 l 238.336 326.377 224.02 312.065 224 294.401 c 224 243.202
 l 224 239.666 226.863 236.799 230.398 236.799 c 256 236.799 l 259.535 236.799
 262.398 239.666 262.398 243.202 c 262.398 287.998 l 307.199 287.998 l 307.199
 275.202 l 307.199 272.612 308.758 270.276 311.148 269.287 c 313.539 268.295
 316.293 268.842 318.125 270.674 c 350.125 302.674 l 352.621 305.174 352.621
 309.225 350.125 311.725 c h
320 290.651 m 320 294.401 l 320 297.936 317.133 300.799 313.598 300.799
 c 262.398 300.799 l 255.328 300.799 249.598 295.069 249.598 287.998 c 249.598
 249.6 l 236.801 249.6 l 236.801 294.401 l 236.801 305.002 245.395 313.6
 256 313.6 c 313.598 313.6 l 317.133 313.6 320 316.467 320 319.998 c 320
 323.752 l 336.551 307.202 l h
320 290.651 m f
228.523 350.123 m 196.523 382.123 l 194.023 384.623 189.973 384.623 187.473
 382.123 c 155.473 350.123 l 152.977 347.623 152.977 343.573 155.477 341.073
 c 156.676 339.873 158.305 339.202 160 339.202 c 172.801 339.202 l 172.801
 243.202 l 172.801 239.666 175.664 236.799 179.199 236.799 c 204.801 236.799
 l 208.332 236.799 211.199 239.666 211.199 243.202 c 211.199 339.202 l 224
 339.202 l 227.535 339.202 230.398 342.065 230.398 345.6 c 230.398 347.299
 229.723 348.924 228.523 350.123 c h
204.801 351.998 m 201.266 351.998 198.398 349.135 198.398 345.6 c 198.398
 249.6 l 185.598 249.6 l 185.598 345.6 l 185.598 349.135 182.734 351.998
 179.199 351.998 c 175.449 351.998 l 192 368.549 l 208.551 351.998 l h
204.801 351.998 m f
Q Q
showpage
%%Trailer
end restore
%%EOF
