%!PS-Adobe-3.0 EPSF-3.0
%%Creator: cairo 1.14.2 (http://cairographics.org)
%%CreationDate: Tue Apr  3 10:37:02 2018
%%Pages: 1
%%DocumentData: Clean7Bit
%%LanguageLevel: 2
%%BoundingBox: 0 -1 385 385
%%EndComments
%%BeginProlog
save
50 dict begin
/q { gsave } bind def
/Q { grestore } bind def
/cm { 6 array astore concat } bind def
/w { setlinewidth } bind def
/J { setlinecap } bind def
/j { setlinejoin } bind def
/M { setmiterlimit } bind def
/d { setdash } bind def
/m { moveto } bind def
/l { lineto } bind def
/c { curveto } bind def
/h { closepath } bind def
/re { exch dup neg 3 1 roll 5 3 roll moveto 0 rlineto
      0 exch rlineto 0 rlineto closepath } bind def
/S { stroke } bind def
/f { fill } bind def
/f* { eofill } bind def
/n { newpath } bind def
/W { clip } bind def
/W* { eoclip } bind def
/BT { } bind def
/ET { } bind def
/pdfmark where { pop globaldict /?pdfmark /exec load put }
    { globaldict begin /?pdfmark /pop load def /pdfmark
    /cleartomark load def end } ifelse
/BDC { mark 3 1 roll /BDC pdfmark } bind def
/EMC { mark /EMC pdfmark } bind def
/cairo_store_point { /cairo_point_y exch def /cairo_point_x exch def } def
/Tj { show currentpoint cairo_store_point } bind def
/TJ {
  {
    dup
    type /stringtype eq
    { show } { -0.001 mul 0 cairo_font_matrix dtransform rmoveto } ifelse
  } forall
  currentpoint cairo_store_point
} bind def
/cairo_selectfont { cairo_font_matrix aload pop pop pop 0 0 6 array astore
    cairo_font exch selectfont cairo_point_x cairo_point_y moveto } bind def
/Tf { pop /cairo_font exch def /cairo_font_matrix where
      { pop cairo_selectfont } if } bind def
/Td { matrix translate cairo_font_matrix matrix concatmatrix dup
      /cairo_font_matrix exch def dup 4 get exch 5 get cairo_store_point
      /cairo_font where { pop cairo_selectfont } if } bind def
/Tm { 2 copy 8 2 roll 6 array astore /cairo_font_matrix exch def
      cairo_store_point /cairo_font where { pop cairo_selectfont } if } bind def
/g { setgray } bind def
/rg { setrgbcolor } bind def
/d1 { setcachedevice } bind def
%%EndProlog
%%BeginSetup
%%EndSetup
%%Page: 1 1
%%BeginPageSetup
%%PageBoundingBox: 0 -1 385 385
%%EndPageSetup
q 0 -1 385 386 rectclip q
0 g
383.934 279.662 m 381.887 292.01 371.199 301.061 358.68 301.045 c 347.895
 301.01 338.289 294.213 334.676 284.053 c 256.133 291.193 l 255.82 295.412
 254.805 299.545 253.133 303.432 c 309.453 339.857 l 319.887 330.393 336.02
 331.182 345.488 341.615 c 354.953 352.053 354.164 368.186 343.73 377.65
 c 333.293 387.115 317.16 386.33 307.695 375.893 c 303.414 371.174 301.055
 365.018 301.082 358.643 c 301.113 355.908 301.594 353.197 302.496 350.619
 c 246.176 314.139 l 231.906 329.768 207.672 330.869 192.043 316.604 c 187.973
 312.885 184.75 308.334 182.598 303.256 c 114.996 319.522 l 118.965 351.084
 96.602 379.889 65.039 383.861 c 33.473 387.834 4.668 365.467 0.695 333.904
 c -3.277 302.342 19.09 273.537 50.652 269.564 c 52.391 269.346 54.133 269.205
 55.883 269.147 c 61.402 197.467 l 40.84 192.361 28.312 171.561 33.414 150.998
 c 36.039 140.432 43.027 131.479 52.645 126.369 c 27.609 51.272 l 27.027
 51.311 26.477 51.443 25.879 51.443 c 11.676 51.51 0.105 40.049 0.039 25.842
 c -0.027 11.639 11.434 0.068 25.637 0.002 c 39.844 -0.068 51.414 11.397
 51.48 25.6 c 51.523 34.35 47.113 42.522 39.773 47.291 c 64.793 122.342 
l 68.691 121.678 72.672 121.678 76.57 122.342 c 101.594 47.291 l 89.789 
39.58 86.465 23.76 94.176 11.955 c 101.883 0.15 117.703 -3.17 129.508 4.537
 c 141.316 12.248 144.637 28.064 136.926 39.873 c 132.199 47.111 124.129
 51.467 115.48 51.443 c 114.887 51.443 114.336 51.311 113.754 51.272 c 88.715
 126.361 l 107.422 136.357 114.477 159.623 104.48 178.33 c 98.398 189.709
 87.004 197.275 74.156 198.463 c 68.652 270.088 l 88.598 273.932 105.059
 287.982 111.988 307.08 c 179.613 290.85 l 179.551 289.982 179.48 289.119
 179.48 288.244 c 179.578 267.037 196.848 249.924 218.055 250.018 c 235.355
 250.1 250.469 261.736 254.961 278.443 c 333.496 271.303 l 335.805 257.377
 348.965 247.955 362.895 250.264 c 376.82 252.572 386.238 265.732 383.934
 279.662 c h
326.68 371.443 m 333.75 371.443 339.48 365.713 339.48 358.643 c 339.48 
351.572 333.75 345.842 326.68 345.842 c 319.609 345.842 313.879 351.572 
313.879 358.643 c 313.879 365.713 319.609 371.443 326.68 371.443 c h
25.879 13.045 m 18.812 13.045 13.082 18.775 13.082 25.842 c 13.082 32.912
 18.812 38.643 25.879 38.643 c 32.949 38.643 38.68 32.912 38.68 25.842 c
 38.68 18.775 32.949 13.045 25.879 13.045 c h
115.48 38.643 m 122.551 38.643 128.281 32.912 128.281 25.842 c 128.281 
18.775 122.551 13.045 115.48 13.045 c 108.41 13.045 102.68 18.775 102.68
 25.842 c 102.68 32.912 108.41 38.643 115.48 38.643 c h
70.68 185.842 m 84.82 185.842 96.281 174.381 96.281 160.244 c 96.281 146.104
 84.82 134.643 70.68 134.643 c 56.543 134.643 45.082 146.104 45.082 160.244
 c 45.082 174.381 56.543 185.842 70.68 185.842 c h
57.879 281.842 m 33.137 281.842 13.082 301.9 13.082 326.643 c 13.082 351.385
 33.137 371.443 57.879 371.443 c 82.625 371.443 102.68 351.385 102.68 326.643
 c 102.652 301.912 82.609 281.873 57.879 281.842 c h
217.879 262.643 m 203.742 262.643 192.281 274.104 192.281 288.244 c 192.281
 302.381 203.742 313.842 217.879 313.842 c 232.02 313.842 243.48 302.381
 243.48 288.244 c 243.48 274.104 232.02 262.643 217.879 262.643 c h
358.68 262.643 m 351.609 262.643 345.879 268.373 345.879 275.443 c 345.879
 282.514 351.609 288.244 358.68 288.244 c 365.75 288.244 371.48 282.514 
371.48 275.443 c 371.48 268.373 365.75 262.643 358.68 262.643 c h
358.68 262.643 m f
334.898 114.854 m 332.176 115.248 329.43 115.443 326.68 115.443 c 302.855
 115.404 281.508 100.713 272.965 78.471 c 217.707 92.885 l 217.809 93.998
 217.879 95.111 217.879 96.244 c 217.887 105.225 214.73 113.92 208.965 120.807
 c 245.082 162.939 l 248.559 161.189 252.391 160.268 256.281 160.244 c 270.488
 160.178 282.055 171.639 282.121 185.846 c 282.188 200.049 270.727 211.619
 256.52 211.686 c 242.316 211.752 230.746 200.291 230.68 186.084 c 230.656
 180.772 232.277 175.58 235.32 171.225 c 199.23 129.115 l 193.277 132.729
 186.445 134.639 179.48 134.643 c 178.84 134.643 178.199 134.58 177.562 
134.549 c 165.508 188.748 l 178.039 195.197 182.969 210.584 176.52 223.115
 c 170.07 235.647 154.684 240.576 142.156 234.123 c 129.625 227.674 124.695
 212.291 131.145 199.76 c 135.387 191.518 143.762 186.225 153.023 185.932
 c 165.055 131.795 l 145.395 123.842 135.902 101.459 143.855 81.799 c 151.809
 62.139 174.191 52.647 193.852 60.6 c 203.047 64.318 210.449 71.451 214.5
 80.506 c 269.719 66.088 l 265.188 34.619 287.023 5.439 318.488 0.908 c 
349.953 -3.623 379.137 18.213 383.668 49.678 c 388.199 81.143 366.367 110.322
 334.898 114.854 c h
256.281 198.643 m 263.352 198.643 269.082 192.912 269.082 185.842 c 269.082
 178.775 263.352 173.045 256.281 173.045 c 249.211 173.045 243.48 178.775
 243.48 185.842 c 243.48 192.912 249.211 198.643 256.281 198.643 c h
153.879 198.643 m 146.812 198.643 141.082 204.373 141.082 211.443 c 141.082
 218.514 146.812 224.244 153.879 224.244 c 160.949 224.244 166.68 218.514
 166.68 211.443 c 166.68 204.373 160.949 198.643 153.879 198.643 c h
179.48 70.643 m 165.344 70.643 153.879 82.104 153.879 96.244 c 153.879 
110.381 165.344 121.842 179.48 121.842 c 193.621 121.842 205.082 110.381
 205.082 96.244 c 205.082 82.104 193.621 70.643 179.48 70.643 c h
326.68 13.045 m 301.938 13.045 281.879 33.1 281.879 57.842 c 281.879 82.584
 301.938 102.643 326.68 102.643 c 351.422 102.643 371.48 82.584 371.48 57.842
 c 371.453 33.111 351.41 13.072 326.68 13.045 c h
326.68 13.045 m f
Q Q
showpage
%%Trailer
end restore
%%EOF
