%!PS-Adobe-3.0 EPSF-3.0
%%Creator: cairo 1.14.2 (http://cairographics.org)
%%CreationDate: Tue Apr  3 10:37:02 2018
%%Pages: 1
%%DocumentData: Clean7Bit
%%LanguageLevel: 2
%%BoundingBox: 0 0 384 384
%%EndComments
%%BeginProlog
save
50 dict begin
/q { gsave } bind def
/Q { grestore } bind def
/cm { 6 array astore concat } bind def
/w { setlinewidth } bind def
/J { setlinecap } bind def
/j { setlinejoin } bind def
/M { setmiterlimit } bind def
/d { setdash } bind def
/m { moveto } bind def
/l { lineto } bind def
/c { curveto } bind def
/h { closepath } bind def
/re { exch dup neg 3 1 roll 5 3 roll moveto 0 rlineto
      0 exch rlineto 0 rlineto closepath } bind def
/S { stroke } bind def
/f { fill } bind def
/f* { eofill } bind def
/n { newpath } bind def
/W { clip } bind def
/W* { eoclip } bind def
/BT { } bind def
/ET { } bind def
/pdfmark where { pop globaldict /?pdfmark /exec load put }
    { globaldict begin /?pdfmark /pop load def /pdfmark
    /cleartomark load def end } ifelse
/BDC { mark 3 1 roll /BDC pdfmark } bind def
/EMC { mark /EMC pdfmark } bind def
/cairo_store_point { /cairo_point_y exch def /cairo_point_x exch def } def
/Tj { show currentpoint cairo_store_point } bind def
/TJ {
  {
    dup
    type /stringtype eq
    { show } { -0.001 mul 0 cairo_font_matrix dtransform rmoveto } ifelse
  } forall
  currentpoint cairo_store_point
} bind def
/cairo_selectfont { cairo_font_matrix aload pop pop pop 0 0 6 array astore
    cairo_font exch selectfont cairo_point_x cairo_point_y moveto } bind def
/Tf { pop /cairo_font exch def /cairo_font_matrix where
      { pop cairo_selectfont } if } bind def
/Td { matrix translate cairo_font_matrix matrix concatmatrix dup
      /cairo_font_matrix exch def dup 4 get exch 5 get cairo_store_point
      /cairo_font where { pop cairo_selectfont } if } bind def
/Tm { 2 copy 8 2 roll 6 array astore /cairo_font_matrix exch def
      cairo_store_point /cairo_font where { pop cairo_selectfont } if } bind def
/g { setgray } bind def
/rg { setrgbcolor } bind def
/d1 { setcachedevice } bind def
%%EndProlog
%%BeginSetup
%%EndSetup
%%Page: 1 1
%%BeginPageSetup
%%PageBoundingBox: 0 0 384 384
%%EndPageSetup
q 0 0 384 384 rectclip q
0 g
51.199 134.398 m 37.062 134.398 25.602 122.938 25.602 108.801 c 25.602 
94.66 37.062 83.199 51.199 83.199 c 65.34 83.199 76.801 94.66 76.801 108.801
 c 76.801 122.938 65.34 134.398 51.199 134.398 c h
51.199 96 m 44.129 96 38.398 101.73 38.398 108.801 c 38.398 115.871 44.129
 121.602 51.199 121.602 c 58.27 121.602 64 115.871 64 108.801 c 64 101.73
 58.27 96 51.199 96 c h
51.199 96 m f
192 134.398 m 177.863 134.398 166.398 122.938 166.398 108.801 c 166.398
 94.66 177.863 83.199 192 83.199 c 206.137 83.199 217.602 94.66 217.602 
108.801 c 217.602 122.938 206.137 134.398 192 134.398 c h
192 96 m 184.93 96 179.199 101.73 179.199 108.801 c 179.199 115.871 184.93
 121.602 192 121.602 c 199.07 121.602 204.801 115.871 204.801 108.801 c 
204.801 101.73 199.07 96 192 96 c h
192 96 m f
332.801 134.398 m 318.66 134.398 307.199 122.938 307.199 108.801 c 307.199
 94.66 318.66 83.199 332.801 83.199 c 346.938 83.199 358.398 94.66 358.398
 108.801 c 358.398 122.938 346.938 134.398 332.801 134.398 c h
332.801 96 m 325.73 96 320 101.73 320 108.801 c 320 115.871 325.73 121.602
 332.801 121.602 c 339.871 121.602 345.602 115.871 345.602 108.801 c 345.602
 101.73 339.871 96 332.801 96 c h
332.801 96 m f
51.199 76.801 m 22.922 76.801 0 53.875 0 25.602 c 0 6.398 l 0 2.867 2.867
 0 6.398 0 c 96 0 l 99.535 0 102.398 2.867 102.398 6.398 c 102.398 25.602
 l 102.398 53.875 79.477 76.801 51.199 76.801 c h
89.602 12.801 m 12.801 12.801 l 12.801 25.602 l 12.801 46.809 29.992 64
 51.199 64 c 72.406 64 89.602 46.809 89.602 25.602 c h
89.602 12.801 m f
192 76.801 m 163.723 76.801 140.801 53.875 140.801 25.602 c 140.801 6.398
 l 140.801 2.867 143.664 0 147.199 0 c 236.801 0 l 240.336 0 243.199 2.867
 243.199 6.398 c 243.199 25.602 l 243.199 53.875 220.277 76.801 192 76.801
 c h
230.398 12.801 m 153.602 12.801 l 153.602 25.602 l 153.602 46.809 170.793
 64 192 64 c 213.207 64 230.398 46.809 230.398 25.602 c h
230.398 12.801 m f
332.801 76.801 m 304.535 76.77 281.633 53.863 281.602 25.602 c 281.602 
6.398 l 281.602 2.867 284.465 0 288 0 c 377.602 0 l 381.133 0 384 2.867 
384 6.398 c 384 25.602 l 383.969 53.863 361.062 76.77 332.801 76.801 c h
371.199 12.801 m 294.398 12.801 l 294.398 25.602 l 294.398 46.809 311.594
 64 332.801 64 c 354.008 64 371.199 46.809 371.199 25.602 c h
371.199 12.801 m f
192 281.602 m 177.863 281.602 166.398 270.137 166.398 256 c 166.398 241.863
 177.863 230.398 192 230.398 c 206.137 230.398 217.602 241.863 217.602 256
 c 217.602 270.137 206.137 281.602 192 281.602 c h
192 243.199 m 184.93 243.199 179.199 248.93 179.199 256 c 179.199 263.07
 184.93 268.801 192 268.801 c 199.07 268.801 204.801 263.07 204.801 256 
c 204.801 248.93 199.07 243.199 192 243.199 c h
192 243.199 m f
192 224 m 163.723 224 140.801 201.078 140.801 172.801 c 140.801 153.602
 l 140.801 150.066 143.664 147.199 147.199 147.199 c 236.801 147.199 l 240.336
 147.199 243.199 150.066 243.199 153.602 c 243.199 172.801 l 243.199 201.078
 220.277 224 192 224 c h
230.398 160 m 153.602 160 l 153.602 172.801 l 153.602 194.008 170.793 211.199
 192 211.199 c 213.207 211.199 230.398 194.008 230.398 172.801 c h
230.398 160 m f
326.398 384 m 57.602 384 l 54.066 384 51.199 381.133 51.199 377.602 c 51.199
 300.801 l 51.199 297.266 54.066 294.398 57.602 294.398 c 326.398 294.398
 l 329.934 294.398 332.801 297.266 332.801 300.801 c 332.801 377.602 l 332.801
 381.133 329.934 384 326.398 384 c h
320 307.199 m 64 307.199 l 64 371.199 l 320 371.199 l h
320 307.199 m f
230 354.473 m 228.656 357.742 224.914 359.301 221.645 357.953 c 221.59 
357.93 221.535 357.906 221.477 357.883 c 178.664 339.531 l 129.547 351.809
 l 128.191 352.152 126.762 352.035 125.477 351.48 c 80.68 332.281 l 77.41
 330.934 75.852 327.195 77.199 323.926 c 78.543 320.66 82.285 319.102 85.555
 320.445 c 85.609 320.469 85.664 320.492 85.723 320.52 c 128.535 338.867
 l 177.652 326.594 l 179.008 326.258 180.434 326.371 181.723 326.918 c 226.52
 346.117 l 229.789 347.465 231.348 351.207 230 354.473 c h
230 354.473 m f
243.199 358.398 38.402 -12.797 re f
294.398 358.398 12.801 -12.797 re f
243.199 332.801 12.801 -12.801 re f
268.801 332.801 38.398 -12.801 re f
Q Q
showpage
%%Trailer
end restore
%%EOF
