%!PS-Adobe-3.0 EPSF-3.0
%%Creator: cairo 1.14.2 (http://cairographics.org)
%%CreationDate: Tue Apr  3 10:37:02 2018
%%Pages: 1
%%DocumentData: Clean7Bit
%%LanguageLevel: 2
%%BoundingBox: 0 0 384 384
%%EndComments
%%BeginProlog
save
50 dict begin
/q { gsave } bind def
/Q { grestore } bind def
/cm { 6 array astore concat } bind def
/w { setlinewidth } bind def
/J { setlinecap } bind def
/j { setlinejoin } bind def
/M { setmiterlimit } bind def
/d { setdash } bind def
/m { moveto } bind def
/l { lineto } bind def
/c { curveto } bind def
/h { closepath } bind def
/re { exch dup neg 3 1 roll 5 3 roll moveto 0 rlineto
      0 exch rlineto 0 rlineto closepath } bind def
/S { stroke } bind def
/f { fill } bind def
/f* { eofill } bind def
/n { newpath } bind def
/W { clip } bind def
/W* { eoclip } bind def
/BT { } bind def
/ET { } bind def
/pdfmark where { pop globaldict /?pdfmark /exec load put }
    { globaldict begin /?pdfmark /pop load def /pdfmark
    /cleartomark load def end } ifelse
/BDC { mark 3 1 roll /BDC pdfmark } bind def
/EMC { mark /EMC pdfmark } bind def
/cairo_store_point { /cairo_point_y exch def /cairo_point_x exch def } def
/Tj { show currentpoint cairo_store_point } bind def
/TJ {
  {
    dup
    type /stringtype eq
    { show } { -0.001 mul 0 cairo_font_matrix dtransform rmoveto } ifelse
  } forall
  currentpoint cairo_store_point
} bind def
/cairo_selectfont { cairo_font_matrix aload pop pop pop 0 0 6 array astore
    cairo_font exch selectfont cairo_point_x cairo_point_y moveto } bind def
/Tf { pop /cairo_font exch def /cairo_font_matrix where
      { pop cairo_selectfont } if } bind def
/Td { matrix translate cairo_font_matrix matrix concatmatrix dup
      /cairo_font_matrix exch def dup 4 get exch 5 get cairo_store_point
      /cairo_font where { pop cairo_selectfont } if } bind def
/Tm { 2 copy 8 2 roll 6 array astore /cairo_font_matrix exch def
      cairo_store_point /cairo_font where { pop cairo_selectfont } if } bind def
/g { setgray } bind def
/rg { setrgbcolor } bind def
/d1 { setcachedevice } bind def
%%EndProlog
%%BeginSetup
%%EndSetup
%%Page: 1 1
%%BeginPageSetup
%%PageBoundingBox: 0 0 384 384
%%EndPageSetup
q 0 0 384 384 rectclip q
0 g
192 384 m 170.793 384 153.602 366.809 153.602 345.602 c 153.602 324.391
 170.793 307.199 192 307.199 c 213.199 307.223 230.379 324.402 230.398 345.602
 c 230.398 366.809 213.207 384 192 384 c h
192 320 m 177.863 320 166.398 331.461 166.398 345.602 c 166.398 359.738
 177.863 371.199 192 371.199 c 206.137 371.199 217.602 359.738 217.602 345.602
 c 217.602 331.461 206.137 320 192 320 c h
192 320 m f
230.398 300.801 m 202.152 300.801 l 192 290.648 l 181.848 300.801 l 153.602
 300.801 l 142.996 300.801 134.398 292.203 134.398 281.602 c 134.398 230.398
 l 134.398 219.797 142.996 211.199 153.602 211.199 c 230.398 211.199 l 241.004
 211.199 249.602 219.797 249.602 230.398 c 249.602 281.602 l 249.602 292.203
 241.004 300.801 230.398 300.801 c h
236.801 230.398 m 236.801 226.867 233.934 224 230.398 224 c 153.602 224
 l 150.066 224 147.199 226.867 147.199 230.398 c 147.199 281.602 l 147.199
 285.133 150.066 288 153.602 288 c 176.551 288 l 192 272.551 l 207.449 288
 l 230.398 288 l 233.934 288 236.801 285.133 236.801 281.602 c h
236.801 230.398 m f
326.398 172.801 m 305.191 172.801 288 155.609 288 134.398 c 288.02 113.199
 305.199 96.02 326.398 96 c 347.609 96 364.801 113.191 364.801 134.398 c
 364.801 155.609 347.609 172.801 326.398 172.801 c h
326.398 108.801 m 312.262 108.801 300.801 120.262 300.801 134.398 c 300.801
 148.539 312.262 160 326.398 160 c 340.539 160 352 148.539 352 134.398 c
 352 120.262 340.539 108.801 326.398 108.801 c h
326.398 108.801 m f
364.801 89.602 m 336.551 89.602 l 326.398 79.449 l 316.25 89.602 l 288 
89.602 l 277.395 89.602 268.801 81.004 268.801 70.398 c 268.801 19.199 l
 268.801 8.598 277.395 0 288 0 c 364.801 0 l 375.402 0 384 8.598 384 19.199
 c 384 70.398 l 384 81.004 375.402 89.602 364.801 89.602 c h
371.199 19.199 m 371.199 15.664 368.336 12.801 364.801 12.801 c 288 12.801
 l 284.465 12.801 281.602 15.664 281.602 19.199 c 281.602 70.398 l 281.602
 73.934 284.465 76.801 288 76.801 c 310.949 76.801 l 326.398 61.352 l 341.848
 76.801 l 364.801 76.801 l 368.336 76.801 371.199 73.934 371.199 70.398 
c h
371.199 19.199 m f
57.602 172.801 m 36.402 172.777 19.223 155.598 19.199 134.398 c 19.199 
113.191 36.391 96 57.602 96 c 78.809 96 96 113.191 96 134.398 c 96 155.609
 78.809 172.801 57.602 172.801 c h
57.602 108.801 m 43.461 108.801 32 120.262 32 134.398 c 32 148.539 43.461
 160 57.602 160 c 71.738 160 83.199 148.539 83.199 134.398 c 83.199 120.262
 71.738 108.801 57.602 108.801 c h
57.602 108.801 m f
96 89.602 m 67.75 89.602 l 57.602 79.449 l 47.449 89.602 l 19.199 89.602
 l 8.598 89.602 0 81.004 0 70.398 c 0 19.199 l 0 8.598 8.598 0 19.199 0 
c 96 0 l 106.605 0 115.199 8.598 115.199 19.199 c 115.199 70.398 l 115.199
 81.004 106.605 89.602 96 89.602 c h
102.398 19.199 m 102.398 15.664 99.535 12.801 96 12.801 c 19.199 12.801
 l 15.664 12.801 12.801 15.664 12.801 19.199 c 12.801 70.398 l 12.801 73.934
 15.664 76.801 19.199 76.801 c 42.152 76.801 l 57.602 61.352 l 73.051 76.801
 l 96 76.801 l 99.535 76.801 102.398 73.934 102.398 70.398 c h
102.398 19.199 m f
119.727 241.324 m 117.227 243.824 113.176 243.824 110.676 241.324 c 65.875
 196.523 l 63.332 194.07 63.262 190.02 65.719 187.477 c 68.172 184.934 72.227
 184.863 74.77 187.32 c 74.82 187.371 74.875 187.422 74.926 187.477 c 119.727
 232.273 l 122.223 234.773 122.223 238.824 119.727 241.324 c h
119.727 241.324 m f
318.125 196.523 m 273.324 241.324 l 270.781 243.781 266.73 243.711 264.273
 241.168 c 261.879 238.688 261.879 234.758 264.273 232.273 c 309.074 187.477
 l 310.273 186.273 311.902 185.602 313.602 185.602 c 317.133 185.602 320
 188.465 320 192 c 320 193.699 319.324 195.324 318.125 196.523 c h
318.125 196.523 m f
249.602 51.199 m 134.398 51.199 l 130.867 51.199 128 48.336 128 44.801 
c 128 41.266 130.867 38.398 134.398 38.398 c 249.602 38.398 l 253.133 38.398
 256 41.266 256 44.801 c 256 48.336 253.133 51.199 249.602 51.199 c h
249.602 51.199 m f
Q Q
showpage
%%Trailer
end restore
%%EOF
