%!PS-Adobe-3.0 EPSF-3.0
%%Creator: cairo 1.14.2 (http://cairographics.org)
%%CreationDate: Tue Apr  3 10:37:02 2018
%%Pages: 1
%%DocumentData: Clean7Bit
%%LanguageLevel: 2
%%BoundingBox: 0 0 384 384
%%EndComments
%%BeginProlog
save
50 dict begin
/q { gsave } bind def
/Q { grestore } bind def
/cm { 6 array astore concat } bind def
/w { setlinewidth } bind def
/J { setlinecap } bind def
/j { setlinejoin } bind def
/M { setmiterlimit } bind def
/d { setdash } bind def
/m { moveto } bind def
/l { lineto } bind def
/c { curveto } bind def
/h { closepath } bind def
/re { exch dup neg 3 1 roll 5 3 roll moveto 0 rlineto
      0 exch rlineto 0 rlineto closepath } bind def
/S { stroke } bind def
/f { fill } bind def
/f* { eofill } bind def
/n { newpath } bind def
/W { clip } bind def
/W* { eoclip } bind def
/BT { } bind def
/ET { } bind def
/pdfmark where { pop globaldict /?pdfmark /exec load put }
    { globaldict begin /?pdfmark /pop load def /pdfmark
    /cleartomark load def end } ifelse
/BDC { mark 3 1 roll /BDC pdfmark } bind def
/EMC { mark /EMC pdfmark } bind def
/cairo_store_point { /cairo_point_y exch def /cairo_point_x exch def } def
/Tj { show currentpoint cairo_store_point } bind def
/TJ {
  {
    dup
    type /stringtype eq
    { show } { -0.001 mul 0 cairo_font_matrix dtransform rmoveto } ifelse
  } forall
  currentpoint cairo_store_point
} bind def
/cairo_selectfont { cairo_font_matrix aload pop pop pop 0 0 6 array astore
    cairo_font exch selectfont cairo_point_x cairo_point_y moveto } bind def
/Tf { pop /cairo_font exch def /cairo_font_matrix where
      { pop cairo_selectfont } if } bind def
/Td { matrix translate cairo_font_matrix matrix concatmatrix dup
      /cairo_font_matrix exch def dup 4 get exch 5 get cairo_store_point
      /cairo_font where { pop cairo_selectfont } if } bind def
/Tm { 2 copy 8 2 roll 6 array astore /cairo_font_matrix exch def
      cairo_store_point /cairo_font where { pop cairo_selectfont } if } bind def
/g { setgray } bind def
/rg { setrgbcolor } bind def
/d1 { setcachedevice } bind def
%%EndProlog
%%BeginSetup
%%EndSetup
%%Page: 1 1
%%BeginPageSetup
%%PageBoundingBox: 0 0 384 384
%%EndPageSetup
q 0 0 384 384 rectclip q
0 g
361.602 384 m 349.23 384 339.199 373.973 339.199 361.602 c 339.199 153.602
 l 237.637 153.602 l 239.641 157.844 240.23 162.621 239.32 167.227 c 224.109
 243.309 l 229.422 275.199 l 275.199 275.199 l 285.805 275.199 294.398 283.797
 294.398 294.398 c 294.398 305.004 285.805 313.602 275.199 313.602 c 204.801
 313.602 l 203.102 313.602 201.477 312.926 200.273 311.727 c 192 303.449
 l 183.727 311.727 l 182.523 312.926 180.898 313.602 179.199 313.602 c 108.801
 313.602 l 98.195 313.602 89.602 305.004 89.602 294.398 c 89.602 283.797
 98.195 275.199 108.801 275.199 c 154.578 275.199 l 159.891 243.309 l 144.68
 167.227 l 143.77 162.621 144.359 157.844 146.363 153.602 c 44.801 153.602
 l 44.801 361.602 l 44.801 373.973 34.77 384 22.398 384 c 10.027 384 0 373.973
 0 361.602 c 0 0 l 384 0 l 384 361.602 l 384 373.973 373.973 384 361.602
 384 c h
32 12.801 m 12.801 12.801 l 12.801 361.602 l 12.801 366.902 17.098 371.199
 22.398 371.199 c 27.703 371.199 32 366.902 32 361.602 c h
157.234 164.68 m 172.672 241.922 l 172.824 242.68 172.84 243.461 172.711
 244.223 c 166.309 282.625 l 165.809 285.719 163.137 287.996 160 288 c 108.801
 288 l 105.266 288 102.398 290.867 102.398 294.398 c 102.398 297.934 105.266
 300.801 108.801 300.801 c 176.551 300.801 l 187.477 289.875 l 189.973 287.375
 194.027 287.375 196.523 289.875 c 207.449 300.801 l 275.199 300.801 l 278.734
 300.801 281.602 297.934 281.602 294.398 c 281.602 290.867 278.734 288 275.199
 288 c 224 288 l 220.871 288 218.203 285.734 217.691 282.648 c 211.289 244.25
 l 211.16 243.484 211.176 242.703 211.328 241.945 c 226.77 164.711 l 227.668
 159.656 224.297 154.836 219.242 153.938 c 214.344 153.07 209.633 156.215
 208.551 161.07 c 198.273 212.48 l 197.57 215.945 194.191 218.18 190.727
 217.477 c 188.207 216.969 186.238 215 185.727 212.48 c 175.449 161.094 
l 174.441 156.062 169.543 152.801 164.512 153.809 c 162.41 154.23 160.516
 155.367 159.156 157.023 c 159.156 157 l 157.398 159.141 156.691 161.961
 157.234 164.68 c h
197.707 153.602 m 186.293 153.602 l 187.059 155.176 187.633 156.84 188 
158.555 c 192 178.559 l 196 158.559 l 196.367 156.844 196.941 155.18 197.707
 153.602 c h
50.355 12.801 m 64 33.281 l 77.645 12.801 l h
101.555 12.801 m 115.199 33.281 l 128.844 12.801 l h
152.754 12.801 m 166.398 33.281 l 180.043 12.801 l h
203.957 12.801 m 217.602 33.281 l 231.246 12.801 l h
255.156 12.801 m 268.801 33.281 l 282.445 12.801 l h
306.355 12.801 m 320 33.281 l 333.645 12.801 l h
339.199 27.52 m 320 56.32 l 294.398 17.922 l 268.801 56.32 l 243.199 17.922
 l 217.602 56.32 l 192 17.922 l 166.398 56.32 l 140.801 17.922 l 115.199
 56.32 l 89.602 17.922 l 64 56.32 l 44.801 27.52 l 44.801 140.801 l 339.199
 140.801 l h
371.199 12.801 m 352 12.801 l 352 361.602 l 352 366.902 356.297 371.199
 361.602 371.199 c 366.902 371.199 371.199 366.902 371.199 361.602 c h
371.199 12.801 m f
192 384 m 174.336 383.98 160.02 369.664 160 352 c 160 334.328 174.328 320
 192 320 c 209.672 320 224 334.328 224 352 c 224 369.672 209.672 384 192
 384 c h
192 332.801 m 181.395 332.801 172.801 341.395 172.801 352 c 172.801 362.605
 181.395 371.199 192 371.199 c 202.605 371.199 211.199 362.605 211.199 352
 c 211.199 341.395 202.605 332.801 192 332.801 c h
192 332.801 m f
Q Q
showpage
%%Trailer
end restore
%%EOF
