%!PS-Adobe-3.0 EPSF-3.0
%%Creator: cairo 1.14.2 (http://cairographics.org)
%%CreationDate: Tue Apr  3 10:37:02 2018
%%Pages: 1
%%DocumentData: Clean7Bit
%%LanguageLevel: 2
%%BoundingBox: 16 0 368 384
%%EndComments
%%BeginProlog
save
50 dict begin
/q { gsave } bind def
/Q { grestore } bind def
/cm { 6 array astore concat } bind def
/w { setlinewidth } bind def
/J { setlinecap } bind def
/j { setlinejoin } bind def
/M { setmiterlimit } bind def
/d { setdash } bind def
/m { moveto } bind def
/l { lineto } bind def
/c { curveto } bind def
/h { closepath } bind def
/re { exch dup neg 3 1 roll 5 3 roll moveto 0 rlineto
      0 exch rlineto 0 rlineto closepath } bind def
/S { stroke } bind def
/f { fill } bind def
/f* { eofill } bind def
/n { newpath } bind def
/W { clip } bind def
/W* { eoclip } bind def
/BT { } bind def
/ET { } bind def
/pdfmark where { pop globaldict /?pdfmark /exec load put }
    { globaldict begin /?pdfmark /pop load def /pdfmark
    /cleartomark load def end } ifelse
/BDC { mark 3 1 roll /BDC pdfmark } bind def
/EMC { mark /EMC pdfmark } bind def
/cairo_store_point { /cairo_point_y exch def /cairo_point_x exch def } def
/Tj { show currentpoint cairo_store_point } bind def
/TJ {
  {
    dup
    type /stringtype eq
    { show } { -0.001 mul 0 cairo_font_matrix dtransform rmoveto } ifelse
  } forall
  currentpoint cairo_store_point
} bind def
/cairo_selectfont { cairo_font_matrix aload pop pop pop 0 0 6 array astore
    cairo_font exch selectfont cairo_point_x cairo_point_y moveto } bind def
/Tf { pop /cairo_font exch def /cairo_font_matrix where
      { pop cairo_selectfont } if } bind def
/Td { matrix translate cairo_font_matrix matrix concatmatrix dup
      /cairo_font_matrix exch def dup 4 get exch 5 get cairo_store_point
      /cairo_font where { pop cairo_selectfont } if } bind def
/Tm { 2 copy 8 2 roll 6 array astore /cairo_font_matrix exch def
      cairo_store_point /cairo_font where { pop cairo_selectfont } if } bind def
/g { setgray } bind def
/rg { setrgbcolor } bind def
/d1 { setcachedevice } bind def
%%EndProlog
%%BeginSetup
%%EndSetup
%%Page: 1 1
%%BeginPageSetup
%%PageBoundingBox: 16 0 368 384
%%EndPageSetup
q 16 0 352 384 rectclip q
0 g
329.602 371.199 m 310.398 371.199 l 310.398 377.602 l 310.398 381.133 307.535
 384 304 384 c 300.465 384 297.602 381.133 297.602 377.602 c 297.602 371.199
 l 284.801 371.199 l 284.801 377.602 l 284.801 381.133 281.934 384 278.398
 384 c 274.867 384 272 381.133 272 377.602 c 272 371.199 l 259.199 371.199
 l 259.199 377.602 l 259.199 381.133 256.336 384 252.801 384 c 249.266 384
 246.398 381.133 246.398 377.602 c 246.398 371.199 l 233.602 371.199 l 233.602
 377.602 l 233.602 381.133 230.734 384 227.199 384 c 223.664 384 220.801
 381.133 220.801 377.602 c 220.801 371.199 l 131.199 371.199 l 131.199 377.602
 l 131.199 381.133 128.336 384 124.801 384 c 121.266 384 118.398 381.133
 118.398 377.602 c 118.398 371.199 l 105.602 371.199 l 105.602 377.602 l
 105.602 381.133 102.734 384 99.199 384 c 95.664 384 92.801 381.133 92.801
 377.602 c 92.801 371.199 l 80 371.199 l 80 377.602 l 80 381.133 77.133 
384 73.602 384 c 70.066 384 67.199 381.133 67.199 377.602 c 67.199 371.199
 l 54.398 371.199 l 54.398 377.602 l 54.398 381.133 51.535 384 48 384 c 
44.465 384 41.602 381.133 41.602 377.602 c 41.602 371.199 l 22.398 371.199
 l 18.867 371.199 16 368.336 16 364.801 c 16 64 l 16 60.465 18.867 57.602
 22.398 57.602 c 208.32 57.602 l 211.855 57.59 214.727 60.449 214.734 63.984
 c 214.734 64.137 214.73 64.293 214.719 64.449 c 214.668 65.191 l 214.527
 66.918 214.398 68.645 214.398 70.398 c 214.422 76.734 215.168 83.047 216.629
 89.211 c 218.051 95.344 220.18 101.297 222.969 106.945 c 223.246 107.508
 223.496 108.078 223.781 108.633 c 224.633 110.258 225.555 111.832 226.508
 113.402 c 226.809 113.895 227.105 114.398 227.418 114.887 c 228.453 116.512
 229.547 118.098 230.695 119.641 c 230.93 119.969 231.176 120.281 231.418
 120.613 c 232.699 122.289 234.027 123.906 235.406 125.477 c 235.598 125.691
 l 244.738 135.895 256.23 143.715 269.074 148.48 c 270.203 148.895 l 271.93
 149.504 273.684 150.043 275.457 150.539 c 276.258 150.766 277.07 150.969
 277.883 151.18 c 279.379 151.551 280.883 151.898 282.406 152.188 c 283.688
 152.422 285.02 152.602 286.328 152.781 c 287.488 152.945 288.633 153.133
 289.805 153.242 c 292.363 153.484 294.969 153.637 297.602 153.637 c 299.336
 153.637 301.043 153.504 302.719 153.391 c 303.52 153.332 l 303.68 153.332
 l 311.762 152.723 319.707 150.945 327.277 148.051 c 330.57 146.77 334.281
 148.398 335.562 151.691 c 335.852 152.43 336 153.215 336 154.008 c 336 
364.801 l 336 368.336 333.133 371.199 329.602 371.199 c h
214.746 118.637 m 214.523 118.273 214.285 117.926 214.078 117.562 c 213.16
 115.941 212.328 114.273 211.52 112.594 c 211.066 111.672 210.605 110.758
 210.184 109.816 c 209.484 108.273 208.832 106.699 208.219 105.113 c 208.152
 104.953 208.082 104.805 208.02 104.645 c 208.02 134.398 l 226.266 134.398
 l 221.902 129.547 218.043 124.266 214.746 118.637 c h
246.398 151.461 m 244.199 150.066 242.074 148.582 240 147.02 c 240 147.199
 l 208 147.199 l 208 185.602 l 246.398 185.602 l h
246.398 198.398 m 208 198.398 l 208 236.801 l 246.398 236.801 l h
246.398 249.602 m 208 249.602 l 208 288 l 246.398 288 l h
297.602 236.801 m 297.602 198.398 l 259.199 198.398 l 259.199 236.801 l
 h
259.199 249.602 m 259.199 288 l 297.602 288 l 297.602 249.602 l h
297.613 166.398 m 294.617 166.398 291.66 166.227 288.73 165.953 c 287.449
 165.836 286.254 165.637 285.012 165.477 c 283.441 165.266 281.883 165.051
 280.34 164.762 c 278.797 164.473 277.102 164.121 275.5 163.73 c 274.523
 163.496 273.543 163.246 272.57 162.977 c 270.648 162.453 268.73 161.883
 266.809 161.242 c 266.566 161.152 266.328 161.055 266.086 160.973 c 263.758
 160.16 261.453 159.309 259.211 158.328 c 259.211 185.602 l 297.613 185.602
 l h
323.199 162.867 m 319 164.043 314.723 164.934 310.398 165.523 c 310.398
 294.398 l 310.398 297.934 307.535 300.801 304 300.801 c 48 300.801 l 44.465
 300.801 41.602 297.934 41.602 294.398 c 41.602 89.602 l 41.602 86.066 44.465
 83.199 48 83.199 c 202.555 83.199 l 201.949 78.961 201.633 74.684 201.602
 70.398 c 28.801 70.398 l 28.801 313.602 l 323.199 313.602 l h
156.801 147.199 m 156.801 185.602 l 195.199 185.602 l 195.199 147.199 l
 h
195.199 134.398 m 195.199 96 l 156.801 96 l 156.801 134.398 l h
156.801 198.398 m 156.801 236.801 l 195.199 236.801 l 195.199 198.398 l
 h
156.801 249.602 m 156.801 288 l 195.199 288 l 195.199 249.602 l h
105.602 147.199 m 105.602 185.602 l 144 185.602 l 144 147.199 l h
144 134.398 m 144 96 l 105.602 96 l 105.602 134.398 l h
105.602 198.398 m 105.602 236.801 l 144 236.801 l 144 198.398 l h
105.602 249.602 m 105.602 288 l 144 288 l 144 249.602 l h
54.398 147.199 m 54.398 185.602 l 92.801 185.602 l 92.801 147.199 l h
92.801 134.398 m 92.801 96 l 54.398 96 l 54.398 134.398 l h
54.398 198.398 m 54.398 236.801 l 92.801 236.801 l 92.801 198.398 l h
54.398 249.602 m 54.398 288 l 92.801 288 l 92.801 249.602 l h
323.199 326.398 m 28.801 326.398 l 28.801 358.398 l 41.602 358.398 l 41.602
 352 l 41.602 348.465 44.465 345.602 48 345.602 c 51.535 345.602 54.398 
348.465 54.398 352 c 54.398 358.398 l 67.199 358.398 l 67.199 352 l 67.199
 348.465 70.066 345.602 73.602 345.602 c 77.133 345.602 80 348.465 80 352
 c 80 358.398 l 92.801 358.398 l 92.801 352 l 92.801 348.465 95.664 345.602
 99.199 345.602 c 102.734 345.602 105.602 348.465 105.602 352 c 105.602 
358.398 l 118.398 358.398 l 118.398 352 l 118.398 348.465 121.266 345.602
 124.801 345.602 c 128.336 345.602 131.199 348.465 131.199 352 c 131.199
 358.398 l 220.801 358.398 l 220.801 352 l 220.801 348.465 223.664 345.602
 227.199 345.602 c 230.734 345.602 233.602 348.465 233.602 352 c 233.602
 358.398 l 246.398 358.398 l 246.398 352 l 246.398 348.465 249.266 345.602
 252.801 345.602 c 256.336 345.602 259.199 348.465 259.199 352 c 259.199
 358.398 l 272 358.398 l 272 352 l 272 348.465 274.867 345.602 278.398 345.602
 c 281.934 345.602 284.801 348.465 284.801 352 c 284.801 358.398 l 297.602
 358.398 l 297.602 352 l 297.602 348.465 300.465 345.602 304 345.602 c 307.535
 345.602 310.398 348.465 310.398 352 c 310.398 358.398 l 323.199 358.398
 l h
323.199 326.398 m f
297.602 140.801 m 258.719 140.801 227.199 109.281 227.199 70.398 c 227.199
 31.52 258.719 0 297.602 0 c 336.48 0 368 31.52 368 70.398 c 367.953 109.262
 336.461 140.754 297.602 140.801 c h
297.602 12.801 m 265.789 12.801 240 38.59 240 70.398 c 240 102.211 265.789
 128 297.602 128 c 329.41 128 355.199 102.211 355.199 70.398 c 355.164 38.602
 329.398 12.836 297.602 12.801 c h
297.602 12.801 m f
333.969 106.926 m 331.488 109.32 327.555 109.32 325.074 106.926 c 297.602
 79.449 l 282.926 94.125 l 280.383 96.582 276.332 96.512 273.875 93.969 
c 271.48 91.488 271.48 87.555 273.875 85.074 c 293.074 65.875 l 295.574 
63.375 299.625 63.375 302.125 65.875 c 334.125 97.875 l 336.582 100.418 
336.512 104.469 333.969 106.926 c h
333.969 106.926 m f
Q Q
showpage
%%Trailer
end restore
%%EOF
