%!PS-Adobe-3.0 EPSF-3.0
%%Creator: cairo 1.14.2 (http://cairographics.org)
%%CreationDate: Tue Apr  3 10:37:02 2018
%%Pages: 1
%%DocumentData: Clean7Bit
%%LanguageLevel: 2
%%BoundingBox: 0 0 384 384
%%EndComments
%%BeginProlog
save
50 dict begin
/q { gsave } bind def
/Q { grestore } bind def
/cm { 6 array astore concat } bind def
/w { setlinewidth } bind def
/J { setlinecap } bind def
/j { setlinejoin } bind def
/M { setmiterlimit } bind def
/d { setdash } bind def
/m { moveto } bind def
/l { lineto } bind def
/c { curveto } bind def
/h { closepath } bind def
/re { exch dup neg 3 1 roll 5 3 roll moveto 0 rlineto
      0 exch rlineto 0 rlineto closepath } bind def
/S { stroke } bind def
/f { fill } bind def
/f* { eofill } bind def
/n { newpath } bind def
/W { clip } bind def
/W* { eoclip } bind def
/BT { } bind def
/ET { } bind def
/pdfmark where { pop globaldict /?pdfmark /exec load put }
    { globaldict begin /?pdfmark /pop load def /pdfmark
    /cleartomark load def end } ifelse
/BDC { mark 3 1 roll /BDC pdfmark } bind def
/EMC { mark /EMC pdfmark } bind def
/cairo_store_point { /cairo_point_y exch def /cairo_point_x exch def } def
/Tj { show currentpoint cairo_store_point } bind def
/TJ {
  {
    dup
    type /stringtype eq
    { show } { -0.001 mul 0 cairo_font_matrix dtransform rmoveto } ifelse
  } forall
  currentpoint cairo_store_point
} bind def
/cairo_selectfont { cairo_font_matrix aload pop pop pop 0 0 6 array astore
    cairo_font exch selectfont cairo_point_x cairo_point_y moveto } bind def
/Tf { pop /cairo_font exch def /cairo_font_matrix where
      { pop cairo_selectfont } if } bind def
/Td { matrix translate cairo_font_matrix matrix concatmatrix dup
      /cairo_font_matrix exch def dup 4 get exch 5 get cairo_store_point
      /cairo_font where { pop cairo_selectfont } if } bind def
/Tm { 2 copy 8 2 roll 6 array astore /cairo_font_matrix exch def
      cairo_store_point /cairo_font where { pop cairo_selectfont } if } bind def
/g { setgray } bind def
/rg { setrgbcolor } bind def
/d1 { setcachedevice } bind def
%%EndProlog
%%BeginSetup
%%EndSetup
%%Page: 1 1
%%BeginPageSetup
%%PageBoundingBox: 0 0 384 384
%%EndPageSetup
q 0 0 384 384 rectclip q
0 g
243.199 281.602 m 232.598 281.602 224 273.004 224 262.398 c 224 256 l 236.801
 256 l 236.801 262.398 l 236.801 265.934 239.664 268.801 243.199 268.801
 c 246.734 268.801 249.602 265.934 249.602 262.398 c 249.602 256 l 262.398
 256 l 262.398 262.398 l 262.398 273.004 253.805 281.602 243.199 281.602
 c h
243.199 281.602 m f
307.199 281.602 m 296.598 281.602 288 273.004 288 262.398 c 288 256 l 300.801
 256 l 300.801 262.398 l 300.801 265.934 303.664 268.801 307.199 268.801
 c 310.734 268.801 313.602 265.934 313.602 262.398 c 313.602 256 l 326.398
 256 l 326.398 262.398 l 326.398 273.004 317.805 281.602 307.199 281.602
 c h
307.199 281.602 m f
288 236.801 m 288 230.398 l 288 223.332 282.27 217.602 275.199 217.602 
c 268.129 217.602 262.398 223.332 262.398 230.398 c 262.398 236.801 l 249.602
 236.801 l 249.602 230.398 l 249.602 216.262 261.062 204.801 275.199 204.801
 c 289.34 204.801 300.801 216.262 300.801 230.398 c 300.801 236.801 l h
288 236.801 m f
339.199 179.199 m 307.199 179.199 l 307.199 186.238 l 330.359 196.742 346.754
 218.109 350.906 243.199 c 358.398 243.199 l 369.004 243.199 377.602 251.797
 377.602 262.398 c 377.602 273.004 369.004 281.602 358.398 281.602 c 352
 281.602 l 352 384 l 256 384 l 224.203 383.965 198.434 358.195 198.398 326.398
 c 198.398 281.602 l 192 281.602 l 181.395 281.602 172.801 273.004 172.801
 262.398 c 172.801 251.797 181.395 243.199 192 243.199 c 199.496 243.199
 l 203.645 218.109 220.039 196.742 243.199 186.238 c 243.199 179.199 l 211.199
 179.199 l 186.469 179.172 166.43 159.129 166.398 134.398 c 166.398 128 
l 128 128 l 128 134.398 l 128 145.004 119.402 153.602 108.801 153.602 c 
83.199 153.602 l 72.598 153.602 64 145.004 64 134.398 c 64 128 l 6.398 128
 l 2.867 128 0 125.133 0 121.602 c 0 6.398 l 0 2.867 2.867 0 6.398 0 c 377.602
 0 l 381.133 0 384 2.867 384 6.398 c 384 134.398 l 383.973 159.129 363.93
 179.172 339.199 179.199 c h
352 268.801 m 358.398 268.801 l 361.934 268.801 364.801 265.934 364.801
 262.398 c 364.801 258.867 361.934 256 358.398 256 c 352 256 l h
198.398 256 m 192 256 l 188.465 256 185.602 258.867 185.602 262.398 c 185.602
 265.934 188.465 268.801 192 268.801 c 198.398 268.801 l h
326.398 166.398 m 300.109 131.34 l 284.25 147.199 l 303.449 166.398 l h
285.352 128 m 278.949 121.602 l 271.449 121.602 l 265.051 128 l 275.199
 138.152 l h
265.051 166.398 m 285.352 166.398 l 275.199 156.25 l h
211.199 326.398 m 211.227 351.129 231.27 371.172 256 371.199 c 339.199 
371.199 l 339.199 332.801 l 281.602 332.801 l 281.602 326.398 l 281.602 
315.797 273.004 307.199 262.398 307.199 c 211.199 307.199 l h
211.199 256 m 211.199 294.398 l 262.398 294.398 l 277.602 294.418 290.699
 305.109 293.762 320 c 339.199 320 l 339.199 256 l 339.289 229.621 323.086
 205.922 298.469 196.43 c 296.016 195.469 294.402 193.105 294.398 190.469
 c 294.398 179.199 l 256 179.199 l 256 190.469 l 256 193.105 254.383 195.469
 251.93 196.43 c 227.316 205.922 211.113 229.621 211.199 256 c h
246.949 166.398 m 266.152 147.199 l 250.293 131.34 l 224 166.398 l h
76.801 134.398 m 76.801 137.934 79.664 140.801 83.199 140.801 c 108.801
 140.801 l 112.336 140.801 115.199 137.934 115.199 134.398 c 115.199 128
 l 76.801 128 l h
179.199 12.801 m 12.801 12.801 l 12.801 57.602 l 76.801 57.602 l 76.801
 38.398 l 76.801 34.867 79.664 32 83.199 32 c 108.801 32 l 112.336 32 115.199
 34.867 115.199 38.398 c 115.199 57.602 l 179.199 57.602 l h
89.602 44.801 m 89.602 57.602 l 102.398 57.602 l 102.398 44.801 l h
179.199 70.398 m 12.801 70.398 l 12.801 115.199 l 179.199 115.199 l h
192 12.801 m 192 121.602 l 192 125.133 189.133 128 185.602 128 c 179.199
 128 l 179.199 134.398 l 179.254 150.871 191.824 164.598 208.223 166.098
 c 244.48 117.762 l 245.59 116.27 247.293 115.336 249.145 115.199 c 249.602
 115.199 l 251.297 115.199 252.926 115.875 254.125 117.074 c 256 118.949
 l 261.945 113.004 l 249.691 39.457 l 249.398 37.73 249.832 35.961 250.879
 34.559 c 267.199 12.801 l h
262.766 40.051 m 274.223 108.801 l 276.18 108.801 l 287.637 40.051 l 275.199
 23.469 l h
371.199 12.801 m 283.199 12.801 l 299.52 34.559 l 300.57 35.961 301 37.73
 300.711 39.457 c 288.453 113.004 l 294.398 118.949 l 296.273 117.074 l 
297.477 115.875 299.102 115.199 300.801 115.199 c 301.254 115.199 l 303.105
 115.336 304.809 116.27 305.922 117.762 c 342.176 166.098 l 358.578 164.598
 371.145 150.871 371.199 134.398 c h
371.199 12.801 m f
Q Q
showpage
%%Trailer
end restore
%%EOF
