%!PS-Adobe-3.0 EPSF-3.0
%%Creator: cairo 1.14.2 (http://cairographics.org)
%%CreationDate: Tue Apr  3 10:37:02 2018
%%Pages: 1
%%DocumentData: Clean7Bit
%%LanguageLevel: 2
%%BoundingBox: 31 -1 340 372
%%EndComments
%%BeginProlog
save
50 dict begin
/q { gsave } bind def
/Q { grestore } bind def
/cm { 6 array astore concat } bind def
/w { setlinewidth } bind def
/J { setlinecap } bind def
/j { setlinejoin } bind def
/M { setmiterlimit } bind def
/d { setdash } bind def
/m { moveto } bind def
/l { lineto } bind def
/c { curveto } bind def
/h { closepath } bind def
/re { exch dup neg 3 1 roll 5 3 roll moveto 0 rlineto
      0 exch rlineto 0 rlineto closepath } bind def
/S { stroke } bind def
/f { fill } bind def
/f* { eofill } bind def
/n { newpath } bind def
/W { clip } bind def
/W* { eoclip } bind def
/BT { } bind def
/ET { } bind def
/pdfmark where { pop globaldict /?pdfmark /exec load put }
    { globaldict begin /?pdfmark /pop load def /pdfmark
    /cleartomark load def end } ifelse
/BDC { mark 3 1 roll /BDC pdfmark } bind def
/EMC { mark /EMC pdfmark } bind def
/cairo_store_point { /cairo_point_y exch def /cairo_point_x exch def } def
/Tj { show currentpoint cairo_store_point } bind def
/TJ {
  {
    dup
    type /stringtype eq
    { show } { -0.001 mul 0 cairo_font_matrix dtransform rmoveto } ifelse
  } forall
  currentpoint cairo_store_point
} bind def
/cairo_selectfont { cairo_font_matrix aload pop pop pop 0 0 6 array astore
    cairo_font exch selectfont cairo_point_x cairo_point_y moveto } bind def
/Tf { pop /cairo_font exch def /cairo_font_matrix where
      { pop cairo_selectfont } if } bind def
/Td { matrix translate cairo_font_matrix matrix concatmatrix dup
      /cairo_font_matrix exch def dup 4 get exch 5 get cairo_store_point
      /cairo_font where { pop cairo_selectfont } if } bind def
/Tm { 2 copy 8 2 roll 6 array astore /cairo_font_matrix exch def
      cairo_store_point /cairo_font where { pop cairo_selectfont } if } bind def
/g { setgray } bind def
/rg { setrgbcolor } bind def
/d1 { setcachedevice } bind def
%%EndProlog
%%BeginSetup
%%EndSetup
%%Page: 1 1
%%BeginPageSetup
%%PageBoundingBox: 31 -1 340 372
%%EndPageSetup
q 31 -1 309 373 rectclip q
0 g
337.855 48.723 m 298.91 98.79 l 311.531 102.559 322.434 110.63 329.723 
121.598 c 338.895 137.454 334.746 156.802 330.734 175.489 c 328.305 185.087
 326.855 194.907 326.398 204.802 c 326.852 214.7 328.305 224.528 330.734
 234.138 c 334.719 252.837 338.895 272.173 329.723 288.001 c 320.223 304.411
 301.102 310.481 282.605 316.345 c 273.398 318.884 264.48 322.376 256 326.766
 c 248.305 331.759 241.16 337.548 234.68 344.044 c 220.961 356.782 205.402
 371.2 185.602 371.2 c 165.797 371.2 150.238 356.782 136.512 344.052 c 130.039
 337.555 122.895 331.759 115.199 326.766 c 106.719 322.384 97.805 318.899
 88.602 316.372 c 70.105 310.509 50.98 304.434 41.484 288.024 c 32.312 272.173
 36.461 252.825 40.473 234.138 c 42.898 224.528 44.348 214.7 44.801 204.802
 c 44.348 194.899 42.895 185.071 40.469 175.462 c 36.48 156.763 32.309 137.427
 41.477 121.598 c 48.777 110.626 59.691 102.559 72.32 98.798 c 33.344 48.731
 l 31.176 45.938 31.676 41.919 34.469 39.747 c 35.809 38.708 37.508 38.239
 39.195 38.45 c 84.953 44.165 l 96.25 4.641 l 96.91 2.325 98.82 0.575 101.184
 0.114 c 101.586 0.04 101.992 0.001 102.398 0.001 c 104.375 -0.003 106.242
 0.911 107.457 2.47 c 148.328 55.04 l 158.383 45.247 171.594 39.352 185.602
 38.399 c 199.605 39.352 212.816 45.247 222.875 55.04 c 263.742 2.489 l 
264.953 0.923 266.82 0.005 268.801 0.001 c 269.207 0.001 269.613 0.04 270.016
 0.114 c 272.383 0.575 274.289 2.325 274.949 4.641 c 286.246 44.161 l 332.008
 38.446 l 335.512 38.005 338.715 40.493 339.152 43.997 c 339.363 45.684 
338.898 47.384 337.855 48.723 c h
105.09 20.282 m 95.75 52.962 l 94.883 55.993 91.934 57.938 88.805 57.548
 c 52.965 53.067 l 85.09 94.36 l 88.629 93.227 l 97.824 90.7 106.727 87.216
 115.199 82.837 c 122.895 77.845 130.043 72.052 136.52 65.555 c 138.719 
63.52 l h
185.602 51.2 m 170.816 51.2 158.379 62.72 145.211 74.93 c 138.043 82.091
 130.129 88.458 121.602 93.919 c 112.32 98.778 102.555 102.638 92.461 105.438
 c 75.547 110.809 59.566 115.88 52.551 128.001 c 45.855 139.579 49.312 155.712
 52.98 172.802 c 55.617 183.278 57.168 194.001 57.602 204.802 c 57.168 215.598
 55.625 226.321 52.984 236.802 c 49.32 253.88 45.863 270.016 52.559 281.598
 c 59.598 293.723 75.551 298.79 92.469 304.161 c 102.559 306.962 112.324
 310.825 121.602 315.68 c 130.125 321.145 138.039 327.509 145.203 334.669
 c 158.379 346.88 170.816 358.399 185.602 358.399 c 200.383 358.399 212.82
 346.88 225.992 334.669 c 233.156 327.509 241.07 321.145 249.602 315.68 
c 258.879 310.821 268.648 306.962 278.738 304.161 c 295.656 298.79 311.637
 293.723 318.648 281.598 c 325.344 270.024 321.887 253.888 318.223 236.802
 c 315.582 226.321 314.031 215.598 313.602 204.802 c 314.031 194.001 315.578
 183.278 318.215 172.802 c 321.883 155.72 325.336 139.583 318.645 128.001
 c 311.602 115.88 295.648 110.809 278.734 105.438 c 268.641 102.638 258.879
 98.778 249.602 93.919 c 241.074 88.458 233.16 82.091 225.996 74.93 c 212.82
 62.72 200.383 51.2 185.602 51.2 c h
282.426 57.548 m 279.297 57.938 276.348 55.993 275.48 52.962 c 266.113 
20.282 l 232.488 63.513 l 234.688 65.548 l 241.164 72.048 248.305 77.841
 256 82.837 c 264.48 87.216 273.395 90.7 282.598 93.227 c 286.137 94.36 
l 318.266 53.067 l h
282.426 57.548 m f
185.602 320.001 m 121.977 320.001 70.398 268.423 70.398 204.802 c 70.398
 141.177 121.977 89.598 185.602 89.598 c 249.223 89.598 300.801 141.177 
300.801 204.802 c 300.727 268.391 249.191 319.927 185.602 320.001 c h
185.602 102.399 m 129.047 102.399 83.199 148.247 83.199 204.802 c 83.199
 261.352 129.047 307.2 185.602 307.2 c 242.152 307.2 288 261.352 288 204.802
 c 287.934 148.274 242.125 102.466 185.602 102.399 c h
185.602 102.399 m f
259.441 231.532 m 257.035 234.841 253.191 236.798 249.102 236.802 c 209.922
 236.802 l 197.762 274.095 l 195.555 280.809 188.32 284.462 181.602 282.255
 c 177.738 280.985 174.711 277.958 173.441 274.095 c 161.312 236.802 l 122.098
 236.802 l 115.031 236.802 109.297 231.075 109.293 224.005 c 109.289 219.911
 111.25 216.063 114.559 213.653 c 146.277 190.61 l 134.164 153.317 l 131.977
 146.595 135.656 139.372 142.379 137.188 c 146.277 135.923 150.547 136.598
 153.863 139.009 c 185.602 162.04 l 217.324 139.001 l 221.793 135.68 227.91
 135.68 232.379 139.001 c 236.914 142.223 238.801 148.04 237.023 153.313
 c 224.91 190.61 l 256.629 213.653 l 262.344 217.809 263.605 225.817 259.441
 231.532 c h
213.621 198.227 m 211.375 196.595 210.438 193.704 211.297 191.067 c 224.852
 149.352 l 189.363 175.13 l 187.121 176.759 184.086 176.759 181.844 175.13
 c 146.355 149.352 l 159.902 191.067 l 160.762 193.704 159.824 196.591 157.582
 198.22 c 122.098 224.001 l 165.957 224.001 l 168.73 224.001 171.188 225.786
 172.043 228.423 c 185.602 270.138 l 199.156 228.43 l 200.012 225.794 202.469
 224.005 205.242 224.005 c 249.102 224.001 l h
213.621 198.227 m f
Q Q
showpage
%%Trailer
end restore
%%EOF
