%!PS-Adobe-3.0 EPSF-3.0
%%Creator: cairo 1.14.2 (http://cairographics.org)
%%CreationDate: Tue Apr  3 10:37:02 2018
%%Pages: 1
%%DocumentData: Clean7Bit
%%LanguageLevel: 2
%%BoundingBox: 0 -1 385 385
%%EndComments
%%BeginProlog
save
50 dict begin
/q { gsave } bind def
/Q { grestore } bind def
/cm { 6 array astore concat } bind def
/w { setlinewidth } bind def
/J { setlinecap } bind def
/j { setlinejoin } bind def
/M { setmiterlimit } bind def
/d { setdash } bind def
/m { moveto } bind def
/l { lineto } bind def
/c { curveto } bind def
/h { closepath } bind def
/re { exch dup neg 3 1 roll 5 3 roll moveto 0 rlineto
      0 exch rlineto 0 rlineto closepath } bind def
/S { stroke } bind def
/f { fill } bind def
/f* { eofill } bind def
/n { newpath } bind def
/W { clip } bind def
/W* { eoclip } bind def
/BT { } bind def
/ET { } bind def
/pdfmark where { pop globaldict /?pdfmark /exec load put }
    { globaldict begin /?pdfmark /pop load def /pdfmark
    /cleartomark load def end } ifelse
/BDC { mark 3 1 roll /BDC pdfmark } bind def
/EMC { mark /EMC pdfmark } bind def
/cairo_store_point { /cairo_point_y exch def /cairo_point_x exch def } def
/Tj { show currentpoint cairo_store_point } bind def
/TJ {
  {
    dup
    type /stringtype eq
    { show } { -0.001 mul 0 cairo_font_matrix dtransform rmoveto } ifelse
  } forall
  currentpoint cairo_store_point
} bind def
/cairo_selectfont { cairo_font_matrix aload pop pop pop 0 0 6 array astore
    cairo_font exch selectfont cairo_point_x cairo_point_y moveto } bind def
/Tf { pop /cairo_font exch def /cairo_font_matrix where
      { pop cairo_selectfont } if } bind def
/Td { matrix translate cairo_font_matrix matrix concatmatrix dup
      /cairo_font_matrix exch def dup 4 get exch 5 get cairo_store_point
      /cairo_font where { pop cairo_selectfont } if } bind def
/Tm { 2 copy 8 2 roll 6 array astore /cairo_font_matrix exch def
      cairo_store_point /cairo_font where { pop cairo_selectfont } if } bind def
/g { setgray } bind def
/rg { setrgbcolor } bind def
/d1 { setcachedevice } bind def
%%EndProlog
%%BeginSetup
%%EndSetup
%%Page: 1 1
%%BeginPageSetup
%%PageBoundingBox: 0 -1 385 385
%%EndPageSetup
q 0 -1 385 386 rectclip q
0 g
160.145 358.462 m 85.918 358.462 25.746 298.286 25.746 224.06 c 25.746 
149.833 85.918 89.661 160.145 89.661 c 234.371 89.661 294.547 149.833 294.547
 224.06 c 294.465 298.255 234.34 358.38 160.145 358.462 c h
160.145 345.661 m 199.68 345.63 236.723 326.364 259.449 294.013 c 243.449
 278.013 l 239.555 280.368 235.098 281.63 230.547 281.661 c 216.406 281.661
 204.945 270.2 204.945 256.06 c 204.969 251.505 206.223 247.04 208.574 243.138
 c 166.668 201.232 l 158.73 206.071 148.758 206.071 140.824 201.232 c 111.719
 230.341 l 114.07 234.239 115.324 238.704 115.344 243.259 c 115.363 257.372
 103.938 268.825 89.828 268.841 c 78.16 268.857 67.965 260.962 65.055 249.661
 c 41.309 249.661 l 53.43 305.618 102.891 345.575 160.145 345.661 c h
243.344 256.06 m 243.344 248.989 237.613 243.259 230.547 243.259 c 223.477
 243.259 217.746 248.989 217.746 256.06 c 217.746 263.13 223.477 268.86 
230.547 268.86 c 237.613 268.86 243.344 263.13 243.344 256.06 c h
166.547 179.259 m 166.547 172.192 160.816 166.462 153.746 166.462 c 146.676
 166.462 140.945 172.192 140.945 179.259 c 140.945 186.329 146.676 192.06
 153.746 192.06 c 160.816 192.06 166.547 186.329 166.547 179.259 c h
102.547 243.259 m 102.547 236.192 96.816 230.462 89.746 230.462 c 82.676
 230.462 76.945 236.192 76.945 243.259 c 76.945 250.329 82.676 256.06 89.746
 256.06 c 96.816 256.06 102.547 250.329 102.547 243.259 c h
219.23 117.735 m 201.156 107.7 180.82 102.442 160.145 102.462 c 93.035 
102.415 38.59 156.782 38.547 223.896 c 38.543 228.228 38.77 232.556 39.23
 236.86 c 65.055 236.86 l 67.965 225.595 78.109 217.704 89.746 217.661 c
 94.301 217.685 98.766 218.939 102.668 221.29 c 131.773 192.185 l 129.422
 188.282 128.168 183.817 128.145 179.263 c 128.145 165.122 139.605 153.661
 153.746 153.661 c 167.883 153.661 179.344 165.122 179.344 179.263 c 179.324
 183.817 178.07 188.282 175.719 192.185 c 217.625 234.091 l 221.523 231.739
 225.988 230.485 230.547 230.462 c 244.684 230.462 256.145 241.923 256.145
 256.06 c 256.125 260.618 254.871 265.083 252.516 268.982 c 266.469 282.927
 l 299.039 224.267 277.891 150.306 219.23 117.735 c h
219.23 117.735 m f
320.145 320.06 m 331.785 320.107 341.926 327.993 344.836 339.259 c 384.145
 339.259 l 384.145 352.06 l 344.836 352.06 l 341.926 363.329 331.785 371.216
 320.145 371.259 c 306.008 371.259 294.547 359.798 294.547 345.661 c 294.566
 341.107 295.82 336.642 298.176 332.739 c 286.93 321.493 l 233.125 391.591
 132.684 404.798 62.586 350.993 c -7.508 297.192 -20.719 196.747 33.086 
126.653 c 83.875 60.485 176.969 44.435 246.98 89.775 c 266.297 70.462 l 
275.344 61.411 l 326.867 9.892 l 339.969 -3.214 361.211 -3.214 374.316 9.892
 c 387.418 22.993 387.418 44.239 374.316 57.341 c 313.746 117.911 l 294.43
 137.224 l 328.719 190.04 328.719 258.083 294.43 310.896 c 307.23 323.696
 l 311.129 321.341 315.594 320.087 320.145 320.06 c h
320.145 358.462 m 327.215 358.462 332.945 352.732 332.945 345.661 c 332.945
 338.591 327.215 332.86 320.145 332.86 c 313.074 332.86 307.344 338.591 
307.344 345.661 c 307.344 352.732 313.078 358.462 320.145 358.462 c h
365.266 48.29 m 373.461 40.278 373.613 27.138 365.598 18.942 c 357.586 
10.743 344.445 10.595 336.25 18.607 c 336.137 18.716 336.027 18.829 335.914
 18.942 c 284.395 70.462 l 313.746 99.81 l h
304.695 108.86 m 275.344 79.509 l 257.629 97.224 l 258.531 97.915 259.379
 98.677 260.266 99.388 c 261.156 100.099 262.188 100.95 263.141 101.751 
c 264.543 102.927 265.926 104.118 267.281 105.341 c 267.98 105.982 268.645
 106.622 269.328 107.259 c 271.953 109.72 274.496 112.259 276.953 114.884
 c 277.594 115.567 278.23 116.235 278.871 116.931 c 280.094 118.286 281.285
 119.669 282.461 121.071 c 283.266 122.021 284.051 122.978 284.824 123.946
 c 285.527 124.829 286.289 125.673 286.98 126.575 c h
279.875 138.587 m 277.859 135.775 275.781 133.013 273.586 130.357 c 272.945
 129.583 272.262 128.837 271.602 128.075 c 269.645 125.794 267.621 123.583
 265.535 121.442 c 264.625 120.505 263.703 119.579 262.762 118.673 c 260.629
 116.587 258.422 114.564 256.133 112.607 c 255.371 111.966 254.621 111.267
 253.848 110.622 c 251.191 108.427 248.434 106.345 245.617 104.329 c 179.363
 56.997 87.285 72.337 39.953 138.587 c -7.379 204.841 7.961 296.919 74.211
 344.251 c 140.465 391.583 232.543 376.247 279.875 309.993 c 316.5 258.728
 316.5 189.853 279.875 138.587 c h
279.875 138.587 m f
Q Q
showpage
%%Trailer
end restore
%%EOF
