%!PS-Adobe-3.0 EPSF-3.0
%%Creator: cairo 1.14.2 (http://cairographics.org)
%%CreationDate: Tue Apr  3 10:37:02 2018
%%Pages: 1
%%DocumentData: Clean7Bit
%%LanguageLevel: 2
%%BoundingBox: 0 3 384 381
%%EndComments
%%BeginProlog
save
50 dict begin
/q { gsave } bind def
/Q { grestore } bind def
/cm { 6 array astore concat } bind def
/w { setlinewidth } bind def
/J { setlinecap } bind def
/j { setlinejoin } bind def
/M { setmiterlimit } bind def
/d { setdash } bind def
/m { moveto } bind def
/l { lineto } bind def
/c { curveto } bind def
/h { closepath } bind def
/re { exch dup neg 3 1 roll 5 3 roll moveto 0 rlineto
      0 exch rlineto 0 rlineto closepath } bind def
/S { stroke } bind def
/f { fill } bind def
/f* { eofill } bind def
/n { newpath } bind def
/W { clip } bind def
/W* { eoclip } bind def
/BT { } bind def
/ET { } bind def
/pdfmark where { pop globaldict /?pdfmark /exec load put }
    { globaldict begin /?pdfmark /pop load def /pdfmark
    /cleartomark load def end } ifelse
/BDC { mark 3 1 roll /BDC pdfmark } bind def
/EMC { mark /EMC pdfmark } bind def
/cairo_store_point { /cairo_point_y exch def /cairo_point_x exch def } def
/Tj { show currentpoint cairo_store_point } bind def
/TJ {
  {
    dup
    type /stringtype eq
    { show } { -0.001 mul 0 cairo_font_matrix dtransform rmoveto } ifelse
  } forall
  currentpoint cairo_store_point
} bind def
/cairo_selectfont { cairo_font_matrix aload pop pop pop 0 0 6 array astore
    cairo_font exch selectfont cairo_point_x cairo_point_y moveto } bind def
/Tf { pop /cairo_font exch def /cairo_font_matrix where
      { pop cairo_selectfont } if } bind def
/Td { matrix translate cairo_font_matrix matrix concatmatrix dup
      /cairo_font_matrix exch def dup 4 get exch 5 get cairo_store_point
      /cairo_font where { pop cairo_selectfont } if } bind def
/Tm { 2 copy 8 2 roll 6 array astore /cairo_font_matrix exch def
      cairo_store_point /cairo_font where { pop cairo_selectfont } if } bind def
/g { setgray } bind def
/rg { setrgbcolor } bind def
/d1 { setcachedevice } bind def
%%EndProlog
%%BeginSetup
%%EndSetup
%%Page: 1 1
%%BeginPageSetup
%%PageBoundingBox: 0 3 384 381
%%EndPageSetup
q 0 3 384 378 rectclip q
0 g
288 380.801 m 6.398 380.801 l 2.867 380.801 0 377.934 0 374.398 c 0 9.602
 l 0 6.066 2.867 3.199 6.398 3.199 c 288 3.199 l 291.535 3.199 294.398 6.066
 294.398 9.602 c 294.398 374.398 l 294.398 377.934 291.535 380.801 288 380.801
 c h
281.602 16 m 12.801 16 l 12.801 368 l 281.602 368 l h
281.602 16 m f
179.199 316.801 m 115.199 316.801 l 111.664 316.801 108.801 313.934 108.801
 310.398 c 108.801 306.867 111.664 304 115.199 304 c 179.199 304 l 182.734
 304 185.602 306.867 185.602 310.398 c 185.602 313.934 182.734 316.801 179.199
 316.801 c h
179.199 316.801 m f
96 240 m 57.602 240 l 54.066 240 51.199 237.133 51.199 233.602 c 51.199
 230.066 54.066 227.199 57.602 227.199 c 96 227.199 l 99.535 227.199 102.398
 230.066 102.398 233.602 c 102.398 237.133 99.535 240 96 240 c h
96 240 m f
262.398 240 m 121.602 240 l 118.066 240 115.199 237.133 115.199 233.602
 c 115.199 230.066 118.066 227.199 121.602 227.199 c 262.398 227.199 l 265.934
 227.199 268.801 230.066 268.801 233.602 c 268.801 237.133 265.934 240 262.398
 240 c h
262.398 240 m f
262.398 214.398 m 32 214.398 l 28.465 214.398 25.602 211.535 25.602 208
 c 25.602 204.465 28.465 201.602 32 201.602 c 262.398 201.602 l 265.934 
201.602 268.801 204.465 268.801 208 c 268.801 211.535 265.934 214.398 262.398
 214.398 c h
262.398 214.398 m f
198.398 188.801 m 32 188.801 l 28.465 188.801 25.602 185.934 25.602 182.398
 c 25.602 178.867 28.465 176 32 176 c 198.398 176 l 201.934 176 204.801 
178.867 204.801 182.398 c 204.801 185.934 201.934 188.801 198.398 188.801
 c h
198.398 188.801 m f
262.398 188.801 m 224 188.801 l 220.465 188.801 217.602 185.934 217.602
 182.398 c 217.602 178.867 220.465 176 224 176 c 262.398 176 l 265.934 176
 268.801 178.867 268.801 182.398 c 268.801 185.934 265.934 188.801 262.398
 188.801 c h
262.398 188.801 m f
262.398 163.199 m 147.199 163.199 l 143.664 163.199 140.801 160.336 140.801
 156.801 c 140.801 153.266 143.664 150.398 147.199 150.398 c 262.398 150.398
 l 265.934 150.398 268.801 153.266 268.801 156.801 c 268.801 160.336 265.934
 163.199 262.398 163.199 c h
262.398 163.199 m f
121.602 163.199 m 32 163.199 l 28.465 163.199 25.602 160.336 25.602 156.801
 c 25.602 153.266 28.465 150.398 32 150.398 c 121.602 150.398 l 125.133 
150.398 128 153.266 128 156.801 c 128 160.336 125.133 163.199 121.602 163.199
 c h
121.602 163.199 m f
262.398 137.602 m 236.801 137.602 l 233.266 137.602 230.398 134.734 230.398
 131.199 c 230.398 127.664 233.266 124.801 236.801 124.801 c 262.398 124.801
 l 265.934 124.801 268.801 127.664 268.801 131.199 c 268.801 134.734 265.934
 137.602 262.398 137.602 c h
262.398 137.602 m f
64 137.602 m 32 137.602 l 28.465 137.602 25.602 134.734 25.602 131.199 
c 25.602 127.664 28.465 124.801 32 124.801 c 64 124.801 l 67.535 124.801
 70.398 127.664 70.398 131.199 c 70.398 134.734 67.535 137.602 64 137.602
 c h
64 137.602 m f
211.199 137.602 m 89.602 137.602 l 86.066 137.602 83.199 134.734 83.199
 131.199 c 83.199 127.664 86.066 124.801 89.602 124.801 c 211.199 124.801
 l 214.734 124.801 217.602 127.664 217.602 131.199 c 217.602 134.734 214.734
 137.602 211.199 137.602 c h
211.199 137.602 m f
256 60.801 m 166.398 60.801 l 162.867 60.801 160 57.934 160 54.398 c 160
 50.867 162.867 48 166.398 48 c 256 48 l 259.535 48 262.398 50.867 262.398
 54.398 c 262.398 57.934 259.535 60.801 256 60.801 c h
256 60.801 m f
204.801 342.398 m 89.602 342.398 l 86.066 342.398 83.199 339.535 83.199
 336 c 83.199 332.465 86.066 329.602 89.602 329.602 c 204.801 329.602 l 
208.336 329.602 211.199 332.465 211.199 336 c 211.199 339.535 208.336 342.398
 204.801 342.398 c h
204.801 342.398 m f
377.602 323.199 m 358.398 323.199 l 358.398 337.34 346.938 348.801 332.801
 348.801 c 318.66 348.801 307.199 337.34 307.199 323.199 c 307.199 92.801
 l 307.148 74.699 314.344 57.332 327.18 44.57 c 328.273 43.477 l 330.773
 40.977 334.824 40.977 337.324 43.477 c 338.418 44.57 l 351.258 57.332 358.453
 74.699 358.398 92.801 c 358.398 310.398 l 371.199 310.398 l 371.199 252.801
 l 384 252.801 l 384 316.801 l 384 320.336 381.133 323.199 377.602 323.199
 c h
332.801 57.371 m 325.898 65.621 321.574 75.715 320.363 86.398 c 345.234
 86.398 l 344.023 75.715 339.699 65.621 332.801 57.371 c h
345.602 99.199 m 320 99.199 l 320 310.398 l 345.602 310.398 l h
320 323.199 m 320 330.27 325.73 336 332.801 336 c 339.871 336 345.602 330.27
 345.602 323.199 c h
320 323.199 m f
262.398 278.398 m 185.602 278.398 l 182.066 278.398 179.199 275.535 179.199
 272 c 179.199 268.465 182.066 265.602 185.602 265.602 c 262.398 265.602
 l 265.934 265.602 268.801 268.465 268.801 272 c 268.801 275.535 265.934
 278.398 262.398 278.398 c h
262.398 278.398 m f
172.801 112 m 32 112 l 28.465 112 25.602 109.133 25.602 105.602 c 25.602
 102.066 28.465 99.199 32 99.199 c 172.801 99.199 l 176.336 99.199 179.199
 102.066 179.199 105.602 c 179.199 109.133 176.336 112 172.801 112 c h
172.801 112 m f
Q Q
showpage
%%Trailer
end restore
%%EOF
