%!PS-Adobe-3.0 EPSF-3.0
%%Creator: cairo 1.14.2 (http://cairographics.org)
%%CreationDate: Tue Apr  3 10:37:02 2018
%%Pages: 1
%%DocumentData: Clean7Bit
%%LanguageLevel: 2
%%BoundingBox: 2 0 382 384
%%EndComments
%%BeginProlog
save
50 dict begin
/q { gsave } bind def
/Q { grestore } bind def
/cm { 6 array astore concat } bind def
/w { setlinewidth } bind def
/J { setlinecap } bind def
/j { setlinejoin } bind def
/M { setmiterlimit } bind def
/d { setdash } bind def
/m { moveto } bind def
/l { lineto } bind def
/c { curveto } bind def
/h { closepath } bind def
/re { exch dup neg 3 1 roll 5 3 roll moveto 0 rlineto
      0 exch rlineto 0 rlineto closepath } bind def
/S { stroke } bind def
/f { fill } bind def
/f* { eofill } bind def
/n { newpath } bind def
/W { clip } bind def
/W* { eoclip } bind def
/BT { } bind def
/ET { } bind def
/pdfmark where { pop globaldict /?pdfmark /exec load put }
    { globaldict begin /?pdfmark /pop load def /pdfmark
    /cleartomark load def end } ifelse
/BDC { mark 3 1 roll /BDC pdfmark } bind def
/EMC { mark /EMC pdfmark } bind def
/cairo_store_point { /cairo_point_y exch def /cairo_point_x exch def } def
/Tj { show currentpoint cairo_store_point } bind def
/TJ {
  {
    dup
    type /stringtype eq
    { show } { -0.001 mul 0 cairo_font_matrix dtransform rmoveto } ifelse
  } forall
  currentpoint cairo_store_point
} bind def
/cairo_selectfont { cairo_font_matrix aload pop pop pop 0 0 6 array astore
    cairo_font exch selectfont cairo_point_x cairo_point_y moveto } bind def
/Tf { pop /cairo_font exch def /cairo_font_matrix where
      { pop cairo_selectfont } if } bind def
/Td { matrix translate cairo_font_matrix matrix concatmatrix dup
      /cairo_font_matrix exch def dup 4 get exch 5 get cairo_store_point
      /cairo_font where { pop cairo_selectfont } if } bind def
/Tm { 2 copy 8 2 roll 6 array astore /cairo_font_matrix exch def
      cairo_store_point /cairo_font where { pop cairo_selectfont } if } bind def
/g { setgray } bind def
/rg { setrgbcolor } bind def
/d1 { setcachedevice } bind def
%%EndProlog
%%BeginSetup
%%EndSetup
%%Page: 1 1
%%BeginPageSetup
%%PageBoundingBox: 2 0 382 384
%%EndPageSetup
q 2 0 380 384 rectclip q
0 g
106.629 172.801 m 88.957 172.801 74.629 158.473 74.629 140.801 c 74.629
 123.129 88.957 108.801 106.629 108.801 c 124.293 108.82 138.605 123.137
 138.629 140.801 c 138.629 158.473 124.301 172.801 106.629 172.801 c h
106.629 121.602 m 96.023 121.602 87.43 130.195 87.43 140.801 c 87.43 151.402
 96.023 160 106.629 160 c 117.23 160 125.828 151.402 125.828 140.801 c 125.828
 130.195 117.23 121.602 106.629 121.602 c h
106.629 121.602 m f
207.32 96.793 m 176.016 141.523 l 170.285 149.691 159.016 151.664 150.848
 145.93 c 142.828 140.301 140.758 129.305 146.18 121.145 c 158.672 102.398
 l 54.582 102.398 l 67.074 121.145 l 72.598 129.457 70.336 140.672 62.023
 146.191 c 53.863 151.613 42.867 149.543 37.238 141.523 c 5.938 96.793 l
 -0.664 87.359 1.637 74.363 11.066 67.766 c 14.57 65.316 18.738 64 23.012
 64 c 68.227 64 l 68.227 6.398 l 68.227 2.867 71.094 0 74.629 0 c 138.629
 0 l 142.164 0 145.027 2.867 145.027 6.398 c 145.027 64 l 190.242 64 l 201.758
 64.004 211.086 73.336 211.086 84.848 c 211.082 89.125 209.77 93.293 207.32
 96.793 c h
194.895 78.254 m 193.531 77.301 191.906 76.793 190.242 76.801 c 138.629
 76.801 l 135.094 76.801 132.227 73.934 132.227 70.398 c 132.227 12.801 
l 81.027 12.801 l 81.027 70.398 l 81.027 73.934 78.164 76.801 74.629 76.801
 c 23.012 76.801 l 18.57 76.801 14.965 80.398 14.965 84.844 c 14.965 86.496
 15.473 88.105 16.422 89.461 c 47.746 134.188 l 49.391 136.59 52.668 137.207
 55.07 135.566 c 57.473 133.922 58.086 130.645 56.445 128.242 c 37.305 99.551
 l 35.34 96.613 36.133 92.637 39.074 90.676 c 40.129 89.973 41.363 89.602
 42.629 89.602 c 170.629 89.602 l 174.164 89.598 177.027 92.465 177.027 
96 c 177.027 97.266 176.656 98.5 175.953 99.551 c 156.828 128.242 l 155.188
 130.645 155.805 133.922 158.207 135.566 c 160.605 137.207 163.887 136.59
 165.527 134.188 c 196.867 89.461 l 199.418 85.82 198.531 80.805 194.895
 78.254 c h
194.895 78.254 m f
119.43 288 m 100.227 288 l 89.625 288 81.027 279.402 81.027 268.801 c 93.828
 268.801 l 93.828 272.336 96.695 275.199 100.227 275.199 c 119.43 275.199
 l 122.961 275.199 125.828 272.336 125.828 268.801 c 125.828 265.266 122.961
 262.398 119.43 262.398 c 108.824 262.398 100.227 253.805 100.227 243.199
 c 113.027 243.199 l 113.027 246.734 115.895 249.602 119.43 249.602 c 130.031
 249.602 138.629 258.195 138.629 268.801 c 138.629 279.402 130.031 288 119.43
 288 c h
119.43 288 m f
100.227 236.801 12.801 -12.801 re f
106.629 313.602 m 67.812 313.602 36.227 287.762 36.227 256 c 36.227 230.117
 57.125 207.641 87.344 200.645 c 101.508 181.762 l 103.629 178.934 107.641
 178.359 110.469 180.48 c 110.953 180.844 111.383 181.273 111.746 181.762
 c 125.91 200.645 l 156.133 207.641 177.027 230.117 177.027 256 c 177.027
 287.762 145.445 313.602 106.629 313.602 c h
120.957 212.664 m 119.422 212.352 118.059 211.488 117.117 210.234 c 106.629
 196.27 l 96.152 210.234 l 95.211 211.488 93.844 212.352 92.312 212.664 
c 66.82 217.777 49.027 235.598 49.027 256 c 49.027 280.699 74.863 300.801
 106.629 300.801 c 138.391 300.801 164.227 280.699 164.227 256 c 164.227
 235.598 146.438 217.777 120.957 212.664 c h
120.957 212.664 m f
292.227 256 m 274.562 255.98 260.25 241.664 260.227 224 c 260.227 206.328
 274.555 192 292.227 192 c 309.902 192 324.227 206.328 324.227 224 c 324.227
 241.672 309.902 256 292.227 256 c h
292.227 204.801 m 281.625 204.801 273.027 213.395 273.027 224 c 273.027
 234.605 281.625 243.199 292.227 243.199 c 302.832 243.199 311.43 234.605
 311.43 224 c 311.43 213.395 302.832 204.801 292.227 204.801 c h
292.227 204.801 m f
330.629 384 m 253.828 384 l 236.164 383.98 221.848 369.664 221.828 352 
c 221.828 313.602 l 221.848 295.938 236.164 281.621 253.828 281.602 c 270.379
 281.602 l 287.703 264.273 l 290.203 261.777 294.254 261.777 296.754 264.273
 c 314.078 281.602 l 330.629 281.602 l 348.293 281.621 362.605 295.938 362.629
 313.602 c 362.629 352 l 362.605 369.664 348.293 383.98 330.629 384 c h
349.828 313.602 m 349.828 302.996 341.23 294.398 330.629 294.398 c 311.43
 294.398 l 309.73 294.398 308.102 293.727 306.902 292.523 c 292.227 277.848
 l 277.555 292.523 l 276.352 293.727 274.727 294.398 273.027 294.398 c 253.828
 294.398 l 243.223 294.398 234.629 302.996 234.629 313.602 c 234.629 352
 l 234.629 362.605 243.223 371.199 253.828 371.199 c 330.629 371.199 l 341.23
 371.199 349.828 362.605 349.828 352 c h
349.828 313.602 m f
365.828 210.945 m 355.371 212.711 345.465 205.668 343.695 195.211 c 343.52
 194.152 343.426 193.078 343.43 192 c 343.43 185.602 l 241.027 185.602 l
 241.027 216.914 l 241.148 226.469 234.41 234.734 225.027 236.543 c 214.574
 238.312 204.664 231.27 202.898 220.812 c 202.719 219.75 202.629 218.676
 202.629 217.602 c 202.629 185.602 l 202.648 164.402 219.828 147.223 241.027
 147.199 c 253.828 147.199 l 253.828 115.762 l 238.629 29.621 l 236.273 
15.879 245.5 2.828 259.242 0.473 c 272.984 -1.883 286.031 7.348 288.387 
21.09 c 292.227 44.262 l 296.066 21.082 l 298.426 7.348 311.469 -1.875 325.203
 0.484 c 338.938 2.84 348.16 15.887 345.801 29.621 c 330.629 115.762 l 330.629
 147.199 l 343.43 147.199 l 364.629 147.223 381.809 164.402 381.828 185.602
 c 381.828 191.316 l 381.949 200.867 375.207 209.137 365.828 210.945 c h
369.027 185.602 m 369.027 171.461 357.566 160 343.43 160 c 324.227 160 
l 320.695 160 317.828 157.133 317.828 153.602 c 317.828 115.199 l 317.828
 114.828 317.859 114.453 317.93 114.086 c 333.227 27.391 l 334.426 20.629
 329.91 14.176 323.148 12.98 c 316.387 11.781 309.934 16.293 308.738 23.055
 c 308.73 23.098 308.723 23.145 308.715 23.188 c 298.539 84.25 l 297.949
 87.734 294.645 90.082 291.16 89.492 c 288.477 89.039 286.371 86.934 285.918
 84.25 c 275.742 23.195 l 274.656 16.41 268.277 11.797 261.496 12.883 c 
254.715 13.969 250.098 20.348 251.184 27.129 c 251.199 27.215 251.215 27.305
 251.23 27.391 c 266.527 114.086 l 266.594 114.453 266.629 114.828 266.629
 115.199 c 266.629 153.602 l 266.629 157.133 263.762 160 260.227 160 c 241.027
 160 l 226.891 160 215.43 171.461 215.43 185.602 c 215.43 217.602 l 215.426
 221.133 218.289 224 221.824 224.004 c 222.203 224.004 222.578 223.969 222.949
 223.902 c 226.145 223.121 228.348 220.203 228.227 216.914 c 228.227 185.602
 l 228.227 178.531 233.957 172.801 241.027 172.801 c 343.43 172.801 l 350.496
 172.801 356.227 178.531 356.227 185.602 c 356.227 192 l 356.227 193.879
 357.055 195.668 358.488 196.883 c 359.938 198.125 361.871 198.645 363.746
 198.305 c 366.941 197.523 369.148 194.602 369.027 191.316 c h
369.027 185.602 m f
322.508 356.523 m 320.055 359.066 316.004 359.137 313.461 356.68 c 313.406
 356.629 313.355 356.578 313.305 356.523 c 279.43 322.648 l 271.152 330.926
 l 268.609 333.379 264.559 333.309 262.102 330.77 c 259.707 328.289 259.707
 324.355 262.102 321.875 c 274.902 309.074 l 277.402 306.578 281.453 306.578
 283.953 309.074 c 322.352 347.477 l 324.895 349.93 324.965 353.98 322.508
 356.523 c h
322.508 356.523 m f
Q Q
showpage
%%Trailer
end restore
%%EOF
