%!PS-Adobe-3.0 EPSF-3.0
%%Creator: cairo 1.14.2 (http://cairographics.org)
%%CreationDate: Mon Mar 19 08:31:40 2018
%%Pages: 1
%%DocumentData: Clean7Bit
%%LanguageLevel: 2
%%BoundingBox: 24 -1 385 410
%%EndComments
%%BeginProlog
save
50 dict begin
/q { gsave } bind def
/Q { grestore } bind def
/cm { 6 array astore concat } bind def
/w { setlinewidth } bind def
/J { setlinecap } bind def
/j { setlinejoin } bind def
/M { setmiterlimit } bind def
/d { setdash } bind def
/m { moveto } bind def
/l { lineto } bind def
/c { curveto } bind def
/h { closepath } bind def
/re { exch dup neg 3 1 roll 5 3 roll moveto 0 rlineto
      0 exch rlineto 0 rlineto closepath } bind def
/S { stroke } bind def
/f { fill } bind def
/f* { eofill } bind def
/n { newpath } bind def
/W { clip } bind def
/W* { eoclip } bind def
/BT { } bind def
/ET { } bind def
/pdfmark where { pop globaldict /?pdfmark /exec load put }
    { globaldict begin /?pdfmark /pop load def /pdfmark
    /cleartomark load def end } ifelse
/BDC { mark 3 1 roll /BDC pdfmark } bind def
/EMC { mark /EMC pdfmark } bind def
/cairo_store_point { /cairo_point_y exch def /cairo_point_x exch def } def
/Tj { show currentpoint cairo_store_point } bind def
/TJ {
  {
    dup
    type /stringtype eq
    { show } { -0.001 mul 0 cairo_font_matrix dtransform rmoveto } ifelse
  } forall
  currentpoint cairo_store_point
} bind def
/cairo_selectfont { cairo_font_matrix aload pop pop pop 0 0 6 array astore
    cairo_font exch selectfont cairo_point_x cairo_point_y moveto } bind def
/Tf { pop /cairo_font exch def /cairo_font_matrix where
      { pop cairo_selectfont } if } bind def
/Td { matrix translate cairo_font_matrix matrix concatmatrix dup
      /cairo_font_matrix exch def dup 4 get exch 5 get cairo_store_point
      /cairo_font where { pop cairo_selectfont } if } bind def
/Tm { 2 copy 8 2 roll 6 array astore /cairo_font_matrix exch def
      cairo_store_point /cairo_font where { pop cairo_selectfont } if } bind def
/g { setgray } bind def
/rg { setrgbcolor } bind def
/d1 { setcachedevice } bind def
%%EndProlog
%%BeginSetup
%%EndSetup
%%Page: 1 1
%%BeginPageSetup
%%PageBoundingBox: 24 -1 385 410
%%EndPageSetup
q 24 -1 361 411 rectclip q
0.8 0.4 0.631373 rg
109.461 -0.002 m 31.777 -0.002 l 27.879 -0.002 24.719 3.163 24.719 7.061
 c 24.719 233.049 l 24.719 258.401 45.27 278.952 70.621 278.952 c 82.793
 278.952 94.469 274.116 103.078 265.506 c 111.688 256.897 116.523 245.221
 116.523 233.049 c 116.523 7.061 l 116.523 3.163 113.363 -0.002 109.461 
-0.002 c h
109.461 -0.002 m f
0.901961 0.298039 0.235294 rg
243.641 -0.002 m 165.961 -0.002 l 162.059 -0.002 158.898 3.163 158.898 
7.061 c 158.898 303.67 l 158.898 329.022 179.449 349.573 204.801 349.573
 c 230.152 349.573 250.703 329.022 250.703 303.67 c 250.703 7.061 l 250.703
 3.163 247.543 -0.002 243.641 -0.002 c h
243.641 -0.002 m f
0.231373 0.592157 0.827451 rg
377.82 -0.002 m 300.137 -0.002 l 296.238 -0.002 293.074 3.163 293.074 7.061
 c 293.074 363.698 l 293.074 389.049 313.629 409.6 338.98 409.6 c 364.332
 409.6 384.883 389.049 384.883 363.698 c 384.883 7.061 l 384.883 3.163 381.723
 -0.002 377.82 -0.002 c h
377.82 -0.002 m f
0.752941 0.227451 0.168627 rg
250.703 42.373 m 250.703 7.061 l 250.691 3.166 247.535 0.01 243.641 -0.002
 c 165.957 -0.002 l 162.062 0.01 158.906 3.166 158.895 7.061 c 158.895 42.373
 l h
250.703 42.373 m f
0.501961 0.254902 0.411765 rg
116.523 42.373 m 116.523 7.061 l 116.512 3.166 113.359 0.01 109.461 -0.002
 c 31.777 -0.002 l 27.883 0.01 24.73 3.166 24.719 7.061 c 24.719 42.373 
l h
116.523 42.373 m f
0.160784 0.501961 0.729412 rg
384.883 42.373 m 384.883 7.061 l 384.871 3.166 381.715 0.01 377.82 -0.002
 c 300.137 -0.002 l 296.242 0.01 293.086 3.166 293.074 7.061 c 293.074 42.373
 l h
384.883 42.373 m f
0.752941 0.227451 0.168627 rg
250.703 261.295 m 250.703 218.924 l 158.898 127.12 l 158.898 169.491 l 
h
250.703 261.295 m f
0.501961 0.254902 0.411765 rg
116.523 218.924 m 116.523 176.553 l 24.719 84.745 l 24.719 127.12 l h
116.523 218.924 m f
0.160784 0.501961 0.729412 rg
384.883 317.791 m 384.883 275.42 l 293.074 183.612 l 293.074 225.987 l 
h
384.883 317.791 m f
Q Q
showpage
%%Trailer
end restore
%%EOF
