%!PS-Adobe-3.0 EPSF-3.0
%%Creator: cairo 1.14.2 (http://cairographics.org)
%%CreationDate: Mon Mar 19 08:31:40 2018
%%Pages: 1
%%DocumentData: Clean7Bit
%%LanguageLevel: 2
%%BoundingBox: 0 -1 410 410
%%EndComments
%%BeginProlog
save
50 dict begin
/q { gsave } bind def
/Q { grestore } bind def
/cm { 6 array astore concat } bind def
/w { setlinewidth } bind def
/J { setlinecap } bind def
/j { setlinejoin } bind def
/M { setmiterlimit } bind def
/d { setdash } bind def
/m { moveto } bind def
/l { lineto } bind def
/c { curveto } bind def
/h { closepath } bind def
/re { exch dup neg 3 1 roll 5 3 roll moveto 0 rlineto
      0 exch rlineto 0 rlineto closepath } bind def
/S { stroke } bind def
/f { fill } bind def
/f* { eofill } bind def
/n { newpath } bind def
/W { clip } bind def
/W* { eoclip } bind def
/BT { } bind def
/ET { } bind def
/pdfmark where { pop globaldict /?pdfmark /exec load put }
    { globaldict begin /?pdfmark /pop load def /pdfmark
    /cleartomark load def end } ifelse
/BDC { mark 3 1 roll /BDC pdfmark } bind def
/EMC { mark /EMC pdfmark } bind def
/cairo_store_point { /cairo_point_y exch def /cairo_point_x exch def } def
/Tj { show currentpoint cairo_store_point } bind def
/TJ {
  {
    dup
    type /stringtype eq
    { show } { -0.001 mul 0 cairo_font_matrix dtransform rmoveto } ifelse
  } forall
  currentpoint cairo_store_point
} bind def
/cairo_selectfont { cairo_font_matrix aload pop pop pop 0 0 6 array astore
    cairo_font exch selectfont cairo_point_x cairo_point_y moveto } bind def
/Tf { pop /cairo_font exch def /cairo_font_matrix where
      { pop cairo_selectfont } if } bind def
/Td { matrix translate cairo_font_matrix matrix concatmatrix dup
      /cairo_font_matrix exch def dup 4 get exch 5 get cairo_store_point
      /cairo_font where { pop cairo_selectfont } if } bind def
/Tm { 2 copy 8 2 roll 6 array astore /cairo_font_matrix exch def
      cairo_store_point /cairo_font where { pop cairo_selectfont } if } bind def
/g { setgray } bind def
/rg { setrgbcolor } bind def
/d1 { setcachedevice } bind def
%%EndProlog
%%BeginSetup
%%EndSetup
%%Page: 1 1
%%BeginPageSetup
%%PageBoundingBox: 0 -1 410 410
%%EndPageSetup
q 0 -1 410 411 rectclip q
0.941176 0.768627 0.0980392 rg
7.062 409.6 m 402.539 409.6 l 406.438 409.6 409.602 406.44 409.602 402.538
 c 409.602 7.061 l 409.602 3.163 406.438 -0.002 402.539 -0.002 c 7.062 -0.002
 l 3.16 -0.002 0 3.163 0 7.061 c 0 402.538 l 0 406.44 3.16 409.6 7.062 409.6
 c h
7.062 409.6 m f
0.901961 0.298039 0.235294 rg
380.809 334.616 m 379.711 337.248 377.145 338.967 374.289 338.979 c 317.793
 338.979 l 313.895 338.979 310.73 335.819 310.73 331.916 c 310.73 328.014
 313.891 324.854 317.793 324.854 c 357.242 324.854 l 268.359 235.971 l 248.633
 255.698 l 247.309 257.022 245.516 257.764 243.641 257.764 c 241.77 257.764
 239.973 257.022 238.648 255.698 c 130.648 147.698 l 100.332 178.014 l 99.008
 179.338 97.211 180.08 95.34 180.08 c 93.465 180.08 91.668 179.338 90.344
 178.014 c 23.258 110.924 l 21.473 109.139 20.773 106.541 21.43 104.104 
c 22.082 101.666 23.984 99.764 26.422 99.112 c 28.859 98.459 31.457 99.155
 33.242 100.936 c 95.34 163.034 l 125.656 132.717 l 126.98 131.393 128.777
 130.647 130.648 130.647 c 132.523 130.647 134.316 131.393 135.641 132.717
 c 243.641 240.717 l 263.367 220.995 l 264.691 219.666 266.484 218.924 268.359
 218.924 c 270.23 218.924 272.027 219.666 273.352 220.995 c 367.227 314.87
 l 367.227 275.42 l 367.227 271.522 370.391 268.358 374.289 268.358 c 378.191
 268.358 381.352 271.522 381.352 275.42 c 381.352 331.916 l 381.348 332.842
 381.164 333.76 380.809 334.616 c h
380.809 334.616 m f
0.266667 0.509804 0.764706 rg
70.621 360.166 m 70.621 348.463 61.137 338.979 49.434 338.979 c 37.734 
338.979 28.246 348.463 28.246 360.166 c 28.246 371.866 37.734 381.354 49.434
 381.354 c 61.137 381.354 70.621 371.866 70.621 360.166 c h
70.621 360.166 m f
0.705882 0.603922 0.792157 rg
70.621 289.545 m 70.621 277.842 61.137 268.358 49.434 268.358 c 37.734 
268.358 28.246 277.842 28.246 289.545 c 28.246 301.245 37.734 310.733 49.434
 310.733 c 61.137 310.733 70.621 301.245 70.621 289.545 c h
70.621 289.545 m f
0.309804 0.729412 0.435294 rg
70.621 218.924 m 70.621 207.225 61.137 197.737 49.434 197.737 c 37.734 
197.737 28.246 207.225 28.246 218.924 c 28.246 230.623 37.734 240.112 49.434
 240.112 c 61.137 240.112 70.621 230.623 70.621 218.924 c h
70.621 218.924 m f
0.207843 0.286275 0.368627 rg
35.309 21.186 m 33.438 21.186 31.641 21.928 30.316 23.256 c 28.992 24.58
 28.246 26.373 28.246 28.248 c 28.246 77.682 l 28.246 81.584 31.41 84.745
 35.309 84.745 c 39.211 84.745 42.371 81.584 42.371 77.682 c 42.371 28.248
 l 42.375 26.377 41.629 24.58 40.305 23.256 c 38.98 21.928 37.184 21.186
 35.309 21.186 c h
35.309 21.186 m f
70.621 21.186 m 68.746 21.186 66.953 21.928 65.625 23.256 c 64.301 24.58
 63.559 26.373 63.559 28.248 c 63.559 105.932 l 63.559 109.83 66.719 112.995
 70.621 112.995 c 74.52 112.995 77.684 109.83 77.684 105.932 c 77.684 28.248
 l 77.684 26.377 76.941 24.58 75.613 23.256 c 74.289 21.928 72.492 21.186
 70.621 21.186 c h
70.621 21.186 m f
105.93 21.186 m 104.059 21.186 102.262 21.928 100.938 23.256 c 99.613 24.58
 98.867 26.373 98.867 28.248 c 98.867 105.932 l 98.867 109.83 102.031 112.995
 105.93 112.995 c 109.832 112.995 112.992 109.83 112.992 105.932 c 112.992
 28.248 l 112.996 26.377 112.25 24.58 110.926 23.256 c 109.602 21.928 107.805
 21.186 105.93 21.186 c h
105.93 21.186 m f
141.242 21.186 m 139.367 21.186 137.57 21.928 136.246 23.256 c 134.922 
24.58 134.18 26.373 134.18 28.248 c 134.18 105.932 l 134.18 109.83 137.34
 112.995 141.242 112.995 c 145.141 112.995 148.305 109.83 148.305 105.932
 c 148.305 28.248 l 148.305 26.377 147.562 24.58 146.234 23.256 c 144.91
 21.928 143.113 21.186 141.242 21.186 c h
141.242 21.186 m f
176.551 21.186 m 174.68 21.186 172.883 21.928 171.559 23.256 c 170.234 
24.58 169.488 26.373 169.488 28.248 c 169.488 134.178 l 169.488 138.08 172.652
 141.241 176.551 141.241 c 180.453 141.241 183.613 138.08 183.613 134.178
 c 183.613 28.248 l 183.613 26.373 182.871 24.577 181.547 23.252 c 180.223
 21.928 178.426 21.186 176.551 21.186 c h
176.551 21.186 m f
211.863 21.186 m 209.988 21.186 208.191 21.928 206.867 23.256 c 205.543
 24.58 204.801 26.373 204.801 28.248 c 204.801 169.491 l 204.801 173.389
 207.961 176.553 211.863 176.553 c 215.762 176.553 218.926 173.389 218.926
 169.491 c 218.926 28.248 l 218.926 26.373 218.18 24.577 216.855 23.252 
c 215.531 21.928 213.734 21.186 211.863 21.186 c h
211.863 21.186 m f
247.172 21.186 m 245.301 21.186 243.504 21.928 242.18 23.256 c 240.855 
24.58 240.109 26.373 240.109 28.248 c 240.109 190.674 l 240.109 194.577 
243.273 197.737 247.172 197.737 c 251.074 197.737 254.234 194.577 254.234
 190.674 c 254.234 28.248 l 254.234 26.373 253.492 24.577 252.168 23.252
 c 250.844 21.928 249.047 21.186 247.172 21.186 c h
247.172 21.186 m f
317.793 21.186 m 315.922 21.186 314.125 21.928 312.797 23.256 c 311.473
 24.58 310.73 26.373 310.73 28.248 c 310.73 225.987 l 310.73 229.885 313.891
 233.049 317.793 233.049 c 321.691 233.049 324.855 229.889 324.855 225.987
 c 324.855 28.248 l 324.855 26.373 324.113 24.577 322.789 23.252 c 321.461
 21.928 319.668 21.186 317.793 21.186 c h
317.793 21.186 m f
353.102 21.186 m 351.23 21.186 349.434 21.928 348.109 23.256 c 346.785 
24.58 346.039 26.373 346.039 28.248 c 346.039 254.233 l 346.039 258.135 
349.203 261.295 353.102 261.295 c 357.004 261.295 360.164 258.135 360.164
 254.233 c 360.164 28.248 l 360.168 26.373 359.422 24.577 358.098 23.252
 c 356.773 21.928 354.977 21.186 353.102 21.186 c h
353.102 21.186 m f
282.48 21.186 m 280.609 21.186 278.812 21.928 277.488 23.256 c 276.164 
24.58 275.422 26.373 275.422 28.248 c 275.422 176.553 l 275.422 180.452 
278.582 183.616 282.48 183.616 c 286.383 183.616 289.543 180.452 289.543
 176.553 c 289.543 28.248 l 289.547 26.373 288.801 24.577 287.477 23.252
 c 286.152 21.928 284.355 21.186 282.48 21.186 c h
282.48 21.186 m f
Q Q
showpage
%%Trailer
end restore
%%EOF
