%!PS-Adobe-3.0 EPSF-3.0
%%Creator: cairo 1.14.2 (http://cairographics.org)
%%CreationDate: Mon Mar 19 08:31:40 2018
%%Pages: 1
%%DocumentData: Clean7Bit
%%LanguageLevel: 2
%%BoundingBox: 28 -1 382 410
%%EndComments
%%BeginProlog
save
50 dict begin
/q { gsave } bind def
/Q { grestore } bind def
/cm { 6 array astore concat } bind def
/w { setlinewidth } bind def
/J { setlinecap } bind def
/j { setlinejoin } bind def
/M { setmiterlimit } bind def
/d { setdash } bind def
/m { moveto } bind def
/l { lineto } bind def
/c { curveto } bind def
/h { closepath } bind def
/re { exch dup neg 3 1 roll 5 3 roll moveto 0 rlineto
      0 exch rlineto 0 rlineto closepath } bind def
/S { stroke } bind def
/f { fill } bind def
/f* { eofill } bind def
/n { newpath } bind def
/W { clip } bind def
/W* { eoclip } bind def
/BT { } bind def
/ET { } bind def
/pdfmark where { pop globaldict /?pdfmark /exec load put }
    { globaldict begin /?pdfmark /pop load def /pdfmark
    /cleartomark load def end } ifelse
/BDC { mark 3 1 roll /BDC pdfmark } bind def
/EMC { mark /EMC pdfmark } bind def
/cairo_store_point { /cairo_point_y exch def /cairo_point_x exch def } def
/Tj { show currentpoint cairo_store_point } bind def
/TJ {
  {
    dup
    type /stringtype eq
    { show } { -0.001 mul 0 cairo_font_matrix dtransform rmoveto } ifelse
  } forall
  currentpoint cairo_store_point
} bind def
/cairo_selectfont { cairo_font_matrix aload pop pop pop 0 0 6 array astore
    cairo_font exch selectfont cairo_point_x cairo_point_y moveto } bind def
/Tf { pop /cairo_font exch def /cairo_font_matrix where
      { pop cairo_selectfont } if } bind def
/Td { matrix translate cairo_font_matrix matrix concatmatrix dup
      /cairo_font_matrix exch def dup 4 get exch 5 get cairo_store_point
      /cairo_font where { pop cairo_selectfont } if } bind def
/Tm { 2 copy 8 2 roll 6 array astore /cairo_font_matrix exch def
      cairo_store_point /cairo_font where { pop cairo_selectfont } if } bind def
/g { setgray } bind def
/rg { setrgbcolor } bind def
/d1 { setcachedevice } bind def
%%EndProlog
%%BeginSetup
%%EndSetup
%%Page: 1 1
%%BeginPageSetup
%%PageBoundingBox: 28 -1 382 410
%%EndPageSetup
q 28 -1 354 411 rectclip q
0.941176 0.768627 0.0980392 rg
42.371 218.924 m 56.496 218.924 l 64.297 218.924 70.621 212.6 70.621 204.799
 c 70.621 14.123 l 70.621 6.323 64.297 -0.002 56.496 -0.002 c 42.371 -0.002
 l 34.57 -0.002 28.25 6.323 28.25 14.123 c 28.25 204.799 l 28.246 212.6 
34.57 218.924 42.371 218.924 c h
42.371 218.924 m f
197.738 183.612 m 211.863 183.612 l 219.664 183.612 225.984 177.291 225.984
 169.491 c 225.984 14.123 l 225.984 6.323 219.664 -0.002 211.863 -0.002 
c 197.738 -0.002 l 189.938 -0.002 183.613 6.323 183.613 14.123 c 183.613
 169.491 l 183.613 177.291 189.938 183.612 197.738 183.612 c h
197.738 183.612 m f
120.055 282.483 m 134.18 282.483 l 141.98 282.483 148.305 276.159 148.305
 268.358 c 148.305 14.123 l 148.305 6.323 141.98 -0.002 134.18 -0.002 c 
120.055 -0.002 l 112.254 -0.002 105.93 6.323 105.93 14.123 c 105.93 268.358
 l 105.93 276.159 112.254 282.483 120.055 282.483 c h
120.055 282.483 m f
275.422 324.854 m 289.543 324.854 l 297.344 324.854 303.668 318.534 303.668
 310.733 c 303.668 14.123 l 303.668 6.323 297.344 -0.002 289.543 -0.002 
c 275.422 -0.002 l 267.621 -0.002 261.297 6.323 261.297 14.123 c 261.297
 310.733 l 261.297 318.53 267.621 324.854 275.422 324.854 c h
275.422 324.854 m f
353.102 409.6 m 367.227 409.6 l 375.027 409.6 381.352 403.276 381.352 395.475
 c 381.352 14.123 l 381.352 6.323 375.027 -0.002 367.227 -0.002 c 353.102
 -0.002 l 345.301 -0.002 338.98 6.323 338.98 14.123 c 338.98 395.475 l 338.98
 403.276 345.305 409.6 353.102 409.6 c h
353.102 409.6 m f
0.8 0.4 0.631373 rg
197.738 409.6 m 56.496 409.6 l 56.496 331.916 l 114.406 331.916 l 127.117
 310.733 l 139.828 331.916 l 197.738 331.916 l h
197.738 409.6 m f
Q Q
showpage
%%Trailer
end restore
%%EOF
