%!PS-Adobe-3.0 EPSF-3.0
%%Creator: cairo 1.14.2 (http://cairographics.org)
%%CreationDate: Mon Mar 19 08:31:40 2018
%%Pages: 1
%%DocumentData: Clean7Bit
%%LanguageLevel: 2
%%BoundingBox: 0 -1 410 410
%%EndComments
%%BeginProlog
save
50 dict begin
/q { gsave } bind def
/Q { grestore } bind def
/cm { 6 array astore concat } bind def
/w { setlinewidth } bind def
/J { setlinecap } bind def
/j { setlinejoin } bind def
/M { setmiterlimit } bind def
/d { setdash } bind def
/m { moveto } bind def
/l { lineto } bind def
/c { curveto } bind def
/h { closepath } bind def
/re { exch dup neg 3 1 roll 5 3 roll moveto 0 rlineto
      0 exch rlineto 0 rlineto closepath } bind def
/S { stroke } bind def
/f { fill } bind def
/f* { eofill } bind def
/n { newpath } bind def
/W { clip } bind def
/W* { eoclip } bind def
/BT { } bind def
/ET { } bind def
/pdfmark where { pop globaldict /?pdfmark /exec load put }
    { globaldict begin /?pdfmark /pop load def /pdfmark
    /cleartomark load def end } ifelse
/BDC { mark 3 1 roll /BDC pdfmark } bind def
/EMC { mark /EMC pdfmark } bind def
/cairo_store_point { /cairo_point_y exch def /cairo_point_x exch def } def
/Tj { show currentpoint cairo_store_point } bind def
/TJ {
  {
    dup
    type /stringtype eq
    { show } { -0.001 mul 0 cairo_font_matrix dtransform rmoveto } ifelse
  } forall
  currentpoint cairo_store_point
} bind def
/cairo_selectfont { cairo_font_matrix aload pop pop pop 0 0 6 array astore
    cairo_font exch selectfont cairo_point_x cairo_point_y moveto } bind def
/Tf { pop /cairo_font exch def /cairo_font_matrix where
      { pop cairo_selectfont } if } bind def
/Td { matrix translate cairo_font_matrix matrix concatmatrix dup
      /cairo_font_matrix exch def dup 4 get exch 5 get cairo_store_point
      /cairo_font where { pop cairo_selectfont } if } bind def
/Tm { 2 copy 8 2 roll 6 array astore /cairo_font_matrix exch def
      cairo_store_point /cairo_font where { pop cairo_selectfont } if } bind def
/g { setgray } bind def
/rg { setrgbcolor } bind def
/d1 { setcachedevice } bind def
%%EndProlog
%%BeginSetup
%%EndSetup
%%Page: 1 1
%%BeginPageSetup
%%PageBoundingBox: 0 -1 410 410
%%EndPageSetup
q 0 -1 410 411 rectclip q
0.941176 0.768627 0.0980392 rg
360.164 349.573 m 225.988 215.393 l 180.082 261.295 l 102.398 183.612 l
 49.434 236.58 l 24.719 240.698 l 35.309 50.022 l 35.332 42.233 41.641 35.92
 49.434 35.897 c 409.602 35.311 l 409.602 300.139 l h
360.164 349.573 m f
0.231373 0.592157 0.827451 rg
409.602 49.436 m 409.602 14.123 l 409.578 6.334 403.266 0.022 395.477 -0.002
 c 14.125 -0.002 l 6.332 0.022 0.023 6.334 0 14.123 c 0 395.475 l 0.023 
403.268 6.332 409.577 14.125 409.6 c 35.309 409.6 l 43.102 409.577 49.41
 403.268 49.434 395.475 c 49.434 63.557 l 49.457 55.768 55.766 49.459 63.559
 49.436 c h
409.602 49.436 m f
0.901961 0.298039 0.235294 rg
409.602 310.733 m 409.602 247.174 l 360.164 296.608 l 225.988 162.428 l
 180.082 208.33 l 102.398 130.647 l 49.434 183.612 l 49.434 247.174 l 102.398
 194.205 l 180.082 271.889 l 225.988 225.987 l 360.164 360.166 l h
409.602 310.733 m f
Q Q
showpage
%%Trailer
end restore
%%EOF
