%!PS-Adobe-3.0 EPSF-3.0
%%Creator: cairo 1.14.2 (http://cairographics.org)
%%CreationDate: Mon Mar 19 08:31:40 2018
%%Pages: 1
%%DocumentData: Clean7Bit
%%LanguageLevel: 2
%%BoundingBox: 0 -1 410 410
%%EndComments
%%BeginProlog
save
50 dict begin
/q { gsave } bind def
/Q { grestore } bind def
/cm { 6 array astore concat } bind def
/w { setlinewidth } bind def
/J { setlinecap } bind def
/j { setlinejoin } bind def
/M { setmiterlimit } bind def
/d { setdash } bind def
/m { moveto } bind def
/l { lineto } bind def
/c { curveto } bind def
/h { closepath } bind def
/re { exch dup neg 3 1 roll 5 3 roll moveto 0 rlineto
      0 exch rlineto 0 rlineto closepath } bind def
/S { stroke } bind def
/f { fill } bind def
/f* { eofill } bind def
/n { newpath } bind def
/W { clip } bind def
/W* { eoclip } bind def
/BT { } bind def
/ET { } bind def
/pdfmark where { pop globaldict /?pdfmark /exec load put }
    { globaldict begin /?pdfmark /pop load def /pdfmark
    /cleartomark load def end } ifelse
/BDC { mark 3 1 roll /BDC pdfmark } bind def
/EMC { mark /EMC pdfmark } bind def
/cairo_store_point { /cairo_point_y exch def /cairo_point_x exch def } def
/Tj { show currentpoint cairo_store_point } bind def
/TJ {
  {
    dup
    type /stringtype eq
    { show } { -0.001 mul 0 cairo_font_matrix dtransform rmoveto } ifelse
  } forall
  currentpoint cairo_store_point
} bind def
/cairo_selectfont { cairo_font_matrix aload pop pop pop 0 0 6 array astore
    cairo_font exch selectfont cairo_point_x cairo_point_y moveto } bind def
/Tf { pop /cairo_font exch def /cairo_font_matrix where
      { pop cairo_selectfont } if } bind def
/Td { matrix translate cairo_font_matrix matrix concatmatrix dup
      /cairo_font_matrix exch def dup 4 get exch 5 get cairo_store_point
      /cairo_font where { pop cairo_selectfont } if } bind def
/Tm { 2 copy 8 2 roll 6 array astore /cairo_font_matrix exch def
      cairo_store_point /cairo_font where { pop cairo_selectfont } if } bind def
/g { setgray } bind def
/rg { setrgbcolor } bind def
/d1 { setcachedevice } bind def
%%EndProlog
%%BeginSetup
%%EndSetup
%%Page: 1 1
%%BeginPageSetup
%%PageBoundingBox: 0 -1 410 410
%%EndPageSetup
q 0 -1 410 411 rectclip q
0.207843 0.286275 0.368627 rg
112.695 150.952 m 109.957 150.952 107.461 152.541 106.301 155.026 c 105.141
 157.51 105.523 160.44 107.281 162.545 c 185.551 256.116 l 188.055 259.108
 192.508 259.506 195.5 257.002 c 198.492 254.502 198.887 250.045 196.387
 247.057 c 118.117 153.483 l 116.773 151.877 114.789 150.948 112.695 150.952
 c h
112.695 150.952 m f
302.488 180.674 m 299.992 180.678 297.688 181.995 296.418 184.143 c 295.148
 186.288 295.105 188.944 296.305 191.131 c 369.273 324.131 l 371.164 327.518
 375.434 328.745 378.836 326.877 c 382.234 325.014 383.496 320.756 381.656
 317.338 c 308.688 184.338 l 307.445 182.077 305.066 180.67 302.488 180.674
 c h
302.488 180.674 m f
291.012 173.612 m 289.309 173.608 287.66 174.229 286.375 175.354 c 198.688
 251.854 l 196.785 253.514 195.914 256.061 196.398 258.534 c 196.887 261.01
 198.656 263.038 201.039 263.858 c 203.426 264.674 206.07 264.155 207.969
 262.498 c 295.66 185.995 l 297.879 184.057 298.66 180.948 297.629 178.194
 c 296.594 175.436 293.957 173.608 291.012 173.612 c h
291.012 173.612 m f
0.231373 0.592157 0.827451 rg
49.434 63.557 m 49.434 395.475 l 49.434 403.276 43.109 409.6 35.309 409.6
 c 14.125 409.6 l 6.324 409.6 0 403.276 0 395.475 c 0 14.123 l 0 6.323 6.324
 -0.002 14.125 -0.002 c 395.477 -0.002 l 403.277 -0.002 409.602 6.323 409.602
 14.123 c 409.602 35.311 l 409.602 43.112 403.277 49.436 395.477 49.436 
c 63.559 49.436 l 55.758 49.436 49.434 55.76 49.434 63.557 c h
49.434 63.557 m f
0.8 0.294118 0.298039 rg
134.18 148.303 m 134.18 132.702 121.531 120.057 105.93 120.057 c 90.332
 120.057 77.684 132.702 77.684 148.303 c 77.684 163.905 90.332 176.553 105.93
 176.553 c 121.531 176.553 134.18 163.905 134.18 148.303 c h
134.18 148.303 m f
225.984 261.295 m 225.984 245.698 213.34 233.049 197.738 233.049 c 182.137
 233.049 169.488 245.698 169.488 261.295 c 169.488 276.897 182.137 289.545
 197.738 289.545 c 213.34 289.545 225.984 276.897 225.984 261.295 c h
225.984 261.295 m f
324.855 176.553 m 324.855 160.952 312.207 148.303 296.605 148.303 c 281.008
 148.303 268.359 160.952 268.359 176.553 c 268.359 192.155 281.008 204.799
 296.605 204.799 c 312.207 204.799 324.855 192.155 324.855 176.553 c h
324.855 176.553 m f
409.602 331.916 m 409.602 316.315 396.953 303.67 381.352 303.67 c 365.75
 303.67 353.105 316.315 353.105 331.916 c 353.105 347.518 365.75 360.166
 381.352 360.166 c 396.953 360.166 409.602 347.518 409.602 331.916 c h
409.602 331.916 m f
Q Q
showpage
%%Trailer
end restore
%%EOF
