%!PS-Adobe-3.0 EPSF-3.0
%%Creator: cairo 1.14.2 (http://cairographics.org)
%%CreationDate: Mon Mar 19 08:31:40 2018
%%Pages: 1
%%DocumentData: Clean7Bit
%%LanguageLevel: 2
%%BoundingBox: 0 -1 410 410
%%EndComments
%%BeginProlog
save
50 dict begin
/q { gsave } bind def
/Q { grestore } bind def
/cm { 6 array astore concat } bind def
/w { setlinewidth } bind def
/J { setlinecap } bind def
/j { setlinejoin } bind def
/M { setmiterlimit } bind def
/d { setdash } bind def
/m { moveto } bind def
/l { lineto } bind def
/c { curveto } bind def
/h { closepath } bind def
/re { exch dup neg 3 1 roll 5 3 roll moveto 0 rlineto
      0 exch rlineto 0 rlineto closepath } bind def
/S { stroke } bind def
/f { fill } bind def
/f* { eofill } bind def
/n { newpath } bind def
/W { clip } bind def
/W* { eoclip } bind def
/BT { } bind def
/ET { } bind def
/pdfmark where { pop globaldict /?pdfmark /exec load put }
    { globaldict begin /?pdfmark /pop load def /pdfmark
    /cleartomark load def end } ifelse
/BDC { mark 3 1 roll /BDC pdfmark } bind def
/EMC { mark /EMC pdfmark } bind def
/cairo_store_point { /cairo_point_y exch def /cairo_point_x exch def } def
/Tj { show currentpoint cairo_store_point } bind def
/TJ {
  {
    dup
    type /stringtype eq
    { show } { -0.001 mul 0 cairo_font_matrix dtransform rmoveto } ifelse
  } forall
  currentpoint cairo_store_point
} bind def
/cairo_selectfont { cairo_font_matrix aload pop pop pop 0 0 6 array astore
    cairo_font exch selectfont cairo_point_x cairo_point_y moveto } bind def
/Tf { pop /cairo_font exch def /cairo_font_matrix where
      { pop cairo_selectfont } if } bind def
/Td { matrix translate cairo_font_matrix matrix concatmatrix dup
      /cairo_font_matrix exch def dup 4 get exch 5 get cairo_store_point
      /cairo_font where { pop cairo_selectfont } if } bind def
/Tm { 2 copy 8 2 roll 6 array astore /cairo_font_matrix exch def
      cairo_store_point /cairo_font where { pop cairo_selectfont } if } bind def
/g { setgray } bind def
/rg { setrgbcolor } bind def
/d1 { setcachedevice } bind def
%%EndProlog
%%BeginSetup
%%EndSetup
%%Page: 1 1
%%BeginPageSetup
%%PageBoundingBox: 0 -1 410 410
%%EndPageSetup
q 0 -1 410 411 rectclip q
0.8 0.4 0.631373 rg
120.055 353.104 m 91.809 353.104 l 84.016 353.08 77.707 346.772 77.684 
338.979 c 77.684 42.373 l 134.18 42.373 l 134.18 338.979 l 134.156 346.772
 127.848 353.08 120.055 353.104 c h
120.055 353.104 m f
0.941176 0.768627 0.0980392 rg
204.801 296.608 m 176.551 296.608 l 168.762 296.584 162.449 290.276 162.43
 282.483 c 162.43 42.373 l 218.926 42.373 l 218.926 282.483 l 218.902 290.272
 212.59 296.584 204.801 296.608 c h
204.801 296.608 m f
0.901961 0.298039 0.235294 rg
289.543 247.174 m 261.297 247.174 l 253.504 247.151 247.195 240.838 247.172
 233.049 c 247.172 42.373 l 303.668 42.373 l 303.668 233.049 l 303.645 240.838
 297.336 247.151 289.543 247.174 c h
289.543 247.174 m f
0.396078 0.866667 0.72549 rg
374.289 190.674 m 346.043 190.674 l 338.25 190.655 331.941 184.342 331.918
 176.553 c 331.918 42.373 l 388.414 42.373 l 388.414 176.553 l 388.391 184.342
 382.082 190.655 374.289 190.674 c h
374.289 190.674 m f
0.501961 0.254902 0.411765 rg
134.18 134.178 m 134.18 42.373 l 77.684 42.373 l 77.684 77.682 l h
134.18 134.178 m f
0.94902 0.611765 0.121569 rg
218.926 134.178 m 218.926 42.373 l 162.426 42.373 l 162.426 77.682 l h
218.926 134.178 m f
0.752941 0.227451 0.168627 rg
303.668 134.178 m 303.668 42.373 l 247.172 42.373 l 247.172 77.682 l h
303.668 134.178 m f
0.27451 0.698039 0.615686 rg
388.414 134.178 m 388.414 42.373 l 331.918 42.373 l 331.918 77.682 l h
388.414 134.178 m f
0.231373 0.592157 0.827451 rg
49.434 63.557 m 49.434 395.475 l 49.434 403.276 43.109 409.6 35.309 409.6
 c 14.125 409.6 l 6.324 409.6 0 403.276 0 395.475 c 0 14.123 l 0 6.323 6.324
 -0.002 14.125 -0.002 c 395.477 -0.002 l 403.277 -0.002 409.602 6.323 409.602
 14.123 c 409.602 35.311 l 409.602 43.112 403.277 49.436 395.477 49.436 
c 63.559 49.436 l 55.758 49.436 49.434 55.76 49.434 63.557 c h
49.434 63.557 m f
Q Q
showpage
%%Trailer
end restore
%%EOF
