%!PS-Adobe-3.0 EPSF-3.0
%%Creator: cairo 1.14.2 (http://cairographics.org)
%%CreationDate: Mon Mar 19 08:31:40 2018
%%Pages: 1
%%DocumentData: Clean7Bit
%%LanguageLevel: 2
%%BoundingBox: 0 -1 410 410
%%EndComments
%%BeginProlog
save
50 dict begin
/q { gsave } bind def
/Q { grestore } bind def
/cm { 6 array astore concat } bind def
/w { setlinewidth } bind def
/J { setlinecap } bind def
/j { setlinejoin } bind def
/M { setmiterlimit } bind def
/d { setdash } bind def
/m { moveto } bind def
/l { lineto } bind def
/c { curveto } bind def
/h { closepath } bind def
/re { exch dup neg 3 1 roll 5 3 roll moveto 0 rlineto
      0 exch rlineto 0 rlineto closepath } bind def
/S { stroke } bind def
/f { fill } bind def
/f* { eofill } bind def
/n { newpath } bind def
/W { clip } bind def
/W* { eoclip } bind def
/BT { } bind def
/ET { } bind def
/pdfmark where { pop globaldict /?pdfmark /exec load put }
    { globaldict begin /?pdfmark /pop load def /pdfmark
    /cleartomark load def end } ifelse
/BDC { mark 3 1 roll /BDC pdfmark } bind def
/EMC { mark /EMC pdfmark } bind def
/cairo_store_point { /cairo_point_y exch def /cairo_point_x exch def } def
/Tj { show currentpoint cairo_store_point } bind def
/TJ {
  {
    dup
    type /stringtype eq
    { show } { -0.001 mul 0 cairo_font_matrix dtransform rmoveto } ifelse
  } forall
  currentpoint cairo_store_point
} bind def
/cairo_selectfont { cairo_font_matrix aload pop pop pop 0 0 6 array astore
    cairo_font exch selectfont cairo_point_x cairo_point_y moveto } bind def
/Tf { pop /cairo_font exch def /cairo_font_matrix where
      { pop cairo_selectfont } if } bind def
/Td { matrix translate cairo_font_matrix matrix concatmatrix dup
      /cairo_font_matrix exch def dup 4 get exch 5 get cairo_store_point
      /cairo_font where { pop cairo_selectfont } if } bind def
/Tm { 2 copy 8 2 roll 6 array astore /cairo_font_matrix exch def
      cairo_store_point /cairo_font where { pop cairo_selectfont } if } bind def
/g { setgray } bind def
/rg { setrgbcolor } bind def
/d1 { setcachedevice } bind def
%%EndProlog
%%BeginSetup
%%EndSetup
%%Page: 1 1
%%BeginPageSetup
%%PageBoundingBox: 0 -1 410 410
%%EndPageSetup
q 0 -1 410 411 rectclip q
0.941176 0.768627 0.0980392 rg
357.879 301.659 m 324.766 334.842 279.789 353.459 232.91 353.381 c 232.91
 409.6 l 171.137 409.612 111.887 385.077 68.207 341.397 c 24.523 297.713
 -0.012 238.467 0 176.694 c 56.219 176.694 l 56.246 96.733 109.965 26.76
 187.203 6.073 c 264.441 -14.611 345.941 19.155 385.926 88.397 c 425.906
 157.643 414.402 245.108 357.879 301.659 c h
357.879 301.659 m f
0.94902 0.611765 0.121569 rg
232.91 176.694 m 107.941 51.725 l 74.758 84.838 56.145 129.811 56.219 176.694
 c h
232.91 176.694 m f
0.231373 0.592157 0.827451 rg
409.602 176.694 m 232.91 176.694 l 357.879 301.659 l 391.062 268.545 409.676
 223.573 409.602 176.694 c h
409.602 176.694 m f
0.27451 0.698039 0.615686 rg
409.602 176.694 m 409.676 129.811 391.062 84.838 357.879 51.725 c 232.91
 176.694 l h
409.602 176.694 m f
0.584314 0.356863 0.647059 rg
357.879 51.725 m 288.836 -17.24 176.98 -17.24 107.941 51.725 c 232.91 176.694
 l h
357.879 51.725 m f
0.901961 0.298039 0.235294 rg
232.91 409.6 m 232.91 176.694 l 0 176.694 l -0.012 238.467 24.523 297.713
 68.207 341.397 c 111.887 385.077 171.137 409.612 232.91 409.6 c h
232.91 409.6 m f
Q Q
showpage
%%Trailer
end restore
%%EOF
