%!PS-Adobe-3.0 EPSF-3.0
%%Creator: cairo 1.14.2 (http://cairographics.org)
%%CreationDate: Mon Mar 19 08:31:40 2018
%%Pages: 1
%%DocumentData: Clean7Bit
%%LanguageLevel: 2
%%BoundingBox: 0 -1 410 410
%%EndComments
%%BeginProlog
save
50 dict begin
/q { gsave } bind def
/Q { grestore } bind def
/cm { 6 array astore concat } bind def
/w { setlinewidth } bind def
/J { setlinecap } bind def
/j { setlinejoin } bind def
/M { setmiterlimit } bind def
/d { setdash } bind def
/m { moveto } bind def
/l { lineto } bind def
/c { curveto } bind def
/h { closepath } bind def
/re { exch dup neg 3 1 roll 5 3 roll moveto 0 rlineto
      0 exch rlineto 0 rlineto closepath } bind def
/S { stroke } bind def
/f { fill } bind def
/f* { eofill } bind def
/n { newpath } bind def
/W { clip } bind def
/W* { eoclip } bind def
/BT { } bind def
/ET { } bind def
/pdfmark where { pop globaldict /?pdfmark /exec load put }
    { globaldict begin /?pdfmark /pop load def /pdfmark
    /cleartomark load def end } ifelse
/BDC { mark 3 1 roll /BDC pdfmark } bind def
/EMC { mark /EMC pdfmark } bind def
/cairo_store_point { /cairo_point_y exch def /cairo_point_x exch def } def
/Tj { show currentpoint cairo_store_point } bind def
/TJ {
  {
    dup
    type /stringtype eq
    { show } { -0.001 mul 0 cairo_font_matrix dtransform rmoveto } ifelse
  } forall
  currentpoint cairo_store_point
} bind def
/cairo_selectfont { cairo_font_matrix aload pop pop pop 0 0 6 array astore
    cairo_font exch selectfont cairo_point_x cairo_point_y moveto } bind def
/Tf { pop /cairo_font exch def /cairo_font_matrix where
      { pop cairo_selectfont } if } bind def
/Td { matrix translate cairo_font_matrix matrix concatmatrix dup
      /cairo_font_matrix exch def dup 4 get exch 5 get cairo_store_point
      /cairo_font where { pop cairo_selectfont } if } bind def
/Tm { 2 copy 8 2 roll 6 array astore /cairo_font_matrix exch def
      cairo_store_point /cairo_font where { pop cairo_selectfont } if } bind def
/g { setgray } bind def
/rg { setrgbcolor } bind def
/d1 { setcachedevice } bind def
%%EndProlog
%%BeginSetup
%%EndSetup
%%Page: 1 1
%%BeginPageSetup
%%PageBoundingBox: 0 -1 410 410
%%EndPageSetup
q 0 -1 410 411 rectclip q
0.207843 0.286275 0.368627 rg
148.297 365.202 m 53.176 252.194 l 42.367 261.288 l 137.488 374.295 l h
148.297 365.202 m f
268.359 284.631 m 260.867 296.608 l 360.164 360.166 l 367.66 348.19 l h
268.359 284.631 m f
248.586 307.901 m 240.113 296.6 l 161.02 355.924 l 169.492 367.221 l h
248.586 307.901 m f
0.8 0.294118 0.298039 rg
14.125 105.932 m 56.496 105.932 l 64.297 105.932 70.621 99.608 70.621 91.807
 c 70.621 -0.002 l 0 -0.002 l 0 91.807 l 0 99.608 6.324 105.932 14.125 105.932
 c h
14.125 105.932 m f
0.941176 0.768627 0.0980392 rg
127.117 204.799 m 169.492 204.799 l 177.293 204.799 183.613 198.475 183.613
 190.674 c 183.613 -0.002 l 112.992 -0.002 l 112.992 190.674 l 112.992 198.475
 119.316 204.799 127.117 204.799 c h
127.117 204.799 m f
0.266667 0.509804 0.764706 rg
240.109 162.428 m 282.484 162.428 l 290.285 162.428 296.605 156.104 296.605
 148.303 c 296.605 -0.002 l 225.988 -0.002 l 225.988 148.303 l 225.988 156.104
 232.309 162.428 240.109 162.428 c h
240.109 162.428 m f
0.27451 0.698039 0.615686 rg
353.102 218.924 m 395.477 218.924 l 403.277 218.924 409.602 212.6 409.602
 204.799 c 409.602 -0.002 l 338.98 -0.002 l 338.98 204.799 l 338.98 212.6
 345.305 218.924 353.102 218.924 c h
353.102 218.924 m f
0.8 0.294118 0.298039 rg
70.621 240.112 m 70.621 220.608 54.812 204.799 35.309 204.799 c 15.809 
204.799 0 220.608 0 240.112 c 0 259.612 15.809 275.42 35.309 275.42 c 54.812
 275.42 70.621 259.612 70.621 240.112 c h
70.621 240.112 m f
183.613 374.291 m 183.613 354.788 167.805 338.979 148.305 338.979 c 128.801
 338.979 112.992 354.788 112.992 374.291 c 112.992 393.791 128.801 409.6
 148.305 409.6 c 167.805 409.6 183.613 393.791 183.613 374.291 c h
183.613 374.291 m f
409.602 360.166 m 409.602 340.663 393.789 324.854 374.289 324.854 c 354.789
 324.854 338.98 340.663 338.98 360.166 c 338.98 379.666 354.789 395.475 
374.289 395.475 c 393.789 395.475 409.602 379.666 409.602 360.166 c h
409.602 360.166 m f
296.605 289.545 m 296.605 270.045 280.797 254.233 261.297 254.233 c 241.797
 254.233 225.988 270.045 225.988 289.545 c 225.988 309.045 241.797 324.854
 261.297 324.854 c 280.797 324.854 296.605 309.045 296.605 289.545 c h
296.605 289.545 m f
Q Q
showpage
%%Trailer
end restore
%%EOF
