%!PS-Adobe-3.0 EPSF-3.0
%%Creator: cairo 1.14.2 (http://cairographics.org)
%%CreationDate: Mon Mar 19 08:31:40 2018
%%Pages: 1
%%DocumentData: Clean7Bit
%%LanguageLevel: 2
%%BoundingBox: 0 -1 410 410
%%EndComments
%%BeginProlog
save
50 dict begin
/q { gsave } bind def
/Q { grestore } bind def
/cm { 6 array astore concat } bind def
/w { setlinewidth } bind def
/J { setlinecap } bind def
/j { setlinejoin } bind def
/M { setmiterlimit } bind def
/d { setdash } bind def
/m { moveto } bind def
/l { lineto } bind def
/c { curveto } bind def
/h { closepath } bind def
/re { exch dup neg 3 1 roll 5 3 roll moveto 0 rlineto
      0 exch rlineto 0 rlineto closepath } bind def
/S { stroke } bind def
/f { fill } bind def
/f* { eofill } bind def
/n { newpath } bind def
/W { clip } bind def
/W* { eoclip } bind def
/BT { } bind def
/ET { } bind def
/pdfmark where { pop globaldict /?pdfmark /exec load put }
    { globaldict begin /?pdfmark /pop load def /pdfmark
    /cleartomark load def end } ifelse
/BDC { mark 3 1 roll /BDC pdfmark } bind def
/EMC { mark /EMC pdfmark } bind def
/cairo_store_point { /cairo_point_y exch def /cairo_point_x exch def } def
/Tj { show currentpoint cairo_store_point } bind def
/TJ {
  {
    dup
    type /stringtype eq
    { show } { -0.001 mul 0 cairo_font_matrix dtransform rmoveto } ifelse
  } forall
  currentpoint cairo_store_point
} bind def
/cairo_selectfont { cairo_font_matrix aload pop pop pop 0 0 6 array astore
    cairo_font exch selectfont cairo_point_x cairo_point_y moveto } bind def
/Tf { pop /cairo_font exch def /cairo_font_matrix where
      { pop cairo_selectfont } if } bind def
/Td { matrix translate cairo_font_matrix matrix concatmatrix dup
      /cairo_font_matrix exch def dup 4 get exch 5 get cairo_store_point
      /cairo_font where { pop cairo_selectfont } if } bind def
/Tm { 2 copy 8 2 roll 6 array astore /cairo_font_matrix exch def
      cairo_store_point /cairo_font where { pop cairo_selectfont } if } bind def
/g { setgray } bind def
/rg { setrgbcolor } bind def
/d1 { setcachedevice } bind def
%%EndProlog
%%BeginSetup
%%EndSetup
%%Page: 1 1
%%BeginPageSetup
%%PageBoundingBox: 0 -1 410 410
%%EndPageSetup
q 0 -1 410 411 rectclip q
0.266667 0.509804 0.764706 rg
204.883 409.686 m 122.027 409.701 47.32 359.799 15.605 283.252 c -16.109
 206.705 1.414 118.592 60 60.002 c 118.59 1.412 206.703 -16.107 283.25 15.607
 c 359.797 47.322 409.699 122.029 409.684 204.885 c 409.859 259.256 388.34
 311.447 349.895 349.893 c 311.445 388.338 259.254 409.861 204.883 409.686
 c h
204.883 409.686 m f
0.941176 0.768627 0.0980392 rg
349.727 60.041 m 311.348 21.576 259.223 -0.002 204.883 0.084 c 204.883 
204.885 l h
349.727 60.041 m f
0.141176 0.682353 0.372549 rg
409.684 204.885 m 409.773 150.549 388.191 98.42 349.727 60.041 c 204.883
 204.885 l h
409.684 204.885 m f
0.8 0.294118 0.298039 rg
409.684 204.885 m 204.883 204.885 l 204.883 409.686 l 259.203 409.693 311.301
 388.119 349.711 349.709 c 388.121 311.299 409.695 259.205 409.684 204.885
 c h
409.684 204.885 m f
0.8 0.4 0.631373 rg
204.883 409.686 m 204.883 204.885 l 60.039 349.729 l 98.418 388.193 150.547
 409.772 204.883 409.686 c h
204.883 409.686 m f
Q Q
showpage
%%Trailer
end restore
%%EOF
