%!PS-Adobe-3.0 EPSF-3.0
%%Creator: cairo 1.14.2 (http://cairographics.org)
%%CreationDate: Mon Mar 19 08:31:40 2018
%%Pages: 1
%%DocumentData: Clean7Bit
%%LanguageLevel: 2
%%BoundingBox: 0 -1 410 410
%%EndComments
%%BeginProlog
save
50 dict begin
/q { gsave } bind def
/Q { grestore } bind def
/cm { 6 array astore concat } bind def
/w { setlinewidth } bind def
/J { setlinecap } bind def
/j { setlinejoin } bind def
/M { setmiterlimit } bind def
/d { setdash } bind def
/m { moveto } bind def
/l { lineto } bind def
/c { curveto } bind def
/h { closepath } bind def
/re { exch dup neg 3 1 roll 5 3 roll moveto 0 rlineto
      0 exch rlineto 0 rlineto closepath } bind def
/S { stroke } bind def
/f { fill } bind def
/f* { eofill } bind def
/n { newpath } bind def
/W { clip } bind def
/W* { eoclip } bind def
/BT { } bind def
/ET { } bind def
/pdfmark where { pop globaldict /?pdfmark /exec load put }
    { globaldict begin /?pdfmark /pop load def /pdfmark
    /cleartomark load def end } ifelse
/BDC { mark 3 1 roll /BDC pdfmark } bind def
/EMC { mark /EMC pdfmark } bind def
/cairo_store_point { /cairo_point_y exch def /cairo_point_x exch def } def
/Tj { show currentpoint cairo_store_point } bind def
/TJ {
  {
    dup
    type /stringtype eq
    { show } { -0.001 mul 0 cairo_font_matrix dtransform rmoveto } ifelse
  } forall
  currentpoint cairo_store_point
} bind def
/cairo_selectfont { cairo_font_matrix aload pop pop pop 0 0 6 array astore
    cairo_font exch selectfont cairo_point_x cairo_point_y moveto } bind def
/Tf { pop /cairo_font exch def /cairo_font_matrix where
      { pop cairo_selectfont } if } bind def
/Td { matrix translate cairo_font_matrix matrix concatmatrix dup
      /cairo_font_matrix exch def dup 4 get exch 5 get cairo_store_point
      /cairo_font where { pop cairo_selectfont } if } bind def
/Tm { 2 copy 8 2 roll 6 array astore /cairo_font_matrix exch def
      cairo_store_point /cairo_font where { pop cairo_selectfont } if } bind def
/g { setgray } bind def
/rg { setrgbcolor } bind def
/d1 { setcachedevice } bind def
%%EndProlog
%%BeginSetup
%%EndSetup
%%Page: 1 1
%%BeginPageSetup
%%PageBoundingBox: 0 -1 410 410
%%EndPageSetup
q 0 -1 410 411 rectclip q
0.184314 0.658824 0.8 rg
349.934 349.797 m 280.824 418.969 172.477 429.683 91.16 375.39 c 9.84 321.094
 -21.793 216.914 15.602 126.574 c 53 36.23 149.012 -15.11 244.914 3.953 
c 340.812 23.019 409.891 107.176 409.891 204.953 c 409.977 259.289 388.398
 311.418 349.934 349.797 c h
205.09 70.773 m 141.008 70.715 85.809 115.941 73.266 178.785 c 60.719 241.629
 94.32 304.582 153.516 329.133 c 212.711 353.683 281.004 332.992 316.617
 279.715 c 352.234 226.441 345.246 155.426 299.934 110.113 c 274.809 84.902
 240.676 70.746 205.09 70.773 c h
205.09 70.773 m f
0.941176 0.768627 0.0980392 rg
349.934 60.109 m 269.914 -19.832 140.262 -19.832 60.246 60.109 c 110.246
 110.109 l 135.383 84.926 169.504 70.773 205.09 70.773 c 240.672 70.773 
274.793 84.926 299.934 110.109 c h
349.934 60.109 m f
0.901961 0.298039 0.235294 rg
349.934 349.797 m 299.934 299.797 l 274.809 325.004 240.676 339.16 205.09
 339.133 c 205.09 409.754 l 259.426 409.84 311.555 388.262 349.934 349.797
 c h
349.934 349.797 m f
0.8 0.4 0.631373 rg
205.09 409.754 m 205.09 339.133 l 150.816 339.152 101.883 306.465 81.117
 256.324 c 60.352 206.179 71.848 148.465 110.246 110.109 c 60.246 60.113
 l 1.691 118.699 -15.816 206.785 15.887 283.312 c 47.586 359.836 122.258
 409.738 205.09 409.754 c h
205.09 409.754 m f
Q Q
showpage
%%Trailer
end restore
%%EOF
