%!PS-Adobe-3.0 EPSF-3.0
%%Creator: cairo 1.14.2 (http://cairographics.org)
%%CreationDate: Mon Mar 19 08:31:40 2018
%%Pages: 1
%%DocumentData: Clean7Bit
%%LanguageLevel: 2
%%BoundingBox: 0 2 410 407
%%EndComments
%%BeginProlog
save
50 dict begin
/q { gsave } bind def
/Q { grestore } bind def
/cm { 6 array astore concat } bind def
/w { setlinewidth } bind def
/J { setlinecap } bind def
/j { setlinejoin } bind def
/M { setmiterlimit } bind def
/d { setdash } bind def
/m { moveto } bind def
/l { lineto } bind def
/c { curveto } bind def
/h { closepath } bind def
/re { exch dup neg 3 1 roll 5 3 roll moveto 0 rlineto
      0 exch rlineto 0 rlineto closepath } bind def
/S { stroke } bind def
/f { fill } bind def
/f* { eofill } bind def
/n { newpath } bind def
/W { clip } bind def
/W* { eoclip } bind def
/BT { } bind def
/ET { } bind def
/pdfmark where { pop globaldict /?pdfmark /exec load put }
    { globaldict begin /?pdfmark /pop load def /pdfmark
    /cleartomark load def end } ifelse
/BDC { mark 3 1 roll /BDC pdfmark } bind def
/EMC { mark /EMC pdfmark } bind def
/cairo_store_point { /cairo_point_y exch def /cairo_point_x exch def } def
/Tj { show currentpoint cairo_store_point } bind def
/TJ {
  {
    dup
    type /stringtype eq
    { show } { -0.001 mul 0 cairo_font_matrix dtransform rmoveto } ifelse
  } forall
  currentpoint cairo_store_point
} bind def
/cairo_selectfont { cairo_font_matrix aload pop pop pop 0 0 6 array astore
    cairo_font exch selectfont cairo_point_x cairo_point_y moveto } bind def
/Tf { pop /cairo_font exch def /cairo_font_matrix where
      { pop cairo_selectfont } if } bind def
/Td { matrix translate cairo_font_matrix matrix concatmatrix dup
      /cairo_font_matrix exch def dup 4 get exch 5 get cairo_store_point
      /cairo_font where { pop cairo_selectfont } if } bind def
/Tm { 2 copy 8 2 roll 6 array astore /cairo_font_matrix exch def
      cairo_store_point /cairo_font where { pop cairo_selectfont } if } bind def
/g { setgray } bind def
/rg { setrgbcolor } bind def
/d1 { setcachedevice } bind def
%%EndProlog
%%BeginSetup
%%EndSetup
%%Page: 1 1
%%BeginPageSetup
%%PageBoundingBox: 0 2 410 407
%%EndPageSetup
q 0 2 410 405 rectclip q
0.941176 0.768627 0.0980392 rg
360.164 406.069 m 275.422 406.069 l 267.629 406.045 261.32 399.737 261.297
 391.944 c 261.297 307.623 l 261.297 311.37 259.809 314.963 257.16 317.612
 c 254.512 320.264 250.918 321.748 247.172 321.748 c 162.426 321.748 l 158.68
 321.748 155.09 320.264 152.438 317.612 c 149.789 314.963 148.301 311.37
 148.301 307.623 c 148.301 239.194 l 148.281 246.983 141.969 253.295 134.18
 253.319 c 49.434 253.319 l 41.645 253.295 35.332 246.983 35.309 239.194
 c 35.309 45.905 l 374.289 45.905 l 374.289 391.944 l 374.266 399.737 367.957
 406.045 360.164 406.069 c h
360.164 406.069 m f
0.94902 0.611765 0.121569 rg
148.305 194.205 m 148.305 45.905 l 35.309 45.905 l 35.309 81.213 l h
148.305 194.205 m f
0.298039 0.501961 0.337255 rg
261.297 194.205 m 261.297 45.905 l 148.305 45.905 l 148.305 81.213 l h
261.297 194.205 m f
0.443137 0.760784 0.521569 rg
261.297 307.623 m 261.297 194.205 l 148.305 81.213 l 148.305 307.623 l 
148.301 311.37 149.789 314.963 152.438 317.612 c 155.09 320.26 158.68 321.748
 162.43 321.748 c 247.172 321.748 l 250.918 321.748 254.512 320.264 257.16
 317.612 c 259.812 314.963 261.297 311.37 261.297 307.623 c h
261.297 307.623 m f
0.752941 0.227451 0.168627 rg
374.289 194.205 m 374.289 45.905 l 261.297 45.905 l 261.297 81.213 l h
374.289 194.205 m f
0.901961 0.298039 0.235294 rg
374.289 391.944 m 374.289 194.205 l 261.297 81.213 l 261.297 391.944 l 
261.32 399.737 267.629 406.045 275.422 406.069 c 360.164 406.069 l 367.957
 406.045 374.266 399.737 374.289 391.944 c h
374.289 391.944 m f
0.266667 0.509804 0.764706 rg
14.125 52.967 m 395.477 52.967 l 403.277 52.967 409.602 46.643 409.602 
38.842 c 409.602 17.655 l 409.602 9.854 403.277 3.53 395.477 3.53 c 14.125
 3.53 l 6.324 3.53 0 9.854 0 17.655 c 0 38.842 l 0 46.643 6.324 52.967 14.125
 52.967 c h
14.125 52.967 m f
Q Q
showpage
%%Trailer
end restore
%%EOF
