%!PS-Adobe-3.0 EPSF-3.0
%%Creator: cairo 1.14.2 (http://cairographics.org)
%%CreationDate: Mon Mar 19 08:31:40 2018
%%Pages: 1
%%DocumentData: Clean7Bit
%%LanguageLevel: 2
%%BoundingBox: 0 -1 409 409
%%EndComments
%%BeginProlog
save
50 dict begin
/q { gsave } bind def
/Q { grestore } bind def
/cm { 6 array astore concat } bind def
/w { setlinewidth } bind def
/J { setlinecap } bind def
/j { setlinejoin } bind def
/M { setmiterlimit } bind def
/d { setdash } bind def
/m { moveto } bind def
/l { lineto } bind def
/c { curveto } bind def
/h { closepath } bind def
/re { exch dup neg 3 1 roll 5 3 roll moveto 0 rlineto
      0 exch rlineto 0 rlineto closepath } bind def
/S { stroke } bind def
/f { fill } bind def
/f* { eofill } bind def
/n { newpath } bind def
/W { clip } bind def
/W* { eoclip } bind def
/BT { } bind def
/ET { } bind def
/pdfmark where { pop globaldict /?pdfmark /exec load put }
    { globaldict begin /?pdfmark /pop load def /pdfmark
    /cleartomark load def end } ifelse
/BDC { mark 3 1 roll /BDC pdfmark } bind def
/EMC { mark /EMC pdfmark } bind def
/cairo_store_point { /cairo_point_y exch def /cairo_point_x exch def } def
/Tj { show currentpoint cairo_store_point } bind def
/TJ {
  {
    dup
    type /stringtype eq
    { show } { -0.001 mul 0 cairo_font_matrix dtransform rmoveto } ifelse
  } forall
  currentpoint cairo_store_point
} bind def
/cairo_selectfont { cairo_font_matrix aload pop pop pop 0 0 6 array astore
    cairo_font exch selectfont cairo_point_x cairo_point_y moveto } bind def
/Tf { pop /cairo_font exch def /cairo_font_matrix where
      { pop cairo_selectfont } if } bind def
/Td { matrix translate cairo_font_matrix matrix concatmatrix dup
      /cairo_font_matrix exch def dup 4 get exch 5 get cairo_store_point
      /cairo_font where { pop cairo_selectfont } if } bind def
/Tm { 2 copy 8 2 roll 6 array astore /cairo_font_matrix exch def
      cairo_store_point /cairo_font where { pop cairo_selectfont } if } bind def
/g { setgray } bind def
/rg { setrgbcolor } bind def
/d1 { setcachedevice } bind def
%%EndProlog
%%BeginSetup
%%EndSetup
%%Page: 1 1
%%BeginPageSetup
%%PageBoundingBox: 0 -1 409 409
%%EndPageSetup
q 0 -1 409 410 rectclip q
0.741176 0.764706 0.780392 rg
381.367 165.451 m 382.465 169.693 383.488 173.935 384.367 178.248 c 384.457
 178.584 384.504 178.927 384.512 179.271 c 385.535 184.466 386.27 189.658
 386.855 194.998 c 386.855 195.876 l 387.367 201.216 387.66 206.626 387.66
 212.115 c 387.66 217.599 387.367 223.013 386.855 228.353 c 386.855 229.228
 l 386.27 234.568 385.535 239.763 384.512 244.955 c 384.504 245.298 384.457
 245.642 384.367 245.978 c 383.344 251.169 382.098 256.291 380.637 261.337
 c 380.488 261.705 380.418 262.142 380.27 262.584 c 378.879 267.189 377.27
 271.724 375.59 276.185 c 375.516 276.185 l 375.426 276.517 375.305 276.834
 375.152 277.138 c 374.934 277.724 374.711 278.236 374.492 278.822 c 372.59
 283.501 370.469 288.037 368.129 292.498 c 367.836 293.158 367.473 293.814
 367.105 294.474 c 364.773 298.943 362.211 303.291 359.426 307.494 c 359.078
 308.126 358.688 308.74 358.254 309.322 c 355.84 312.978 353.281 316.49 
350.574 319.927 c 362.133 362.13 l 319.93 350.572 l 316.492 353.279 312.98
 355.837 309.324 358.251 c 308.742 358.685 308.129 359.076 307.496 359.423
 c 303.293 362.209 298.945 364.771 294.477 367.103 c 293.816 367.47 293.16
 367.834 292.5 368.126 c 288.625 370.173 284.672 372.076 280.578 373.759
 c 279.992 373.978 279.406 374.271 278.824 374.49 c 278.238 374.709 277.727
 374.931 277.141 375.15 c 272.387 377.052 267.559 378.806 262.586 380.267
 c 262.145 380.416 261.707 380.49 261.34 380.634 c 256.293 382.099 251.176
 383.341 245.98 384.365 c 245.648 384.455 245.305 384.501 244.957 384.509
 c 239.766 385.537 234.57 386.267 229.23 386.853 c 228.355 386.853 l 223.016
 387.365 217.602 387.658 212.117 387.658 c 206.633 387.658 201.219 387.365
 195.879 386.853 c 195 386.853 l 189.664 386.267 184.469 385.537 179.277
 384.509 c 178.93 384.505 178.586 384.455 178.254 384.365 c 173.938 383.486
 169.695 382.462 165.453 381.365 c 130.926 408.064 l 130.559 405.212 l 125.441
 364.763 l 122.441 363.08 119.59 361.326 116.734 359.423 c 116.102 359.076
 115.488 358.685 114.906 358.255 c 110.445 355.33 106.203 352.181 102.105
 348.892 c 101.012 348.013 l 91.961 340.572 83.656 332.267 76.215 323.22
 c 75.336 322.123 l 72.047 318.025 68.902 313.783 65.977 309.322 c 65.543
 308.74 65.152 308.13 64.805 307.494 c 62.02 303.291 59.457 298.943 57.125
 294.474 c 56.758 293.814 56.395 293.158 56.102 292.498 c 53.762 288.037
 51.641 283.501 49.738 278.822 c 49.52 278.236 49.297 277.724 49.078 277.138
 c 48.926 276.834 48.805 276.517 48.715 276.189 c 48.641 276.189 l 46.957
 271.724 45.348 267.189 43.961 262.584 c 43.812 262.142 43.738 261.705 43.594
 261.337 c 42.129 256.291 40.887 251.173 39.863 245.978 c 39.773 245.646
 39.723 245.302 39.719 244.955 c 38.984 241.298 38.398 237.568 37.961 233.837
 c 0 212.115 l 37.961 190.392 l 38.398 186.662 38.984 182.931 39.715 179.275
 c 39.723 178.927 39.773 178.584 39.863 178.251 c 40.887 173.056 42.129 
167.935 43.594 162.888 c 43.738 162.525 43.812 162.084 43.957 161.646 c 
45.422 156.673 47.176 151.845 49.078 147.091 c 49.297 146.505 49.52 145.994
 49.738 145.408 c 50.25 144.166 50.762 142.994 51.273 141.826 c 52.734 138.388
 54.344 135.021 56.102 131.732 c 56.395 131.072 56.758 130.412 57.125 129.755
 c 59.457 125.287 62.02 120.939 64.805 116.736 c 65.152 116.099 65.543 115.49
 65.973 114.908 c 68.898 110.447 72.047 106.205 75.336 102.107 c 76.215 
101.009 l 83.656 91.959 91.961 83.658 101.008 76.216 c 102.105 75.337 l 
106.203 72.044 110.445 68.9 114.906 65.974 c 115.488 65.541 116.098 65.15
 116.734 64.802 c 120.938 62.021 125.285 59.455 129.754 57.123 c 130.414
 56.759 131.07 56.392 131.73 56.099 c 136.191 53.759 140.727 51.638 145.406
 49.736 c 145.699 49.662 145.918 49.517 146.211 49.443 c 146.211 49.369 
l 146.516 49.306 146.809 49.209 147.09 49.076 c 151.844 47.177 156.672 45.419
 161.645 43.959 c 162.086 43.81 162.523 43.74 162.887 43.591 c 167.934 42.13
 173.055 40.884 178.246 39.861 c 178.582 39.771 178.926 39.724 179.273 39.716
 c 182.93 38.986 186.66 38.4 190.391 37.959 c 212.113 0.001 l 233.836 37.962
 l 237.566 38.4 241.297 38.986 244.953 39.716 c 245.301 39.724 245.645 39.771
 245.977 39.861 c 251.172 40.888 256.289 42.13 261.336 43.591 c 261.703 
43.74 262.141 43.81 262.582 43.959 c 267.555 45.423 272.383 47.177 277.137
 49.08 c 277.418 49.209 277.711 49.306 278.012 49.373 c 278.012 49.443 l
 278.305 49.517 278.527 49.662 278.82 49.736 c 283.5 51.638 288.035 53.759
 292.496 56.099 c 293.156 56.392 293.812 56.759 294.473 57.126 c 298.941
 59.459 303.289 62.021 307.492 64.806 c 308.125 65.154 308.738 65.544 309.32
 65.974 c 313.781 68.9 318.023 72.044 322.121 75.337 c 323.215 76.216 l 
332.266 83.658 340.57 91.962 348.012 101.009 c 348.891 102.107 l 352.18 
106.205 355.324 110.447 358.25 114.908 c 358.684 115.49 359.074 116.099 
359.422 116.736 c 361.324 119.591 363.078 122.443 364.762 125.439 c 401.188
 130.048 l 401.332 130.048 l 408.062 130.927 l h
212.113 285.255 m 252.512 285.255 285.258 252.509 285.258 212.115 c 285.258
 171.716 252.512 138.97 212.113 138.97 c 171.719 138.97 138.973 171.716 
138.973 212.115 c 139.039 252.482 171.746 285.189 212.113 285.255 c h
212.113 285.255 m f
0.901961 0.298039 0.235294 rg
118.855 169.837 m 51.273 141.826 l 50.762 142.994 50.25 144.166 49.738 
145.408 c 49.52 145.994 49.297 146.505 49.078 147.091 c 47.176 151.845 45.422
 156.673 43.957 161.646 c 43.812 162.087 43.738 162.525 43.594 162.888 c
 42.129 167.935 40.887 173.056 39.863 178.251 c 39.773 178.584 39.723 178.927
 39.715 179.275 c 38.984 182.931 38.398 186.662 37.961 190.392 c 0 212.115
 l 37.961 233.837 l 38.398 237.568 38.984 241.298 39.715 244.955 c 39.723
 245.302 39.773 245.646 39.863 245.978 c 40.887 251.173 42.129 256.291 43.594
 261.337 c 43.738 261.705 43.812 262.142 43.957 262.584 c 45.348 267.189
 46.957 271.724 48.641 276.189 c 48.711 276.115 l 116.297 248.173 l 106.707
 222.759 107.625 194.572 118.855 169.837 c h
118.855 169.837 m f
0.8 0.4 0.631373 rg
280.574 373.759 m 252.562 306.177 l 226.863 317.236 197.758 317.294 172.016
 306.337 c 146.273 295.38 126.141 274.361 116.297 248.173 c 48.711 276.115
 l 48.641 276.189 l 48.711 276.189 l 48.801 276.517 48.926 276.834 49.078
 277.138 c 49.297 277.724 49.52 278.236 49.738 278.822 c 51.637 283.501 
53.762 288.037 56.102 292.498 c 56.395 293.158 56.758 293.814 57.125 294.474
 c 59.457 298.943 62.02 303.291 64.805 307.494 c 65.152 308.13 65.543 308.74
 65.973 309.322 c 68.898 313.783 72.047 318.025 75.336 322.123 c 76.215 
323.22 l 83.656 332.267 91.961 340.572 101.008 348.013 c 102.105 348.892
 l 106.203 352.181 110.445 355.33 114.906 358.255 c 115.488 358.685 116.098
 359.076 116.734 359.423 c 119.59 361.326 122.441 363.08 125.438 364.763
 c 130.559 405.212 l 130.926 408.064 l 165.449 381.369 l 169.691 382.462
 173.934 383.49 178.25 384.365 c 178.582 384.455 178.926 384.505 179.273
 384.513 c 184.465 385.537 189.66 386.267 195 386.853 c 195.875 386.853 
l 201.215 387.365 206.629 387.658 212.113 387.658 c 217.598 387.658 223.012
 387.365 228.352 386.853 c 229.23 386.853 l 234.566 386.267 239.762 385.537
 244.953 384.513 c 245.301 384.505 245.645 384.455 245.977 384.365 c 251.172
 383.341 256.293 382.099 261.34 380.638 c 261.703 380.49 262.145 380.419
 262.582 380.271 c 267.555 378.806 272.383 377.052 277.137 375.15 c 277.723
 374.931 278.234 374.712 278.82 374.494 c 279.406 374.271 279.992 373.978
 280.574 373.759 c h
280.574 373.759 m f
0.231373 0.592157 0.827451 rg
375.59 276.189 m 375.516 276.115 l 307.934 248.173 l 298.094 274.209 278.113
 295.142 252.562 306.177 c 280.578 373.759 l 284.672 372.076 288.621 370.177
 292.5 368.126 c 293.156 367.834 293.816 367.47 294.473 367.103 c 298.945
 364.771 303.289 362.209 307.492 359.423 c 308.129 359.076 308.742 358.685
 309.324 358.255 c 312.98 355.841 316.492 353.279 319.93 350.572 c 362.133
 362.13 l 350.574 319.927 l 353.281 316.49 355.84 312.978 358.254 309.322
 c 358.688 308.74 359.078 308.13 359.426 307.494 c 362.211 303.291 364.773
 298.943 367.105 294.474 c 367.469 293.814 367.836 293.158 368.129 292.498
 c 370.469 288.037 372.59 283.501 374.492 278.822 c 374.711 278.236 374.93
 277.724 375.148 277.138 c 375.305 276.834 375.426 276.517 375.516 276.189
 c h
375.59 276.189 m f
0.27451 0.698039 0.615686 rg
408.062 130.927 m 401.336 130.048 l 401.188 130.048 l 364.766 125.439 l
 363.082 122.439 361.328 119.587 359.426 116.736 c 359.078 116.099 358.688
 115.49 358.254 114.908 c 355.328 110.447 352.184 106.205 348.891 102.107
 c 348.016 101.009 l 340.574 91.959 332.27 83.658 323.219 76.216 c 322.121
 75.337 l 318.027 72.044 313.785 68.9 309.324 65.974 c 308.742 65.544 308.129
 65.154 307.492 64.806 c 303.289 62.021 298.945 59.459 294.473 57.126 c 
293.816 56.759 293.156 56.392 292.5 56.099 c 288.039 53.759 283.504 51.638
 278.82 49.736 c 278.527 49.666 278.309 49.517 278.016 49.443 c 250.004 
117.029 l 301.852 137.626 327.625 195.974 307.934 248.173 c 375.516 276.115
 l 375.59 276.189 l 377.27 271.724 378.879 267.189 380.27 262.584 c 380.414
 262.142 380.488 261.705 380.637 261.337 c 382.098 256.291 383.34 251.173
 384.367 245.978 c 384.457 245.646 384.504 245.302 384.512 244.955 c 385.535
 239.763 386.266 234.568 386.852 229.228 c 386.852 228.353 l 387.363 223.013
 387.656 217.599 387.656 212.115 c 387.656 206.63 387.363 201.216 386.852
 195.876 c 386.852 194.998 l 386.27 189.662 385.535 184.466 384.512 179.275
 c 384.504 178.927 384.457 178.584 384.367 178.251 c 383.488 173.935 382.465
 169.693 381.367 165.451 c h
408.062 130.927 m f
0.8 0.4 0.631373 rg
278.016 49.443 m 278.016 49.373 l 277.715 49.306 277.418 49.209 277.137
 49.08 c 272.383 47.177 267.559 45.423 262.582 43.959 c 262.145 43.814 261.707
 43.74 261.34 43.595 c 256.293 42.13 251.172 40.888 245.98 39.865 c 245.645
 39.775 245.301 39.724 244.957 39.716 c 241.301 38.986 237.57 38.4 233.84
 37.962 c 212.113 0.001 l 190.391 37.962 l 186.66 38.4 182.93 38.986 179.273
 39.716 c 178.93 39.724 178.586 39.775 178.25 39.865 c 173.059 40.888 167.938
 42.13 162.891 43.595 c 162.523 43.74 162.086 43.814 161.648 43.959 c 156.672
 45.423 151.848 47.177 147.094 49.08 c 146.812 49.209 146.516 49.306 146.215
 49.373 c 146.215 49.443 l 174.227 117.029 l 198.547 107.275 225.688 107.275
 250.004 117.029 c h
278.016 49.443 m f
0.941176 0.768627 0.0980392 rg
174.227 117.029 m 146.211 49.443 l 145.922 49.517 145.699 49.666 145.406
 49.736 c 140.727 51.638 136.191 53.759 131.73 56.103 c 131.07 56.396 130.414
 56.759 129.754 57.126 c 125.285 59.459 120.938 62.021 116.734 64.806 c 
116.102 65.154 115.488 65.544 114.906 65.974 c 110.445 68.9 106.203 72.048
 102.105 75.337 c 101.012 76.216 l 91.961 83.658 83.656 91.962 76.215 101.009
 c 75.336 102.107 l 72.047 106.205 68.902 110.447 65.977 114.908 c 65.543
 115.49 65.152 116.099 64.805 116.736 c 62.02 120.939 59.457 125.287 57.125
 129.755 c 56.758 130.416 56.395 131.072 56.102 131.732 c 54.344 135.021
 52.734 138.388 51.273 141.826 c 118.859 169.837 l 129.801 145.744 149.645
 126.822 174.227 117.029 c h
174.227 117.029 m f
Q Q
showpage
%%Trailer
end restore
%%EOF
