%!PS-Adobe-3.0 EPSF-3.0
%%Creator: cairo 1.14.2 (http://cairographics.org)
%%CreationDate: Mon Mar 19 08:31:40 2018
%%Pages: 1
%%DocumentData: Clean7Bit
%%LanguageLevel: 2
%%BoundingBox: 0 27 410 382
%%EndComments
%%BeginProlog
save
50 dict begin
/q { gsave } bind def
/Q { grestore } bind def
/cm { 6 array astore concat } bind def
/w { setlinewidth } bind def
/J { setlinecap } bind def
/j { setlinejoin } bind def
/M { setmiterlimit } bind def
/d { setdash } bind def
/m { moveto } bind def
/l { lineto } bind def
/c { curveto } bind def
/h { closepath } bind def
/re { exch dup neg 3 1 roll 5 3 roll moveto 0 rlineto
      0 exch rlineto 0 rlineto closepath } bind def
/S { stroke } bind def
/f { fill } bind def
/f* { eofill } bind def
/n { newpath } bind def
/W { clip } bind def
/W* { eoclip } bind def
/BT { } bind def
/ET { } bind def
/pdfmark where { pop globaldict /?pdfmark /exec load put }
    { globaldict begin /?pdfmark /pop load def /pdfmark
    /cleartomark load def end } ifelse
/BDC { mark 3 1 roll /BDC pdfmark } bind def
/EMC { mark /EMC pdfmark } bind def
/cairo_store_point { /cairo_point_y exch def /cairo_point_x exch def } def
/Tj { show currentpoint cairo_store_point } bind def
/TJ {
  {
    dup
    type /stringtype eq
    { show } { -0.001 mul 0 cairo_font_matrix dtransform rmoveto } ifelse
  } forall
  currentpoint cairo_store_point
} bind def
/cairo_selectfont { cairo_font_matrix aload pop pop pop 0 0 6 array astore
    cairo_font exch selectfont cairo_point_x cairo_point_y moveto } bind def
/Tf { pop /cairo_font exch def /cairo_font_matrix where
      { pop cairo_selectfont } if } bind def
/Td { matrix translate cairo_font_matrix matrix concatmatrix dup
      /cairo_font_matrix exch def dup 4 get exch 5 get cairo_store_point
      /cairo_font where { pop cairo_selectfont } if } bind def
/Tm { 2 copy 8 2 roll 6 array astore /cairo_font_matrix exch def
      cairo_store_point /cairo_font where { pop cairo_selectfont } if } bind def
/g { setgray } bind def
/rg { setrgbcolor } bind def
/d1 { setcachedevice } bind def
%%EndProlog
%%BeginSetup
%%EndSetup
%%Page: 1 1
%%BeginPageSetup
%%PageBoundingBox: 0 27 410 382
%%EndPageSetup
q 0 27 410 355 rectclip q
0.266667 0.509804 0.764706 rg
28.246 91.807 m 28.246 42.373 l 28.246 34.573 34.57 28.248 42.371 28.248
 c 367.227 28.248 l 375.027 28.248 381.352 34.573 381.352 42.373 c 381.352
 367.229 l 381.352 375.03 375.027 381.35 367.227 381.35 c 42.371 381.35 
l 34.57 381.35 28.25 375.03 28.25 367.229 c 28.25 91.807 l h
28.246 91.807 m f
0.8 0.4 0.631373 rg
120.055 238.698 m 34.676 148.303 l 55.297 128.178 l 136.723 214.405 l 163.559
 216.381 l 233.262 158.897 l 289.543 155.791 l 380.574 303.741 l 356.492
 318.498 l 272.172 181.424 l 250.422 181.354 l 250.352 181.354 l 176.48 
242.229 l h
120.055 238.698 m f
0.941176 0.768627 0.0980392 rg
176.551 240.112 m 176.551 224.51 163.902 211.862 148.305 211.862 c 132.703
 211.862 120.055 224.51 120.055 240.112 c 120.055 255.713 132.703 268.358
 148.305 268.358 c 163.902 268.358 176.551 255.713 176.551 240.112 c h
176.551 240.112 m f
289.543 155.366 m 289.543 139.764 276.898 127.12 261.297 127.12 c 245.695
 127.12 233.047 139.764 233.047 155.366 c 233.047 170.967 245.695 183.612
 261.297 183.612 c 276.898 183.612 289.543 170.967 289.543 155.366 c h
289.543 155.366 m f
409.602 331.916 m 409.602 316.315 396.953 303.67 381.352 303.67 c 365.75
 303.67 353.105 316.315 353.105 331.916 c 353.105 347.518 365.75 360.166
 381.352 360.166 c 396.953 360.166 409.602 347.518 409.602 331.916 c h
409.602 331.916 m f
56.496 120.057 m 56.496 104.455 43.848 91.807 28.246 91.807 c 12.648 91.807
 0 104.455 0 120.057 c 0 135.655 12.648 148.303 28.246 148.303 c 43.848 
148.303 56.496 135.655 56.496 120.057 c h
56.496 120.057 m f
Q Q
showpage
%%Trailer
end restore
%%EOF
