%!PS-Adobe-3.0 EPSF-3.0
%%Creator: cairo 1.14.2 (http://cairographics.org)
%%CreationDate: Mon Mar 19 08:31:40 2018
%%Pages: 1
%%DocumentData: Clean7Bit
%%LanguageLevel: 2
%%BoundingBox: 0 -1 410 410
%%EndComments
%%BeginProlog
save
50 dict begin
/q { gsave } bind def
/Q { grestore } bind def
/cm { 6 array astore concat } bind def
/w { setlinewidth } bind def
/J { setlinecap } bind def
/j { setlinejoin } bind def
/M { setmiterlimit } bind def
/d { setdash } bind def
/m { moveto } bind def
/l { lineto } bind def
/c { curveto } bind def
/h { closepath } bind def
/re { exch dup neg 3 1 roll 5 3 roll moveto 0 rlineto
      0 exch rlineto 0 rlineto closepath } bind def
/S { stroke } bind def
/f { fill } bind def
/f* { eofill } bind def
/n { newpath } bind def
/W { clip } bind def
/W* { eoclip } bind def
/BT { } bind def
/ET { } bind def
/pdfmark where { pop globaldict /?pdfmark /exec load put }
    { globaldict begin /?pdfmark /pop load def /pdfmark
    /cleartomark load def end } ifelse
/BDC { mark 3 1 roll /BDC pdfmark } bind def
/EMC { mark /EMC pdfmark } bind def
/cairo_store_point { /cairo_point_y exch def /cairo_point_x exch def } def
/Tj { show currentpoint cairo_store_point } bind def
/TJ {
  {
    dup
    type /stringtype eq
    { show } { -0.001 mul 0 cairo_font_matrix dtransform rmoveto } ifelse
  } forall
  currentpoint cairo_store_point
} bind def
/cairo_selectfont { cairo_font_matrix aload pop pop pop 0 0 6 array astore
    cairo_font exch selectfont cairo_point_x cairo_point_y moveto } bind def
/Tf { pop /cairo_font exch def /cairo_font_matrix where
      { pop cairo_selectfont } if } bind def
/Td { matrix translate cairo_font_matrix matrix concatmatrix dup
      /cairo_font_matrix exch def dup 4 get exch 5 get cairo_store_point
      /cairo_font where { pop cairo_selectfont } if } bind def
/Tm { 2 copy 8 2 roll 6 array astore /cairo_font_matrix exch def
      cairo_store_point /cairo_font where { pop cairo_selectfont } if } bind def
/g { setgray } bind def
/rg { setrgbcolor } bind def
/d1 { setcachedevice } bind def
%%EndProlog
%%BeginSetup
%%EndSetup
%%Page: 1 1
%%BeginPageSetup
%%PageBoundingBox: 0 -1 410 410
%%EndPageSetup
q 0 -1 410 411 rectclip q
0.901961 0.298039 0.235294 rg
176.551 324.854 m 184.344 324.877 190.652 331.19 190.676 338.979 c 190.676
 381.354 l 190.652 389.143 184.344 395.455 176.551 395.475 c 35.309 395.475
 l 35.309 324.854 l h
176.551 324.854 m f
0.941176 0.768627 0.0980392 rg
275.422 204.799 m 283.211 204.823 289.523 211.131 289.543 218.924 c 289.543
 261.295 l 289.523 269.088 283.211 275.397 275.422 275.42 c 35.309 275.42
 l 35.309 204.799 l h
275.422 204.799 m f
0.52549 0.592157 0.796078 rg
374.289 155.366 m 35.309 155.366 l 35.309 84.745 l 374.289 84.745 l 382.082
 84.768 388.391 91.077 388.414 98.87 c 388.414 141.241 l 388.391 149.034
 382.082 155.342 374.289 155.366 c h
374.289 155.366 m f
0.752941 0.227451 0.168627 rg
155.367 324.854 m 35.309 324.854 l 35.309 395.475 l 84.746 395.475 l h
155.367 324.854 m f
0.94902 0.611765 0.121569 rg
155.367 204.799 m 35.309 204.799 l 35.309 275.42 l 84.746 275.42 l h
155.367 204.799 m f
0.333333 0.376471 0.501961 rg
155.367 84.745 m 35.309 84.745 l 35.309 155.366 l 84.746 155.366 l h
155.367 84.745 m f
0.231373 0.592157 0.827451 rg
42.371 56.498 m 42.371 395.475 l 42.371 403.276 36.047 409.6 28.246 409.6
 c 14.125 409.6 l 6.324 409.6 0 403.276 0 395.475 c 0 14.123 l 0 6.323 6.324
 -0.002 14.125 -0.002 c 395.477 -0.002 l 403.277 -0.002 409.602 6.323 409.602
 14.123 c 409.602 28.248 l 409.602 36.049 403.277 42.373 395.477 42.373 
c 56.496 42.373 l 48.695 42.373 42.371 48.698 42.371 56.498 c h
42.371 56.498 m f
Q Q
showpage
%%Trailer
end restore
%%EOF
