%!PS-Adobe-3.0 EPSF-3.0
%%Creator: cairo 1.14.2 (http://cairographics.org)
%%CreationDate: Mon Mar 19 08:31:40 2018
%%Pages: 1
%%DocumentData: Clean7Bit
%%LanguageLevel: 2
%%BoundingBox: 0 -1 410 410
%%EndComments
%%BeginProlog
save
50 dict begin
/q { gsave } bind def
/Q { grestore } bind def
/cm { 6 array astore concat } bind def
/w { setlinewidth } bind def
/J { setlinecap } bind def
/j { setlinejoin } bind def
/M { setmiterlimit } bind def
/d { setdash } bind def
/m { moveto } bind def
/l { lineto } bind def
/c { curveto } bind def
/h { closepath } bind def
/re { exch dup neg 3 1 roll 5 3 roll moveto 0 rlineto
      0 exch rlineto 0 rlineto closepath } bind def
/S { stroke } bind def
/f { fill } bind def
/f* { eofill } bind def
/n { newpath } bind def
/W { clip } bind def
/W* { eoclip } bind def
/BT { } bind def
/ET { } bind def
/pdfmark where { pop globaldict /?pdfmark /exec load put }
    { globaldict begin /?pdfmark /pop load def /pdfmark
    /cleartomark load def end } ifelse
/BDC { mark 3 1 roll /BDC pdfmark } bind def
/EMC { mark /EMC pdfmark } bind def
/cairo_store_point { /cairo_point_y exch def /cairo_point_x exch def } def
/Tj { show currentpoint cairo_store_point } bind def
/TJ {
  {
    dup
    type /stringtype eq
    { show } { -0.001 mul 0 cairo_font_matrix dtransform rmoveto } ifelse
  } forall
  currentpoint cairo_store_point
} bind def
/cairo_selectfont { cairo_font_matrix aload pop pop pop 0 0 6 array astore
    cairo_font exch selectfont cairo_point_x cairo_point_y moveto } bind def
/Tf { pop /cairo_font exch def /cairo_font_matrix where
      { pop cairo_selectfont } if } bind def
/Td { matrix translate cairo_font_matrix matrix concatmatrix dup
      /cairo_font_matrix exch def dup 4 get exch 5 get cairo_store_point
      /cairo_font where { pop cairo_selectfont } if } bind def
/Tm { 2 copy 8 2 roll 6 array astore /cairo_font_matrix exch def
      cairo_store_point /cairo_font where { pop cairo_selectfont } if } bind def
/g { setgray } bind def
/rg { setrgbcolor } bind def
/d1 { setcachedevice } bind def
%%EndProlog
%%BeginSetup
%%EndSetup
%%Page: 1 1
%%BeginPageSetup
%%PageBoundingBox: 0 -1 410 410
%%EndPageSetup
q 0 -1 410 411 rectclip q
0.52549 0.592157 0.796078 rg
56.496 409.6 m 14.125 409.6 l 6.332 409.577 0.023 403.268 0 395.475 c 0
 14.123 l 0.023 6.334 6.332 0.022 14.125 -0.002 c 56.496 -0.002 l 64.289
 0.022 70.598 6.334 70.621 14.123 c 70.621 395.475 l 70.598 403.268 64.289
 409.577 56.496 409.6 c h
56.496 409.6 m f
169.488 338.979 m 127.117 338.979 l 119.324 338.955 113.016 332.647 112.992
 324.854 c 112.992 14.123 l 113.016 6.334 119.324 0.022 127.117 -0.002 c
 169.488 -0.002 l 177.281 0.022 183.59 6.334 183.613 14.123 c 183.613 324.854
 l 183.59 332.647 177.281 338.955 169.488 338.979 c h
169.488 338.979 m f
282.48 268.358 m 240.109 268.358 l 232.32 268.334 226.008 262.026 225.984
 254.233 c 225.984 14.123 l 226.008 6.334 232.32 0.022 240.109 -0.002 c 
282.48 -0.002 l 290.273 0.022 296.582 6.334 296.605 14.123 c 296.605 254.233
 l 296.586 262.026 290.273 268.334 282.48 268.358 c h
282.48 268.358 m f
395.477 197.737 m 353.102 197.737 l 345.312 197.713 339 191.405 338.98 
183.612 c 338.98 14.123 l 339.004 6.334 345.312 0.022 353.102 -0.002 c 395.477
 -0.002 l 403.266 0.022 409.578 6.334 409.602 14.123 c 409.602 183.612 l
 409.578 191.405 403.266 197.713 395.477 197.737 c h
395.477 197.737 m f
0.94902 0.611765 0.121569 rg
70.621 162.428 m 70.621 14.123 l 70.598 6.334 64.289 0.022 56.496 -0.002
 c 14.125 -0.002 l 6.332 0.022 0.023 6.334 0 14.123 c 0 91.807 l h
70.621 162.428 m f
183.613 162.428 m 183.613 14.123 l 183.59 6.334 177.281 0.022 169.488 -0.002
 c 127.117 -0.002 l 119.324 0.022 113.016 6.334 112.992 14.123 c 112.992
 91.807 l h
183.613 162.428 m f
296.605 162.428 m 296.605 14.123 l 296.586 6.334 290.273 0.022 282.484 
-0.002 c 240.109 -0.002 l 232.32 0.022 226.008 6.334 225.988 14.123 c 225.988
 91.807 l h
296.605 162.428 m f
409.602 162.428 m 409.602 14.123 l 409.578 6.334 403.266 0.022 395.477 
-0.002 c 353.102 -0.002 l 345.312 0.022 339.004 6.334 338.98 14.123 c 338.98
 91.807 l h
409.602 162.428 m f
Q Q
showpage
%%Trailer
end restore
%%EOF
