%!PS-Adobe-3.0 EPSF-3.0
%%Creator: cairo 1.14.2 (http://cairographics.org)
%%CreationDate: Mon Mar 19 08:31:40 2018
%%Pages: 1
%%DocumentData: Clean7Bit
%%LanguageLevel: 2
%%BoundingBox: 0 -1 410 410
%%EndComments
%%BeginProlog
save
50 dict begin
/q { gsave } bind def
/Q { grestore } bind def
/cm { 6 array astore concat } bind def
/w { setlinewidth } bind def
/J { setlinecap } bind def
/j { setlinejoin } bind def
/M { setmiterlimit } bind def
/d { setdash } bind def
/m { moveto } bind def
/l { lineto } bind def
/c { curveto } bind def
/h { closepath } bind def
/re { exch dup neg 3 1 roll 5 3 roll moveto 0 rlineto
      0 exch rlineto 0 rlineto closepath } bind def
/S { stroke } bind def
/f { fill } bind def
/f* { eofill } bind def
/n { newpath } bind def
/W { clip } bind def
/W* { eoclip } bind def
/BT { } bind def
/ET { } bind def
/pdfmark where { pop globaldict /?pdfmark /exec load put }
    { globaldict begin /?pdfmark /pop load def /pdfmark
    /cleartomark load def end } ifelse
/BDC { mark 3 1 roll /BDC pdfmark } bind def
/EMC { mark /EMC pdfmark } bind def
/cairo_store_point { /cairo_point_y exch def /cairo_point_x exch def } def
/Tj { show currentpoint cairo_store_point } bind def
/TJ {
  {
    dup
    type /stringtype eq
    { show } { -0.001 mul 0 cairo_font_matrix dtransform rmoveto } ifelse
  } forall
  currentpoint cairo_store_point
} bind def
/cairo_selectfont { cairo_font_matrix aload pop pop pop 0 0 6 array astore
    cairo_font exch selectfont cairo_point_x cairo_point_y moveto } bind def
/Tf { pop /cairo_font exch def /cairo_font_matrix where
      { pop cairo_selectfont } if } bind def
/Td { matrix translate cairo_font_matrix matrix concatmatrix dup
      /cairo_font_matrix exch def dup 4 get exch 5 get cairo_store_point
      /cairo_font where { pop cairo_selectfont } if } bind def
/Tm { 2 copy 8 2 roll 6 array astore /cairo_font_matrix exch def
      cairo_store_point /cairo_font where { pop cairo_selectfont } if } bind def
/g { setgray } bind def
/rg { setrgbcolor } bind def
/d1 { setcachedevice } bind def
%%EndProlog
%%BeginSetup
%%EndSetup
%%Page: 1 1
%%BeginPageSetup
%%PageBoundingBox: 0 -1 410 410
%%EndPageSetup
q 0 -1 410 411 rectclip q
0.901961 0.298039 0.235294 rg
349.742 349.663 m 280.66 418.784 172.371 429.479 91.102 375.206 c 9.832
 320.932 -21.781 216.807 15.598 126.514 c 52.973 36.217 148.93 -15.099 244.781
 3.948 c 340.633 22.991 409.684 107.096 409.699 204.819 c 409.789 259.159
 388.207 311.288 349.742 349.663 c h
204.902 113.014 m 154.219 113.026 113.137 154.12 113.141 204.803 c 113.145
 255.487 154.234 296.573 204.918 296.581 c 255.602 296.584 296.695 255.502
 296.707 204.819 c 296.66 154.135 255.586 113.061 204.902 113.014 c h
204.902 113.014 m f
0.941176 0.768627 0.0980392 rg
409.699 204.819 m 409.711 150.502 388.137 98.405 349.727 59.995 c 311.316
 21.584 259.219 0.01 204.902 0.022 c 204.902 113.014 l 242.035 113.002 275.516
 135.37 289.723 169.678 c 303.934 203.983 296.066 243.471 269.801 269.721
 c 349.742 349.663 l 388.207 311.288 409.789 259.159 409.699 204.819 c h
409.699 204.819 m f
0.443137 0.760784 0.521569 rg
204.902 113.014 m 204.902 0.022 l 122.066 0.038 47.398 49.936 15.695 126.463
 c -16.004 202.991 1.504 291.077 60.059 349.663 c 140 269.721 l 113.734 
243.475 105.871 203.983 120.078 169.678 c 134.289 135.37 167.766 113.002
 204.902 113.014 c h
204.902 113.014 m f
Q Q
showpage
%%Trailer
end restore
%%EOF
