%!PS-Adobe-3.0 EPSF-3.0
%%Creator: cairo 1.14.2 (http://cairographics.org)
%%CreationDate: Fri Jul  8 15:52:16 2016
%%Pages: 1
%%DocumentData: Clean7Bit
%%LanguageLevel: 3
%%BoundingBox: 0 -1 410 410
%%EndComments
%%BeginProlog
save
50 dict begin
/q { gsave } bind def
/Q { grestore } bind def
/cm { 6 array astore concat } bind def
/w { setlinewidth } bind def
/J { setlinecap } bind def
/j { setlinejoin } bind def
/M { setmiterlimit } bind def
/d { setdash } bind def
/m { moveto } bind def
/l { lineto } bind def
/c { curveto } bind def
/h { closepath } bind def
/re { exch dup neg 3 1 roll 5 3 roll moveto 0 rlineto
      0 exch rlineto 0 rlineto closepath } bind def
/S { stroke } bind def
/f { fill } bind def
/f* { eofill } bind def
/n { newpath } bind def
/W { clip } bind def
/W* { eoclip } bind def
/BT { } bind def
/ET { } bind def
/pdfmark where { pop globaldict /?pdfmark /exec load put }
    { globaldict begin /?pdfmark /pop load def /pdfmark
    /cleartomark load def end } ifelse
/BDC { mark 3 1 roll /BDC pdfmark } bind def
/EMC { mark /EMC pdfmark } bind def
/cairo_store_point { /cairo_point_y exch def /cairo_point_x exch def } def
/Tj { show currentpoint cairo_store_point } bind def
/TJ {
  {
    dup
    type /stringtype eq
    { show } { -0.001 mul 0 cairo_font_matrix dtransform rmoveto } ifelse
  } forall
  currentpoint cairo_store_point
} bind def
/cairo_selectfont { cairo_font_matrix aload pop pop pop 0 0 6 array astore
    cairo_font exch selectfont cairo_point_x cairo_point_y moveto } bind def
/Tf { pop /cairo_font exch def /cairo_font_matrix where
      { pop cairo_selectfont } if } bind def
/Td { matrix translate cairo_font_matrix matrix concatmatrix dup
      /cairo_font_matrix exch def dup 4 get exch 5 get cairo_store_point
      /cairo_font where { pop cairo_selectfont } if } bind def
/Tm { 2 copy 8 2 roll 6 array astore /cairo_font_matrix exch def
      cairo_store_point /cairo_font where { pop cairo_selectfont } if } bind def
/g { setgray } bind def
/rg { setrgbcolor } bind def
/d1 { setcachedevice } bind def
%%EndProlog
%%BeginSetup
%%EndSetup
%%Page: 1 1
%%BeginPageSetup
%%PageBoundingBox: 0 -1 410 410
%%EndPageSetup
q 0 -1 410 411 rectclip q
q
409.602 204.799 m 409.602 91.694 317.906 -0.002 204.801 -0.002 c 191.676
 -0.002 178.836 1.233 166.398 3.592 c 149.875 6.729 134.859 24.354 120 31.202
 c 104.832 38.19 89.855 34.471 76.961 44.788 c 30.051 82.319 0 140.049 0
 204.799 c 0 317.909 91.691 409.6 204.801 409.6 c 317.906 409.6 409.602 
317.909 409.602 204.799 c h
409.602 204.799 m W n
[0.8 0 0 0.8 0 -1.599994] concat
/CairoFunction
   << /FunctionType 2
      /Domain [ 0 1 ]
      /C0 [ 0.611765 0.337255 0.721569 ]
      /C1 [ 0.560784 0.247059 0.686275 ]
      /N 1
   >>
def
   << /ShadingType 3
      /ColorSpace /DeviceRGB
      /Coords [ 256 258 0 256 258 256 ]
      /Extend [ true true ]
      /Function CairoFunction
   >>
shfill
Q
0.498039 0.54902 0.552941 rg
204.801 390.401 m 204.801 385.6 l 208.996 385.6 212.398 382.198 212.398
 377.998 c 212.398 373.803 208.996 370.401 204.801 370.401 c 204.801 339.998
 l 210.961 339.998 216 345.041 216 351.202 c 216 379.202 l 216 385.362 210.961
 390.401 204.801 390.401 c h
204.801 390.401 m f
0.584314 0.647059 0.65098 rg
197.199 377.998 m 197.199 382.198 200.602 385.6 204.801 385.6 c 204.801
 390.401 l 198.641 390.401 193.602 385.362 193.602 379.202 c 193.602 351.202
 l 193.602 345.041 198.641 339.998 204.801 339.998 c 204.801 370.401 l 200.602
 370.401 197.199 373.803 197.199 377.998 c h
197.199 377.998 m f
0.913725 0.294118 0.207843 rg
312.801 88.799 m 312.801 84.401 309.199 80.799 304.801 80.799 c 104.801
 80.799 l 100.398 80.799 96.801 84.401 96.801 88.799 c 96.801 343.202 l 
96.801 347.6 100.398 351.202 104.801 351.202 c 304.801 351.202 l 309.199
 351.202 312.801 347.6 312.801 343.202 c h
312.801 88.799 m f
0.584314 0.647059 0.65098 rg
243.199 346.401 m 243.199 341.12 238.879 336.799 233.602 336.799 c 176 
336.799 l 170.719 336.799 166.398 341.12 166.398 346.401 c 166.398 349.6
 l 166.398 354.881 170.719 359.202 176 359.202 c 233.602 359.202 l 238.879
 359.202 243.199 354.881 243.199 349.6 c h
243.199 346.401 m f
0.92549 0.941176 0.945098 rg
116.801 93.6 m 114.602 93.6 112.801 95.401 112.801 97.6 c 112.801 335.202
 l 112.801 337.401 114.602 339.202 116.801 339.202 c 292.801 339.202 l 295
 339.202 296.801 337.401 296.801 335.202 c 296.801 97.6 l 296.801 95.401
 295 93.6 292.801 93.6 c h
116.801 93.6 m f
0.498039 0.54902 0.552941 rg
166.398 347.998 76.801 -11.199 re f
0.2 0.286275 0.372549 rg
173.602 271.998 m 173.602 270.674 172.527 269.6 171.199 269.6 c 140 269.6
 l 138.676 269.6 137.602 270.674 137.602 271.998 c 137.602 303.202 l 137.602
 304.526 138.676 305.6 140 305.6 c 171.199 305.6 l 172.527 305.6 173.602
 304.526 173.602 303.202 c h
142.398 274.401 m 168.801 274.401 l 168.801 300.799 l 142.398 300.799 l
 h
142.398 274.401 m f
173.602 223.998 m 173.602 222.674 172.527 221.6 171.199 221.6 c 140 221.6
 l 138.676 221.6 137.602 222.674 137.602 223.998 c 137.602 255.202 l 137.602
 256.526 138.676 257.6 140 257.6 c 171.199 257.6 l 172.527 257.6 173.602
 256.526 173.602 255.202 c h
142.398 226.401 m 168.801 226.401 l 168.801 252.799 l 142.398 252.799 l
 h
142.398 226.401 m f
173.602 175.998 m 173.602 174.674 172.527 173.6 171.199 173.6 c 140 173.6
 l 138.676 173.6 137.602 174.674 137.602 175.998 c 137.602 207.202 l 137.602
 208.526 138.676 209.6 140 209.6 c 171.199 209.6 l 172.527 209.6 173.602
 208.526 173.602 207.202 c h
142.398 178.401 m 168.801 178.401 l 168.801 204.799 l 142.398 204.799 l
 h
142.398 178.401 m f
173.602 127.998 m 173.602 126.674 172.527 125.6 171.199 125.6 c 140 125.6
 l 138.676 125.6 137.602 126.674 137.602 127.998 c 137.602 159.202 l 137.602
 160.526 138.676 161.6 140 161.6 c 171.199 161.6 l 172.527 161.6 173.602
 160.526 173.602 159.202 c h
142.398 130.401 m 168.801 130.401 l 168.801 156.799 l 142.398 156.799 l
 h
142.398 130.401 m f
0.741176 0.764706 0.780392 rg
272 299.202 m 192.801 299.202 l 191.031 299.202 189.602 300.631 189.602
 302.401 c 189.602 304.166 191.031 305.6 192.801 305.6 c 272 305.6 l 273.766
 305.6 275.199 304.166 275.199 302.401 c 275.199 300.631 273.766 299.202
 272 299.202 c h
272 299.202 m f
276 283.202 m 192.801 283.202 l 191.031 283.202 189.602 284.631 189.602
 286.401 c 189.602 288.166 191.031 289.6 192.801 289.6 c 276 289.6 l 277.766
 289.6 279.199 288.166 279.199 286.401 c 279.199 284.631 277.766 283.202
 276 283.202 c h
276 283.202 m f
276 251.202 m 192.801 251.202 l 191.031 251.202 189.602 252.631 189.602
 254.401 c 189.602 256.166 191.031 257.6 192.801 257.6 c 276 257.6 l 277.766
 257.6 279.199 256.166 279.199 254.401 c 279.199 252.631 277.766 251.202
 276 251.202 c h
276 251.202 m f
234.398 235.202 m 192.801 235.202 l 191.031 235.202 189.602 236.631 189.602
 238.401 c 189.602 240.166 191.031 241.6 192.801 241.6 c 234.398 241.6 l
 236.168 241.6 237.602 240.166 237.602 238.401 c 237.602 236.631 236.168
 235.202 234.398 235.202 c h
234.398 235.202 m f
272 219.998 m 192.801 219.998 l 191.031 219.998 189.602 221.432 189.602
 223.202 c 189.602 224.967 191.031 226.401 192.801 226.401 c 272 226.401
 l 273.766 226.401 275.199 224.967 275.199 223.202 c 275.199 221.432 273.766
 219.998 272 219.998 c h
272 219.998 m f
261.602 202.401 m 192.801 202.401 l 191.031 202.401 189.602 203.834 189.602
 205.6 c 189.602 207.366 191.031 208.799 192.801 208.799 c 261.602 208.799
 l 263.367 208.799 264.801 207.366 264.801 205.6 c 264.801 203.834 263.367
 202.401 261.602 202.401 c h
261.602 202.401 m f
238.398 187.202 m 192.801 187.202 l 191.031 187.202 189.602 188.631 189.602
 190.401 c 189.602 192.166 191.031 193.6 192.801 193.6 c 238.398 193.6 l
 240.168 193.6 241.602 192.166 241.602 190.401 c 241.602 188.631 240.168
 187.202 238.398 187.202 c h
238.398 187.202 m f
276 171.998 m 192.801 171.998 l 191.031 171.998 189.602 173.432 189.602
 175.202 c 189.602 176.967 191.031 178.401 192.801 178.401 c 276 178.401
 l 277.766 178.401 279.199 176.967 279.199 175.202 c 279.199 173.432 277.766
 171.998 276 171.998 c h
276 171.998 m f
221.602 155.998 m 192.801 155.998 l 191.031 155.998 189.602 157.432 189.602
 159.202 c 189.602 160.967 191.031 162.401 192.801 162.401 c 221.602 162.401
 l 223.367 162.401 224.801 160.967 224.801 159.202 c 224.801 157.432 223.367
 155.998 221.602 155.998 c h
221.602 155.998 m f
232 139.998 m 192.801 139.998 l 191.031 139.998 189.602 141.432 189.602
 143.202 c 189.602 144.967 191.031 146.401 192.801 146.401 c 232 146.401
 l 233.766 146.401 235.199 144.967 235.199 143.202 c 235.199 141.432 233.766
 139.998 232 139.998 c h
232 139.998 m f
272 123.998 m 192.801 123.998 l 191.031 123.998 189.602 125.432 189.602
 127.202 c 189.602 128.967 191.031 130.401 192.801 130.401 c 272 130.401
 l 273.766 130.401 275.199 128.967 275.199 127.202 c 275.199 125.432 273.766
 123.998 272 123.998 c h
272 123.998 m f
0.117647 0.792157 0.419608 rg
152 232.401 m 151.191 232.401 150.387 232.705 149.766 233.307 c 131.367
 251.252 l 130.102 252.487 130.074 254.51 131.309 255.776 c 132.543 257.041
 134.57 257.065 135.832 255.834 c 152.055 240.014 l 182.625 268.346 l 183.922
 269.549 185.945 269.471 187.145 268.174 c 188.348 266.877 188.27 264.854
 186.977 263.655 c 154.176 233.252 l 153.562 232.682 152.781 232.401 152
 232.401 c h
152 232.401 m f
0.898039 0.74902 0.533333 rg
80.18 128.655 m 96.801 163.202 l 96.801 197.6 l 96.801 197.6 94.934 211.202
 107.199 211.202 c 119.465 211.202 116.801 199.202 116.801 199.202 c 117.043
 154.401 l 117.043 154.401 149.863 131.998 128.891 80.799 c 177.602 80.799
 l 150.664 52.799 l 85.863 52.799 l h
80.18 128.655 m f
0.92549 0.941176 0.945098 rg
80 58.401 79.199 -13.602 re f
0.741176 0.764706 0.780392 rg
119.199 58.401 40 -13.602 re f
0.2 0.286275 0.372549 rg
166.398 3.612 m 166.398 44.799 l 76.969 44.799 l 102.496 24.381 133.012
 9.944 166.398 3.612 c h
166.398 3.612 m f
0.168627 0.243137 0.317647 rg
119.199 18.705 m 134.059 11.862 149.879 6.745 166.398 3.612 c 166.398 44.799
 l 119.199 44.799 l h
119.199 18.705 m f
0.74902 0.627451 0.447059 rg
128.891 80.799 m 159.199 61.674 l 177.602 80.799 l h
128.891 80.799 m f
0.92549 0.941176 0.945098 rg
114 199.998 m 114 196.022 110.777 192.799 106.801 192.799 c 102.824 192.799
 99.602 196.022 99.602 199.998 c 99.602 203.975 102.824 207.202 106.801 
207.202 c 110.777 207.202 114 203.975 114 199.998 c h
114 199.998 m f
Q Q
showpage
%%Trailer
end restore
%%EOF
