%!PS-Adobe-3.0 EPSF-3.0
%%Creator: cairo 1.14.2 (http://cairographics.org)
%%CreationDate: Fri Jul  8 15:52:50 2016
%%Pages: 1
%%DocumentData: Clean7Bit
%%LanguageLevel: 3
%%BoundingBox: 0 -1 410 410
%%EndComments
%%BeginProlog
save
50 dict begin
/q { gsave } bind def
/Q { grestore } bind def
/cm { 6 array astore concat } bind def
/w { setlinewidth } bind def
/J { setlinecap } bind def
/j { setlinejoin } bind def
/M { setmiterlimit } bind def
/d { setdash } bind def
/m { moveto } bind def
/l { lineto } bind def
/c { curveto } bind def
/h { closepath } bind def
/re { exch dup neg 3 1 roll 5 3 roll moveto 0 rlineto
      0 exch rlineto 0 rlineto closepath } bind def
/S { stroke } bind def
/f { fill } bind def
/f* { eofill } bind def
/n { newpath } bind def
/W { clip } bind def
/W* { eoclip } bind def
/BT { } bind def
/ET { } bind def
/pdfmark where { pop globaldict /?pdfmark /exec load put }
    { globaldict begin /?pdfmark /pop load def /pdfmark
    /cleartomark load def end } ifelse
/BDC { mark 3 1 roll /BDC pdfmark } bind def
/EMC { mark /EMC pdfmark } bind def
/cairo_store_point { /cairo_point_y exch def /cairo_point_x exch def } def
/Tj { show currentpoint cairo_store_point } bind def
/TJ {
  {
    dup
    type /stringtype eq
    { show } { -0.001 mul 0 cairo_font_matrix dtransform rmoveto } ifelse
  } forall
  currentpoint cairo_store_point
} bind def
/cairo_selectfont { cairo_font_matrix aload pop pop pop 0 0 6 array astore
    cairo_font exch selectfont cairo_point_x cairo_point_y moveto } bind def
/Tf { pop /cairo_font exch def /cairo_font_matrix where
      { pop cairo_selectfont } if } bind def
/Td { matrix translate cairo_font_matrix matrix concatmatrix dup
      /cairo_font_matrix exch def dup 4 get exch 5 get cairo_store_point
      /cairo_font where { pop cairo_selectfont } if } bind def
/Tm { 2 copy 8 2 roll 6 array astore /cairo_font_matrix exch def
      cairo_store_point /cairo_font where { pop cairo_selectfont } if } bind def
/g { setgray } bind def
/rg { setrgbcolor } bind def
/d1 { setcachedevice } bind def
%%EndProlog
%%BeginSetup
%%EndSetup
%%Page: 1 1
%%BeginPageSetup
%%PageBoundingBox: 0 -1 410 410
%%EndPageSetup
q 0 -1 410 411 rectclip q
q
0 204.799 m 0 91.694 91.691 -0.002 204.801 -0.002 c 216.891 -0.002 228.734
 1.049 240.25 3.057 c 257.52 6.073 253.387 24.233 268.883 31.284 c 284.379
 38.334 319.5 34.28 332.641 44.791 c 379.551 82.319 409.602 140.049 409.602
 204.799 c 409.602 317.909 317.906 409.6 204.801 409.6 c 91.691 409.6 0 
317.909 0 204.799 c h
0 204.799 m W n
[-0.8 0 0 0.8 331.2 -1.599994] concat
/CairoFunction
<< /FunctionType 3
   /Domain [ 0 1 ]
   /Functions [
   << /FunctionType 2
      /Domain [ 0 1 ]
      /C0 [ 0.909804 0.494118 0.0156863 ]
      /C1 [ 0.909804 0.494118 0.0156863 ]
      /N 1
   >>
   << /FunctionType 2
      /Domain [ 0 1 ]
      /C0 [ 0.909804 0.494118 0.0156863 ]
      /C1 [ 0.835294 0.329412 0 ]
      /N 1
   >>
   ]
   /Bounds [ 0.0051 ]
   /Encode [ 1 1 2 { pop 0 1 } for ]
>>
def
   << /ShadingType 3
      /ColorSpace /DeviceRGB
      /Coords [ 158 258 0 158 258 256 ]
      /Extend [ true true ]
      /Function CairoFunction
   >>
shfill
Q
0.92549 0.941176 0.945098 rg
304.801 88.799 m 304.801 84.401 301.199 80.799 296.801 80.799 c 96.801 
80.799 l 92.398 80.799 88.801 84.401 88.801 88.799 c 88.801 355.998 l 88.801
 360.401 92.398 363.998 96.801 363.998 c 250.398 363.998 l 254.801 363.998
 260.945 361.455 264.059 358.342 c 299.141 323.256 l 302.254 320.147 304.801
 313.998 304.801 309.6 c h
304.801 88.799 m f
0.741176 0.764706 0.780392 rg
299.145 323.256 m 264.059 358.342 l 262.648 359.752 260.613 361.041 258.402
 362.038 c 258.402 325.6 l 258.402 321.202 262 317.6 266.402 317.6 c 302.836
 317.6 l 301.844 319.811 300.555 321.846 299.145 323.256 c h
299.145 323.256 m f
0.898039 0.74902 0.533333 rg
329.422 128.655 m 312.801 163.202 l 312.801 197.6 l 312.801 197.6 314.668
 211.202 302.398 211.202 c 290.133 211.202 292.801 199.202 292.801 199.202
 c 292.555 154.401 l 292.555 154.401 259.734 131.998 280.711 80.799 c 232
 80.799 l 258.934 52.799 l 323.734 52.799 l h
329.422 128.655 m f
0.92549 0.941176 0.945098 rg
250.398 58.401 79.203 -13.602 re f
0.2 0.286275 0.372549 rg
243.199 3.612 m 243.199 44.799 l 332.629 44.799 l 307.105 24.381 276.59
 9.944 243.199 3.612 c h
243.199 3.612 m f
0.168627 0.243137 0.317647 rg
290.398 18.705 m 275.539 11.862 259.723 6.745 243.199 3.612 c 243.199 44.799
 l 290.398 44.799 l h
290.398 18.705 m f
0.74902 0.627451 0.447059 rg
280.711 80.799 m 250.398 61.674 l 232 80.799 l h
280.711 80.799 m f
0.92549 0.941176 0.945098 rg
310 199.998 m 310 196.022 306.777 192.799 302.801 192.799 c 298.824 192.799
 295.602 196.022 295.602 199.998 c 295.602 203.975 298.824 207.202 302.801
 207.202 c 306.777 207.202 310 203.975 310 199.998 c h
310 199.998 m f
0.741176 0.764706 0.780392 rg
105.602 290.401 m 288 290.401 l 289.105 290.401 290 291.295 290 292.401
 c 290 293.506 289.105 294.401 288 294.401 c 105.602 294.401 l 104.496 294.401
 103.602 293.506 103.602 292.401 c 103.602 291.295 104.496 290.401 105.602
 290.401 c h
105.602 290.401 m f
105.602 280.799 m 288 280.799 l 289.105 280.799 290 281.694 290 282.799
 c 290 283.905 289.105 284.799 288 284.799 c 105.602 284.799 l 104.496 284.799
 103.602 283.905 103.602 282.799 c 103.602 281.694 104.496 280.799 105.602
 280.799 c h
105.602 280.799 m f
105.199 271.998 m 260.398 271.998 l 261.504 271.998 262.398 272.897 262.398
 273.998 c 262.398 275.104 261.504 275.998 260.398 275.998 c 105.199 275.998
 l 104.094 275.998 103.199 275.104 103.199 273.998 c 103.199 272.897 104.094
 271.998 105.199 271.998 c h
105.199 271.998 m f
105.199 249.6 m 274 249.6 l 275.105 249.6 276 250.495 276 251.6 c 276 252.705
 275.105 253.6 274 253.6 c 105.199 253.6 l 104.094 253.6 103.199 252.705
 103.199 251.6 c 103.199 250.495 104.094 249.6 105.199 249.6 c h
105.199 249.6 m f
105.199 227.202 m 269.199 227.202 l 270.305 227.202 271.199 228.096 271.199
 229.202 c 271.199 230.303 270.305 231.202 269.199 231.202 c 105.199 231.202
 l 104.094 231.202 103.199 230.303 103.199 229.202 c 103.199 228.096 104.094
 227.202 105.199 227.202 c h
105.199 227.202 m f
105.199 203.998 m 239.602 203.998 l 240.703 203.998 241.602 204.897 241.602
 205.998 c 241.602 207.104 240.703 207.998 239.602 207.998 c 105.199 207.998
 l 104.094 207.998 103.199 207.104 103.199 205.998 c 103.199 204.897 104.094
 203.998 105.199 203.998 c h
105.199 203.998 m f
105.199 193.6 m 239.602 193.6 l 240.703 193.6 241.602 194.495 241.602 195.6
 c 241.602 196.705 240.703 197.6 239.602 197.6 c 105.199 197.6 l 104.094
 197.6 103.199 196.705 103.199 195.6 c 103.199 194.495 104.094 193.6 105.199
 193.6 c h
105.199 193.6 m f
105.199 184.799 m 249.199 184.799 l 250.305 184.799 251.199 185.694 251.199
 186.799 c 251.199 187.905 250.305 188.799 249.199 188.799 c 105.199 188.799
 l 104.094 188.799 103.199 187.905 103.199 186.799 c 103.199 185.694 104.094
 184.799 105.199 184.799 c h
105.199 184.799 m f
105.199 165.6 m 249.199 165.6 l 250.305 165.6 251.199 166.495 251.199 167.6
 c 251.199 168.705 250.305 169.6 249.199 169.6 c 105.199 169.6 l 104.094
 169.6 103.199 168.705 103.199 167.6 c 103.199 166.495 104.094 165.6 105.199
 165.6 c h
105.199 165.6 m f
0.133333 0.498039 0.733333 rg
103.199 332.799 128 -15.199 re f
0.741176 0.764706 0.780392 rg
105.199 237.6 m 274 237.6 l 275.105 237.6 276 238.495 276 239.6 c 276 240.705
 275.105 241.6 274 241.6 c 105.199 241.6 l 104.094 241.6 103.199 240.705
 103.199 239.6 c 103.199 238.495 104.094 237.6 105.199 237.6 c h
105.199 237.6 m f
105.199 237.6 m 274 237.6 l 275.105 237.6 276 238.495 276 239.6 c 276 240.705
 275.105 241.6 274 241.6 c 105.199 241.6 l 104.094 241.6 103.199 240.705
 103.199 239.6 c 103.199 238.495 104.094 237.6 105.199 237.6 c h
105.199 237.6 m f
0.913725 0.294118 0.207843 rg
134.809 121.678 m 134.809 115.241 129.594 110.026 123.16 110.026 c 116.723
 110.026 111.508 115.241 111.508 121.678 c 111.508 128.112 116.723 133.33
 123.16 133.33 c 129.594 133.33 134.809 128.112 134.809 121.678 c h
134.809 121.678 m f
147.281 127.729 m 146.953 129.03 148.652 131.041 148.109 132.311 c 147.566
 133.584 144.941 133.752 144.23 134.893 c 143.5 136.061 144.492 138.491 
143.605 139.506 c 142.707 140.541 140.156 139.889 139.117 140.756 c 138.07
 141.631 138.258 144.256 137.094 144.952 c 135.922 145.651 133.699 144.241
 132.438 144.748 c 131.176 145.256 130.547 147.811 129.219 148.12 c 127.898
 148.42 126.219 146.401 124.855 146.495 c 123.504 146.588 122.117 148.823
 120.754 148.702 c 119.41 148.58 118.441 146.139 117.105 145.803 c 115.805
 145.475 113.793 147.17 112.523 146.627 c 111.25 146.088 111.082 143.459
 109.945 142.748 c 108.777 142.018 106.344 143.01 105.328 142.127 c 104.293
 141.225 104.945 138.674 104.078 137.639 c 103.203 136.588 100.578 136.776
 99.887 135.612 c 99.184 134.444 100.594 132.221 100.086 130.959 c 99.578
 129.698 97.023 129.069 96.719 127.741 c 96.414 126.42 98.438 124.737 98.34
 123.373 c 98.246 122.026 96.012 120.639 96.133 119.272 c 96.254 117.928
 98.695 116.963 99.031 115.627 c 99.363 114.327 97.664 112.315 98.207 111.041
 c 98.746 109.768 101.375 109.6 102.086 108.463 c 102.816 107.295 101.824
 104.862 102.707 103.846 c 103.609 102.811 106.156 103.467 107.195 102.6
 c 108.246 101.725 108.059 99.1 109.223 98.405 c 110.395 97.705 112.613 
99.112 113.875 98.604 c 115.141 98.096 115.766 95.545 117.098 95.237 c 118.418
 94.932 120.098 96.955 121.461 96.862 c 122.812 96.768 124.199 94.53 125.562
 94.651 c 126.906 94.772 127.875 97.213 129.211 97.553 c 130.512 97.877 
132.523 96.182 133.793 96.725 c 135.066 97.268 135.234 99.893 136.371 100.604
 c 137.539 101.338 139.973 100.342 140.988 101.229 c 142.023 102.131 141.367
 104.678 142.234 105.717 c 143.113 106.764 145.734 106.577 146.434 107.741
 c 147.133 108.913 145.723 111.135 146.23 112.397 c 146.738 113.659 149.293
 114.288 149.598 115.616 c 149.902 116.936 147.879 118.62 147.977 119.979
 c 148.07 121.33 150.305 122.717 150.184 124.08 c 150.062 125.424 147.621
 126.393 147.281 127.729 c h
131.828 101.338 m 120.594 96.549 107.609 101.772 102.82 113.006 c 98.031
 124.241 103.254 137.225 114.488 142.014 c 125.723 146.803 138.707 141.58
 143.496 130.346 c 148.285 119.116 143.062 106.127 131.828 101.338 c h
131.828 101.338 m f
129.742 105.995 m 125.133 104.03 120.066 104.12 115.84 106.245 c 108.891
 109.737 104.996 117.229 106.371 124.459 c 107.461 130.202 111.367 135.143
 116.57 137.358 c 118.066 137.998 119.637 138.397 121.246 138.553 c 128.641
 139.264 135.68 135.213 138.762 128.467 c 138.781 128.428 l 138.801 128.389
 138.82 128.35 138.836 128.307 c 141.352 122.163 140.188 114.944 135.941
 110.354 c 134.227 108.498 132.082 106.991 129.742 105.995 c h
117.207 135.58 m 113.629 134.053 110.789 130.913 109.281 127.276 c 107.727
 123.514 107.773 119.405 109.379 115.791 c 112.727 108.245 121.465 104.647
 128.844 107.791 c 129.043 107.866 l 136.602 111.217 140.031 119.932 136.902
 127.584 c 133.547 135.143 124.781 138.811 117.402 135.663 c h
117.207 135.58 m f
132.82 104.299 m 132.656 104.6 l 133.848 105.264 134.973 106.053 136 106.944
 c 136.227 106.686 l 135.18 105.776 134.035 104.975 132.82 104.299 c h
128.996 102.67 m 127.668 102.26 126.297 101.991 124.918 101.866 c 124.887
 102.209 l 126.242 102.33 127.59 102.596 128.895 102.998 c h
139.055 109.733 m 138.781 109.94 l 139.598 111.026 140.301 112.205 140.875
 113.444 c 141.188 113.299 l 140.605 112.041 139.887 110.842 139.055 109.733
 c h
120.762 101.936 m 119.383 102.108 118.02 102.42 116.707 102.87 c 116.82
 103.198 l 118.109 102.752 119.449 102.444 120.801 102.28 c h
142.539 117.233 m 142.203 117.311 l 142.508 118.639 142.676 120.006 142.699
 121.366 c 143.043 121.358 l 143.02 119.975 142.848 118.588 142.539 117.233
 c h
112.938 104.623 m 111.746 105.334 110.629 106.174 109.613 107.116 c 109.848
 107.37 l 110.844 106.444 111.941 105.62 113.113 104.916 c h
142.688 125.467 m 142.355 125.381 l 142.094 126.713 141.789 127.795 141.16
 129.268 c 141.477 129.405 l 142.105 127.932 142.422 126.819 142.688 125.467
 c h
106.883 110.252 m 106.094 111.381 105.414 112.6 104.871 113.881 c 105.184
 114.022 l 105.723 112.76 106.387 111.557 107.164 110.448 c h
139.156 132.901 m 138.375 134.014 137.473 135.053 136.473 135.979 c 136.707
 136.233 l 137.723 135.288 138.641 134.233 139.438 133.096 c h
103.98 117.924 m 103.645 117.858 l 103.375 119.221 103.254 120.612 103.277
 122.002 c 103.621 121.995 l 103.598 120.631 103.719 119.264 103.98 117.924
 c h
133.207 138.432 m 132.039 139.135 130.793 139.713 129.504 140.155 c 129.613
 140.479 l 130.926 140.03 132.195 139.44 133.383 138.729 c h
104.117 126.053 m 103.781 126.127 l 104.094 127.479 104.547 128.803 105.133
 130.061 c 105.441 129.913 l 104.867 128.678 104.422 127.381 104.117 126.053
 c h
125.52 141.073 m 124.168 141.241 122.793 141.264 121.438 141.143 c 121.406
 141.487 l 122.785 141.608 124.184 141.584 125.562 141.416 c h
107.539 133.42 m 107.266 133.627 l 108.098 134.737 109.051 135.764 110.098
 136.67 c 110.32 136.413 l 109.297 135.518 108.359 134.514 107.539 133.42
 c h
117.426 140.358 m 116.137 139.959 114.855 139.413 113.668 138.756 c 113.5
 139.057 l 114.707 139.725 116.012 140.28 117.328 140.686 c h
117.426 140.358 m f
0.133333 0.498039 0.733333 rg
213.789 84.811 m 214.293 85.655 l 217.828 91.541 227.891 95.561 236.516
 98.315 c 239.746 101.139 242.477 104.416 244.434 108.33 c 245.965 111.389
 245.98 114.17 245.402 114.998 c 245.246 115.221 245.105 115.237 245.016
 115.221 c 244.539 115.166 243.691 114.28 242.742 111.955 c 242.395 111.108
 l 242.141 111.991 l 241.926 112.752 241.742 113.526 241.562 114.272 c 241.238
 115.639 240.902 117.053 240.344 118.436 c 238.773 117.471 238.074 115.538
 237.332 113.498 c 236.781 111.971 236.207 110.393 235.23 109.276 c 234.879
 108.873 l 234.695 109.373 l 234.27 110.498 234.145 111.752 234.02 112.959
 c 233.863 114.487 233.703 116.065 232.957 117.436 c 231.633 116.272 230.973
 113.979 230.766 111.815 c 230.797 110.897 230.785 110.034 230.773 109.393
 c 230.773 109.174 230.77 108.983 230.77 108.834 c 230.137 108.799 l 230.043
 109.639 230.027 110.702 230.129 111.823 c 230.066 113.604 229.836 115.608
 229.098 116.358 c 228.922 116.538 228.73 116.623 228.508 116.623 c 228.102
 116.623 227.766 116.479 227.484 116.182 c 226.676 115.33 226.449 113.409
 226.422 111.549 c 226.555 110.026 226.555 108.002 226.555 107.202 c 225.922
 107.202 l 225.922 108.002 225.898 107.913 225.871 108.413 c 225.824 109.307
 225.77 110.42 225.785 111.549 c 225.531 114.385 224.805 117.202 222.727
 118.483 c 220.824 116.366 220.98 112.6 221.117 109.264 c 221.188 107.522
 221.258 105.881 221.039 104.569 c 220.766 102.94 l 220.414 104.553 l 219.91
 106.873 219.559 109.221 219.219 111.491 c 218.535 116.03 217.887 120.346
 216.129 124.604 c 216.895 118.897 217.996 109.842 214.473 106.026 c 212.836
 103.979 210.207 103.811 208.574 104.698 c 207.141 105.479 206.586 106.979
 207.133 108.612 c 207.734 108.413 l 207.277 107.049 207.695 105.901 208.879
 105.256 c 210.305 104.479 212.609 104.709 213.992 106.44 c 217.43 110.166
 216.18 119.459 215.438 125.01 c 215.355 125.596 215.285 126.139 215.223
 126.627 c 214.992 128.467 l 215.82 126.811 l 218.305 121.842 219.09 116.627
 219.844 111.584 c 220.062 110.135 220.285 108.651 220.551 107.166 c 220.543
 107.827 220.512 108.526 220.484 109.241 c 220.336 112.803 220.172 116.838
 222.445 119.112 c 222.613 119.28 l 222.82 119.166 l 224.594 118.198 225.523
 116.346 226.012 114.245 c 226.195 115.229 226.508 116.077 227.023 116.623
 c 227.426 117.045 227.926 117.26 228.508 117.26 c 228.902 117.26 229.254
 117.108 229.551 116.807 c 230.066 116.284 230.367 115.338 230.547 114.26
 c 230.969 115.87 231.699 117.342 232.863 118.174 c 233.137 118.37 l 233.316
 118.084 l 234.297 116.514 234.477 114.745 234.652 113.03 c 234.754 112.014
 234.855 111.049 235.109 110.147 c 235.801 111.131 236.258 112.393 236.738
 113.717 c 237.531 115.905 238.348 118.166 240.359 119.17 c 240.66 119.323
 l 240.793 119.014 l 241.453 117.475 241.824 115.924 242.18 114.42 c 242.289
 113.967 242.398 113.502 242.52 113.038 c 243.34 114.799 244.172 115.768
 244.945 115.854 c 245.328 115.897 245.672 115.721 245.922 115.366 c 246.707
 114.241 246.574 111.198 245 108.045 c 243.223 104.487 240.766 101.424 237.883
 98.748 c 239.875 99.366 241.762 99.913 243.441 100.405 c 244.207 100.627
 244.93 100.838 245.602 101.034 c 253.906 103.694 262.664 105.94 270.918
 107.53 c 271.934 107.725 l 271.203 106.991 l 270.988 106.776 270.691 106.678
 270.43 106.592 c 270.219 106.518 270.016 106.452 269.906 106.342 c 269.625
 106.627 l 261.809 105.065 253.602 102.928 245.789 100.428 c 245.109 100.229
 244.387 100.014 243.617 99.791 c 241.57 99.198 239.215 98.51 236.738 97.721
 c 230.402 92.256 222.277 88.452 214.691 85.202 c h
235.223 97.229 m 227.508 94.678 219.059 91.127 215.426 86.205 c 222.469
 89.252 229.516 92.623 235.223 97.229 c h
235.223 97.229 m f
Q Q
showpage
%%Trailer
end restore
%%EOF
