%!PS-Adobe-3.0 EPSF-3.0
%%Creator: cairo 1.14.2 (http://cairographics.org)
%%CreationDate: Fri Jul  8 15:53:01 2016
%%Pages: 1
%%DocumentData: Clean7Bit
%%LanguageLevel: 3
%%BoundingBox: 0 -1 410 410
%%EndComments
%%BeginProlog
save
50 dict begin
/q { gsave } bind def
/Q { grestore } bind def
/cm { 6 array astore concat } bind def
/w { setlinewidth } bind def
/J { setlinecap } bind def
/j { setlinejoin } bind def
/M { setmiterlimit } bind def
/d { setdash } bind def
/m { moveto } bind def
/l { lineto } bind def
/c { curveto } bind def
/h { closepath } bind def
/re { exch dup neg 3 1 roll 5 3 roll moveto 0 rlineto
      0 exch rlineto 0 rlineto closepath } bind def
/S { stroke } bind def
/f { fill } bind def
/f* { eofill } bind def
/n { newpath } bind def
/W { clip } bind def
/W* { eoclip } bind def
/BT { } bind def
/ET { } bind def
/pdfmark where { pop globaldict /?pdfmark /exec load put }
    { globaldict begin /?pdfmark /pop load def /pdfmark
    /cleartomark load def end } ifelse
/BDC { mark 3 1 roll /BDC pdfmark } bind def
/EMC { mark /EMC pdfmark } bind def
/cairo_store_point { /cairo_point_y exch def /cairo_point_x exch def } def
/Tj { show currentpoint cairo_store_point } bind def
/TJ {
  {
    dup
    type /stringtype eq
    { show } { -0.001 mul 0 cairo_font_matrix dtransform rmoveto } ifelse
  } forall
  currentpoint cairo_store_point
} bind def
/cairo_selectfont { cairo_font_matrix aload pop pop pop 0 0 6 array astore
    cairo_font exch selectfont cairo_point_x cairo_point_y moveto } bind def
/Tf { pop /cairo_font exch def /cairo_font_matrix where
      { pop cairo_selectfont } if } bind def
/Td { matrix translate cairo_font_matrix matrix concatmatrix dup
      /cairo_font_matrix exch def dup 4 get exch 5 get cairo_store_point
      /cairo_font where { pop cairo_selectfont } if } bind def
/Tm { 2 copy 8 2 roll 6 array astore /cairo_font_matrix exch def
      cairo_store_point /cairo_font where { pop cairo_selectfont } if } bind def
/g { setgray } bind def
/rg { setrgbcolor } bind def
/d1 { setcachedevice } bind def
%%EndProlog
%%BeginSetup
%%EndSetup
%%Page: 1 1
%%BeginPageSetup
%%PageBoundingBox: 0 -1 410 410
%%EndPageSetup
q 0 -1 410 411 rectclip q
q
409.602 204.799 m 409.602 91.694 317.906 -0.002 204.801 -0.002 c 91.691
 -0.002 0 91.694 0 204.799 c 0 317.909 91.691 409.6 204.801 409.6 c 317.906
 409.6 409.602 317.909 409.602 204.799 c h
409.602 204.799 m W n
[0.8 0 0 0.8 0 -1.599994] concat
/CairoFunction
<< /FunctionType 3
   /Domain [ 0 1 ]
   /Functions [
   << /FunctionType 2
      /Domain [ 0 1 ]
      /C0 [ 0.2 0.286275 0.372549 ]
      /C1 [ 0.2 0.286275 0.372549 ]
      /N 1
   >>
   << /FunctionType 2
      /Domain [ 0 1 ]
      /C0 [ 0.2 0.286275 0.372549 ]
      /C1 [ 0.168627 0.243137 0.317647 ]
      /N 1
   >>
   ]
   /Bounds [ 0.0051 ]
   /Encode [ 1 1 2 { pop 0 1 } for ]
>>
def
   << /ShadingType 3
      /ColorSpace /DeviceRGB
      /Coords [ 256 258 0 256 258 256 ]
      /Extend [ true true ]
      /Function CairoFunction
   >>
shfill
Q
0.909804 0.494118 0.0156863 rg
206 70.741 m 201.945 70.741 198.398 74.03 198.398 78.084 c 198.398 333.248
 l 198.398 337.303 201.945 340.592 206 340.592 c 210.055 340.592 213.602
 337.307 213.602 333.248 c 213.602 78.084 l 213.602 74.03 210.055 70.741
 206 70.741 c h
206 70.741 m f
146.176 58.573 m 145.227 58.573 144.258 58.756 143.328 59.151 c 139.59 
60.725 137.836 65.034 139.41 68.768 c 188.609 185.526 l 190.188 189.264 
194.492 191.018 198.23 189.444 c 201.969 187.87 203.723 183.561 202.145 
179.827 c 152.945 63.065 l 151.766 60.26 149.043 58.573 146.176 58.573 c
 h
146.176 58.573 m f
265.664 58.573 m 262.797 58.573 260.074 60.26 258.895 63.065 c 209.691 
179.823 l 208.117 183.561 209.871 187.87 213.605 189.444 c 217.344 191.018
 221.652 189.264 223.227 185.526 c 272.426 68.768 l 274 65.03 272.246 60.725
 268.512 59.151 c 267.582 58.756 266.613 58.573 265.664 58.573 c h
265.664 58.573 m f
0.835294 0.329412 0 rg
206 86.897 m 201.945 86.897 198.398 90.186 198.398 94.241 c 198.398 285.248
 l 198.398 289.303 201.945 292.592 206 292.592 c 210.055 292.592 213.602
 289.307 213.602 285.248 c 213.602 94.241 l 213.602 90.186 210.055 86.897
 206 86.897 c h
206 86.897 m f
157.957 86.53 m 157.008 86.53 156.039 86.713 155.109 87.108 c 151.371 88.682
 149.617 92.991 151.191 96.725 c 188.609 185.526 l 190.188 189.264 194.492
 191.018 198.23 189.444 c 201.969 187.87 203.723 183.561 202.145 179.827
 c 164.727 91.022 l 163.543 88.217 160.82 86.53 157.957 86.53 c h
157.957 86.53 m f
253.883 86.53 m 251.016 86.53 248.293 88.217 247.113 91.022 c 209.691 179.823
 l 208.117 183.561 209.871 187.87 213.605 189.444 c 217.344 191.022 221.652
 189.264 223.227 185.526 c 260.645 96.725 l 262.223 92.987 260.469 88.682
 256.73 87.108 c 255.801 86.713 254.832 86.53 253.883 86.53 c h
253.883 86.53 m f
0.92549 0.941176 0.945098 rg
76.801 312.799 257.598 -196 re f
0.172549 0.592157 0.870588 rg
346.398 310.772 m 346.398 305.705 342.293 301.6 337.227 301.6 c 73.973 
301.6 l 68.906 301.6 64.801 305.705 64.801 310.772 c 64.801 310.827 l 64.801
 315.893 68.906 319.998 73.973 319.998 c 337.227 319.998 l 342.293 319.998
 346.398 315.893 346.398 310.827 c h
346.398 310.772 m f
0.741176 0.764706 0.780392 rg
236.699 232.401 m 175.152 177.998 l 112.773 219.6 l 76.801 206.745 l 76.801
 116.799 l 334.398 116.799 l 334.398 224.534 l 298.199 203.6 l h
236.699 232.401 m f
0.584314 0.647059 0.65098 rg
236.801 239.6 m 175.199 185.202 l 112.801 226.799 l 76.801 213.944 l 76.801
 201.143 l 112.773 213.998 l 175.152 172.401 l 236.699 226.799 l 298.199
 197.998 l 334.398 218.936 l 334.398 231.737 l 298.199 210.799 l h
236.801 239.6 m f
0.611765 0.337255 0.721569 rg
128.801 220.401 m 128.801 211.565 121.637 204.401 112.801 204.401 c 103.965
 204.401 96.801 211.565 96.801 220.401 c 96.801 229.237 103.965 236.401 
112.801 236.401 c 121.637 236.401 128.801 229.237 128.801 220.401 c h
128.801 220.401 m f
0.913725 0.294118 0.207843 rg
191.199 178.799 m 191.199 169.963 184.035 162.799 175.199 162.799 c 166.363
 162.799 159.199 169.963 159.199 178.799 c 159.199 187.635 166.363 194.799
 175.199 194.799 c 184.035 194.799 191.199 187.635 191.199 178.799 c h
191.199 178.799 m f
0.117647 0.792157 0.419608 rg
252.801 233.202 m 252.801 224.362 245.637 217.202 236.801 217.202 c 227.965
 217.202 220.801 224.362 220.801 233.202 c 220.801 242.038 227.965 249.202
 236.801 249.202 c 245.637 249.202 252.801 242.038 252.801 233.202 c h
252.801 233.202 m f
0.94902 0.772549 0 rg
314.398 204.401 m 314.398 195.565 307.238 188.401 298.398 188.401 c 289.562
 188.401 282.398 195.565 282.398 204.401 c 282.398 213.237 289.562 220.401
 298.398 220.401 c 307.238 220.401 314.398 213.237 314.398 204.401 c h
314.398 204.401 m f
0.133333 0.498039 0.733333 rg
346.398 116.373 m 346.398 111.307 342.293 107.202 337.227 107.202 c 73.973
 107.202 l 68.906 107.202 64.801 111.307 64.801 116.373 c 64.801 116.428
 l 64.801 121.495 68.906 125.6 73.973 125.6 c 337.227 125.6 l 342.293 125.6
 346.398 121.495 346.398 116.428 c h
346.398 116.373 m f
Q Q
showpage
%%Trailer
end restore
%%EOF
