%!PS-Adobe-3.0 EPSF-3.0
%%Creator: cairo 1.14.2 (http://cairographics.org)
%%CreationDate: Fri Jul  8 15:53:21 2016
%%Pages: 1
%%DocumentData: Clean7Bit
%%LanguageLevel: 3
%%BoundingBox: 0 -1 410 410
%%EndComments
%%BeginProlog
save
50 dict begin
/q { gsave } bind def
/Q { grestore } bind def
/cm { 6 array astore concat } bind def
/w { setlinewidth } bind def
/J { setlinecap } bind def
/j { setlinejoin } bind def
/M { setmiterlimit } bind def
/d { setdash } bind def
/m { moveto } bind def
/l { lineto } bind def
/c { curveto } bind def
/h { closepath } bind def
/re { exch dup neg 3 1 roll 5 3 roll moveto 0 rlineto
      0 exch rlineto 0 rlineto closepath } bind def
/S { stroke } bind def
/f { fill } bind def
/f* { eofill } bind def
/n { newpath } bind def
/W { clip } bind def
/W* { eoclip } bind def
/BT { } bind def
/ET { } bind def
/pdfmark where { pop globaldict /?pdfmark /exec load put }
    { globaldict begin /?pdfmark /pop load def /pdfmark
    /cleartomark load def end } ifelse
/BDC { mark 3 1 roll /BDC pdfmark } bind def
/EMC { mark /EMC pdfmark } bind def
/cairo_store_point { /cairo_point_y exch def /cairo_point_x exch def } def
/Tj { show currentpoint cairo_store_point } bind def
/TJ {
  {
    dup
    type /stringtype eq
    { show } { -0.001 mul 0 cairo_font_matrix dtransform rmoveto } ifelse
  } forall
  currentpoint cairo_store_point
} bind def
/cairo_selectfont { cairo_font_matrix aload pop pop pop 0 0 6 array astore
    cairo_font exch selectfont cairo_point_x cairo_point_y moveto } bind def
/Tf { pop /cairo_font exch def /cairo_font_matrix where
      { pop cairo_selectfont } if } bind def
/Td { matrix translate cairo_font_matrix matrix concatmatrix dup
      /cairo_font_matrix exch def dup 4 get exch 5 get cairo_store_point
      /cairo_font where { pop cairo_selectfont } if } bind def
/Tm { 2 copy 8 2 roll 6 array astore /cairo_font_matrix exch def
      cairo_store_point /cairo_font where { pop cairo_selectfont } if } bind def
/g { setgray } bind def
/rg { setrgbcolor } bind def
/d1 { setcachedevice } bind def
%%EndProlog
%%BeginSetup
%%EndSetup
%%Page: 1 1
%%BeginPageSetup
%%PageBoundingBox: 0 -1 410 410
%%EndPageSetup
q 0 -1 410 411 rectclip q
q
409.602 204.799 m 409.602 91.694 317.906 -0.002 204.801 -0.002 c 91.691
 -0.002 0 91.694 0 204.799 c 0 317.909 91.691 409.6 204.801 409.6 c 317.906
 409.6 409.602 317.909 409.602 204.799 c h
409.602 204.799 m W n
[0.8 0 0 0.8 0 -1.599994] concat
/CairoFunction
<< /FunctionType 3
   /Domain [ 0 1 ]
   /Functions [
   << /FunctionType 2
      /Domain [ 0 1 ]
      /C0 [ 0.913725 0.294118 0.207843 ]
      /C1 [ 0.913725 0.294118 0.207843 ]
      /N 1
   >>
   << /FunctionType 2
      /Domain [ 0 1 ]
      /C0 [ 0.913725 0.294118 0.207843 ]
      /C1 [ 0.760784 0.219608 0.141176 ]
      /N 1
   >>
   ]
   /Bounds [ 0.0051 ]
   /Encode [ 1 1 2 { pop 0 1 } for ]
>>
def
   << /ShadingType 3
      /ColorSpace /DeviceRGB
      /Coords [ 256 258 0 256 258 256 ]
      /Extend [ true true ]
      /Function CairoFunction
   >>
shfill
Q
0.94902 0.772549 0 rg
185.914 141.827 m 185.914 141.827 188.988 148.663 192.941 143.022 c 196.898
 137.381 202.859 124.514 210.555 119.33 c 216.891 115.061 204.578 101.479
 201.043 101.838 c 197.508 102.194 185.914 141.827 185.914 141.827 c h
185.914 141.827 m f
0.2 0.286275 0.372549 rg
141.32 161.776 m 136.266 159.995 132.98 154.241 134.156 149.014 c 155.016
 56.17 l 156.191 50.944 161.77 47.123 166.996 48.295 c 207.934 57.495 l 
213.16 58.67 216.293 64.444 215.117 69.674 c 213.312 77.713 l 212.137 82.944
 209.426 91.233 207.25 96.127 c 188.793 137.674 l 186.613 142.573 188.633
 148.776 193.27 151.459 c 193.27 151.459 196.344 153.256 193.441 166.174
 c 190.539 179.088 141.32 161.776 141.32 161.776 c h
141.32 161.776 m f
0.94902 0.772549 0 rg
116.371 173.432 m 109.617 203.495 l 102.41 235.573 l 101.238 240.799 96.273
 243.955 91.047 242.78 c 44.262 232.268 l 39.035 231.092 35.672 226.069 
36.844 220.842 c 44.051 188.764 l 50.805 158.702 l 51.98 153.475 57.273 
149.916 62.5 151.092 c 109.285 161.604 l 114.512 162.776 117.547 168.205
 116.371 173.432 c h
116.371 173.432 m f
0.960784 0.615686 0 rg
44.051 188.764 m 50.805 158.702 l 51.98 153.475 57.273 149.916 62.5 151.092
 c 109.285 161.604 l 114.512 162.776 117.547 168.205 116.371 173.432 c 109.617
 203.495 l h
44.051 188.764 m f
0.92549 0.941176 0.945098 rg
341.078 158.639 m 320.363 250.842 l 299.441 343.975 l 212.387 269.944 l
 221.695 228.674 l 221.73 228.682 l 230.848 187.858 l h
341.078 158.639 m f
0.741176 0.764706 0.780392 rg
230.848 187.858 m 341.078 158.639 l 320.363 250.842 l 221.73 228.682 l 
h
230.848 187.858 m f
0.94902 0.772549 0 rg
301.336 350.143 m 300.16 355.373 294.668 358.631 289.441 357.455 c 284.215
 356.28 280.645 350.987 281.82 345.76 c 303.973 247.159 l 323.488 251.541
 l h
301.336 350.143 m f
0.960784 0.615686 0 rg
303.973 247.159 m 325.836 149.838 l 327.012 144.612 332.504 141.354 337.73
 142.53 c 342.957 143.702 346.523 148.998 345.352 154.225 c 323.488 251.541
 l h
303.973 247.159 m f
0.2 0.286275 0.372549 rg
251.891 183.143 m 253.066 177.916 249.75 172.678 244.523 171.502 c 120.246
 143.584 l 115.02 142.409 109.781 145.725 108.605 150.952 c 85.613 253.299
 l 84.438 258.526 87.754 263.764 92.98 264.94 c 217.258 292.858 l 222.488
 294.034 227.723 290.717 228.898 285.491 c h
251.891 183.143 m f
0.168627 0.243137 0.317647 rg
251.938 183.155 m 253.113 177.928 249.754 172.663 244.527 171.487 c 120.25
 143.569 l 115.023 142.393 109.492 145.659 108.316 150.889 c 97.129 200.69
 l 240.75 232.955 l h
251.938 183.155 m f
170.184 130.998 m 169.008 136.225 163.547 139.354 158.32 138.182 c 138.582
 133.745 l 138.336 133.69 138.391 133.819 137.613 133.623 c 155.016 56.17
 l 156.191 50.944 161.77 47.123 166.996 48.295 c 187.715 52.952 l h
170.184 130.998 m f
Q Q
showpage
%%Trailer
end restore
%%EOF
