%!PS-Adobe-3.0 EPSF-3.0
%%Creator: cairo 1.14.2 (http://cairographics.org)
%%CreationDate: Fri Jul  8 15:53:45 2016
%%Pages: 1
%%DocumentData: Clean7Bit
%%LanguageLevel: 3
%%BoundingBox: 0 -1 410 410
%%EndComments
%%BeginProlog
save
50 dict begin
/q { gsave } bind def
/Q { grestore } bind def
/cm { 6 array astore concat } bind def
/w { setlinewidth } bind def
/J { setlinecap } bind def
/j { setlinejoin } bind def
/M { setmiterlimit } bind def
/d { setdash } bind def
/m { moveto } bind def
/l { lineto } bind def
/c { curveto } bind def
/h { closepath } bind def
/re { exch dup neg 3 1 roll 5 3 roll moveto 0 rlineto
      0 exch rlineto 0 rlineto closepath } bind def
/S { stroke } bind def
/f { fill } bind def
/f* { eofill } bind def
/n { newpath } bind def
/W { clip } bind def
/W* { eoclip } bind def
/BT { } bind def
/ET { } bind def
/pdfmark where { pop globaldict /?pdfmark /exec load put }
    { globaldict begin /?pdfmark /pop load def /pdfmark
    /cleartomark load def end } ifelse
/BDC { mark 3 1 roll /BDC pdfmark } bind def
/EMC { mark /EMC pdfmark } bind def
/cairo_store_point { /cairo_point_y exch def /cairo_point_x exch def } def
/Tj { show currentpoint cairo_store_point } bind def
/TJ {
  {
    dup
    type /stringtype eq
    { show } { -0.001 mul 0 cairo_font_matrix dtransform rmoveto } ifelse
  } forall
  currentpoint cairo_store_point
} bind def
/cairo_selectfont { cairo_font_matrix aload pop pop pop 0 0 6 array astore
    cairo_font exch selectfont cairo_point_x cairo_point_y moveto } bind def
/Tf { pop /cairo_font exch def /cairo_font_matrix where
      { pop cairo_selectfont } if } bind def
/Td { matrix translate cairo_font_matrix matrix concatmatrix dup
      /cairo_font_matrix exch def dup 4 get exch 5 get cairo_store_point
      /cairo_font where { pop cairo_selectfont } if } bind def
/Tm { 2 copy 8 2 roll 6 array astore /cairo_font_matrix exch def
      cairo_store_point /cairo_font where { pop cairo_selectfont } if } bind def
/g { setgray } bind def
/rg { setrgbcolor } bind def
/d1 { setcachedevice } bind def
%%EndProlog
%%BeginSetup
%%EndSetup
%%Page: 1 1
%%BeginPageSetup
%%PageBoundingBox: 0 -1 410 410
%%EndPageSetup
q 0 -1 410 411 rectclip q
q
409.602 204.799 m 409.602 91.694 317.906 -0.002 204.801 -0.002 c 91.691
 -0.002 0 91.694 0 204.799 c 0 317.909 91.691 409.6 204.801 409.6 c 317.906
 409.6 409.602 317.909 409.602 204.799 c h
409.602 204.799 m W n
[0.8 0 0 0.8 0 -1.599994] concat
/CairoFunction
   << /FunctionType 2
      /Domain [ 0 1 ]
      /C0 [ 0.164706 0.576471 0.847059 ]
      /C1 [ 0.133333 0.498039 0.733333 ]
      /N 1
   >>
def
   << /ShadingType 3
      /ColorSpace /DeviceRGB
      /Coords [ 256 258 0 256 258 256 ]
      /Extend [ true true ]
      /Function CairoFunction
   >>
shfill
Q
0.74902 0.627451 0.447059 rg
130.602 107.088 m 130.602 107.088 118.09 109.104 118.09 96.307 c 118.09
 83.518 132.27 86.401 132.27 86.401 c 237.223 86.401 l 246.398 107.358 l
 h
130.602 107.088 m f
0.831373 0.694118 0.494118 rg
116.203 99.889 m 116.203 99.889 103.688 101.905 103.688 89.108 c 103.688
 76.319 117.871 79.198 117.871 79.198 c 237.223 79.198 l 246.398 100.159
 l h
116.203 99.889 m f
0.74902 0.627451 0.447059 rg
98.602 92.69 m 98.602 92.69 86.09 94.702 86.09 81.909 c 86.09 69.116 100.27
 71.998 100.27 71.998 c 219.621 71.998 l 228.801 92.959 l h
98.602 92.69 m f
0.831373 0.694118 0.494118 rg
109.801 87.088 m 109.801 87.088 97.289 89.104 97.289 76.307 c 97.289 63.518
 111.473 66.401 111.473 66.401 c 230.824 66.401 l 240 87.358 l h
109.801 87.088 m f
0.92549 0.941176 0.945098 rg
288 103.202 17.602 -75.203 re f
0.741176 0.764706 0.780392 rg
288 65.6 17.602 -37.602 re f
0.2 0.286275 0.372549 rg
305.602 26.495 m 338.996 45.416 366.555 73.436 384.891 107.202 c 305.602
 107.202 l h
305.602 26.495 m f
0.168627 0.243137 0.317647 rg
305.602 26.495 m 323.078 36.397 338.961 48.791 352.754 63.202 c 305.602
 63.202 l h
305.602 26.495 m f
0.835294 0.329412 0 rg
210.398 176.799 m 142.574 176.799 l 139.934 176.799 138.117 174.666 138.535
 172.061 c 153.078 81.538 l 153.5 78.932 156 76.799 158.641 76.799 c 251.863
 76.799 l 254.5 76.799 257.004 78.932 257.422 81.538 c 271.965 172.061 l
 272.383 174.666 270.566 176.799 267.926 176.799 c h
210.398 176.799 m f
0.709804 0.278431 0 rg
257.422 81.538 m 264.695 126.799 l 271.965 172.061 l 272.383 174.666 270.566
 176.799 267.926 176.799 c 205.602 176.799 l 205.602 76.799 l 251.863 76.799
 l 254.5 76.799 257.004 78.932 257.422 81.538 c h
257.422 81.538 m f
0.2 0.286275 0.372549 rg
229.281 247.998 m 230.164 247.998 231.434 248.463 232.109 249.03 c 267.996
 279.166 l 268.668 279.733 268.617 279.803 267.875 279.33 c 229.594 254.721
 l 228.855 254.245 227.559 254.065 226.719 254.323 c 206.125 260.58 l 205.281
 260.834 204.746 261.748 204.934 262.608 c 204.934 262.608 213.844 303.596
 222.98 318.827 c 233.516 336.385 195.945 282.678 195.945 282.678 c 195.441
 281.955 194.309 281.334 193.43 281.295 c 156.098 279.678 l 155.219 279.639
 154.102 280.209 153.617 280.944 c 126.336 322.28 l 125.848 323.014 125.785
 322.975 126.191 322.194 c 151.125 274.217 l 151.531 273.436 152.586 272.799
 153.465 272.799 c 193.285 272.799 l 194.164 272.799 194.574 272.147 194.199
 271.354 c 194.199 271.354 178.789 238.745 188.445 228.209 c 198.105 217.674
 183.18 179.745 183.18 179.745 c 182.855 178.928 183.305 178.373 184.172
 178.51 c 210.863 182.803 l 211.734 182.944 212.465 183.78 212.492 184.659
 c 213.566 221.245 l 213.594 222.127 213.602 223.756 212.469 226.264 c 204.156
 246.51 l 203.828 247.33 204.281 247.998 205.16 247.998 c h
229.281 247.998 m f
0.168627 0.243137 0.317647 rg
195.586 181.975 m 194.719 181.834 194.273 182.389 194.594 183.205 c 194.594
 183.205 209.52 221.08 199.859 231.616 c 190.203 242.151 194.641 271.006
 194.641 271.006 c 194.777 271.877 194.172 272.666 193.297 272.764 c 164.867
 275.92 l 163.996 276.018 162.945 276.737 162.543 277.518 c 162.039 278.487
 l 161.637 279.268 160.586 279.873 159.707 279.834 c 156.098 279.678 l 155.219
 279.643 154.102 280.209 153.617 280.944 c 126.336 322.28 l 125.848 323.014
 125.785 322.975 126.191 322.198 c 151.125 274.221 l 151.531 273.44 152.586
 272.799 153.465 272.799 c 193.285 272.799 l 194.164 272.799 194.574 272.151
 194.199 271.354 c 194.199 271.354 178.789 238.745 188.445 228.209 c 198.105
 217.674 183.18 179.748 183.18 179.748 c 182.855 178.928 183.305 178.373
 184.172 178.51 c 210.863 182.807 l 211.734 182.948 212.457 183.432 212.469
 183.889 c 212.48 184.346 211.781 184.604 210.914 184.463 c h
195.586 181.975 m f
0.909804 0.494118 0.0156863 rg
280 171.998 m 280 169.362 277.84 167.202 275.199 167.202 c 134.398 167.202
 l 131.762 167.202 129.602 169.362 129.602 171.998 c 129.602 183.998 l 129.602
 186.639 131.762 188.799 134.398 188.799 c 275.199 188.799 l 277.84 188.799
 280 186.639 280 183.998 c h
280 171.998 m f
0.956863 0.8 0.12549 rg
308.656 282.721 m 308.656 269.245 297.73 258.323 284.258 258.323 c 270.781
 258.323 259.855 269.245 259.855 282.721 c 259.855 296.198 270.781 307.123
 284.258 307.123 c 297.73 307.123 308.656 296.198 308.656 282.721 c h
308.656 282.721 m f
0.960784 0.615686 0 rg
284.258 261.159 m 272.367 261.159 262.695 270.83 262.695 282.721 c 262.695
 294.608 272.367 304.284 284.258 304.284 c 296.145 304.284 305.816 294.608
 305.816 282.721 c 305.816 270.83 296.145 261.159 284.258 261.159 c h
284.258 261.159 m f
0.956863 0.8 0.12549 rg
303.395 282.721 m 303.395 272.151 294.824 263.58 284.258 263.58 c 273.688
 263.58 265.117 272.151 265.117 282.721 c 265.117 293.291 273.688 301.858
 284.258 301.858 c 294.824 301.858 303.395 293.291 303.395 282.721 c h
303.395 282.721 m f
0.960784 0.615686 0 rg
282.5 294.623 m 282.5 295.745 282.992 296.377 284.254 296.377 c 285.52 
296.377 286.012 295.745 286.012 294.623 c 286.012 290.409 l 291.172 290.409
 l 292.086 290.409 292.926 289.916 292.926 288.655 c 292.926 287.389 292.086
 286.897 291.172 286.897 c 279.098 286.897 l 279.098 284.475 l 291.172 284.475
 l 292.117 284.475 292.926 283.67 292.926 282.721 c 292.926 276.791 l 292.926
 275.842 292.117 275.034 291.172 275.034 c 286.012 275.034 l 286.012 270.823
 l 286.012 269.698 285.52 269.069 284.254 269.069 c 282.992 269.069 282.5
 269.698 282.5 270.823 c 282.5 275.034 l 277.34 275.034 l 276.43 275.034
 275.586 275.526 275.586 276.791 c 275.586 278.053 276.43 278.545 277.34
 278.545 c 289.414 278.545 l 289.414 280.963 l 277.34 280.963 l 276.395 
280.963 275.586 281.776 275.586 282.717 c 275.586 288.655 l 275.586 289.604
 276.395 290.409 277.34 290.409 c 282.5 290.409 l h
282.5 294.623 m f
0.956863 0.8 0.12549 rg
149.742 326.62 m 149.742 313.143 138.82 302.221 125.344 302.221 c 111.867
 302.221 100.945 313.143 100.945 326.62 c 100.945 340.096 111.867 351.022
 125.344 351.022 c 138.82 351.022 149.742 340.096 149.742 326.62 c h
149.742 326.62 m f
0.960784 0.615686 0 rg
125.344 305.057 m 113.457 305.057 103.781 314.729 103.781 326.62 c 103.781
 338.506 113.457 348.182 125.344 348.182 c 137.234 348.182 146.906 338.506
 146.906 326.62 c 146.906 314.729 137.234 305.057 125.344 305.057 c h
125.344 305.057 m f
0.956863 0.8 0.12549 rg
144.48 326.62 m 144.48 316.049 135.914 307.479 125.344 307.479 c 114.773
 307.479 106.207 316.049 106.207 326.62 c 106.207 337.19 114.773 345.756
 125.344 345.756 c 135.914 345.756 144.48 337.19 144.48 326.62 c h
144.48 326.62 m f
0.960784 0.615686 0 rg
123.59 338.522 m 123.59 339.643 124.078 340.276 125.344 340.276 c 126.609
 340.276 127.102 339.643 127.102 338.522 c 127.102 334.307 l 132.258 334.307
 l 133.172 334.307 134.012 333.815 134.012 332.553 c 134.012 331.288 133.172
 330.795 132.258 330.795 c 120.184 330.795 l 120.184 328.373 l 132.258 328.373
 l 133.207 328.373 134.012 327.569 134.012 326.62 c 134.012 320.69 l 134.012
 319.741 133.207 318.932 132.258 318.932 c 127.098 318.932 l 127.098 314.721
 l 127.098 313.596 126.609 312.967 125.344 312.967 c 124.078 312.967 123.586
 313.596 123.586 314.721 c 123.586 318.932 l 118.43 318.932 l 117.516 318.932
 116.672 319.424 116.672 320.69 c 116.672 321.952 117.516 322.444 118.43
 322.444 c 130.504 322.444 l 130.504 324.862 l 118.43 324.862 l 117.48 324.862
 116.672 325.674 116.672 326.616 c 116.672 332.553 l 116.672 333.502 117.48
 334.307 118.43 334.307 c 123.586 334.307 l 123.586 338.522 l h
123.59 338.522 m f
0.956863 0.8 0.12549 rg
252.465 340.666 m 252.465 327.19 241.543 316.268 228.066 316.268 c 214.59
 316.268 203.668 327.19 203.668 340.666 c 203.668 354.143 214.59 365.069
 228.066 365.069 c 241.543 365.069 252.465 354.143 252.465 340.666 c h
252.465 340.666 m f
0.960784 0.615686 0 rg
228.066 319.108 m 216.176 319.108 206.504 328.78 206.504 340.666 c 206.504
 352.557 216.176 362.229 228.066 362.229 c 239.957 362.229 249.629 352.557
 249.629 340.666 c 249.629 328.78 239.957 319.108 228.066 319.108 c h
228.066 319.108 m f
0.956863 0.8 0.12549 rg
247.203 340.666 m 247.203 330.096 238.637 321.53 228.066 321.53 c 217.496
 321.53 208.93 330.096 208.93 340.666 c 208.93 351.237 217.496 359.807 228.066
 359.807 c 238.637 359.807 247.203 351.237 247.203 340.666 c h
247.203 340.666 m f
0.960784 0.615686 0 rg
226.309 352.569 m 226.309 353.69 226.801 354.323 228.066 354.323 c 229.332
 354.323 229.824 353.69 229.824 352.569 c 229.824 348.354 l 234.98 348.354
 l 235.895 348.354 236.734 347.866 236.734 346.6 c 236.734 345.338 235.895
 344.842 234.98 344.842 c 222.906 344.842 l 222.906 342.42 l 234.98 342.42
 l 235.93 342.42 236.734 341.616 236.734 340.666 c 236.734 334.737 l 236.734
 333.788 235.93 332.979 234.98 332.979 c 229.824 332.979 l 229.824 328.768
 l 229.824 327.643 229.332 327.014 228.066 327.014 c 226.801 327.014 226.309
 327.643 226.309 328.768 c 226.309 332.979 l 221.152 332.979 l 220.238 332.979
 219.398 333.471 219.398 334.737 c 219.398 335.998 220.238 336.491 221.152
 336.491 c 233.227 336.491 l 233.227 338.909 l 221.152 338.909 l 220.203
 338.909 219.398 339.721 219.398 340.666 c 219.398 346.6 l 219.398 347.549
 220.203 348.354 221.152 348.354 c 226.309 348.354 l h
226.309 352.569 m f
0.117647 0.792157 0.419608 rg
212.625 189.178 m 212.625 189.178 224.371 238.788 284.258 229.569 c h
212.625 189.178 m f
0.101961 0.686275 0.364706 rg
212.625 189.178 m 212.625 189.178 277.34 184.1 284.258 229.569 c h
212.625 189.178 m f
0.117647 0.792157 0.419608 rg
186.324 189.01 m 186.324 189.01 136.504 221.666 113.234 175.131 c h
186.324 189.01 m f
0.101961 0.686275 0.364706 rg
113.234 175.131 m 113.234 175.131 136.676 157.135 159.199 168.987 c 181.719
 180.838 186.324 189.01 186.324 189.01 c h
113.234 175.131 m f
0.117647 0.792157 0.419608 rg
149.777 245.37 m 149.777 245.37 193.125 246.788 186.324 189.01 c h
149.777 245.37 m f
0.101961 0.686275 0.364706 rg
149.777 245.37 m 149.777 245.37 131.227 197.182 186.324 189.01 c h
149.777 245.37 m f
0.835294 0.329412 0 rg
280 171.998 m 280 183.998 l 280 186.639 277.84 188.799 275.199 188.799 
c 205.602 188.799 l 205.602 167.202 l 275.199 167.202 l 277.84 167.202 280
 169.362 280 171.998 c h
280 171.998 m f
0.898039 0.74902 0.533333 rg
212.125 28.112 m 177.555 44.799 l 143.156 44.799 l 143.156 44.799 129.555
 42.065 129.555 54.334 c 129.555 66.6 141.555 64.698 141.555 64.698 c 186.379
 64.928 l 186.379 64.928 206.102 101.561 257.301 80.584 c 261.602 107.202
 l 275.199 107.202 l 275.199 107.202 278.164 107.92 280.727 105.354 c 282.969
 103.112 288 98.53 288 98.53 c 288 33.729 l h
212.125 28.112 m f
0.74902 0.627451 0.447059 rg
257.301 80.584 m 278.414 106.877 l 276.656 107.549 275.199 107.202 275.199
 107.202 c 261.602 107.202 l h
257.301 80.584 m f
0.92549 0.941176 0.945098 rg
147.957 54.666 m 147.957 50.69 144.73 47.463 140.754 47.463 c 136.777 47.463
 133.555 50.69 133.555 54.666 c 133.555 58.643 136.777 61.866 140.754 61.866
 c 144.73 61.866 147.957 58.643 147.957 54.666 c h
147.957 54.666 m f
Q Q
showpage
%%Trailer
end restore
%%EOF
