%!PS-Adobe-3.0 EPSF-3.0
%%Creator: cairo 1.14.2 (http://cairographics.org)
%%CreationDate: Fri Jul  8 15:54:54 2016
%%Pages: 1
%%DocumentData: Clean7Bit
%%LanguageLevel: 3
%%BoundingBox: 0 -1 410 410
%%EndComments
%%BeginProlog
save
50 dict begin
/q { gsave } bind def
/Q { grestore } bind def
/cm { 6 array astore concat } bind def
/w { setlinewidth } bind def
/J { setlinecap } bind def
/j { setlinejoin } bind def
/M { setmiterlimit } bind def
/d { setdash } bind def
/m { moveto } bind def
/l { lineto } bind def
/c { curveto } bind def
/h { closepath } bind def
/re { exch dup neg 3 1 roll 5 3 roll moveto 0 rlineto
      0 exch rlineto 0 rlineto closepath } bind def
/S { stroke } bind def
/f { fill } bind def
/f* { eofill } bind def
/n { newpath } bind def
/W { clip } bind def
/W* { eoclip } bind def
/BT { } bind def
/ET { } bind def
/pdfmark where { pop globaldict /?pdfmark /exec load put }
    { globaldict begin /?pdfmark /pop load def /pdfmark
    /cleartomark load def end } ifelse
/BDC { mark 3 1 roll /BDC pdfmark } bind def
/EMC { mark /EMC pdfmark } bind def
/cairo_store_point { /cairo_point_y exch def /cairo_point_x exch def } def
/Tj { show currentpoint cairo_store_point } bind def
/TJ {
  {
    dup
    type /stringtype eq
    { show } { -0.001 mul 0 cairo_font_matrix dtransform rmoveto } ifelse
  } forall
  currentpoint cairo_store_point
} bind def
/cairo_selectfont { cairo_font_matrix aload pop pop pop 0 0 6 array astore
    cairo_font exch selectfont cairo_point_x cairo_point_y moveto } bind def
/Tf { pop /cairo_font exch def /cairo_font_matrix where
      { pop cairo_selectfont } if } bind def
/Td { matrix translate cairo_font_matrix matrix concatmatrix dup
      /cairo_font_matrix exch def dup 4 get exch 5 get cairo_store_point
      /cairo_font where { pop cairo_selectfont } if } bind def
/Tm { 2 copy 8 2 roll 6 array astore /cairo_font_matrix exch def
      cairo_store_point /cairo_font where { pop cairo_selectfont } if } bind def
/g { setgray } bind def
/rg { setrgbcolor } bind def
/d1 { setcachedevice } bind def
%%EndProlog
%%BeginSetup
%%EndSetup
%%Page: 1 1
%%BeginPageSetup
%%PageBoundingBox: 0 -1 410 410
%%EndPageSetup
q 0 -1 410 411 rectclip q
q
409.602 204.799 m 409.602 123.194 361.871 52.737 292.805 19.819 c 284.309
 15.768 275.488 26.264 266.395 23.401 c 256.812 20.381 246.93 4.077 236.801
 2.487 c 226.375 0.85 215.688 -0.002 204.801 -0.002 c 194.195 -0.002 183.781
 0.807 173.609 2.362 c 164.039 3.823 155.488 19.26 146.398 21.998 c 136.746
 24.909 126.59 15.202 117.598 19.44 c 48.098 52.194 0 122.877 0 204.799 
c 0 317.909 91.691 409.6 204.801 409.6 c 317.906 409.6 409.602 317.909 409.602
 204.799 c h
409.602 204.799 m W n
[0.8 0 0 0.8 0 -1.599994] concat
/CairoFunction
<< /FunctionType 3
   /Domain [ 0 1 ]
   /Functions [
   << /FunctionType 2
      /Domain [ 0 1 ]
      /C0 [ 0.584314 0.647059 0.65098 ]
      /C1 [ 0.584314 0.647059 0.65098 ]
      /N 1
   >>
   << /FunctionType 2
      /Domain [ 0 1 ]
      /C0 [ 0.584314 0.647059 0.65098 ]
      /C1 [ 0.498039 0.54902 0.552941 ]
      /N 1
   >>
   ]
   /Bounds [ 0.0051 ]
   /Encode [ 1 1 2 { pop 0 1 } for ]
>>
def
   << /ShadingType 3
      /ColorSpace /DeviceRGB
      /Coords [ 256 258 0 256 258 256 ]
      /Extend [ true true ]
      /Function CairoFunction
   >>
shfill
Q
0.74902 0.627451 0.447059 rg
124 191.998 m 128.898 191.998 128.801 188.401 128.801 188.401 c 128.801
 160.799 l 128.801 159.92 129.336 158.717 129.988 158.131 c 140.398 143.401
 l 141.055 142.811 143.395 140.538 144 139.901 c 150.602 134.799 l 151.203
 134.163 152.168 136.498 152.371 135.643 c 157.754 113.159 l 157.957 112.299
 157.852 110.936 157.516 110.12 c 153.855 115.202 l 153.523 114.385 148.938
 112.131 148.367 112.799 c 135.434 117.58 l 134.867 118.252 134.293 119.514
 134.164 120.385 c 131.988 135.002 l 131.859 135.873 131.387 137.205 130.941
 137.967 c 120.008 156.62 l 119.562 157.377 119.199 158.721 119.199 159.6
 c 119.199 188.799 l 119.199 188.799 119.102 191.998 124 191.998 c h
124 191.998 m f
0.788235 0.662745 0.470588 rg
118.398 195.998 m 123.301 195.998 123.199 192.401 123.199 192.401 c 123.199
 164.799 l 123.199 163.92 123.734 162.717 124.391 162.131 c 134.801 147.401
 l 135.453 146.811 137.797 144.538 138.398 143.901 c 145 138.799 l 145.605
 138.163 146.566 140.498 146.773 139.643 c 152.152 117.159 l 152.355 116.299
 152.25 114.936 151.914 114.12 c 154.668 109.475 l 154.332 108.663 142.023
 121.6 143.734 111.198 c 129.832 121.58 l 129.266 122.252 128.691 123.514
 128.562 124.381 c 126.387 139.002 l 126.258 139.873 125.785 141.205 125.34
 141.963 c 114.406 160.62 l 113.965 161.377 113.602 162.721 113.602 163.6
 c 113.602 192.799 l 113.602 192.799 113.5 195.998 118.398 195.998 c h
118.398 195.998 m f
0.831373 0.694118 0.494118 rg
110.398 201.6 m 115.301 201.6 115.199 197.998 115.199 197.998 c 115.199
 170.401 l 115.199 169.522 115.734 168.319 116.391 167.729 c 126.801 152.998
 l 127.453 152.413 129.797 150.139 130.398 149.498 c 137 144.401 l 137.605
 143.76 138.566 146.1 138.773 145.245 c 144.152 122.756 l 144.355 121.901
 144.25 120.534 143.914 119.721 c 144.258 109.6 l 143.922 108.788 139.336
 106.53 138.766 107.202 c 121.836 127.182 l 121.266 127.854 120.695 129.112
 120.566 129.983 c 118.387 144.604 l 118.258 145.471 117.789 146.807 117.344
 147.565 c 106.41 166.221 l 105.965 166.979 105.602 168.319 105.602 169.202
 c 105.602 198.401 l 105.602 198.401 105.5 201.6 110.398 201.6 c h
110.398 201.6 m f
0.74902 0.627451 0.447059 rg
286.398 191.998 m 281.5 191.998 281.602 188.401 281.602 188.401 c 281.602
 160.799 l 281.602 159.92 281.066 158.717 280.41 158.131 c 270 143.401 l
 269.344 142.811 267.004 140.538 266.398 139.901 c 259.801 134.799 l 259.195
 134.163 258.234 136.498 258.027 135.643 c 252.648 113.159 l 252.441 112.299
 252.551 110.936 252.883 110.12 c 256.543 115.202 l 256.879 114.385 261.465
 112.131 262.031 112.799 c 274.965 117.58 l 275.535 118.252 276.105 119.514
 276.234 120.385 c 278.41 135.002 l 278.543 135.873 279.012 137.205 279.457
 137.967 c 290.391 156.62 l 290.836 157.377 291.199 158.721 291.199 159.6
 c 291.199 188.799 l 291.199 188.799 291.301 191.998 286.398 191.998 c h
286.398 191.998 m f
0.788235 0.662745 0.470588 rg
292 195.998 m 287.102 195.998 287.199 192.401 287.199 192.401 c 287.199
 164.799 l 287.199 163.92 286.664 162.717 286.012 162.131 c 275.602 147.401
 l 274.945 146.811 272.605 144.538 272 143.901 c 265.398 138.799 l 264.797
 138.163 263.832 140.498 263.629 139.643 c 258.246 117.159 l 258.043 116.299
 258.148 114.936 258.484 114.12 c 255.734 109.475 l 256.066 108.663 268.375
 121.6 266.668 111.198 c 280.566 121.58 l 281.137 122.252 281.707 123.514
 281.836 124.381 c 284.012 139.002 l 284.145 139.873 284.613 141.205 285.059
 141.963 c 295.992 160.62 l 296.438 161.377 296.801 162.721 296.801 163.6
 c 296.801 192.799 l 296.801 192.799 296.898 195.998 292 195.998 c h
292 195.998 m f
0.831373 0.694118 0.494118 rg
300 201.6 m 295.102 201.6 295.199 197.998 295.199 197.998 c 295.199 170.401
 l 295.199 169.522 294.664 168.319 294.012 167.729 c 283.602 152.998 l 282.945
 152.413 280.605 150.139 280 149.498 c 273.398 144.401 l 272.797 143.76 
271.832 146.1 271.629 145.245 c 266.246 122.756 l 266.043 121.901 266.148
 120.534 266.484 119.721 c 266.145 109.6 l 266.477 108.788 271.062 106.53
 271.633 107.202 c 288.566 127.182 l 289.133 127.854 289.707 129.112 289.836
 129.983 c 292.012 144.604 l 292.141 145.471 292.613 146.807 293.059 147.565
 c 303.992 166.221 l 304.434 166.979 304.801 168.323 304.801 169.202 c 304.801
 198.401 l 304.801 198.401 304.898 201.6 300 201.6 c h
300 201.6 m f
0.960784 0.615686 0 rg
160.902 241.94 m 130.691 241.94 108.191 259.748 95.832 293.444 c 86.836
 317.971 86.414 342.112 86.398 343.127 c 86.379 344.623 86.961 346.069 88.012
 347.135 c 89.066 348.202 90.5 348.799 92 348.799 c 144 348.799 l 147.094
 348.799 149.602 346.291 149.602 343.202 c 149.602 340.108 147.094 337.6
 144 337.6 c 97.914 337.6 l 98.562 329.291 100.531 313.057 106.438 297.061
 c 117.199 267.916 135.523 253.139 160.902 253.139 c 163.996 253.139 166.504
 250.635 166.504 247.541 c 166.504 244.448 163.996 241.94 160.902 241.94
 c h
160.902 241.94 m f
0.909804 0.494118 0.0156863 rg
248.695 241.94 m 245.605 241.94 243.098 244.448 243.098 247.541 c 243.098
 250.635 245.605 253.139 248.695 253.139 c 274.148 253.139 292.504 267.998
 303.254 297.299 c 309.109 313.264 311.051 329.346 311.691 337.6 c 265.602
 337.6 l 262.508 337.6 260 340.108 260 343.202 c 260 346.291 262.508 348.799
 265.602 348.799 c 317.602 348.799 l 319.098 348.799 320.535 348.202 321.586
 347.135 c 322.637 346.069 323.219 344.623 323.199 343.127 c 323.188 342.108
 322.766 317.971 313.766 293.444 c 301.41 259.748 278.906 241.94 248.695
 241.94 c h
248.695 241.94 m f
0.956863 0.8 0.12549 rg
204.801 366.401 m 135.199 366.401 l 135.199 366.401 135.199 225.6 193.602
 225.6 c 193.602 201.698 l 204.801 200.799 l h
204.801 366.401 m f
0.960784 0.615686 0 rg
204.801 366.401 m 274.398 366.401 l 274.398 366.401 274.398 225.6 216 225.6
 c 216 201.698 l 204.801 200.799 l h
204.801 366.401 m f
0.2 0.286275 0.372549 rg
287.199 122.401 m 287.199 118.881 284.32 115.998 280.801 115.998 c 129.602
 115.998 l 126.078 115.998 123.199 118.881 123.199 122.401 c 123.199 182.401
 l 123.199 185.92 126.078 188.799 129.602 188.799 c 280.801 188.799 l 284.32
 188.799 287.199 185.92 287.199 182.401 c h
287.199 122.401 m f
0.92549 0.941176 0.945098 rg
268 137.6 m 268 135.838 266.559 134.401 264.801 134.401 c 145.602 134.401
 l 143.84 134.401 142.398 135.838 142.398 137.6 c 142.398 166.401 l 142.398
 168.159 143.84 169.6 145.602 169.6 c 264.801 169.6 l 266.559 169.6 268 
168.159 268 166.401 c h
268 137.6 m f
0.168627 0.243137 0.317647 rg
280.801 188.799 m 204.801 188.799 l 204.801 115.998 l 280.801 115.998 l
 284.32 115.998 287.199 118.881 287.199 122.401 c 287.199 182.401 l 287.199
 185.92 284.32 188.799 280.801 188.799 c h
280.801 188.799 m f
0.956863 0.8 0.12549 rg
204.801 188.799 m 204.801 197.6 l 164.801 197.6 l 164.801 197.6 144 193.057
 144 188.514 c h
204.801 188.799 m f
0.960784 0.615686 0 rg
174.398 204.799 30.402 -7.199 re f
204.801 188.799 m 204.801 197.6 l 244.801 197.6 l 244.801 197.6 265.602
 193.057 265.602 188.514 c h
204.801 188.799 m f
0.909804 0.494118 0.0156863 rg
204.801 204.799 30.398 -7.199 re f
0.741176 0.764706 0.780392 rg
264.801 169.6 m 204.801 169.6 l 204.801 134.401 l 264.801 134.401 l 266.559
 134.401 268 135.838 268 137.6 c 268 166.401 l 268 168.159 266.559 169.6
 264.801 169.6 c h
264.801 169.6 m f
0.92549 0.941176 0.945098 rg
240.801 83.202 48 -11.203 re f
0.741176 0.764706 0.780392 rg
240.801 83.202 24 -11.203 re f
0.2 0.286275 0.372549 rg
236.801 2.495 m 256.547 5.592 275.352 11.51 292.801 19.827 c 292.801 71.998
 l 236.801 71.998 l h
236.801 2.495 m f
0.168627 0.243137 0.317647 rg
236.801 2.495 m 246.371 3.995 255.719 6.163 264.801 8.94 c 264.801 71.998
 l 236.801 71.998 l h
236.801 2.495 m f
0.956863 0.8 0.12549 rg
236.398 245.6 m 235.648 245.6 234.895 245.862 234.289 246.397 c 232.961
 247.565 232.832 249.584 233.996 250.913 c 244.543 262.905 250.055 281.233
 252.824 294.498 c 253.188 296.229 254.879 297.342 256.613 296.979 c 258.344
 296.616 259.453 294.92 259.09 293.194 c 256.164 279.174 250.27 259.725 
238.805 246.686 c 238.172 245.967 237.285 245.6 236.398 245.6 c h
236.398 245.6 m f
258.789 308.725 m 258.676 308.725 258.566 308.729 258.453 308.741 c 256.695
 308.924 255.418 310.495 255.602 312.252 c 255.906 315.194 256.004 316.955
 256.004 316.971 c 256.102 318.737 257.609 320.12 259.371 319.995 c 261.137
 319.901 262.488 318.393 262.395 316.627 c 262.391 316.549 262.289 314.709
 261.965 311.592 c 261.797 309.948 260.406 308.725 258.789 308.725 c h
258.789 308.725 m f
0.92549 0.941176 0.945098 rg
284.555 157.506 m 284.555 155.745 283.125 154.319 281.363 154.319 c 279.602
 154.319 278.172 155.745 278.172 157.506 c 278.172 159.272 279.602 160.698
 281.363 160.698 c 283.125 160.698 284.555 159.272 284.555 157.506 c h
284.555 157.506 m f
0.898039 0.74902 0.533333 rg
307.199 198.401 m 302.301 198.401 302.398 194.799 302.398 194.799 c 302.398
 167.202 l 302.398 166.319 301.863 165.12 301.211 164.53 c 290.801 149.799
 l 290.145 149.209 288.07 144.772 287.465 144.135 c 284.664 142.936 l 285.449
 156.143 l 285.449 156.143 287.305 161.78 281.793 161.78 c 276.277 161.78
 276.531 156.834 276.531 156.834 c 273.445 141.284 l 273.445 141.284 250.066
 139.202 259.496 116.002 c 237.602 116.002 l 249.602 104.002 l 249.602 83.202
 l 279.199 83.202 l 279.199 104.002 l 295.949 123.979 l 296.52 124.651 296.996
 125.913 297.129 126.784 c 299.258 141.401 l 299.391 142.272 299.836 143.608
 300.281 144.366 c 311.203 163.022 l 311.648 163.78 312 165.12 312 166.002
 c 312 195.202 l 312 195.202 312.102 198.401 307.199 198.401 c h
307.199 198.401 m f
0.74902 0.627451 0.447059 rg
259.496 115.998 m 237.602 115.998 l 244.605 108.995 l h
259.496 115.998 m f
0.92549 0.941176 0.945098 rg
284.555 157.506 m 284.555 155.745 283.125 154.319 281.363 154.319 c 279.602
 154.319 278.172 155.745 278.172 157.506 c 278.172 159.272 279.602 160.698
 281.363 160.698 c 283.125 160.698 284.555 159.272 284.555 157.506 c h
284.555 157.506 m f
0.741176 0.764706 0.780392 rg
121.602 83.202 48 -11.203 re f
0.92549 0.941176 0.945098 rg
145.602 83.202 24 -11.203 re f
0.168627 0.243137 0.317647 rg
117.602 19.452 m 135.059 11.225 153.863 5.377 173.602 2.362 c 173.602 71.998
 l 117.602 71.998 l h
117.602 19.452 m f
0.2 0.286275 0.372549 rg
145.602 8.702 m 154.684 5.963 164.031 3.823 173.602 2.362 c 173.602 71.998
 l 145.602 71.998 l h
145.602 8.702 m f
0.92549 0.941176 0.945098 rg
132.227 157.506 m 132.227 155.745 130.797 154.319 129.035 154.319 c 127.273
 154.319 125.844 155.745 125.844 157.506 c 125.844 159.272 127.273 160.698
 129.035 160.698 c 130.797 160.698 132.227 159.272 132.227 157.506 c h
132.227 157.506 m f
0.898039 0.74902 0.533333 rg
103.199 198.401 m 108.102 198.401 108 194.799 108 194.799 c 108 167.202
 l 108 166.319 108.535 165.12 109.191 164.53 c 119.602 149.799 l 120.254
 149.209 122.328 144.772 122.934 144.135 c 125.734 142.936 l 124.949 156.143
 l 124.949 156.143 123.094 161.78 128.609 161.78 c 134.121 161.78 133.871
 156.834 133.871 156.834 c 136.953 141.284 l 136.953 141.284 160.332 139.202
 150.906 116.002 c 172.801 116.002 l 160.801 104.002 l 160.801 83.202 l 
131.199 83.202 l 131.199 104.002 l 114.453 123.979 l 113.883 124.651 113.402
 125.913 113.273 126.784 c 111.141 141.401 l 111.012 142.272 110.562 143.608
 110.121 144.366 c 99.199 163.022 l 98.754 163.78 98.398 165.12 98.398 165.998
 c 98.398 195.202 l 98.398 195.202 98.301 198.401 103.199 198.401 c h
103.199 198.401 m f
0.74902 0.627451 0.447059 rg
150.906 115.998 m 172.801 115.998 l 165.793 108.995 l h
150.906 115.998 m f
0.92549 0.941176 0.945098 rg
132.227 157.506 m 132.227 155.745 130.797 154.319 129.035 154.319 c 127.273
 154.319 125.844 155.745 125.844 157.506 c 125.844 159.272 127.273 160.698
 129.035 160.698 c 130.797 160.698 132.227 159.272 132.227 157.506 c h
132.227 157.506 m f
Q Q
showpage
%%Trailer
end restore
%%EOF
