<?xml version="1.0" encoding="iso-8859-1"?>
<!-- Generator: Adobe Illustrator 19.0.0, SVG Export Plug-In . SVG Version: 6.00 Build 0)  -->
<svg version="1.1" id="Capa_1" xmlns="http://www.w3.org/2000/svg" xmlns:xlink="http://www.w3.org/1999/xlink" x="0px" y="0px"
	 viewBox="0 0 512 512" style="enable-background:new 0 0 512 512;" xml:space="preserve">
<g>
	<polygon style="fill:#F0C419;" points="397.241,105.931 30.897,105.931 30.897,17.655 397.241,17.655 459.034,61.793 	"/>
	<polygon style="fill:#E64C3C;" points="308.966,256 30.897,256 30.897,167.724 308.966,167.724 370.759,211.862 	"/>
	<polygon style="fill:#CC66A1;" points="432.552,406.069 30.897,406.069 30.897,317.793 432.552,317.793 494.345,361.931 	"/>
	<polygon style="fill:#3B97D3;" points="52.966,459.034 52.966,0 0,0 0,476.69 0,512 35.31,512 512,512 512,459.034 	"/>
</g>
<g>
</g>
<g>
</g>
<g>
</g>
<g>
</g>
<g>
</g>
<g>
</g>
<g>
</g>
<g>
</g>
<g>
</g>
<g>
</g>
<g>
</g>
<g>
</g>
<g>
</g>
<g>
</g>
<g>
</g>
</svg>
