<?xml version="1.0" encoding="iso-8859-1"?>
<!-- Generator: Adobe Illustrator 19.0.0, SVG Export Plug-In . SVG Version: 6.00 Build 0)  -->
<svg version="1.1" id="Capa_1" xmlns="http://www.w3.org/2000/svg" xmlns:xlink="http://www.w3.org/1999/xlink" x="0px" y="0px"
	 viewBox="0 0 512.107 512.107" style="enable-background:new 0 0 512.107 512.107;" xml:space="preserve">
<g transform="translate(-1)">
	<path style="fill:#4482C3;" d="M257.105,0.001C153.534-0.018,60.151,62.359,20.507,158.042S2.767,363.868,76.002,437.104
		s183.379,95.139,279.062,55.495s158.06-133.027,158.041-236.598c0.219-67.962-26.682-133.205-74.739-181.261
		S325.068-0.218,257.105,0.001z"/>
	<path style="fill:#F0C419;" d="M438.159,437.055c-47.972,48.082-113.133,75.055-181.054,74.947V256.001L438.159,437.055z"/>
	<path style="fill:#24AE5F;" d="M513.106,256.001c0.109,67.92-26.865,133.082-74.947,181.054L257.105,256.001H513.106z"/>
	<path style="fill:#CC4B4C;" d="M513.105,256.001h-256v-256c67.899-0.011,133.02,26.956,181.032,74.968
		S513.117,188.102,513.105,256.001z"/>
	<path style="fill:#CC66A1;" d="M257.105,0.001v256.001L76.051,74.947C124.024,26.865,189.185-0.108,257.105,0.001z"/>
</g>
<g>
</g>
<g>
</g>
<g>
</g>
<g>
</g>
<g>
</g>
<g>
</g>
<g>
</g>
<g>
</g>
<g>
</g>
<g>
</g>
<g>
</g>
<g>
</g>
<g>
</g>
<g>
</g>
<g>
</g>
</svg>
